https://www.CryptoDataDownload.com
unix,date,symbol,open,high,low,close,Volume AAVE,Volume USD
1694822400,2023-09-16,AAVE/USD,58.0,58.0,58.0,58.0,0.22,12.76
1694390400,2023-09-11,AAVE/USD,53.0,53.0,52.5,52.5,1.167479,61.292647499999994
1694304000,2023-09-10,AAVE/USD,53.89,53.89,53.89,53.89,0.22,11.8558
1693958400,2023-09-06,AAVE/USD,54.9,55.6,54.9,55.6,1.48,82.288
1693353600,2023-08-30,AAVE/USD,59.0,59.0,59.0,59.0,0.809406,47.754954
1693267200,2023-08-29,AAVE/USD,56.88,56.88,56.88,56.88,0.505557,28.756082160000002
1692576000,2023-08-21,AAVE/USD,55.59,55.59,55.59,55.59,0.2,11.118000000000002
1692144000,2023-08-16,AAVE/USD,62.36,62.8,60.0,60.0,2.2117,132.702
1690761600,2023-07-31,AAVE/USD,67.0,67.0,65.0,65.0,6.59,428.34999999999997
1689984000,2023-07-22,AAVE/USD,74.2,74.2,74.2,74.2,3.0,222.60000000000002
1689465600,2023-07-16,AAVE/USD,77.77,77.77,77.77,77.77,0.577777,44.93371729
1689292800,2023-07-14,AAVE/USD,79.97,85.6,79.97,85.6,3.0508,261.14848
1688428800,2023-07-04,AAVE/USD,78.5,78.5,78.5,78.5,1.0,78.5
1688256000,2023-07-02,AAVE/USD,71.41,71.41,71.41,71.41,0.6,42.846
1688083200,2023-06-30,AAVE/USD,63.08,63.08,63.08,63.08,3.932,248.03055999999998
1687651200,2023-06-25,AAVE/USD,62.88,75.85,62.88,75.85,12.0831,916.5031349999999
1686960000,2023-06-17,AAVE/USD,51.84,51.84,51.84,51.84,0.2,10.368000000000002
1686787200,2023-06-15,AAVE/USD,52.87,53.01,52.87,53.01,9.161,485.62460999999996
1686355200,2023-06-10,AAVE/USD,50.0,50.0,50.0,50.0,0.2,10.0
1684886400,2023-05-24,AAVE/USD,62.95,62.95,62.95,62.95,0.24,15.108
1684281600,2023-05-17,AAVE/USD,62.46,62.46,62.46,62.46,0.3,18.738
1683849600,2023-05-12,AAVE/USD,62.5,62.5,62.5,62.5,0.4956,30.974999999999998
1683504000,2023-05-08,AAVE/USD,63.63,63.63,63.0,63.0,0.493553,31.093839000000003
1683417600,2023-05-07,AAVE/USD,68.5,68.5,68.5,68.5,0.472694,32.379539
1683331200,2023-05-06,AAVE/USD,63.1,63.1,63.01,63.01,0.822694,51.837948940000004
1683158400,2023-05-04,AAVE/USD,67.87,67.87,67.87,67.87,0.047518,3.22504666
1682899200,2023-05-01,AAVE/USD,71.45,71.45,67.87,67.87,0.308482,20.93667334
1682812800,2023-04-30,AAVE/USD,69.22,70.0,69.22,70.0,3.113357,217.93499
1682726400,2023-04-29,AAVE/USD,76.0,76.0,76.0,76.0,1.506447,114.48997200000001
1682121600,2023-04-22,AAVE/USD,72.0,72.0,72.0,72.0,0.577445,41.57604
1682035200,2023-04-21,AAVE/USD,70.12,70.12,69.37,69.37,3.1665,219.66010500000002
1681862400,2023-04-19,AAVE/USD,81.61,81.61,75.0,75.0,13.298863,997.4147250000001
1681776000,2023-04-18,AAVE/USD,80.0,80.0,80.0,80.0,0.219269,17.54152
1681689600,2023-04-17,AAVE/USD,75.17,81.0,75.16,81.0,2.00944,162.76464
1681430400,2023-04-14,AAVE/USD,81.79,82.0,77.0,82.0,81.808,6708.256
1681257600,2023-04-12,AAVE/USD,80.24,81.91,69.37,81.91,2.077588,170.17523308
1681171200,2023-04-11,AAVE/USD,69.37,69.37,69.37,69.37,0.304966,21.155491420000004
1680825600,2023-04-07,AAVE/USD,69.78,77.0,59.1,77.0,1.928044,148.45938800000002
1680739200,2023-04-06,AAVE/USD,75.19,77.0,75.0,75.0,4.354314,326.57354999999995
1680566400,2023-04-04,AAVE/USD,78.0,78.0,78.0,78.0,40.861968,3187.233504
1679961600,2023-03-28,AAVE/USD,78.03,92.0,77.0,77.0,3.955218,304.551786
1679788800,2023-03-26,AAVE/USD,69.37,69.37,69.37,69.37,0.436,30.245320000000003
1679702400,2023-03-25,AAVE/USD,73.01,73.01,73.0,73.0,1.27,92.71000000000001
1679443200,2023-03-22,AAVE/USD,73.01,73.01,73.01,73.01,0.13,9.4913
1679184000,2023-03-19,AAVE/USD,73.0,73.0,73.0,73.0,0.3,21.9
1679011200,2023-03-17,AAVE/USD,75.0,75.0,75.0,75.0,0.2,15.0
1678838400,2023-03-15,AAVE/USD,69.37,77.0,69.37,77.0,2.551494,196.465038
1678752000,2023-03-14,AAVE/USD,77.0,77.0,77.0,77.0,0.4225,32.5325
1678665600,2023-03-13,AAVE/USD,69.37,69.37,59.0,69.37,3.071644,213.07994428
1678579200,2023-03-12,AAVE/USD,69.37,72.14,69.37,72.14,0.3127,22.558177999999998
1678320000,2023-03-09,AAVE/USD,72.2,72.2,69.37,69.37,5.509568,382.19873216
1678233600,2023-03-08,AAVE/USD,72.2,72.2,72.2,72.2,0.351,25.3422
1677801600,2023-03-03,AAVE/USD,77.55,79.0,71.25,71.25,14.609914,1040.9563725
1677628800,2023-03-01,AAVE/USD,77.55,77.55,77.55,77.55,0.558123,43.28243865
1677196800,2023-02-24,AAVE/USD,82.0,82.0,82.0,82.0,1.5,123.0
1676937600,2023-02-21,AAVE/USD,90.0,90.0,90.0,90.0,3.0,270.0
1676764800,2023-02-19,AAVE/USD,92.98,94.0,92.98,94.0,10.198,958.6120000000001
1676678400,2023-02-18,AAVE/USD,90.0,90.0,90.0,90.0,2.00091,180.08190000000002
1676592000,2023-02-17,AAVE/USD,89.99,89.99,89.99,89.99,0.11079,9.969992099999999
1676505600,2023-02-16,AAVE/USD,89.99,90.0,89.99,90.0,4.638,417.42
1676419200,2023-02-15,AAVE/USD,88.0,88.0,77.0,88.0,0.43,37.839999999999996
1676332800,2023-02-14,AAVE/USD,69.6,89.0,69.6,89.0,8.094587,720.4182430000001
1676246400,2023-02-13,AAVE/USD,82.0,82.0,69.59,69.59,5.0,347.95000000000005
1676160000,2023-02-12,AAVE/USD,76.5,76.5,76.5,76.5,0.49,37.485
1676073600,2023-02-11,AAVE/USD,77.5,77.5,41.1,77.0,40.472661,3116.394897
1675900800,2023-02-09,AAVE/USD,85.0,85.0,77.5,77.5,9.095107,704.8707925
1675814400,2023-02-08,AAVE/USD,81.0,81.0,81.0,81.0,0.303558,24.588198
1675468800,2023-02-04,AAVE/USD,91.01,91.01,91.0,91.0,8.0,728.0
1675382400,2023-02-03,AAVE/USD,79.01,91.0,79.01,91.0,10.263,933.933
1675296000,2023-02-02,AAVE/USD,87.01,87.02,86.0,86.0,24.489897,2106.1311419999997
1675209600,2023-02-01,AAVE/USD,90.98,90.98,90.98,90.98,33.020246,3004.1819810800002
1675123200,2023-01-31,AAVE/USD,87.99,90.98,78.01,78.01,30.0115,2341.1971150000004
1675036800,2023-01-30,AAVE/USD,81.0,81.0,81.0,81.0,0.941016,76.222296
1674950400,2023-01-29,AAVE/USD,78.0,94.8,78.0,94.8,1.200999,113.85470519999998
1674864000,2023-01-28,AAVE/USD,78.0,78.0,78.0,78.0,0.700397,54.630966
1674691200,2023-01-26,AAVE/USD,94.86,94.86,94.86,94.86,0.985179,93.45407994
1674518400,2023-01-24,AAVE/USD,77.03,77.03,77.03,77.03,0.599042,46.14420526
1674172800,2023-01-20,AAVE/USD,85.7,85.7,85.7,85.7,2.212,189.56840000000003
1674000000,2023-01-18,AAVE/USD,78.68,78.68,77.01,77.01,9.70851,747.6523551000001
1673913600,2023-01-17,AAVE/USD,75.65,90.0,75.65,89.99,17.648839,1588.2190216099998
1673827200,2023-01-16,AAVE/USD,85.46,85.46,69.38,78.67,3.638556,286.24520052
1673740800,2023-01-15,AAVE/USD,79.99,80.0,79.99,80.0,0.762174,60.97392
1673654400,2023-01-14,AAVE/USD,75.0,80.0,75.0,80.0,1.831556,146.52447999999998
1673568000,2023-01-13,AAVE/USD,69.36,70.0,62.51,70.0,4.347503,304.32520999999997
1673481600,2023-01-12,AAVE/USD,65.99,67.0,65.99,67.0,3.047307,204.169569
1673395200,2023-01-11,AAVE/USD,65.99,65.99,65.99,65.99,1.3,85.78699999999999
1673308800,2023-01-10,AAVE/USD,59.77,60.91,59.77,60.91,0.778995,47.448585449999996
1673222400,2023-01-09,AAVE/USD,59.75,62.5,59.75,62.49,4.398883,274.88619867
1672963200,2023-01-06,AAVE/USD,52.56,58.49,52.56,58.49,2.63036,153.84975640000002
1672790400,2023-01-04,AAVE/USD,52.56,59.6,52.56,59.6,3.353109,199.8452964
1672704000,2023-01-03,AAVE/USD,57.47,57.47,52.55,52.55,24.406719,1282.5730834499998
1672617600,2023-01-02,AAVE/USD,57.47,57.47,57.47,57.47,0.13,7.4711
1672358400,2022-12-30,AAVE/USD,55.0,55.0,52.0,52.0,0.573679,29.831308000000003
1672272000,2022-12-29,AAVE/USD,55.0,55.0,55.0,55.0,0.80612,44.3366
1672099200,2022-12-27,AAVE/USD,58.59,62.0,50.73,61.99,7.278373,451.18634227
1671926400,2022-12-25,AAVE/USD,50.74,50.74,50.74,50.74,1.164655,59.0945947
1671408000,2022-12-19,AAVE/USD,50.81,62.49,50.81,62.49,3.328846,208.01958654
1671235200,2022-12-17,AAVE/USD,50.74,50.74,50.74,50.74,2.367355,120.1195927
1671148800,2022-12-16,AAVE/USD,56.31,56.31,56.31,56.31,0.4289,24.151359000000003
1671062400,2022-12-15,AAVE/USD,65.0,65.0,65.0,65.0,7.69,499.85
1670976000,2022-12-14,AAVE/USD,57.48,57.48,57.48,57.48,1.0935,62.85437999999999
1670803200,2022-12-12,AAVE/USD,60.0,60.0,60.0,60.0,1.361535,81.6921
1670716800,2022-12-11,AAVE/USD,60.0,60.0,60.0,60.0,2.638465,158.30790000000002
1670630400,2022-12-10,AAVE/USD,67.99,67.99,67.99,67.99,5.0,339.95
1670371200,2022-12-07,AAVE/USD,60.01,60.91,60.01,60.01,0.727064,43.63111064
1670025600,2022-12-03,AAVE/USD,65.0,65.0,63.0,63.0,8.3,522.9000000000001
1669939200,2022-12-02,AAVE/USD,59.01,69.36,59.01,69.36,1.538926,106.73990736
1669852800,2022-12-01,AAVE/USD,57.47,60.91,57.47,60.91,0.52,31.673199999999998
1669766400,2022-11-30,AAVE/USD,61.0,69.36,57.48,69.36,0.580999,40.298090640000005
1669593600,2022-11-28,AAVE/USD,58.03,58.03,58.03,58.03,0.165,9.574950000000001
1669507200,2022-11-27,AAVE/USD,62.49,62.49,61.0,61.0,24.203242,1476.397762
1669248000,2022-11-24,AAVE/USD,53.14,53.14,53.14,53.14,0.22774,12.1021036
1669161600,2022-11-23,AAVE/USD,57.47,57.47,57.47,57.47,0.259606,14.91955682
1669075200,2022-11-22,AAVE/USD,53.14,57.47,50.73,57.47,5.268928,302.80529215999996
1668988800,2022-11-21,AAVE/USD,55.26,55.26,55.26,55.26,0.2117,11.698542
1668902400,2022-11-20,AAVE/USD,57.75,57.75,57.75,57.75,0.000371,0.02142525
1668816000,2022-11-19,AAVE/USD,58.07,58.07,55.71,57.75,0.720984,41.636826
1668643200,2022-11-17,AAVE/USD,57.57,57.78,57.57,57.78,5.225023,301.90182894000003
1668556800,2022-11-16,AAVE/USD,58.36,58.36,58.36,58.36,1.295453,75.60263708
1668470400,2022-11-15,AAVE/USD,62.49,62.5,51.01,62.5,1.286471,80.4044375
1668384000,2022-11-14,AAVE/USD,56.31,58.62,54.15,58.62,10.456543,612.9625506599999
1668297600,2022-11-13,AAVE/USD,59.76,59.77,56.31,56.31,5.248682,295.55328342
1668211200,2022-11-12,AAVE/USD,62.0,69.36,57.47,59.13,8.953149,529.39970037
1668124800,2022-11-11,AAVE/USD,66.56,71.99,60.86,60.86,38.55608,2346.5230288000002
1668038400,2022-11-10,AAVE/USD,60.11,69.68,60.1,67.17,33.916565,2278.17567105
1667952000,2022-11-09,AAVE/USD,73.59,76.74,62.5,62.5,11.999534,749.9708750000001
1667865600,2022-11-08,AAVE/USD,85.47,86.35,69.37,72.49,15.682424,1136.8189157599998
1667779200,2022-11-07,AAVE/USD,86.05,86.05,85.47,85.47,2.778694,237.49497618
1667692800,2022-11-06,AAVE/USD,98.13,98.96,87.0,87.0,3.722623,323.868201
1667606400,2022-11-05,AAVE/USD,95.05,100.0,83.03,94.81,12.827878,1216.21111318
1667520000,2022-11-04,AAVE/USD,84.2,96.0,84.2,90.74,7.118653,645.94657322
1667433600,2022-11-03,AAVE/USD,84.9,84.9,84.9,84.9,0.440282,37.379941800000005
1667347200,2022-11-02,AAVE/USD,84.53,85.37,79.63,79.63,86.799018,6911.80580334
1667260800,2022-11-01,AAVE/USD,83.79,85.73,83.79,84.54,25.379431,2145.5770967400003
1667174400,2022-10-31,AAVE/USD,83.74,86.52,82.71,83.69,45.485962,3806.72015978
1667088000,2022-10-30,AAVE/USD,84.97,86.39,83.7,83.7,20.600216,1724.2380792000001
1667001600,2022-10-29,AAVE/USD,84.49,86.8,84.15,84.87,34.893574,2961.41762538
1666915200,2022-10-28,AAVE/USD,81.6,84.61,80.94,84.42,48.336727,4080.5864933400003
1666828800,2022-10-27,AAVE/USD,94.86,94.86,79.95,81.64,105.748763,8633.32901132
1666742400,2022-10-26,AAVE/USD,83.65,83.86,83.64,83.85,3.140698,263.34752729999997
1666656000,2022-10-25,AAVE/USD,84.68,85.5,82.0,82.0,20.451115,1676.99143
1666569600,2022-10-24,AAVE/USD,85.47,88.01,85.47,86.35,2.17269,187.61178149999998
1666483200,2022-10-23,AAVE/USD,81.84,85.47,81.07,85.47,2.701345,230.88395715
1666396800,2022-10-22,AAVE/USD,83.05,83.05,83.05,83.05,0.600602,49.87999609999999
1666310400,2022-10-21,AAVE/USD,81.16,81.61,80.8,81.61,1.48734,121.3818174
1666224000,2022-10-20,AAVE/USD,82.3,82.3,72.1,80.79,13.351538,1078.6707550200001
1666137600,2022-10-19,AAVE/USD,82.15,84.95,82.15,84.95,4.85875,412.7508125
1666051200,2022-10-18,AAVE/USD,79.2,94.86,79.2,83.0,22.930518,1903.232994
1665964800,2022-10-17,AAVE/USD,74.0,80.0,74.0,78.87,8.299196,654.5575885200001
1665878400,2022-10-16,AAVE/USD,73.1,73.1,71.86,71.86,0.941487,67.65525582
1665705600,2022-10-14,AAVE/USD,73.05,73.05,71.76,72.35,1.759081,127.26951034999998
1665619200,2022-10-13,AAVE/USD,69.0,71.5,68.99,71.5,8.655862,618.894133
1665273600,2022-10-09,AAVE/USD,79.55,79.55,79.55,79.55,0.125329,9.96992195
1665187200,2022-10-08,AAVE/USD,79.43,79.43,75.28,75.28,0.731159,55.04164952
1665100800,2022-10-07,AAVE/USD,77.32,77.32,76.75,76.75,1.159093,88.96038775
1665014400,2022-10-06,AAVE/USD,79.26,79.26,79.26,79.26,0.153551,12.17045226
1664928000,2022-10-05,AAVE/USD,76.44,76.44,76.44,76.44,0.227375,17.380544999999998
1664841600,2022-10-04,AAVE/USD,78.5,79.0,78.5,79.0,2.051301,162.05277900000002
1664755200,2022-10-03,AAVE/USD,75.28,75.28,75.28,75.28,0.193502,14.566830560000001
1664668800,2022-10-02,AAVE/USD,74.62,74.62,74.62,74.62,0.216785,16.1764967
1664582400,2022-10-01,AAVE/USD,73.56,73.56,73.56,73.56,2.599221,191.19869676000002
1664496000,2022-09-30,AAVE/USD,76.84,77.96,74.93,77.96,15.047617,1173.11222132
1664409600,2022-09-29,AAVE/USD,76.78,76.78,76.76,76.76,1.166009,89.50285084000001
1664323200,2022-09-28,AAVE/USD,73.9,78.69,73.9,78.69,0.692019,54.45497511
1664236800,2022-09-27,AAVE/USD,76.39,78.82,75.51,75.51,0.854934,64.55606634
1664150400,2022-09-26,AAVE/USD,86.16,112.69,72.95,75.6,10.942789,827.2748483999999
1664064000,2022-09-25,AAVE/USD,75.34,99.99,65.0,76.16,17.12793,1304.4631487999998
1663977600,2022-09-24,AAVE/USD,75.12,76.07,74.74,74.74,7.180068,536.63828232
1663891200,2022-09-23,AAVE/USD,77.11,84.9,73.8,73.9,3.405861,251.6931279
1663804800,2022-09-22,AAVE/USD,74.36,85.0,74.36,76.02,6.191904,470.70854208
1663718400,2022-09-21,AAVE/USD,73.99,73.99,72.63,72.63,3.277494,238.04438921999997
1663545600,2022-09-19,AAVE/USD,73.04,75.0,73.04,75.0,4.723333,354.249975
1663459200,2022-09-18,AAVE/USD,81.23,81.47,65.73,65.73,50.31567,3307.2489891
1663372800,2022-09-17,AAVE/USD,79.23,81.28,79.23,81.27,27.500759,2234.98668393
1663286400,2022-09-16,AAVE/USD,78.4,80.17,77.17,79.19,128.931929,10210.11945751
1663200000,2022-09-15,AAVE/USD,83.45,83.75,77.92,78.49,101.918788,7999.60567012
1663113600,2022-09-14,AAVE/USD,83.0,85.64,81.85,83.55,55.204389,4612.32670095
1663027200,2022-09-13,AAVE/USD,90.71,92.94,82.96,82.96,97.650248,8101.06457408
1662940800,2022-09-12,AAVE/USD,91.11,96.24,89.8,90.68,67.928742,6159.77832456
1662854400,2022-09-11,AAVE/USD,93.31,93.88,89.88,91.16,40.746758,3714.47445928
1662768000,2022-09-10,AAVE/USD,90.88,93.42,90.38,93.27,75.287986,7022.11045422
1662681600,2022-09-09,AAVE/USD,88.27,93.49,88.27,90.96,46.2729,4208.982983999999
1662595200,2022-09-08,AAVE/USD,87.72,89.43,86.25,88.21,62.304493,5495.8793275299995
1662508800,2022-09-07,AAVE/USD,83.85,88.71,82.55,87.68,90.860158,7966.61865344
1662422400,2022-09-06,AAVE/USD,91.25,93.27,83.56,83.91,80.319805,6739.63483755
1662336000,2022-09-05,AAVE/USD,88.46,91.2,87.2,91.2,25.553492,2330.4784704
1662249600,2022-09-04,AAVE/USD,86.76,88.44,86.46,88.37,17.387113,1536.49917581
1662163200,2022-09-03,AAVE/USD,88.26,88.31,85.31,86.71,35.278954,3059.0381013399997
1662076800,2022-09-02,AAVE/USD,86.31,91.43,85.42,88.32,71.947621,6354.413886719999
1661990400,2022-09-01,AAVE/USD,85.15,86.55,82.83,86.4,58.563211,5059.8614304
1661904000,2022-08-31,AAVE/USD,84.92,88.33,84.92,85.14,59.67645,5080.8529530000005
1661817600,2022-08-30,AAVE/USD,85.85,87.58,81.87,84.87,82.370567,6990.7900212899995
1661731200,2022-08-29,AAVE/USD,78.82,85.79,78.34,85.79,52.950088,4542.588049520001
1661644800,2022-08-28,AAVE/USD,82.19,83.05,78.95,78.95,48.161927,3802.38413665
1661558400,2022-08-27,AAVE/USD,82.43,83.12,80.81,82.26,59.267855,4875.3737523
1661472000,2022-08-26,AAVE/USD,93.71,93.91,82.26,82.5,119.146019,9829.5465675
1661385600,2022-08-25,AAVE/USD,88.88,95.04,88.21,93.75,73.351621,6876.7144687499995
1661299200,2022-08-24,AAVE/USD,89.53,91.53,87.05,88.84,59.124363,5252.60840892
1661212800,2022-08-23,AAVE/USD,88.23,90.61,85.44,89.58,76.983607,6896.191515060001
1661126400,2022-08-22,AAVE/USD,86.13,88.25,82.51,88.25,97.704571,8622.42839075
1661040000,2022-08-21,AAVE/USD,82.91,86.59,82.12,86.23,105.573632,9103.61428736
1660953600,2022-08-20,AAVE/USD,83.66,86.56,80.57,82.82,74.642036,6181.85342152
1660867200,2022-08-19,AAVE/USD,95.3,95.3,83.51,83.61,182.533429,15261.619998690001
1660780800,2022-08-18,AAVE/USD,100.06,101.03,95.35,95.35,60.255048,5745.318826799999
1660694400,2022-08-17,AAVE/USD,109.74,112.01,100.02,100.14,75.128602,7523.37820428
1660608000,2022-08-16,AAVE/USD,107.18,109.79,106.14,109.79,72.842857,7997.41727003
1660521600,2022-08-15,AAVE/USD,107.5,111.92,104.34,107.23,85.866208,9207.433483840001
1660435200,2022-08-14,AAVE/USD,110.43,112.94,106.56,107.63,36.421594,3920.05616222
1660348800,2022-08-13,AAVE/USD,114.66,115.37,110.4,110.55,30.229245,3341.84303475
1660262400,2022-08-12,AAVE/USD,107.22,114.66,105.78,114.66,50.018797,5735.15526402
1660176000,2022-08-11,AAVE/USD,110.62,113.52,106.64,107.06,163.420789,17495.82967034
1660089600,2022-08-10,AAVE/USD,98.19,112.51,95.2,110.75,129.009776,14287.832691999998
1660003200,2022-08-09,AAVE/USD,102.61,102.92,96.14,98.28,81.702883,8029.75934124
1659916800,2022-08-08,AAVE/USD,101.75,106.28,101.75,102.56,53.72573,5510.1108688
1659830400,2022-08-07,AAVE/USD,99.37,103.97,98.0,101.75,30.090028,3061.660349
1659744000,2022-08-06,AAVE/USD,102.83,102.94,99.44,99.48,29.110976,2895.9598924800002
1659657600,2022-08-05,AAVE/USD,96.52,103.38,96.52,102.82,78.551525,8076.667800499999
1659571200,2022-08-04,AAVE/USD,95.06,99.0,94.39,96.41,71.286564,6872.73763524
1659484800,2022-08-03,AAVE/USD,93.76,100.52,92.3,95.06,83.940878,7979.41986268
1659398400,2022-08-02,AAVE/USD,96.63,98.85,89.11,93.75,144.571761,13553.602593750002
1659312000,2022-08-01,AAVE/USD,98.07,99.86,95.18,96.68,73.08723,7066.073396400001
1659225600,2022-07-31,AAVE/USD,94.86,108.89,94.7,98.06,174.427802,17104.39026412
1659139200,2022-07-30,AAVE/USD,96.05,100.25,94.21,94.9,97.550422,9257.5350478
1659052800,2022-07-29,AAVE/USD,100.34,101.91,94.44,96.05,168.82949,16216.0725145
1658966400,2022-07-28,AAVE/USD,94.38,103.07,90.38,100.39,171.871826,17254.21261214
1658880000,2022-07-27,AAVE/USD,80.94,95.11,78.09,94.46,145.640033,13757.157517179998
1658793600,2022-07-26,AAVE/USD,81.92,82.48,77.03,80.95,147.993717,11980.091391150001
1658707200,2022-07-25,AAVE/USD,90.81,91.02,82.08,82.08,165.136179,13554.37757232
1658620800,2022-07-24,AAVE/USD,89.49,93.1,88.72,90.76,120.588172,10944.58249072
1658534400,2022-07-23,AAVE/USD,89.41,92.58,85.62,89.44,86.081082,7699.091974079999
1658448000,2022-07-22,AAVE/USD,95.42,96.02,88.8,89.51,68.496843,6131.15241693
1658361600,2022-07-21,AAVE/USD,90.89,97.16,87.37,95.53,178.502535,17052.34716855
1658275200,2022-07-20,AAVE/USD,96.0,100.95,90.01,90.82,180.118647,16358.37552054
1658188800,2022-07-19,AAVE/USD,96.65,101.86,92.69,96.09,177.541994,17060.01020346
1658102400,2022-07-18,AAVE/USD,88.31,98.94,88.21,96.7,159.230187,15397.559082900001
1658016000,2022-07-17,AAVE/USD,92.48,92.53,85.0,88.41,169.535291,14988.61507731
1657929600,2022-07-16,AAVE/USD,89.0,95.65,89.0,95.0,7.00665,665.63175
1657843200,2022-07-15,AAVE/USD,90.6,97.0,87.35,91.58,9.220804,844.4412303199999
1657756800,2022-07-14,AAVE/USD,79.49,93.14,77.34,90.97,66.736412,6071.0113996400005
1657670400,2022-07-13,AAVE/USD,68.0,83.32,68.0,77.97,8.739501,681.41889297
1657584000,2022-07-12,AAVE/USD,69.03,70.64,66.99,69.0,11.009848,759.679512
1657497600,2022-07-11,AAVE/USD,77.46,77.9,65.32,65.32,140.687103,9189.68156796
1657411200,2022-07-10,AAVE/USD,79.68,90.0,71.82,77.53,89.838855,6965.20642815
1657324800,2022-07-09,AAVE/USD,76.0,89.8,75.12,82.9,31.02946,2572.342234
1657238400,2022-07-08,AAVE/USD,72.2,73.78,71.6,71.66,85.313583,6113.57135778
1657152000,2022-07-07,AAVE/USD,62.22,71.0,62.22,69.49,10.910051,758.1394439899999
1657065600,2022-07-06,AAVE/USD,62.27,62.5,61.94,62.5,4.214208,263.38800000000003
1656979200,2022-07-05,AAVE/USD,62.03,62.03,58.87,61.96,7.919814,490.71167543999996
1656892800,2022-07-04,AAVE/USD,59.13,61.5,57.18,61.5,12.806213,787.5820995
1656720000,2022-07-02,AAVE/USD,53.45,57.13,53.45,57.13,2.133029,121.85994677000001
1656633600,2022-07-01,AAVE/USD,56.65,58.89,54.6,56.47,17.3453,979.489091
1656547200,2022-06-30,AAVE/USD,58.48,58.48,52.56,56.86,82.01971,4663.640710600001
1656460800,2022-06-29,AAVE/USD,59.13,60.21,57.29,60.21,255.814859,15402.612660390001
1656374400,2022-06-28,AAVE/USD,67.78,67.78,60.48,60.48,19.971252,1207.8613209599998
1656288000,2022-06-27,AAVE/USD,67.61,77.23,65.0,65.0,10.957948,712.26662
1656201600,2022-06-26,AAVE/USD,70.0,87.5,67.65,69.74,7.47197,521.0951878
1656115200,2022-06-25,AAVE/USD,72.94,73.32,70.82,70.82,2.16491,153.31892619999996
1656028800,2022-06-24,AAVE/USD,68.71,69.98,67.7,69.98,6.870638,480.80724724
1655942400,2022-06-23,AAVE/USD,61.98,69.77,61.98,67.26,5.999349,403.51621374
1655856000,2022-06-22,AAVE/USD,66.82,66.82,61.98,61.98,10.3681,642.614838
1655769600,2022-06-21,AAVE/USD,61.77,97.0,45.0,67.81,121.01939,8206.3248359
1655683200,2022-06-20,AAVE/USD,53.31,63.96,51.21,59.0,73.077093,4311.548487
1655596800,2022-06-19,AAVE/USD,50.19,57.3,46.5,52.44,31.714256,1663.09558464
1655510400,2022-06-18,AAVE/USD,58.36,58.52,46.11,48.23,83.301524,4017.63250252
1655424000,2022-06-17,AAVE/USD,55.13,58.42,54.71,55.67,17.843592,993.3527666400001
1655337600,2022-06-16,AAVE/USD,62.52,65.37,58.39,58.39,5.127972,299.42228508
1655251200,2022-06-15,AAVE/USD,59.69,67.2,51.0,67.2,25.083988,1685.6439936000002
1655164800,2022-06-14,AAVE/USD,60.28,101.19,55.59,61.13,140.99521,8619.0371873
1655078400,2022-06-13,AAVE/USD,70.74,98.02,51.0,57.81,179.351344,10368.30119664
1654992000,2022-06-12,AAVE/USD,77.05,77.41,69.63,70.62,257.704342,18199.08063204
1654905600,2022-06-11,AAVE/USD,87.8,88.64,75.62,76.96,206.609546,15900.670660159998
1654819200,2022-06-10,AAVE/USD,95.89,96.59,85.75,87.72,305.370678,26787.11587416
1654732800,2022-06-09,AAVE/USD,96.53,99.11,94.63,95.78,85.320525,8171.9998845
1654646400,2022-06-08,AAVE/USD,99.6,101.47,95.89,96.64,95.517235,9230.7855904
1654560000,2022-06-07,AAVE/USD,105.8,105.85,96.43,99.7,142.355853,14192.8785441
1654473600,2022-06-06,AAVE/USD,104.07,111.42,104.07,105.85,99.546322,10536.9781837
1654387200,2022-06-05,AAVE/USD,106.47,106.83,103.77,104.02,56.68577,5896.4537954
1654300800,2022-06-04,AAVE/USD,106.82,107.36,103.12,106.35,68.137331,7246.40515185
1654214400,2022-06-03,AAVE/USD,111.07,112.77,104.46,106.87,173.304118,18521.01109066
1654128000,2022-06-02,AAVE/USD,106.4,111.51,103.62,111.2,153.798095,17102.348164
1654041600,2022-06-01,AAVE/USD,113.28,120.38,101.68,106.53,274.335843,29224.99735479
1653955200,2022-05-31,AAVE/USD,117.68,123.49,112.5,113.22,302.1989,34214.959458
1653868800,2022-05-30,AAVE/USD,94.97,122.29,94.87,117.55,275.912625,32433.52906875
1653782400,2022-05-29,AAVE/USD,95.53,96.6,92.27,95.02,56.281195,5347.8391489
1653696000,2022-05-28,AAVE/USD,92.46,96.53,91.17,95.48,86.96317,8303.2434716
1653609600,2022-05-27,AAVE/USD,101.2,101.31,90.15,92.41,335.697816,31021.83517656
1653523200,2022-05-26,AAVE/USD,102.14,105.4,93.03,101.16,340.719063,34467.14041308
1653436800,2022-05-25,AAVE/USD,106.59,107.44,98.58,102.09,176.044751,17972.408629589998
1653350400,2022-05-24,AAVE/USD,99.64,107.74,93.74,106.65,226.9487,24204.078855
1653264000,2022-05-23,AAVE/USD,94.28,109.28,92.45,99.64,284.717183,28369.22011412
1653177600,2022-05-22,AAVE/USD,91.45,96.37,90.98,94.29,167.927733,15833.90594457
1653091200,2022-05-21,AAVE/USD,90.28,92.64,89.04,91.5,117.736468,10772.886822
1653004800,2022-05-20,AAVE/USD,91.59,97.6,85.1,90.24,240.684111,21719.334176639997
1652918400,2022-05-19,AAVE/USD,81.63,91.49,79.58,91.49,253.614489,23203.18959861
1652832000,2022-05-18,AAVE/USD,92.43,96.11,81.59,81.59,278.932469,22758.100145710003
1652745600,2022-05-17,AAVE/USD,84.39,93.24,84.39,92.38,185.554491,17141.52387858
1652659200,2022-05-16,AAVE/USD,91.9,91.9,81.71,84.35,190.072296,16032.5981676
1652572800,2022-05-15,AAVE/USD,86.79,91.95,83.01,91.95,253.325374,23293.268139300002
1652486400,2022-05-14,AAVE/USD,82.23,86.93,77.98,86.89,188.354742,16366.14353238
1652400000,2022-05-13,AAVE/USD,80.44,92.31,80.0,82.14,213.538541,17540.05575774
1652313600,2022-05-12,AAVE/USD,82.38,87.97,63.58,74.96,392.53938,29424.751924799995
1652227200,2022-05-11,AAVE/USD,105.24,108.05,76.77,82.27,1321.145691,108690.65599856999
1652140800,2022-05-10,AAVE/USD,99.86,118.04,97.37,105.29,694.260944,73098.73479376
1652054400,2022-05-09,AAVE/USD,126.12,128.43,99.83,99.83,590.689035,58968.48636405
1651968000,2022-05-08,AAVE/USD,132.62,132.94,126.04,126.04,90.608774,11420.32987496
1651881600,2022-05-07,AAVE/USD,138.5,138.5,129.66,132.51,63.540786,8419.789552859998
1651795200,2022-05-06,AAVE/USD,141.5,142.37,133.83,138.66,283.798617,39351.51623322
1651708800,2022-05-05,AAVE/USD,159.11,161.58,137.33,141.34,252.310352,35661.54515168
1651622400,2022-05-04,AAVE/USD,141.25,158.9,141.25,158.9,124.700693,19814.9401177
1651536000,2022-05-03,AAVE/USD,144.15,146.34,139.95,141.25,64.121079,9057.102408749999
1651449600,2022-05-02,AAVE/USD,146.6,148.37,139.46,144.2,120.117479,17320.9404718
1651363200,2022-05-01,AAVE/USD,142.74,148.55,140.25,146.43,106.171583,15546.70489869
1651276800,2022-04-30,AAVE/USD,157.09,162.14,139.12,142.91,126.358195,18057.84964745
1651190400,2022-04-29,AAVE/USD,165.97,167.75,152.02,157.02,81.658983,12822.093510660003
1651104000,2022-04-28,AAVE/USD,168.48,175.54,164.59,165.91,104.256424,17297.18330584
1651017600,2022-04-27,AAVE/USD,157.84,175.59,157.41,168.56,216.376331,36472.394353359996
1650931200,2022-04-26,AAVE/USD,169.27,178.21,155.86,157.64,151.582589,23895.47932996
1650844800,2022-04-25,AAVE/USD,166.73,170.32,154.86,169.46,115.656226,19599.10405796
1650758400,2022-04-24,AAVE/USD,173.99,174.27,166.66,166.79,38.412041,6406.74431839
1650672000,2022-04-23,AAVE/USD,176.96,178.78,173.18,173.99,28.913074,5030.58574526
1650585600,2022-04-22,AAVE/USD,173.67,180.29,171.68,177.14,107.533823,19048.54140622
1650499200,2022-04-21,AAVE/USD,186.36,195.71,171.04,173.84,106.645363,18539.22990392
1650412800,2022-04-20,AAVE/USD,182.99,197.61,179.0,186.44,149.355689,27845.874657160002
1650326400,2022-04-19,AAVE/USD,168.72,183.08,167.12,183.08,87.964381,16104.518873480001
1650240000,2022-04-18,AAVE/USD,167.3,169.58,158.7,168.53,105.753997,17822.72111441
1650153600,2022-04-17,AAVE/USD,172.58,176.98,167.17,167.38,42.114914,7049.194305319999
1650067200,2022-04-16,AAVE/USD,175.73,175.73,170.79,172.78,64.906211,11214.49513658
1649980800,2022-04-15,AAVE/USD,171.94,175.81,169.46,175.81,53.281376,9367.39871456
1649894400,2022-04-14,AAVE/USD,178.58,179.98,167.0,172.14,115.055195,19805.601267299997
1649808000,2022-04-13,AAVE/USD,164.61,179.24,163.51,178.64,103.978535,18574.725492399997
1649721600,2022-04-12,AAVE/USD,158.3,170.58,157.85,164.65,102.842383,16932.99836095
1649635200,2022-04-11,AAVE/USD,176.38,177.52,156.79,158.15,179.727773,28423.947299950003
1649548800,2022-04-10,AAVE/USD,184.63,188.36,176.12,176.38,55.814139,9844.497836819999
1649462400,2022-04-09,AAVE/USD,183.49,185.06,177.93,184.56,54.041026,9973.811758560001
1649376000,2022-04-08,AAVE/USD,202.77,202.77,182.15,183.37,108.75124,19941.7148788
1649289600,2022-04-07,AAVE/USD,191.54,206.89,190.59,202.89,182.054607,36937.05921423
1649203200,2022-04-06,AAVE/USD,221.17,221.17,191.51,191.61,219.645818,42086.33518698
1649116800,2022-04-05,AAVE/USD,238.21,238.21,221.19,221.26,50.410243,11153.77036618
1649030400,2022-04-04,AAVE/USD,243.43,243.43,226.63,238.45,68.935152,16437.5869944
1648944000,2022-04-03,AAVE/USD,237.69,252.16,233.23,243.59,80.48847,19606.186407300003
1648857600,2022-04-02,AAVE/USD,245.46,255.99,237.31,237.61,120.337512,28593.39622632
1648771200,2022-04-01,AAVE/USD,206.7,260.84,206.7,245.62,324.88316,79797.8017592
1648684800,2022-03-31,AAVE/USD,222.71,226.36,205.0,206.47,165.144464,34097.37748208
1648598400,2022-03-30,AAVE/USD,222.85,241.2,212.0,222.81,363.503033,80992.11078273
1648512000,2022-03-29,AAVE/USD,167.84,223.36,167.84,222.69,372.385442,82926.51407898
1648425600,2022-03-28,AAVE/USD,168.47,187.0,167.4,167.69,123.545867,20717.406437229998
1648339200,2022-03-27,AAVE/USD,163.33,168.64,159.77,168.64,39.416889,6647.264160959999
1648252800,2022-03-26,AAVE/USD,162.9,166.42,161.65,163.27,28.126718,4592.249247860001
1648166400,2022-03-25,AAVE/USD,168.63,173.64,161.43,162.71,84.336917,13722.45976507
1648080000,2022-03-24,AAVE/USD,155.82,172.0,153.98,168.71,151.576256,25572.430149760003
1647993600,2022-03-23,AAVE/USD,153.16,156.54,150.56,155.61,69.270783,10779.22654263
1647907200,2022-03-22,AAVE/USD,154.22,160.71,152.55,153.09,58.112354,8896.420273860002
1647820800,2022-03-21,AAVE/USD,152.83,161.33,147.91,154.41,98.204142,15163.701566220001
1647734400,2022-03-20,AAVE/USD,157.47,158.6,147.66,152.62,84.292226,12864.67953212
1647648000,2022-03-19,AAVE/USD,160.54,165.03,155.7,157.39,82.360359,12962.696903009999
1647561600,2022-03-18,AAVE/USD,155.59,163.99,148.01,160.35,140.717736,22564.0889676
1647475200,2022-03-17,AAVE/USD,140.98,156.29,137.28,155.77,126.841462,19758.09453574
1647388800,2022-03-16,AAVE/USD,121.95,141.05,121.59,141.05,187.790757,26487.886274850003
1647302400,2022-03-15,AAVE/USD,118.34,122.48,114.52,121.89,83.421974,10168.30441086
1647216000,2022-03-14,AAVE/USD,115.84,120.93,114.17,118.39,64.544322,7641.402281579999
1647129600,2022-03-13,AAVE/USD,120.44,120.44,115.97,115.97,52.763913,6119.03099061
1647043200,2022-03-12,AAVE/USD,116.74,121.2,116.74,120.58,52.77817,6363.991738600001
1646956800,2022-03-11,AAVE/USD,119.31,120.96,115.3,116.87,89.689742,10482.04014754
1646870400,2022-03-10,AAVE/USD,127.64,127.85,117.3,119.45,80.019023,9558.27229735
1646784000,2022-03-09,AAVE/USD,122.05,129.77,122.05,127.79,149.026895,19044.14691205
1646697600,2022-03-08,AAVE/USD,117.0,124.82,116.67,121.99,126.681929,15453.92851871
1646611200,2022-03-07,AAVE/USD,116.94,145.65,114.04,117.12,241.453349,28279.01623488
1646524800,2022-03-06,AAVE/USD,124.95,125.48,117.07,117.07,66.833873,7824.241512109999
1646438400,2022-03-05,AAVE/USD,124.21,126.07,122.84,124.86,42.801543,5344.20065898
1646352000,2022-03-04,AAVE/USD,129.99,131.56,122.72,124.37,125.015674,15548.199375380002
1646265600,2022-03-03,AAVE/USD,137.81,137.81,126.89,130.14,105.164567,13686.116749379999
1646179200,2022-03-02,AAVE/USD,143.6,145.91,136.9,137.98,195.606689,26989.810948219998
1646092800,2022-03-01,AAVE/USD,146.22,150.41,140.18,143.76,262.508066,37738.159568159994
1646006400,2022-02-28,AAVE/USD,131.57,146.39,128.66,146.05,184.039478,26878.965761900003
1645920000,2022-02-27,AAVE/USD,136.52,144.27,130.03,131.63,198.045351,26068.70955213
1645833600,2022-02-26,AAVE/USD,139.89,144.28,135.52,136.36,125.708751,17141.645286360003
1645747200,2022-02-25,AAVE/USD,125.48,142.91,122.39,139.89,213.494306,29865.718466339997
1645660800,2022-02-24,AAVE/USD,130.72,131.48,112.9,125.42,455.819968,57168.94038656
1645574400,2022-02-23,AAVE/USD,134.85,142.79,130.88,130.88,123.629079,16180.57385952
1645488000,2022-02-22,AAVE/USD,129.16,136.88,126.42,135.0,203.045718,27411.17193
1645401600,2022-02-21,AAVE/USD,137.48,144.63,128.49,129.01,198.335094,25587.21047694
1645315200,2022-02-20,AAVE/USD,146.05,146.05,135.87,137.65,89.981484,12385.9512726
1645228800,2022-02-19,AAVE/USD,147.6,147.6,142.05,146.12,7.407741,1082.41911492
1645142400,2022-02-18,AAVE/USD,153.61,154.47,145.9,146.42,31.584216,4624.560906719999
1645056000,2022-02-17,AAVE/USD,170.8,170.8,150.52,153.36,72.273236,11083.82347296
1644969600,2022-02-16,AAVE/USD,171.47,173.94,163.66,173.94,6.789245,1180.9212753
1644883200,2022-02-15,AAVE/USD,161.25,167.67,161.25,167.67,11.002365,1844.7665395499998
1644796800,2022-02-14,AAVE/USD,156.07,161.11,155.59,160.99,27.885664,4489.31304736
1644710400,2022-02-13,AAVE/USD,160.0,160.83,157.58,157.58,4.2,661.8360000000001
1644624000,2022-02-12,AAVE/USD,164.91,165.54,161.18,162.77,16.434987,2675.12283399
1644537600,2022-02-11,AAVE/USD,176.06,179.32,164.47,164.71,85.29698,14049.265575800002
1644451200,2022-02-10,AAVE/USD,188.43,188.71,177.44,183.21,302.279078,55380.54988038001
1644364800,2022-02-09,AAVE/USD,177.3,190.43,177.3,188.46,237.870641,44829.10100286001
1644278400,2022-02-08,AAVE/USD,181.99,192.4,176.51,180.0,381.819032,68727.42576
1644192000,2022-02-07,AAVE/USD,172.51,183.84,172.51,181.87,200.771502,36514.31306874
1644105600,2022-02-06,AAVE/USD,171.1,172.0,166.8,172.0,12.254383,2107.753876
1644019200,2022-02-05,AAVE/USD,167.49,172.41,166.23,168.0,8.186416,1375.3178879999998
1643932800,2022-02-04,AAVE/USD,155.44,164.03,155.44,163.66,30.057864,4919.27002224
1643846400,2022-02-03,AAVE/USD,151.19,151.19,146.93,147.63,4.987584,736.31702592
1643760000,2022-02-02,AAVE/USD,160.07,160.07,154.68,155.49,9.150309,1422.7815464100001
1643673600,2022-02-01,AAVE/USD,158.56,166.37,158.56,164.07,6.756119,1108.47644433
1643587200,2022-01-31,AAVE/USD,147.25,157.46,142.41,157.46,11.058277,1741.2362964200001
1643500800,2022-01-30,AAVE/USD,153.0,154.85,148.11,148.11,23.062467,3415.7819873700005
1643414400,2022-01-29,AAVE/USD,149.79,157.01,149.79,155.67,24.578223,3826.0919744099997
1643328000,2022-01-28,AAVE/USD,148.11,148.11,140.59,148.11,19.161925,2838.07271175
1643241600,2022-01-27,AAVE/USD,147.84,148.68,138.35,139.44,26.022045,3628.5139547999997
1643155200,2022-01-26,AAVE/USD,150.98,162.05,145.35,145.35,38.553173,5603.70369555
1643068800,2022-01-25,AAVE/USD,151.41,155.96,147.06,151.27,21.361622,3231.3725599400004
1642982400,2022-01-24,AAVE/USD,154.73,154.73,131.95,152.58,171.802161,26213.573725380003
1642896000,2022-01-23,AAVE/USD,148.12,161.82,147.33,157.6,71.622617,11287.724439200001
1642809600,2022-01-22,AAVE/USD,173.45,173.45,136.93,148.63,102.009191,15161.626058329999
1642723200,2022-01-21,AAVE/USD,198.86,200.46,166.24,167.15,723.279221,120896.12179015
1642636800,2022-01-20,AAVE/USD,210.91,220.84,198.42,198.78,473.129105,94048.6034919
1642550400,2022-01-19,AAVE/USD,232.79,236.38,210.87,210.87,612.95693,129254.22782910001
1642464000,2022-01-18,AAVE/USD,227.19,239.77,223.83,232.89,1141.49474,265842.7099986
1642377600,2022-01-17,AAVE/USD,241.99,243.62,222.23,227.09,653.69324,148447.1978716
1642291200,2022-01-16,AAVE/USD,239.15,244.76,230.99,241.94,505.692723,122347.29740262
1642204800,2022-01-15,AAVE/USD,224.33,242.76,223.1,239.23,492.009002,117703.31354845999
1642118400,2022-01-14,AAVE/USD,209.36,226.38,205.53,224.35,717.705276,161017.1786706
1642032000,2022-01-13,AAVE/USD,218.8,221.63,208.2,209.31,639.988574,133956.00842394
1641945600,2022-01-12,AAVE/USD,213.75,222.21,211.55,218.84,427.600026,93575.98968984
1641859200,2022-01-11,AAVE/USD,200.11,216.53,197.74,213.74,688.914132,147248.50657368
1641772800,2022-01-10,AAVE/USD,210.23,213.39,189.0,200.07,1207.35447,241555.4088129
1641686400,2022-01-09,AAVE/USD,211.95,218.77,208.72,210.27,768.364447,161563.99227069
1641600000,2022-01-08,AAVE/USD,211.51,230.47,201.54,211.79,1418.565653,300438.01964887
1641513600,2022-01-07,AAVE/USD,221.61,221.66,200.54,211.37,1691.480577,357528.24956049
1641427200,2022-01-06,AAVE/USD,230.63,232.37,216.82,221.6,1100.781586,243933.1994576
1641340800,2022-01-05,AAVE/USD,252.64,258.44,216.1,230.79,1293.307835,298482.51523965003
1641254400,2022-01-04,AAVE/USD,266.69,268.46,250.29,252.69,583.332459,147402.27906471
1641168000,2022-01-03,AAVE/USD,265.68,285.0,263.31,266.81,799.012318,213184.47656558003
1641081600,2022-01-02,AAVE/USD,265.72,267.96,253.83,265.86,380.944095,101277.7970967
1640995200,2022-01-01,AAVE/USD,254.39,265.55,251.33,265.55,383.872033,101937.21836315
1640908800,2021-12-31,AAVE/USD,263.45,274.0,250.78,254.52,766.472995,195082.7066874
1640822400,2021-12-30,AAVE/USD,235.96,264.81,231.92,263.44,757.766349,199625.96698055998
1640736000,2021-12-29,AAVE/USD,252.84,258.56,235.62,235.95,757.153255,178650.31051724998
1640649600,2021-12-28,AAVE/USD,276.95,295.65,252.95,252.95,1647.837909,416820.59908155
1640563200,2021-12-27,AAVE/USD,268.35,292.08,266.33,277.13,570.740941,158169.43697933
1640476800,2021-12-26,AAVE/USD,264.25,276.5,251.0,268.47,499.157667,134008.85885949002
1640390400,2021-12-25,AAVE/USD,269.24,278.92,258.26,264.31,847.8263,224088.969353
1640304000,2021-12-24,AAVE/USD,247.25,277.5,243.67,269.18,1149.177579,309335.62071522
1640217600,2021-12-23,AAVE/USD,206.31,247.61,204.61,247.09,1301.519389,321592.42582801
1640131200,2021-12-22,AAVE/USD,186.38,215.85,186.38,206.27,845.969308,174498.08916116
1640044800,2021-12-21,AAVE/USD,182.01,186.25,180.43,186.25,285.107835,53101.334268750004
1639958400,2021-12-20,AAVE/USD,183.81,186.32,170.88,180.87,237.211431,42904.43152497
1639872000,2021-12-19,AAVE/USD,193.29,193.37,183.38,183.84,403.026252,74092.34616768
1639785600,2021-12-18,AAVE/USD,187.18,201.8,183.78,193.26,1526.177971,294949.15467546
1639699200,2021-12-17,AAVE/USD,173.89,188.37,165.05,187.03,179.591721,33589.03957863
1639612800,2021-12-16,AAVE/USD,173.69,179.75,173.69,176.47,2.851544,503.21196968000004
1639526400,2021-12-15,AAVE/USD,170.01,173.58,160.08,173.58,50.682325,8797.4379735
1639440000,2021-12-14,AAVE/USD,165.49,168.2,163.38,168.2,30.721547,5167.3642054
1639353600,2021-12-13,AAVE/USD,173.37,174.63,159.83,163.97,125.312919,20547.559328429998
1639267200,2021-12-12,AAVE/USD,179.66,181.71,178.01,180.93,13.704467,2479.54921431
1639180800,2021-12-11,AAVE/USD,168.06,177.59,166.71,177.57,39.473254,7009.265712779999
1639094400,2021-12-10,AAVE/USD,178.88,178.88,170.0,173.01,81.105396,14032.04456196
1639008000,2021-12-09,AAVE/USD,203.07,203.34,177.96,178.0,660.523329,117573.152562
1638921600,2021-12-08,AAVE/USD,184.85,202.86,180.44,202.86,867.389612,175958.65669032003
1638835200,2021-12-07,AAVE/USD,184.89,195.52,182.45,187.64,91.262567,17124.508071879998
1638748800,2021-12-06,AAVE/USD,191.83,191.83,170.0,184.97,528.807374,97813.49996878
1638662400,2021-12-05,AAVE/USD,203.21,205.79,187.91,191.86,963.736092,184902.40661112
1638576000,2021-12-04,AAVE/USD,226.09,240.0,166.31,203.07,1182.845773,240200.49112311
1638489600,2021-12-03,AAVE/USD,244.95,245.84,219.02,226.25,551.361392,124745.51494000001
1638403200,2021-12-02,AAVE/USD,250.97,250.97,241.87,244.94,311.433834,76282.60329996
1638316800,2021-12-01,AAVE/USD,257.23,268.28,250.19,250.97,422.370161,106002.23930617
1638230400,2021-11-30,AAVE/USD,250.17,263.58,245.73,257.25,692.725958,178203.7526955
1638144000,2021-11-29,AAVE/USD,239.02,251.7,234.31,250.01,271.186093,67799.23511093
1638057600,2021-11-28,AAVE/USD,232.98,238.86,219.91,238.86,460.952303,110103.06709458
1637971200,2021-11-27,AAVE/USD,232.81,242.88,231.1,232.93,258.506006,60213.803977580006
1637884800,2021-11-26,AAVE/USD,263.02,263.31,226.66,232.65,1123.770287,261445.15727055003
1637798400,2021-11-25,AAVE/USD,254.3,263.8,253.08,263.01,348.972354,91783.21882554
1637712000,2021-11-24,AAVE/USD,269.88,271.36,252.11,254.41,381.005862,96931.70135142
1637625600,2021-11-23,AAVE/USD,263.74,276.66,262.23,269.7,463.367753,124970.28298409999
1637539200,2021-11-22,AAVE/USD,266.93,268.33,257.36,263.57,485.477408,127957.28042656
1637452800,2021-11-21,AAVE/USD,274.08,274.08,265.25,266.99,240.47238,64203.7207362
1637366400,2021-11-20,AAVE/USD,279.04,280.43,268.32,274.26,199.411335,54690.5527371
1637280000,2021-11-19,AAVE/USD,262.64,280.04,258.63,278.85,349.094228,97344.9254778
1637193600,2021-11-18,AAVE/USD,284.03,287.13,256.48,262.59,713.777527,187430.84081492998
1637107200,2021-11-17,AAVE/USD,278.92,286.91,268.64,284.04,666.459844,189301.25408976
1637020800,2021-11-16,AAVE/USD,302.19,302.19,265.6,279.04,924.91881,258089.34474240002
1636934400,2021-11-15,AAVE/USD,314.12,314.96,300.65,302.39,136.584852,41301.89339628
1636848000,2021-11-14,AAVE/USD,313.11,317.23,310.8,314.01,99.37455,31204.6024455
1636761600,2021-11-13,AAVE/USD,308.54,313.35,304.08,313.15,174.860304,54757.5041976
1636675200,2021-11-12,AAVE/USD,312.78,314.37,297.39,308.53,394.138879,121603.66833786998
1636588800,2021-11-11,AAVE/USD,311.94,319.27,308.01,312.74,278.797401,87191.09918874
1636502400,2021-11-10,AAVE/USD,337.13,344.66,296.72,311.95,1004.25877,313278.5233015
1636416000,2021-11-09,AAVE/USD,332.7,348.51,327.64,336.97,707.680311,238467.03439767
1636329600,2021-11-08,AAVE/USD,319.32,334.53,319.32,332.56,317.089501,105451.28445256
1636243200,2021-11-07,AAVE/USD,317.61,323.16,317.61,319.25,140.513091,44858.80430175
1636156800,2021-11-06,AAVE/USD,326.85,326.85,308.82,317.55,348.455389,110652.00877695001
1636070400,2021-11-05,AAVE/USD,332.59,345.32,325.26,326.86,557.673441,182281.14092526003
1635984000,2021-11-04,AAVE/USD,325.42,335.0,314.58,332.6,595.088982,197926.5954132
1635897600,2021-11-03,AAVE/USD,325.14,325.14,312.49,325.14,521.428515,169537.26736709996
1635811200,2021-11-02,AAVE/USD,323.44,327.9,319.01,325.35,209.727853,68234.95697355001
1635724800,2021-11-01,AAVE/USD,314.59,324.03,303.72,323.47,516.783615,167163.99594405002
1635638400,2021-10-31,AAVE/USD,318.55,322.12,302.0,314.61,473.870678,149084.45400558002
1635552000,2021-10-30,AAVE/USD,327.72,327.73,313.91,318.55,344.371121,109699.42059455001
1635465600,2021-10-29,AAVE/USD,338.38,346.81,325.46,327.64,468.672793,153555.95389852
1635379200,2021-10-28,AAVE/USD,324.9,348.34,318.6,338.32,1188.017123,401929.95305336005
1635292800,2021-10-27,AAVE/USD,328.97,452.65,324.28,325.05,4560.083428,1482255.1182714
1635206400,2021-10-26,AAVE/USD,312.31,345.02,312.31,329.04,751.12099,247148.85054960003
1635120000,2021-10-25,AAVE/USD,307.65,315.79,307.65,312.29,148.698807,46437.150438029996
1635033600,2021-10-24,AAVE/USD,322.86,323.25,301.56,307.73,214.900786,66131.41887578
1634947200,2021-10-23,AAVE/USD,310.87,322.83,308.8,322.83,197.237992,63674.34095735999
1634860800,2021-10-22,AAVE/USD,315.57,324.7,307.38,310.93,300.787282,93523.78959226
1634774400,2021-10-21,AAVE/USD,315.5,336.38,312.02,315.71,642.870473,202960.63703082997
1634688000,2021-10-20,AAVE/USD,303.74,315.43,297.47,315.43,166.911345,52648.84555335
1634601600,2021-10-19,AAVE/USD,294.29,303.85,294.29,303.75,164.65529,50014.0443375
1634515200,2021-10-18,AAVE/USD,304.08,307.5,291.01,294.51,312.909718,92155.04104817999
1634428800,2021-10-17,AAVE/USD,304.99,319.36,294.11,303.88,362.455214,110142.89043032
1634342400,2021-10-16,AAVE/USD,300.88,314.46,299.8,304.97,216.698814,66086.63730558
1634256000,2021-10-15,AAVE/USD,302.0,303.66,294.23,300.82,214.110049,64408.58494018
1634169600,2021-10-14,AAVE/USD,296.25,308.51,294.46,301.94,362.649073,109498.26110162
1634083200,2021-10-13,AAVE/USD,283.4,300.0,283.4,296.22,470.186455,139278.63170010003
1633996800,2021-10-12,AAVE/USD,289.86,289.86,272.77,283.39,501.979054,142255.84411306
1633910400,2021-10-11,AAVE/USD,288.81,300.36,284.98,289.91,270.008593,78278.19119663001
1633824000,2021-10-10,AAVE/USD,307.42,307.42,288.49,288.68,221.074232,63819.70929376
1633737600,2021-10-09,AAVE/USD,307.31,312.6,305.15,307.49,125.993078,38741.61155422
1633651200,2021-10-08,AAVE/USD,305.97,322.87,305.46,307.35,320.284204,98439.3500994
1633564800,2021-10-07,AAVE/USD,311.43,311.83,301.44,305.96,400.748652,122613.05756592
1633478400,2021-10-06,AAVE/USD,308.17,315.47,285.61,311.31,487.856014,151874.45571834
1633392000,2021-10-05,AAVE/USD,301.24,309.22,298.39,308.14,325.859296,100410.28346944
1633305600,2021-10-04,AAVE/USD,310.18,310.18,292.79,301.11,525.192866,158140.82388126
1633219200,2021-10-03,AAVE/USD,313.51,321.88,309.55,310.25,292.219771,90661.18395275
1633132800,2021-10-02,AAVE/USD,301.05,322.34,298.76,313.47,309.444425,97001.54390475001
1633046400,2021-10-01,AAVE/USD,274.95,302.33,273.54,301.14,445.841404,134260.68040056
1632960000,2021-09-30,AAVE/USD,264.27,279.19,264.27,275.0,296.636794,81575.11835
1632873600,2021-09-29,AAVE/USD,261.09,275.53,261.09,264.24,339.149838,89616.95319312
1632787200,2021-09-28,AAVE/USD,275.06,276.7,261.11,261.11,483.933594,126359.90072934002
1632700800,2021-09-27,AAVE/USD,292.26,309.48,274.88,275.07,592.088559,162865.79992413
1632614400,2021-09-26,AAVE/USD,274.35,299.79,253.99,292.17,1060.717097,309909.71423049003
1632528000,2021-09-25,AAVE/USD,280.28,283.21,270.9,274.38,470.653689,129137.95918782
1632441600,2021-09-24,AAVE/USD,308.61,309.24,265.0,280.27,779.856078,218570.26298106
1632355200,2021-09-23,AAVE/USD,299.97,308.44,296.56,308.44,306.039671,94394.87612324
1632268800,2021-09-22,AAVE/USD,270.22,300.6,268.72,299.81,698.95953,209555.0566893
1632182400,2021-09-21,AAVE/USD,291.2,304.2,263.64,270.04,948.025673,256004.85273692
1632096000,2021-09-20,AAVE/USD,339.77,339.77,290.48,291.39,806.400661,234977.08860878999
1632009600,2021-09-19,AAVE/USD,354.0,355.38,337.13,339.89,214.189321,72800.80831469
1631923200,2021-09-18,AAVE/USD,354.87,366.11,350.35,353.85,199.858622,70719.9733947
1631836800,2021-09-17,AAVE/USD,383.31,386.54,353.8,354.79,404.079371,143363.32003709002
1631750400,2021-09-16,AAVE/USD,410.94,410.94,374.95,383.3,399.56463,153153.12267900002
1631664000,2021-09-15,AAVE/USD,384.02,411.11,379.05,411.11,578.457159,237809.52263649003
1631577600,2021-09-14,AAVE/USD,329.75,387.32,329.18,383.98,695.810256,267177.22209888
1631491200,2021-09-13,AAVE/USD,333.92,334.67,307.66,329.97,558.312403,184226.34361791002
1631404800,2021-09-12,AAVE/USD,327.74,345.08,325.0,333.91,363.562547,121397.17006877
1631318400,2021-09-11,AAVE/USD,311.62,335.4,311.62,327.71,333.045925,109142.48008174999
1631232000,2021-09-10,AAVE/USD,332.88,338.11,307.67,311.41,609.910019,189932.07901679003
1631145600,2021-09-09,AAVE/USD,331.54,346.78,329.4,332.95,466.138428,155200.78960259998
1631059200,2021-09-08,AAVE/USD,346.82,351.33,315.81,331.66,722.91353,239761.50135980002
1630972800,2021-09-07,AAVE/USD,410.53,410.53,330.29,346.97,1096.626523,380496.50468531
1630886400,2021-09-06,AAVE/USD,416.72,421.0,404.01,410.38,238.056297,97693.54316286
1630800000,2021-09-05,AAVE/USD,399.34,421.0,398.31,416.66,291.711546,121544.53275636
1630713600,2021-09-04,AAVE/USD,393.55,404.54,393.17,399.39,149.251138,59609.41200582
1630627200,2021-09-03,AAVE/USD,403.2,403.71,391.64,393.59,235.927048,92858.52682232
1630540800,2021-09-02,AAVE/USD,412.81,414.9,402.0,403.24,183.94568,74174.2560032
1630454400,2021-09-01,AAVE/USD,392.26,413.44,383.17,413.08,362.50999,149745.6266692
1630368000,2021-08-31,AAVE/USD,358.86,394.74,353.74,392.53,463.491681,181934.38954293
1630281600,2021-08-30,AAVE/USD,365.65,373.6,349.64,358.75,314.063665,112670.33981875
1630195200,2021-08-29,AAVE/USD,366.52,373.52,359.4,365.66,164.758137,60245.46037542001
1630108800,2021-08-28,AAVE/USD,372.22,372.86,365.43,366.38,104.034807,38116.27258866
1630022400,2021-08-27,AAVE/USD,353.53,374.13,347.4,371.97,251.935832,93712.57142904
1629936000,2021-08-26,AAVE/USD,383.7,386.18,347.09,353.49,400.382627,141531.25481823
1629849600,2021-08-25,AAVE/USD,380.26,384.67,366.9,383.64,327.743731,125735.60496084
1629763200,2021-08-24,AAVE/USD,408.29,410.8,373.59,380.33,431.980221,164295.03745292997
1629676800,2021-08-23,AAVE/USD,400.54,412.88,400.54,408.21,230.547611,94111.84028630999
1629590400,2021-08-22,AAVE/USD,402.09,405.58,388.18,400.46,197.084309,78924.38238213999
1629504000,2021-08-21,AAVE/USD,407.36,414.72,397.4,402.08,245.295851,98628.55577008
1629417600,2021-08-20,AAVE/USD,401.82,416.61,401.82,407.4,313.390055,127675.108407
1629331200,2021-08-19,AAVE/USD,382.35,402.67,374.07,401.81,373.229798,149967.46513438
1629244800,2021-08-18,AAVE/USD,383.53,394.23,365.74,382.34,589.301507,225313.53818638
1629158400,2021-08-17,AAVE/USD,415.05,443.55,383.61,383.61,588.029685,225574.06746284998
1629072000,2021-08-16,AAVE/USD,409.32,444.44,409.32,415.06,436.092254,181004.45094524
1628985600,2021-08-15,AAVE/USD,415.51,416.28,394.77,409.39,230.890047,94524.07634133
1628899200,2021-08-14,AAVE/USD,423.98,424.27,407.72,415.52,203.49794,84557.4640288
1628812800,2021-08-13,AAVE/USD,390.24,424.32,390.17,424.04,333.850421,141565.93252084
1628726400,2021-08-12,AAVE/USD,403.68,415.5,379.18,390.43,444.666176,173611.01509568
1628640000,2021-08-11,AAVE/USD,385.43,416.43,384.92,403.69,409.206364,165192.51708316
1628553600,2021-08-10,AAVE/USD,374.07,396.4,369.66,385.33,391.480316,150849.11016428
1628467200,2021-08-09,AAVE/USD,362.19,383.67,350.22,374.06,445.410188,166610.13492328
1628380800,2021-08-08,AAVE/USD,383.37,385.76,354.77,362.2,385.343818,139571.5308796
1628294400,2021-08-07,AAVE/USD,369.82,395.0,367.67,383.44,462.907258,177497.15900752
1628208000,2021-08-06,AAVE/USD,372.74,376.59,360.61,369.7,361.832011,133769.2944667
1628121600,2021-08-05,AAVE/USD,338.75,377.73,337.63,372.5,908.167743,338292.4842675
1628035200,2021-08-04,AAVE/USD,307.65,340.89,302.49,338.99,643.30563,218074.1755137
1627948800,2021-08-03,AAVE/USD,320.73,323.73,302.84,308.97,568.281817,175582.03299849003
1627862400,2021-08-02,AAVE/USD,318.19,327.32,312.03,320.56,504.273556,161649.93111136
1627776000,2021-08-01,AAVE/USD,330.69,336.48,316.49,318.4,582.949241,185611.0383344
1627689600,2021-07-31,AAVE/USD,320.95,332.23,315.33,330.91,286.950275,94954.71550025
1627603200,2021-07-30,AAVE/USD,310.96,323.09,301.46,321.0,411.166423,131984.421783
1627516800,2021-07-29,AAVE/USD,297.27,311.91,293.46,311.02,453.196795,140953.2671809
1627430400,2021-07-28,AAVE/USD,298.39,306.63,294.37,297.21,586.775995,174395.69347394997
1627344000,2021-07-27,AAVE/USD,304.21,310.65,285.7,298.65,806.19187,240769.20197549998
1627257600,2021-07-26,AAVE/USD,286.13,332.98,286.13,304.14,991.414328,301528.75371792
1627171200,2021-07-25,AAVE/USD,286.33,291.01,274.54,286.11,409.667926,117210.09030786001
1627084800,2021-07-24,AAVE/USD,288.07,296.91,281.92,286.32,598.685977,171415.76893464
1626998400,2021-07-23,AAVE/USD,278.59,290.44,269.8,288.02,674.180898,194177.58224196
1626912000,2021-07-22,AAVE/USD,258.12,280.15,257.26,278.74,963.832085,268658.55537290004
1626825600,2021-07-21,AAVE/USD,223.55,261.2,216.88,258.29,1103.816828,285104.84850412
1626739200,2021-07-20,AAVE/USD,237.3,240.76,213.25,223.7,1063.442118,237892.00179659997
1626652800,2021-07-19,AAVE/USD,254.2,254.82,234.23,237.36,730.225606,173326.34984016
1626566400,2021-07-18,AAVE/USD,253.81,265.81,252.65,254.35,578.680113,147187.28674155
1626480000,2021-07-17,AAVE/USD,255.16,257.68,247.46,253.78,609.913287,154783.79397486
1626393600,2021-07-16,AAVE/USD,271.79,277.87,255.33,255.33,656.341069,167583.56514777
1626307200,2021-07-15,AAVE/USD,279.59,285.38,266.78,271.61,855.947147,232483.80459667
1626220800,2021-07-14,AAVE/USD,271.13,285.28,255.38,279.39,877.776032,245241.84558047997
1626134400,2021-07-13,AAVE/USD,296.89,296.89,270.03,270.95,440.507445,119355.49222275
1626048000,2021-07-12,AAVE/USD,304.83,319.32,294.09,296.89,357.086276,106015.34448164
1625961600,2021-07-11,AAVE/USD,294.95,307.73,289.28,304.87,254.521122,77595.85446414
1625875200,2021-07-10,AAVE/USD,304.15,309.1,291.68,295.0,332.527192,98095.52164
1625788800,2021-07-09,AAVE/USD,292.68,314.3,278.51,304.35,926.859421,282089.66478135
1625702400,2021-07-08,AAVE/USD,315.55,315.55,279.57,292.68,935.934828,273929.40545904
1625616000,2021-07-07,AAVE/USD,316.74,328.55,313.27,315.41,437.116669,137870.96856929
1625529600,2021-07-06,AAVE/USD,308.62,344.13,308.62,316.87,852.500026,270131.68323862
1625443200,2021-07-05,AAVE/USD,278.67,314.3,265.23,308.76,1202.049773,371144.88791148
1625356800,2021-07-04,AAVE/USD,257.43,285.82,250.21,278.6,565.791618,157629.54477480002
1625270400,2021-07-03,AAVE/USD,232.42,261.89,229.98,257.44,630.247909,162251.02169296
1625184000,2021-07-02,AAVE/USD,232.29,233.87,218.36,232.37,523.760478,121706.22227286002
1625097600,2021-07-01,AAVE/USD,247.68,250.62,230.57,232.44,522.798045,121519.1775798
1625011200,2021-06-30,AAVE/USD,240.05,248.2,222.89,247.85,614.346995,152265.90271075
1624924800,2021-06-29,AAVE/USD,225.4,251.6,225.4,240.04,580.340524,139304.93938096
1624838400,2021-06-28,AAVE/USD,199.37,229.48,199.37,225.35,657.238946,148108.7964811
1624752000,2021-06-27,AAVE/USD,184.38,199.33,184.38,199.33,599.233264,119445.16651312
1624665600,2021-06-26,AAVE/USD,188.34,192.16,178.88,184.34,790.362113,145695.35191042
1624579200,2021-06-25,AAVE/USD,210.71,212.24,187.49,188.3,651.729237,122720.61532710001
1624492800,2021-06-24,AAVE/USD,206.54,216.05,195.82,210.67,585.214829,123287.20802543
1624406400,2021-06-23,AAVE/USD,205.93,226.35,201.21,206.5,971.79732,200676.14658
1624320000,2021-06-22,AAVE/USD,214.38,219.3,175.92,205.89,2110.055689,434439.3658082099
1624233600,2021-06-21,AAVE/USD,272.21,272.26,210.37,214.52,1422.351017,305122.74016684
1624147200,2021-06-20,AAVE/USD,257.97,275.83,246.0,272.2,596.311995,162316.125039
1624060800,2021-06-19,AAVE/USD,263.61,266.7,258.0,258.0,255.27547,65861.07126
1623974400,2021-06-18,AAVE/USD,292.47,292.61,256.63,263.56,442.425627,116605.69825212001
1623888000,2021-06-17,AAVE/USD,291.32,301.66,289.2,292.41,192.542548,56301.36646068001
1623801600,2021-06-16,AAVE/USD,314.28,314.28,290.93,291.26,277.135486,80718.48165236
1623715200,2021-06-15,AAVE/USD,317.12,322.99,312.0,314.29,224.912882,70687.86968378001
1623628800,2021-06-14,AAVE/USD,312.75,330.18,310.6,317.05,363.710677,115314.47014285
1623542400,2021-06-13,AAVE/USD,280.78,313.53,270.96,312.72,450.08058,140749.1989776
1623456000,2021-06-12,AAVE/USD,286.36,286.79,270.1,280.84,431.126114,121077.45785575997
1623369600,2021-06-11,AAVE/USD,312.02,312.93,284.17,286.3,383.85366,109897.302858
1623283200,2021-06-10,AAVE/USD,334.56,335.08,309.42,312.08,260.077197,81164.89163976
1623196800,2021-06-09,AAVE/USD,329.69,337.9,310.95,334.5,493.469947,165065.6972715
1623110400,2021-06-08,AAVE/USD,338.73,340.09,302.06,329.75,588.718717,194129.99693075
1623024000,2021-06-07,AAVE/USD,364.3,386.29,338.61,338.61,364.432718,123400.56264198001
1622937600,2021-06-06,AAVE/USD,356.24,365.36,356.24,364.23,134.650371,49043.70462933001
1622851200,2021-06-05,AAVE/USD,373.52,386.21,352.99,356.0,300.114115,106840.62494000001
1622764800,2021-06-04,AAVE/USD,396.95,396.95,353.64,373.59,366.381378,136876.41900701998
1622678400,2021-06-03,AAVE/USD,386.53,403.34,383.12,396.96,257.363694,102163.09197024
1622592000,2021-06-02,AAVE/USD,372.34,396.17,367.13,386.54,253.978224,98172.74270496001
1622505600,2021-06-01,AAVE/USD,378.69,387.13,366.63,372.35,463.797564,172695.02295540003
1622419200,2021-05-31,AAVE/USD,326.27,379.58,309.68,378.95,868.843595,329248.28032525
1622332800,2021-05-30,AAVE/USD,295.83,334.03,287.1,326.34,599.277255,195568.13939669996
1622246400,2021-05-29,AAVE/USD,318.24,330.92,285.29,296.02,876.601009,259491.43068417997
1622160000,2021-05-28,AAVE/USD,375.6,375.6,310.11,318.24,1133.663259,360776.99554415996
1622073600,2021-05-27,AAVE/USD,407.22,407.22,372.3,375.74,581.701938,218568.68618412002
1621987200,2021-05-26,AAVE/USD,370.91,407.37,363.57,407.3,716.391954,291786.44286420004
1621900800,2021-05-25,AAVE/USD,383.54,399.48,329.1,371.06,1308.913771,485685.54386726
1621814400,2021-05-24,AAVE/USD,292.35,390.97,291.6,383.29,1584.604848,607363.19218992
1621728000,2021-05-23,AAVE/USD,337.14,346.06,235.06,292.53,2425.291727,709470.5888993099
1621641600,2021-05-22,AAVE/USD,367.38,374.8,322.0,337.36,1349.510548,455270.87847328
1621555200,2021-05-21,AAVE/USD,470.39,511.84,344.89,367.14,1349.744879,495545.33487606
1621468800,2021-05-20,AAVE/USD,438.51,500.41,408.93,470.07,1441.867795,677778.7943956499
1621382400,2021-05-19,AAVE/USD,631.66,641.41,437.42,437.42,1998.034391,873980.20331122
1621296000,2021-05-18,AAVE/USD,574.56,659.28,572.51,631.67,976.026542,616526.6857851399
1621209600,2021-05-17,AAVE/USD,522.13,584.18,495.63,574.44,815.445897,468424.74107268
1621123200,2021-05-16,AAVE/USD,521.33,554.08,486.58,521.8,351.816863,183578.03911339998
1621036800,2021-05-15,AAVE/USD,598.87,602.87,518.45,522.5,326.233976,170457.25246
1620950400,2021-05-14,AAVE/USD,507.67,621.51,507.1,598.99,799.258794,478748.02501806
1620864000,2021-05-13,AAVE/USD,550.12,612.0,495.43,507.44,1214.443846,616257.3852142399
1620777600,2021-05-12,AAVE/USD,452.44,585.74,452.44,550.17,1448.443433,796890.1235336099
1620691200,2021-05-11,AAVE/USD,439.24,452.45,431.26,452.35,318.37414,144016.542229
1620604800,2021-05-10,AAVE/USD,456.8,476.04,439.15,439.36,300.753568,132139.08763648
1620518400,2021-05-09,AAVE/USD,465.22,465.22,450.0,456.75,162.074927,74027.72290725
1620432000,2021-05-08,AAVE/USD,445.27,469.96,445.27,465.16,203.097729,94472.93962164
1620345600,2021-05-07,AAVE/USD,455.05,461.79,443.84,445.18,170.550987,75925.88839266
1620259200,2021-05-06,AAVE/USD,476.36,476.36,450.46,454.85,238.029316,108267.63438260001
1620172800,2021-05-05,AAVE/USD,455.15,476.86,443.67,476.46,311.992484,148651.93892664
1620086400,2021-05-04,AAVE/USD,514.1,514.78,453.32,455.05,525.045042,238921.74636209998
1620000000,2021-05-03,AAVE/USD,484.65,527.49,484.65,514.1,265.263348,136371.88720680002
1619913600,2021-05-02,AAVE/USD,504.51,504.51,482.53,484.64,187.445049,90843.36854736
1619827200,2021-05-01,AAVE/USD,441.31,507.13,439.49,504.85,375.444695,189543.25427075
1619740800,2021-04-30,AAVE/USD,437.72,446.63,434.87,441.01,201.166842,88716.58899042
1619654400,2021-04-29,AAVE/USD,462.31,463.01,432.72,437.71,240.220991,105147.12997061
1619568000,2021-04-28,AAVE/USD,438.46,478.26,432.51,462.22,538.624041,248962.80423102004
1619481600,2021-04-27,AAVE/USD,400.23,443.48,395.89,438.12,483.452685,211810.29035219998
1619395200,2021-04-26,AAVE/USD,345.62,403.97,345.62,399.96,557.686775,223052.40252899998
1619308800,2021-04-25,AAVE/USD,325.3,347.6,317.28,345.8,373.768615,129249.187067
1619222400,2021-04-24,AAVE/USD,337.86,342.04,324.79,325.31,189.47558,61638.3009298
1619136000,2021-04-23,AAVE/USD,365.19,365.7,322.88,337.85,417.739427,141133.26541195
1619049600,2021-04-22,AAVE/USD,367.79,409.64,347.24,365.12,596.655387,217850.81490144
1618963200,2021-04-21,AAVE/USD,362.63,450.0,350.0,367.76,236.457491,86959.60689016
