https://www.CryptoDataDownload.com
unix,date,symbol,open,high,low,close,Volume ELON,Volume USDD,buyTakerAmount,buyTakerQuantity,tradeCount,weightedAverage
1694995200000,2023-09-18 00:00:00,ELON/USDD,0.0000001332,0.0000001435,0.0000001284,0.0000001322,1440.82908022,10737181191,603.40659003,4473472972,209,0.0000001342
1694908800000,2023-09-17 00:00:00,ELON/USDD,0.0000001347,0.0000001432,0.0000001276,0.000000136,1189.10097228,8840175839,682.47637471,5052798818,148,0.0000001345
1694822400000,2023-09-16 00:00:00,ELON/USDD,0.0000001323,0.0000001433,0.0000001298,0.000000136,2838.47814671,20968870893,2101.71069047,15506148973,468,0.0000001354
1694736000000,2023-09-15 00:00:00,ELON/USDD,0.0000001326,0.0000001341,0.000000128,0.0000001318,2683.18951288,20395326699,1540.65877305,11693823599,316,0.0000001315
1694649600000,2023-09-14 00:00:00,ELON/USDD,0.0000001274,0.0000001328,0.0000001265,0.0000001319,2921.6154529,22419316427,606.61517338,4629497961,393,0.0000001303
1694563200000,2023-09-13 00:00:00,ELON/USDD,0.000000127,0.0000001334,0.0000001232,0.0000001275,8152.90110027,63775961555,5210.66382722,40718378428,1112,0.0000001278
1694476800000,2023-09-12 00:00:00,ELON/USDD,0.0000001281,0.0000001336,0.0000001231,0.0000001269,24658.56925128,191023483297,10367.54285901,79874431797,3258,0.0000001291
1694390400000,2023-09-11 00:00:00,ELON/USDD,0.0000001342,0.0000001524,0.000000123,0.0000001302,28819.95554179,219226336278,15545.68007694,118531150684,3426,0.0000001315
1694304000000,2023-09-10 00:00:00,ELON/USDD,0.0000001414,0.0000001523,0.0000001292,0.0000001341,27758.34250718,200905598358,17895.28334495,129521202298,3451,0.0000001382
1694217600000,2023-09-09 00:00:00,ELON/USDD,0.0000001401,0.0000001525,0.000000123,0.0000001415,25932.2350005,185040650617,15483.8458807,110041264102,3493,0.0000001401
1694131200000,2023-09-08 00:00:00,ELON/USDD,0.0000001415,0.0000001525,0.000000123,0.0000001402,27339.84494148,195028610683,13440.77868607,95330273986,3397,0.0000001402
1694044800000,2023-09-07 00:00:00,ELON/USDD,0.0000001403,0.0000001525,0.000000123,0.0000001414,22569.6762033,160615361310,8177.86894901,57993514269,3152,0.0000001405
1693958400000,2023-09-06 00:00:00,ELON/USDD,0.0000001388,0.0000001525,0.000000123,0.0000001401,24728.91281092,176494338986,12883.04948117,91654024234,3199,0.0000001401
1693872000000,2023-09-05 00:00:00,ELON/USDD,0.0000001405,0.0000001525,0.000000123,0.0000001387,24978.14045733,177600148863,13594.68674558,96369853204,3165,0.0000001406
1693785600000,2023-09-04 00:00:00,ELON/USDD,0.0000001402,0.0000001525,0.0000001209,0.0000001392,15820.22687034,112213770717,7615.54542044,53842666019,2009,0.000000141
1693699200000,2023-09-03 00:00:00,ELON/USDD,0.000000128,0.0000001525,0.0000001218,0.0000001412,11966.26981433,85297297363,952.93935507,6710138126,1494,0.0000001405
1693612800000,2023-09-02 00:00:00,ELON/USDD,0.0000001293,0.0000001553,0.0000001194,0.000000127,2952.68229586,22560861352,162.19591706,1161675316,472,0.0000001312
1693526400000,2023-09-01 00:00:00,ELON/USDD,0.0000001289,0.0000001564,0.0000001219,0.0000001282,2097.71850274,15327416270,1173.82190892,8245679193,294,0.0000001374
1693440000000,2023-08-31 00:00:00,ELON/USDD,0.0000001371,0.0000001567,0.0000001228,0.000000129,1415.0274741,10544506763,203.96643633,1475109506,367,0.0000001344
1693353600000,2023-08-30 00:00:00,ELON/USDD,0.0000001506,0.0000001644,0.0000001366,0.0000001373,1862.94627396,12507883571,799.06232288,5318418983,273,0.0000001492
1693267200000,2023-08-29 00:00:00,ELON/USDD,0.0000001347,0.0000001658,0.0000001198,0.0000001639,5107.84155145,34585116891,2289.64974006,15329694692,538,0.0000001478
1693180800000,2023-08-28 00:00:00,ELON/USDD,0.0000001263,0.0000001457,0.0000001198,0.0000001347,3531.11973144,26985889605,1309.98274142,9983489945,495,0.0000001309
1693094400000,2023-08-27 00:00:00,ELON/USDD,0.0000001257,0.0000001314,0.0000001137,0.0000001255,2605.60223146,20602312792,857.75353656,6720080387,376,0.0000001265
1693008000000,2023-08-26 00:00:00,ELON/USDD,0.0000001256,0.0000001327,0.0000001041,0.0000001255,1980.40605234,15783118358,883.88499344,7007926290,347,0.0000001255
1692921600000,2023-08-25 00:00:00,ELON/USDD,0.0000001252,0.0000001328,0.000000113,0.0000001253,2146.69794998,17102346218,1363.42552225,10828179174,372,0.0000001255
1692835200000,2023-08-24 00:00:00,ELON/USDD,0.0000001285,0.0000001328,0.0000001145,0.0000001229,2390.66556661,18784380322,1270.5546464,9953790159,383,0.0000001273
1692748800000,2023-08-23 00:00:00,ELON/USDD,0.0000001279,0.0000001415,0.0000001148,0.0000001297,2430.61818967,18901172935,1203.37339097,9360598883,390,0.0000001286
1692662400000,2023-08-22 00:00:00,ELON/USDD,0.0000001301,0.0000001542,0.0000001168,0.0000001274,2217.20285964,17010757279,1188.5872418,9129034659,409,0.0000001303
1692576000000,2023-08-21 00:00:00,ELON/USDD,0.0000001359,0.0000001436,0.0000001155,0.0000001297,2477.57158543,18813608343,1445.04907136,10947858251,374,0.0000001317
1692489600000,2023-08-20 00:00:00,ELON/USDD,0.0000001284,0.0000001543,0.0000001167,0.0000001355,2797.42768971,21338703031,1401.44169609,10672207840,390,0.0000001311
1692403200000,2023-08-19 00:00:00,ELON/USDD,0.0000001252,0.0000001543,0.0000001146,0.0000001289,1814.76486584,14226189967,799.11956876,6242672851,339,0.0000001276
1692316800000,2023-08-18 00:00:00,ELON/USDD,0.0000001278,0.0000001402,0.0000001178,0.0000001256,1755.20231327,13789291276,1011.26479045,7952519652,85,0.0000001272
1692230400000,2023-08-17 00:00:00,ELON/USDD,0.0000001346,0.0000001543,0.0000001163,0.0000001265,1924.53269824,14452495570,717.50435736,5263345190,229,0.0000001334
1692144000000,2023-08-16 00:00:00,ELON/USDD,0.000000139,0.0000001455,0.0000001192,0.0000001337,34214.80625006,248696184936,18679.33421002,135885122051,636,0.0000001376
1692057600000,2023-08-15 00:00:00,ELON/USDD,0.000000143,0.0000001499,0.0000001347,0.0000001389,145613.06455652,1023271995269,73434.96620831,515780423884,2262,0.0000001423
1691971200000,2023-08-14 00:00:00,ELON/USDD,0.0000001458,0.0000001504,0.0000001414,0.0000001426,123576.06612112,850803789092,61885.0196187,426192763442,1885,0.0000001452
1691884800000,2023-08-13 00:00:00,ELON/USDD,0.0000001471,0.0000001506,0.0000001422,0.0000001457,126889.49320504,864396399623,60684.79049015,413563879446,1948,0.0000001468
1691798400000,2023-08-12 00:00:00,ELON/USDD,0.0000001483,0.0000001515,0.0000001453,0.0000001473,70773.41413938,477690126690,35691.88190424,240956012671,1964,0.0000001481
1691712000000,2023-08-11 00:00:00,ELON/USDD,0.0000001511,0.0000001535,0.0000001443,0.0000001481,91166.95106162,611832234600,46479.73255313,311966306024,2649,0.000000149
1691625600000,2023-08-10 00:00:00,ELON/USDD,0.0000001538,0.0000001546,0.0000001462,0.0000001511,110124.37217972,729282271688,54310.82058171,359679847630,2958,0.000000151
1691539200000,2023-08-09 00:00:00,ELON/USDD,0.0000001527,0.0000001604,0.0000001474,0.0000001537,128827.71143156,839615987154,64087.52282185,417693274253,3420,0.0000001534
1691452800000,2023-08-08 00:00:00,ELON/USDD,0.0000001509,0.0000001538,0.0000001467,0.000000153,47470.48330209,313230613618,23170.13644651,152901541549,1407,0.0000001515
1691366400000,2023-08-07 00:00:00,ELON/USDD,0.0000001534,0.0000001555,0.000000148,0.0000001509,98381.12744764,646205266383,48976.96854094,321666049350,2704,0.0000001522
1691280000000,2023-08-06 00:00:00,ELON/USDD,0.0000001559,0.000000158,0.000000148,0.0000001534,105379.45009309,684870638654,53843.7193085,349923666641,2965,0.0000001538
1691193600000,2023-08-05 00:00:00,ELON/USDD,0.000000152,0.0000001581,0.0000001473,0.0000001567,70539.97352255,459536565331,34391.07473689,224010669537,2057,0.0000001535
1691107200000,2023-08-04 00:00:00,ELON/USDD,0.0000001529,0.000000156,0.0000001465,0.0000001519,78997.13535124,519909370235,40635.52741537,267414023909,2028,0.0000001519
1691020800000,2023-08-03 00:00:00,ELON/USDD,0.0000001524,0.0000001594,0.0000001505,0.0000001526,77833.22659175,505745012532,38708.21810001,251603207146,2114,0.0000001539
1690934400000,2023-08-02 00:00:00,ELON/USDD,0.0000001545,0.0000001594,0.0000001506,0.0000001527,89370.60854551,578203635803,44677.83457262,289134489987,2412,0.0000001545
1690848000000,2023-08-01 00:00:00,ELON/USDD,0.0000001536,0.000000166,0.0000001476,0.0000001545,93318.19407622,609284401352,46597.03146687,304229568491,2474,0.0000001531
1690761600000,2023-07-31 00:00:00,ELON/USDD,0.0000001557,0.0000001675,0.0000001482,0.0000001538,90055.79907975,580831590774,44289.87104577,285711876389,2507,0.000000155
1690675200000,2023-07-30 00:00:00,ELON/USDD,0.0000001568,0.0000001685,0.0000001494,0.0000001563,90062.82857064,569495990955,43926.66630915,277733397397,2442,0.0000001581
1690588800000,2023-07-29 00:00:00,ELON/USDD,0.0000001553,0.0000001594,0.0000001485,0.0000001569,97979.62403548,628922477008,49285.92741273,316355881535,2620,0.0000001557
1690502400000,2023-07-28 00:00:00,ELON/USDD,0.0000001578,0.0000001606,0.0000001496,0.0000001549,110331.86328552,703164757377,57150.08717477,364129279222,2786,0.0000001569
1690416000000,2023-07-27 00:00:00,ELON/USDD,0.0000001557,0.0000001614,0.0000001468,0.0000001577,102696.28937667,656418007687,51897.03262894,331811649911,2674,0.0000001564
1690329600000,2023-07-26 00:00:00,ELON/USDD,0.0000001618,0.0000001634,0.0000001487,0.0000001556,101574.2316671,651957619996,50374.38430783,323294956984,2588,0.0000001558
1690243200000,2023-07-25 00:00:00,ELON/USDD,0.0000001518,0.000000169,0.0000001473,0.0000001617,94689.09713984,605242214080,47818.69271655,305465355131,2479,0.0000001564
1690156800000,2023-07-24 00:00:00,ELON/USDD,0.000000159,0.0000001685,0.0000001453,0.0000001519,101966.16298954,659043174323,51918.59170762,335340086181,2814,0.0000001547
1690070400000,2023-07-23 00:00:00,ELON/USDD,0.0000001532,0.0000001681,0.0000001483,0.000000159,83378.1686699,529681101274,41122.67664525,261347298840,2257,0.0000001574
1689984000000,2023-07-22 00:00:00,ELON/USDD,0.0000001572,0.0000001687,0.0000001482,0.0000001543,100560.09546388,636329053671,48961.90307932,309722458416,2716,0.000000158
1689897600000,2023-07-21 00:00:00,ELON/USDD,0.0000001548,0.0000001677,0.0000001498,0.0000001574,91755.36532426,583210774021,43893.68448662,278886734438,2538,0.0000001573
1689811200000,2023-07-20 00:00:00,ELON/USDD,0.0000001555,0.000000168,0.00000015,0.0000001551,102717.93331024,655122847447,49411.89213954,315121994885,2773,0.0000001568
1689724800000,2023-07-19 00:00:00,ELON/USDD,0.0000001556,0.0000001682,0.0000001531,0.0000001559,101225.60840369,643143082998,49507.37979844,314492656144,2697,0.0000001574
1689638400000,2023-07-18 00:00:00,ELON/USDD,0.0000001593,0.0000001681,0.0000001514,0.0000001557,96027.40512875,607974834443,48304.94520458,305775581829,2641,0.0000001579
1689552000000,2023-07-17 00:00:00,ELON/USDD,0.0000001579,0.0000001688,0.0000001528,0.0000001592,96593.10576368,608852865151,45072.8008793,284128125942,2630,0.0000001586
1689465600000,2023-07-16 00:00:00,ELON/USDD,0.0000001605,0.0000001687,0.0000001555,0.0000001557,81417.03702787,509355959665,40515.00432163,253492859622,2727,0.0000001598
1689379200000,2023-07-15 00:00:00,ELON/USDD,0.0000001599,0.0000001696,0.0000001553,0.0000001608,12167.60798154,75882369650,6145.71137338,38318322969,2452,0.0000001603
1689292800000,2023-07-14 00:00:00,ELON/USDD,0.0000001633,0.0000001778,0.000000155,0.0000001598,4092.75063522,25037438697,1975.78642703,12091461294,931,0.0000001635
1689206400000,2023-07-13 00:00:00,ELON/USDD,0.0000001552,0.0000001755,0.000000152,0.0000001665,4452.6197266,28261521896,2227.65243552,14134971739,961,0.0000001576
1689120000000,2023-07-12 00:00:00,ELON/USDD,0.000000152,0.0000001703,0.0000001501,0.000000155,4495.60100349,29107234736,2286.50070781,14789876118,952,0.0000001544
1689033600000,2023-07-11 00:00:00,ELON/USDD,0.0000001581,0.0000001722,0.0000001501,0.0000001518,4595.45471003,29446336444,2295.71956507,14702870610,946,0.0000001561
1688947200000,2023-07-10 00:00:00,ELON/USDD,0.0000001587,0.0000001715,0.000000152,0.0000001585,4226.9100641,26950042856,2044.69530884,13032551099,924,0.0000001568
1688860800000,2023-07-09 00:00:00,ELON/USDD,0.0000001587,0.0000001734,0.0000001555,0.0000001585,4691.65448991,29537803695,2360.7828152,14872622853,951,0.0000001588
1688774400000,2023-07-08 00:00:00,ELON/USDD,0.0000001604,0.0000001733,0.0000001534,0.0000001588,4065.27842905,25581626021,2102.78129913,13239208821,861,0.0000001589
1688688000000,2023-07-07 00:00:00,ELON/USDD,0.0000001573,0.0000001727,0.0000001535,0.0000001604,4143.3628321,26219757074,1946.68166265,12315629438,916,0.000000158
1688601600000,2023-07-06 00:00:00,ELON/USDD,0.0000001614,0.000000176,0.0000001548,0.0000001581,4118.11106353,25445636229,1992.04647851,12327601205,892,0.0000001618
1688515200000,2023-07-05 00:00:00,ELON/USDD,0.0000001647,0.0000001772,0.0000001583,0.0000001604,4178.04963501,25287791308,2107.47304415,12759966403,911,0.0000001652
1688428800000,2023-07-04 00:00:00,ELON/USDD,0.000000184,0.000000185,0.0000001577,0.0000001648,4648.199464,27096781906,2246.07414323,13077190900,966,0.0000001718
1688342400000,2023-07-03 00:00:00,ELON/USDD,0.0000001774,0.0000002034,0.000000173,0.0000001842,4658.98137169,25715471956,2214.47431819,12226302542,993,0.0000001812
1688256000000,2023-07-02 00:00:00,ELON/USDD,0.0000001774,0.0000001804,0.0000001715,0.0000001776,4253.83161258,24217076461,2097.695883,11946400212,937,0.0000001756
1688169600000,2023-07-01 00:00:00,ELON/USDD,0.0000001749,0.0000001817,0.0000001715,0.0000001776,4864.14252954,27449961823,2478.26430167,13979817616,946,0.0000001772
1688083200000,2023-06-30 00:00:00,ELON/USDD,0.0000001675,0.0000001763,0.0000001651,0.0000001748,4197.28040834,24641643377,2147.47061353,12611192264,961,0.0000001703
1687996800000,2023-06-29 00:00:00,ELON/USDD,0.0000001667,0.0000001731,0.000000165,0.0000001674,4530.9310783,26942651064,2469.33978134,14688865123,937,0.0000001681
1687910400000,2023-06-28 00:00:00,ELON/USDD,0.0000001743,0.0000001748,0.0000001653,0.0000001667,4123.58718822,24307505593,1970.6479778,11621196913,918,0.0000001696
1687824000000,2023-06-27 00:00:00,ELON/USDD,0.000000172,0.0000001763,0.0000001693,0.0000001744,4483.72168943,25821079859,2240.80973688,12903952252,918,0.0000001736
1687737600000,2023-06-26 00:00:00,ELON/USDD,0.0000001767,0.0000001803,0.0000001677,0.0000001724,4487.65252954,25705951367,2438.73457829,13965038620,974,0.0000001746
1687651200000,2023-06-25 00:00:00,ELON/USDD,0.0000001739,0.0000001826,0.000000172,0.000000177,4369.54119131,24520553676,2307.70031295,12945146301,928,0.0000001782
1687564800000,2023-06-24 00:00:00,ELON/USDD,0.0000001799,0.0000001843,0.0000001721,0.0000001762,4519.33920094,25275252523,2154.41073054,12048370931,943,0.0000001788
1687478400000,2023-06-23 00:00:00,ELON/USDD,0.0000001842,0.0000001857,0.0000001747,0.0000001798,4490.97192989,24631137277,2192.67692188,12022949201,941,0.0000001823
1687392000000,2023-06-22 00:00:00,ELON/USDD,0.0000001797,0.0000002029,0.0000001765,0.0000001841,4562.78594796,24680437702,2423.88833475,13119225916,943,0.0000001849
1687305600000,2023-06-21 00:00:00,ELON/USDD,0.0000001654,0.0000002005,0.0000001621,0.0000001797,4364.45899316,25164141473,2175.59986602,12539785413,952,0.0000001736
1687219200000,2023-06-20 00:00:00,ELON/USDD,0.0000001606,0.0000001743,0.000000151,0.0000001653,4438.95245907,27801126557,2204.93712258,13805210695,936,0.0000001597
1687132800000,2023-06-19 00:00:00,ELON/USDD,0.0000001603,0.0000001729,0.0000001545,0.00000016,5608.35328058,35196304585,2124.25842166,13355029933,1665,0.0000001593
1687046400000,2023-06-18 00:00:00,ELON/USDD,0.0000001599,0.0000001751,0.0000001501,0.0000001609,5613.20104537,34832787364,2431.41861358,15089105000,1414,0.0000001611
1686960000000,2023-06-17 00:00:00,ELON/USDD,0.0000001645,0.0000001907,0.0000001602,0.0000001602,4478.25184629,27271647650,2281.49925869,13900965616,925,0.0000001642
1686873600000,2023-06-16 00:00:00,ELON/USDD,0.0000001552,0.0000001917,0.0000001521,0.0000001651,4253.21469149,26981850316,1996.28501898,12650769916,889,0.0000001577
1686787200000,2023-06-15 00:00:00,ELON/USDD,0.0000001618,0.0000001803,0.0000001501,0.0000001544,4786.66601,30427430705,2377.30786199,15092290887,973,0.0000001574
1686700800000,2023-06-14 00:00:00,ELON/USDD,0.0000001718,0.0000001849,0.000000157,0.0000001596,4521.08779282,26710992001,2150.29522659,12713075669,956,0.0000001693
1686614400000,2023-06-13 00:00:00,ELON/USDD,0.0000001678,0.0000001851,0.0000001616,0.0000001725,4096.89650299,24043642566,2057.02514757,12045980813,806,0.0000001704
1686528000000,2023-06-12 00:00:00,ELON/USDD,0.0000001736,0.0000001855,0.0000001618,0.0000001686,3900.70196638,22586991449,1966.10437025,11365239037,877,0.0000001727
1686441600000,2023-06-11 00:00:00,ELON/USDD,0.0000001772,0.00000018,0.0000001646,0.0000001744,4290.64709632,24414882926,2215.80141276,12613147108,900,0.0000001757
1686355200000,2023-06-10 00:00:00,ELON/USDD,0.0000001906,0.0000001942,0.0000001644,0.0000001773,4264.97380763,23667355906,2018.6484971,11185758829,965,0.0000001803
1686268800000,2023-06-09 00:00:00,ELON/USDD,0.0000001893,0.0000001954,0.0000001706,0.0000001914,4327.31940584,22824524564,2329.15334158,12282816380,887,0.0000001896
1686182400000,2023-06-08 00:00:00,ELON/USDD,0.0000001937,0.0000001945,0.0000001706,0.0000001893,4471.66397564,23758212378,2272.34435029,12082484865,960,0.0000001882
1686096000000,2023-06-07 00:00:00,ELON/USDD,0.0000002004,0.0000002097,0.0000001734,0.0000001939,4380.09935789,22304664557,2268.51047383,11563170001,952,0.0000001964
1686009600000,2023-06-06 00:00:00,ELON/USDD,0.0000001941,0.0000002118,0.0000001737,0.0000002004,4795.67558545,24433960920,2421.51131053,12362217247,935,0.0000001963
1685923200000,2023-06-05 00:00:00,ELON/USDD,0.0000002076,0.0000002116,0.0000001741,0.0000001942,4737.75370084,23650693204,2012.89700435,10046296936,945,0.0000002004
1685836800000,2023-06-04 00:00:00,ELON/USDD,0.0000002112,0.0000002161,0.0000002009,0.0000002072,4465.80179008,21333230682,2140.6810744,10220828334,912,0.0000002093
1685750400000,2023-06-03 00:00:00,ELON/USDD,0.0000002089,0.0000002164,0.0000002056,0.0000002108,4357.03121255,20576791342,2242.29672454,10581334860,922,0.0000002117
1685664000000,2023-06-02 00:00:00,ELON/USDD,0.0000002047,0.0000002133,0.000000201,0.0000002086,4090.24728241,19894217186,1953.00713136,9504183824,907,0.0000002056
1685577600000,2023-06-01 00:00:00,ELON/USDD,0.000000203,0.0000002111,0.0000002001,0.0000002033,4110.4476202,20283406756,2043.73713507,10083187991,928,0.0000002026
1685491200000,2023-05-31 00:00:00,ELON/USDD,0.0000002094,0.0000002152,0.0000002001,0.0000002029,5237.24657825,25530892579,2898.75848703,14147257864,973,0.0000002051
1685404800000,2023-05-30 00:00:00,ELON/USDD,0.0000002152,0.0000002174,0.0000002052,0.0000002089,4499.09633739,21010516782,2104.18866797,9820046867,928,0.0000002141
1685318400000,2023-05-29 00:00:00,ELON/USDD,0.0000002087,0.0000002172,0.0000002087,0.0000002161,4374.26366004,20573963528,2271.19064549,10681697107,855,0.0000002126
1685232000000,2023-05-28 00:00:00,ELON/USDD,0.0000002085,0.0000002168,0.0000001873,0.0000002092,4245.79362854,20309497230,2284.11756923,10928684522,908,0.000000209
1685145600000,2023-05-27 00:00:00,ELON/USDD,0.0000001978,0.0000002145,0.0000001973,0.0000002083,4130.81179329,20050785634,2048.75422421,9950717674,887,0.000000206
1685059200000,2023-05-26 00:00:00,ELON/USDD,0.0000001996,0.0000002039,0.0000001767,0.0000001977,4399.41061676,22131516002,2139.01841777,10764710102,886,0.0000001988
1684972800000,2023-05-25 00:00:00,ELON/USDD,0.0000001896,0.0000002011,0.0000001723,0.0000002001,3894.66305606,20081179414,1920.93919219,9907457623,807,0.000000194
1684886400000,2023-05-24 00:00:00,ELON/USDD,0.0000002018,0.0000002034,0.0000001727,0.0000001959,3924.59116389,20018316148,1934.49627502,9864844542,842,0.0000001961
1684800000000,2023-05-23 00:00:00,ELON/USDD,0.0000001997,0.0000002047,0.0000001773,0.0000002031,4574.15455166,22907503200,2327.27783579,11661143019,914,0.0000001997
1684713600000,2023-05-22 00:00:00,ELON/USDD,0.0000002009,0.0000002027,0.0000001763,0.0000001993,4298.97997487,21670233508,2255.56726405,11376540636,914,0.0000001984
1684627200000,2023-05-21 00:00:00,ELON/USDD,0.0000002022,0.0000002038,0.0000001927,0.000000201,5133.67856041,25518580731,2582.37460127,12834667808,1056,0.0000002011
1684540800000,2023-05-20 00:00:00,ELON/USDD,0.0000002077,0.0000002121,0.0000001767,0.000000201,4319.09601751,21695932576,2177.51469565,10939438504,927,0.0000001991
1684454400000,2023-05-19 00:00:00,ELON/USDD,0.0000002046,0.000000212,0.0000001775,0.0000002025,5198.24599838,25928774604,2520.26488209,12572847885,1001,0.0000002005
1684368000000,2023-05-18 00:00:00,ELON/USDD,0.0000002063,0.000000217,0.0000001969,0.0000002004,5737.83550963,27654360732,2900.86563687,13969668415,1206,0.0000002075
1684281600000,2023-05-17 00:00:00,ELON/USDD,0.0000002079,0.0000002178,0.0000002023,0.000000208,6085.46583302,28921284703,2906.94904971,13807809843,1246,0.0000002104
1684195200000,2023-05-16 00:00:00,ELON/USDD,0.0000002097,0.0000002193,0.0000002023,0.0000002077,5220.69414876,24655488172,2668.42306581,12598804304,1126,0.0000002118
1684108800000,2023-05-15 00:00:00,ELON/USDD,0.000000215,0.000000219,0.0000002015,0.0000002099,5298.27113413,24830061393,2648.24689156,12408110226,1151,0.0000002134
1684022400000,2023-05-14 00:00:00,ELON/USDD,0.0000002208,0.0000002213,0.0000002126,0.0000002152,5653.10617117,26089799406,2839.55344962,13106432331,1252,0.0000002166
1683936000000,2023-05-13 00:00:00,ELON/USDD,0.0000002155,0.0000002242,0.0000002136,0.0000002204,6389.68724568,29433050432,3248.21834373,14961841213,1290,0.0000002171
1683849600000,2023-05-12 00:00:00,ELON/USDD,0.0000002146,0.0000002221,0.0000002063,0.0000002156,6153.23089101,28937894466,3056.8129435,14379473911,1277,0.0000002126
1683763200000,2023-05-11 00:00:00,ELON/USDD,0.0000002243,0.0000002286,0.0000002051,0.0000002108,5877.94789458,27411187029,3007.64256217,14032311196,1224,0.0000002145
1683676800000,2023-05-10 00:00:00,ELON/USDD,0.0000002238,0.0000002296,0.000000215,0.0000002247,5959.9301613,26442300676,2955.78899185,13111256164,1245,0.0000002254
1683590400000,2023-05-09 00:00:00,ELON/USDD,0.0000002305,0.0000002368,0.0000002146,0.0000002237,4799.59577866,21163617193,2322.47517056,10239213447,1167,0.0000002268
1683504000000,2023-05-08 00:00:00,ELON/USDD,0.0000002401,0.0000002404,0.0000002191,0.0000002295,3363.85426179,14444652291,1628.56299686,6985533697,1226,0.0000002329
1683417600000,2023-05-07 00:00:00,ELON/USDD,0.0000002468,0.0000002635,0.0000002213,0.0000002398,2703.90547163,11070924771,1272.05110135,5209701188,1022,0.0000002443
1683331200000,2023-05-06 00:00:00,ELON/USDD,0.0000002588,0.0000002703,0.0000002237,0.0000002472,4372.95920207,17490554368,2471.70821221,9854596057,1316,0.0000002502
1683244800000,2023-05-05 00:00:00,ELON/USDD,0.0000002555,0.0000002692,0.0000002288,0.0000002618,5496.657006,22083405791,3455.28569345,14028732196,1278,0.0000002493
1683158400000,2023-05-04 00:00:00,ELON/USDD,0.0000002618,0.0000002721,0.0000002477,0.0000002551,3290.34339055,12750325193,1635.03493299,6337422792,1203,0.0000002581
1683072000000,2023-05-03 00:00:00,ELON/USDD,0.0000002731,0.0000002909,0.0000002531,0.0000002621,4089.40823174,15517296905,2356.28968659,8947740544,1209,0.0000002636
1682985600000,2023-05-02 00:00:00,ELON/USDD,0.0000002503,0.0000002941,0.0000002444,0.0000002728,3408.70697565,12976451746,1800.0682775,6789830118,1067,0.0000002634
1682899200000,2023-05-01 00:00:00,ELON/USDD,0.0000002605,0.0000002639,0.0000002432,0.0000002506,3334.45638536,13170338266,1645.21356758,6497712426,1186,0.0000002532
1682812800000,2023-04-30 00:00:00,ELON/USDD,0.0000002679,0.0000002698,0.0000002528,0.0000002601,3807.53916105,14469109882,1954.00201253,7433250776,1270,0.0000002631
1682726400000,2023-04-29 00:00:00,ELON/USDD,0.0000002734,0.0000002738,0.000000256,0.0000002679,3674.39590994,13662990962,1752.94676455,6514938611,1257,0.0000002689
1682640000000,2023-04-28 00:00:00,ELON/USDD,0.0000002762,0.0000002828,0.0000002001,0.0000002694,3889.8796738,14489208889,1965.66115478,7308368925,1201,0.0000002685
1682553600000,2023-04-27 00:00:00,ELON/USDD,0.0000002771,0.0000002851,0.0000002605,0.0000002755,3643.56162885,13255254075,1912.89511027,6964160242,1194,0.0000002749
1682467200000,2023-04-26 00:00:00,ELON/USDD,0.0000002819,0.0000003146,0.0000002702,0.0000002784,3058.62564668,10765996870,1614.35025585,5689142998,1064,0.0000002842
1682380800000,2023-04-25 00:00:00,ELON/USDD,0.0000002746,0.000000308,0.0000002665,0.0000002819,2936.76096804,10690948329,1280.1125272,4664622252,1021,0.0000002747
1682294400000,2023-04-24 00:00:00,ELON/USDD,0.0000002824,0.0000003042,0.0000002685,0.0000002827,3530.12363332,12694912774,1822.3690173,6555493838,1130,0.0000002781
1682208000000,2023-04-23 00:00:00,ELON/USDD,0.0000002966,0.0000003127,0.0000002779,0.0000002824,3659.21591826,12798701413,1807.95216405,6324073151,1317,0.0000002859
1682121600000,2023-04-22 00:00:00,ELON/USDD,0.0000002888,0.0000003153,0.0000002776,0.0000002966,3415.77940689,11744555866,1744.4559218,5993408172,1187,0.0000002909
1682035200000,2023-04-21 00:00:00,ELON/USDD,0.0000002932,0.0000003191,0.0000002759,0.0000002906,12270.84428046,41302340363,1656.12309637,5632556551,1196,0.0000002971
1681948800000,2023-04-20 00:00:00,ELON/USDD,0.000000311,0.0000003271,0.0000002809,0.0000002936,4675.93615005,15217499560,2293.68174701,7506077530,1248,0.0000003074
1681862400000,2023-04-19 00:00:00,ELON/USDD,0.0000003298,0.0000003363,0.0000003069,0.0000003113,3548.33233238,11063503246,1714.58711373,5338632791,1302,0.0000003208
1681776000000,2023-04-18 00:00:00,ELON/USDD,0.0000003325,0.0000003403,0.0000003025,0.0000003312,3791.0396134,11427888566,1826.62809259,5503644643,1200,0.0000003317
1681689600000,2023-04-17 00:00:00,ELON/USDD,0.0000003502,0.0000003503,0.0000003194,0.0000003322,3655.48146288,10895313817,1986.86952628,5925654418,1226,0.0000003355
1681603200000,2023-04-16 00:00:00,ELON/USDD,0.0000003429,0.0000003529,0.0000003245,0.0000003506,3351.66337367,9808954516,1705.01959465,4989857968,1179,0.0000003417
1681516800000,2023-04-15 00:00:00,ELON/USDD,0.0000003409,0.0000003489,0.0000003273,0.0000003425,3626.30903435,10749825444,1505.21327499,4464435206,1178,0.0000003373
1681430400000,2023-04-14 00:00:00,ELON/USDD,0.0000003341,0.0000003514,0.0000003169,0.0000003407,3716.47013119,10977793640,1785.46337385,5269625542,1190,0.0000003386
1681344000000,2023-04-13 00:00:00,ELON/USDD,0.000000339,0.0000003467,0.0000003142,0.0000003335,3663.94301313,11120338687,1891.42726706,5738624756,1260,0.0000003295
1681257600000,2023-04-12 00:00:00,ELON/USDD,0.0000003265,0.0000003427,0.0000003025,0.0000003221,3457.12856845,10639130415,1815.42933045,5583344616,1215,0.0000003249
1681171200000,2023-04-11 00:00:00,ELON/USDD,0.000000344,0.0000003469,0.0000003154,0.0000003261,3321.88227164,10017303078,1721.74412605,5194560275,1168,0.0000003316
1681084800000,2023-04-10 00:00:00,ELON/USDD,0.0000003325,0.000000346,0.000000314,0.0000003314,23861.76723447,73051803682,12267.29823054,37573057174,1432,0.0000003266
1680998400000,2023-04-09 00:00:00,ELON/USDD,0.0000003275,0.0000003438,0.0000003025,0.0000003324,49791.90828117,153085328370,26540.93764635,81587135667,1582,0.0000003253
1680912000000,2023-04-08 00:00:00,ELON/USDD,0.0000003339,0.0000003368,0.0000003025,0.0000003279,88412.60178419,266396622089,45372.26930046,136681715329,2885,0.0000003319
1680825600000,2023-04-07 00:00:00,ELON/USDD,0.0000003433,0.0000003611,0.0000003319,0.0000003338,70909.46263795,209158522907,36076.83706956,106458770152,2212,0.000000339
1680739200000,2023-04-06 00:00:00,ELON/USDD,0.000000356,0.0000003881,0.0000003227,0.0000003436,88139.21217063,253530656615,46298.42512827,133154983534,2945,0.0000003477
1680652800000,2023-04-05 00:00:00,ELON/USDD,0.0000003513,0.0000003923,0.0000003216,0.0000003553,142848.36392751,402841994818,69593.52251478,196275193725,4507,0.0000003546
1680566400000,2023-04-04 00:00:00,ELON/USDD,0.0000003479,0.0000003925,0.0000003106,0.0000003512,130093.65346773,368338870181,65814.3457375,186419373228,4625,0.0000003533
1680480000000,2023-04-03 00:00:00,ELON/USDD,0.0000003281,0.0000003925,0.0000002951,0.0000003479,146643.74163112,440876666146,74731.48497281,224591060283,4904,0.000000333
1680393600000,2023-04-02 00:00:00,ELON/USDD,0.0000003398,0.0000003593,0.0000002943,0.0000003272,166341.08159429,494055803326,79093.78982601,234853317528,5332,0.0000003368
1680307200000,2023-04-01 00:00:00,ELON/USDD,0.0000003425,0.0000003594,0.0000002943,0.0000003397,137165.18009932,408081495004,65109.39154923,193769243513,5024,0.0000003362
1680220800000,2023-03-31 00:00:00,ELON/USDD,0.0000003295,0.0000003927,0.0000002938,0.0000003428,127715.82045374,381324019308,66289.25227361,197890616129,4229,0.0000003351
1680134400000,2023-03-30 00:00:00,ELON/USDD,0.000000341,0.0000003925,0.0000003225,0.000000332,749595.26523692,2214196685335,376224.10874323,1111202784854,4059,0.0000003386
1680048000000,2023-03-29 00:00:00,ELON/USDD,0.0000003419,0.0000003664,0.000000321,0.0000003409,267651.1426828,780849046706,148480.66828354,432509473374,4681,0.0000003428
1679961600000,2023-03-28 00:00:00,ELON/USDD,0.0000003238,0.0000003418,0.0000003017,0.0000003418,132492.8178604,413170142209,65629.64431789,204663698215,7573,0.0000003206
1679875200000,2023-03-27 00:00:00,ELON/USDD,0.0000003368,0.0000003501,0.0000003153,0.0000003239,69176.39638807,209593203070,36035.24591918,109160906764,4467,0.0000003302
1679788800000,2023-03-26 00:00:00,ELON/USDD,0.0000003361,0.0000003666,0.00000033,0.0000003369,38008.49565417,112361244117,18266.84175069,54011996137,3798,0.0000003382
1679702400000,2023-03-25 00:00:00,ELON/USDD,0.0000003438,0.0000003675,0.0000003287,0.0000003362,39493.68668433,116341399153,19176.14082174,56489326641,3616,0.0000003394
1679616000000,2023-03-24 00:00:00,ELON/USDD,0.0000003508,0.0000003581,0.0000003284,0.0000003439,24098.32636481,69527117170,11773.79501741,33959343172,2172,0.0000003466
1679529600000,2023-03-23 00:00:00,ELON/USDD,0.0000003382,0.0000003748,0.0000003375,0.0000003509,41866.62066018,121316682486,20933.41074047,60656729329,4028,0.0000003451
1679443200000,2023-03-22 00:00:00,ELON/USDD,0.0000003527,0.0000004026,0.0000003317,0.0000003383,42088.54338546,120183406910,20983.73904377,59917683587,4444,0.0000003502
1679356800000,2023-03-21 00:00:00,ELON/USDD,0.0000003512,0.000000378,0.0000003105,0.0000003531,21948.01669779,62283207811,11066.57088456,31384350240,2624,0.0000003524
1679270400000,2023-03-20 00:00:00,ELON/USDD,0.0000003697,0.0000003737,0.0000003417,0.0000003511,36064.95231409,100958208372,17899.4158881,50119410362,3243,0.0000003573
1679184000000,2023-03-19 00:00:00,ELON/USDD,0.0000003633,0.000000402,0.0000002727,0.0000003696,31411.38580843,86248340571,15743.25632884,43204162397,3230,0.0000003643
1679097600000,2023-03-18 00:00:00,ELON/USDD,0.0000003785,0.0000003919,0.0000003485,0.0000003634,31994.14175223,85711987257,16420.26474358,43995450256,3429,0.0000003733
1679011200000,2023-03-17 00:00:00,ELON/USDD,0.0000003454,0.0000003817,0.0000003435,0.0000003784,33497.61343085,93197728775,16772.13099505,46690579776,3399,0.0000003595
1678924800000,2023-03-16 00:00:00,ELON/USDD,0.0000003494,0.0000003657,0.0000003336,0.0000003455,39303.53693608,112766493328,19284.74085035,55322209235,3457,0.0000003485
1678838400000,2023-03-15 00:00:00,ELON/USDD,0.0000003703,0.0000003864,0.0000003401,0.0000003495,33924.42160051,93728666670,16766.92197878,46359569262,3447,0.0000003623
1678752000000,2023-03-14 00:00:00,ELON/USDD,0.0000003731,0.000000402,0.0000003604,0.0000003702,32672.21497991,86862928847,16179.68890608,43036451622,3396,0.0000003762
1678665600000,2023-03-13 00:00:00,ELON/USDD,0.0000003604,0.0000003879,0.0000003437,0.0000003732,30979.84932253,85147558808,16072.25983526,44138758448,2948,0.000000364
1678579200000,2023-03-12 00:00:00,ELON/USDD,0.0000003367,0.0000003635,0.0000003234,0.0000003592,24122.97355475,71531571763,12497.39913602,37054259337,2597,0.0000003373
1678492800000,2023-03-11 00:00:00,ELON/USDD,0.0000003223,0.0000003617,0.000000297,0.0000003375,22861.72126574,67427741873,12126.63481175,35670265611,2554,0.0000003392
1678406400000,2023-03-10 00:00:00,ELON/USDD,0.000000321,0.0000003345,0.0000002725,0.0000003222,23354.1647601,73243645845,11124.88646269,34655794426,2686,0.0000003192
1678320000000,2023-03-09 00:00:00,ELON/USDD,0.0000003376,0.0000003521,0.0000003022,0.0000003207,20773.33199032,62048266708,10698.99545155,31921495434,2828,0.0000003349
1678233600000,2023-03-08 00:00:00,ELON/USDD,0.0000003365,0.000000364,0.0000003148,0.0000003377,16800.20605235,49836631945,8608.62982084,25532755114,2072,0.0000003372
1678147200000,2023-03-07 00:00:00,ELON/USDD,0.000000344,0.0000003661,0.0000003216,0.0000003365,31071.75486436,90168648556,15684.48458489,45488468293,3889,0.0000003446
1678060800000,2023-03-06 00:00:00,ELON/USDD,0.0000003616,0.0000003875,0.0000003005,0.0000003452,37894.15400949,107409590399,18680.31427269,52794708264,4705,0.000000353
1677974400000,2023-03-05 00:00:00,ELON/USDD,0.0000003919,0.0000004008,0.0000003615,0.0000003615,25808.60748002,69226233798,12871.49229909,34536149064,3471,0.0000003728
1677888000000,2023-03-04 00:00:00,ELON/USDD,0.0000003864,0.0000004057,0.00000037,0.00000037,35620.70569498,91982408394,14288.33783913,36747764675,3910,0.0000003873
1677801600000,2023-03-03 00:00:00,ELON/USDD,0.0000004034,0.0000004229,0.0000003615,0.0000003865,48130.65099253,122621845244,25656.38813214,64732708949,4725,0.0000003929
1677715200000,2023-03-02 00:00:00,ELON/USDD,0.0000004224,0.0000004299,0.0000003874,0.0000004103,94988.6588193,228445074756,46162.28783502,110756785386,9010,0.0000004159
1677628800000,2023-03-01 00:00:00,ELON/USDD,0.0000004202,0.0000004298,0.0000004001,0.0000004223,73004.07940557,174024928519,36970.07910661,88132396718,6854,0.0000004195
1677542400000,2023-02-28 00:00:00,ELON/USDD,0.0000004087,0.0000004381,0.0000004003,0.0000004203,54775.85902758,130303424926,27172.42068388,64639275918,5465,0.0000004204
1677456000000,2023-02-27 00:00:00,ELON/USDD,0.0000004374,0.000000476,0.0000004167,0.0000004177,58568.02042587,134370690682,28829.90511375,66136424910,6321,0.0000004359
1677369600000,2023-02-26 00:00:00,ELON/USDD,0.0000004235,0.0000004467,0.0000003983,0.0000004375,58576.40814673,138517916990,29821.95727023,70530842139,6354,0.0000004229
1677283200000,2023-02-25 00:00:00,ELON/USDD,0.000000424,0.000000439,0.000000398,0.0000004225,91193.59187597,217481308063,46188.62245806,110164756919,8503,0.0000004194
1677196800000,2023-02-24 00:00:00,ELON/USDD,0.0000004466,0.0000004755,0.0000004085,0.0000004241,94847.10290538,216522539445,47341.45843188,108045941828,9115,0.0000004383
1677110400000,2023-02-23 00:00:00,ELON/USDD,0.0000004509,0.0000004826,0.0000004306,0.0000004467,118383.86734689,260658353594,60366.2680228,132909450147,11384,0.0000004543
1677024000000,2023-02-22 00:00:00,ELON/USDD,0.0000004483,0.0000004679,0.0000004097,0.0000004431,14117.27224731,32294672085,6699.15089746,15317850061,1263,0.0000004373
1676937600000,2023-02-21 00:00:00,ELON/USDD,0.0000004718,0.0000004761,0.0000004235,0.0000004412,105915.01076028,232630229323,52707.07446914,115814308856,10711,0.0000004555
1676851200000,2023-02-20 00:00:00,ELON/USDD,0.0000004719,0.00000049,0.0000004525,0.0000004719,93728.75041272,197577143742,45746.12147811,96386372582,9085,0.0000004744
1676764800000,2023-02-19 00:00:00,ELON/USDD,0.0000004705,0.000000488,0.0000004512,0.0000004773,78161.2222986,166099798547,39192.54159904,83309569918,7577,0.0000004706
1676678400000,2023-02-18 00:00:00,ELON/USDD,0.0000004853,0.0000005206,0.0000004509,0.0000004636,72396.52497206,150009952294,35715.1174413,74007154777,6822,0.000000483
1676592000000,2023-02-17 00:00:00,ELON/USDD,0.0000004015,0.0000005137,0.0000003986,0.000000488,107785.70786718,233319104421,58919.59467264,127296922372,8981,0.0000004645
1676505600000,2023-02-16 00:00:00,ELON/USDD,0.0000004276,0.000000436,0.0000004015,0.0000004015,122373.62516933,287406287636,57260.68489144,134085990428,9602,0.0000004258
1676419200000,2023-02-15 00:00:00,ELON/USDD,0.0000003976,0.0000004317,0.0000003811,0.0000004276,117089.35827756,288920162906,64310.47587923,158260281847,9529,0.0000004056
1676332800000,2023-02-14 00:00:00,ELON/USDD,0.000000383,0.0000003982,0.0000003707,0.0000003957,124599.47617095,321669968582,61226.93678464,158033160016,11790,0.0000003874
1676246400000,2023-02-13 00:00:00,ELON/USDD,0.0000003882,0.0000003991,0.0000003705,0.0000003821,66503.88137193,172973143236,33435.02897966,86954982680,6459,0.0000003846
1676160000000,2023-02-12 00:00:00,ELON/USDD,0.0000004015,0.0000004077,0.0000003737,0.0000003866,79572.70100153,198914405539,40078.49469438,100126373603,6722,0.0000004
1676073600000,2023-02-11 00:00:00,ELON/USDD,0.0000003744,0.000000401,0.0000003548,0.0000003995,68135.0668307025,178393914296,34712.9885295714,90807571312,6709,0.000000382176180432
1675987200000,2023-02-10 00:00:00,ELON/USDD,0.0000003682,0.0000003976,0.0000003518,0.0000003744,48668.5767776275,131592381029,24378.2750666479,65933182695,4233,0.00000036988636636
1675900800000,2023-02-09 00:00:00,ELON/USDD,0.0000004063,0.0000004077,0.0000003503,0.000000358,105803.7778880825,270421179055,52048.5183927077,133065354586,9823,0.000000391600577224
1675814400000,2023-02-08 00:00:00,ELON/USDD,0.0000004235,0.0000004264,0.0000004044,0.0000004062,70001.8179057038,167730672251,31114.7451160689,74433042723,6511,0.000000417468949329
1675728000000,2023-02-07 00:00:00,ELON/USDD,0.0000004166,0.000000427,0.0000003987,0.0000004234,109383.0067001681,264294585618,55667.7584415002,134386036837,7896,0.000000413988504819
1675641600000,2023-02-06 00:00:00,ELON/USDD,0.0000004197,0.000000427,0.0000004096,0.0000004165,128758.052477879,308272511866,64749.9656634419,154961738494,11722,0.000000417706486762
1675555200000,2023-02-05 00:00:00,ELON/USDD,0.0000004148,0.0000004466,0.0000004044,0.0000004175,112962.5163733378,265681855095,58511.8022040999,137447633934,7313,0.000000425467853995
1675468800000,2023-02-04 00:00:00,ELON/USDD,0.0000003739,0.0000004747,0.0000003552,0.0000004147,190461.521199265,470651954690,102446.6034697737,255743384091,11099,0.000000406105293281
1675382400000,2023-02-03 00:00:00,ELON/USDD,0.000000366,0.0000003873,0.0000003581,0.0000003708,119888.3698612512,324843925435,59633.8403861227,161580498773,12602,0.000000369100624474
1675296000000,2023-02-02 00:00:00,ELON/USDD,0.0000003727,0.0000003873,0.0000003558,0.0000003723,91184.4462225865,246665863401,45196.5927414501,122220566858,9252,0.000000369752291219
1675209600000,2023-02-01 00:00:00,ELON/USDD,0.0000003509,0.000000375,0.0000003401,0.0000003721,135636.523104275,381477993622,68223.7091159811,191789435171,12769,0.00000035567124761
1675123200000,2023-01-31 00:00:00,ELON/USDD,0.0000003371,0.0000003576,0.0000003359,0.0000003478,44582.368814237,129418636263,22213.1847266607,64481060547,4489,0.00000034453161094
1675036800000,2023-01-30 00:00:00,ELON/USDD,0.000000358,0.000000375,0.0000003315,0.0000003412,101437.1471973416,291019799684,50530.3499747883,145028180133,9824,0.000000348803982741
1674950400000,2023-01-29 00:00:00,ELON/USDD,0.0000003294,0.0000003749,0.0000003256,0.0000003579,101498.592228798,292938910459,52263.4714047682,150782609028,8617,0.000000346971464593
1674864000000,2023-01-28 00:00:00,ELON/USDD,0.0000003339,0.0000003483,0.0000003187,0.0000003295,123676.7138669588,372896147316,62502.3043149271,188444353635,13231,0.000000331692003825
1674777600000,2023-01-27 00:00:00,ELON/USDD,0.0000003292,0.0000003403,0.0000003169,0.0000003301,116135.7941090128,355151339002,58439.6459594192,178727933599,10788,0.00000032706303962
1674691200000,2023-01-26 00:00:00,ELON/USDD,0.0000003324,0.0000003482,0.0000003105,0.0000003293,68496.9062560241,208234360688,34294.3797624477,104228280974,6839,0.000000328984629284
1674604800000,2023-01-25 00:00:00,ELON/USDD,0.0000003167,0.0000003397,0.0000003087,0.0000003323,89990.9597192925,277579587973,44695.6912868863,137830191958,8117,0.000000324251285491
1674518400000,2023-01-24 00:00:00,ELON/USDD,0.0000003361,0.0000003627,0.0000003082,0.0000003169,145685.4751499848,430237160247,69360.0950667074,204774877337,13439,0.000000338798191949
1674432000000,2023-01-23 00:00:00,ELON/USDD,0.0000003347,0.0000003494,0.0000003101,0.000000336,108839.2917790733,320422101006,51187.030237343,150644968569,11909,0.000000339722770652
1674345600000,2023-01-22 00:00:00,ELON/USDD,0.0000003487,0.0000003548,0.0000003204,0.0000003347,99357.0865095431,293357261917,49347.9713518041,145674281030,10181,0.000000338777258977
1674259200000,2023-01-21 00:00:00,ELON/USDD,0.0000003541,0.0000003549,0.000000336,0.0000003485,100175.3158299734,289941136810,49291.8231401922,142628661687,10018,0.000000345519456914
1674172800000,2023-01-20 00:00:00,ELON/USDD,0.000000326,0.000000362,0.0000003098,0.0000003542,136996.1776643028,417575892157,68001.7456367975,207398022765,12817,0.000000328361083403
1674086400000,2023-01-19 00:00:00,ELON/USDD,0.0000003394,0.0000003549,0.0000003006,0.000000326,64398.5389012882,201740765873,30945.9129158753,96899130486,5735,0.000000319255356288
1674000000000,2023-01-18 00:00:00,ELON/USDD,0.0000003342,0.0000003634,0.0000003006,0.0000003063,123679.3977013383,361857124018,69704.6257261682,202896978828,10887,0.00000034210509668
1673913600000,2023-01-17 00:00:00,ELON/USDD,0.0000003421,0.0000003573,0.0000003219,0.0000003342,101344.2518570226,302045467465,48607.7126073537,144815798484,8730,0.000000335562086385
1673827200000,2023-01-16 00:00:00,ELON/USDD,0.000000335,0.0000003614,0.00000033,0.0000003422,75102.7450618422,219577168898,36246.0033023608,105887844422,7601,0.000000342119686539
1673740800000,2023-01-15 00:00:00,ELON/USDD,0.0000003436,0.00000036,0.0000003103,0.0000003409,111237.3608662838,332116256364,54693.1193575395,163278078556,10967,0.000000334993785241
1673654400000,2023-01-14 00:00:00,ELON/USDD,0.0000003234,0.0000003612,0.0000003192,0.0000003435,72481.0336443991,211652735958,37339.2431461659,109111391168,6923,0.000000342572871059
1673568000000,2023-01-13 00:00:00,ELON/USDD,0.0000003086,0.0000003323,0.0000002789,0.0000003242,109583.5221561756,352339680197,54424.0721727521,174873034256,10370,0.000000311250886411
1673481600000,2023-01-12 00:00:00,ELON/USDD,0.0000002999,0.000000315,0.0000002933,0.0000003087,99056.3759124864,321619183303,48828.8565105304,158529243118,9444,0.00000030802898522
1673395200000,2023-01-11 00:00:00,ELON/USDD,0.0000003024,0.0000003089,0.0000002807,0.000000297,141080.4337068608,471392216255,68794.6868384914,229850294016,12682,0.000000299343277172
1673308800000,2023-01-10 00:00:00,ELON/USDD,0.0000002928,0.0000003147,0.0000002794,0.0000003023,83280.428714367,280058205138,41357.3505827813,139076318837,8544,0.000000297423660469
1673222400000,2023-01-09 00:00:00,ELON/USDD,0.0000002878,0.0000003105,0.0000002665,0.0000002927,106233.6846079976,356796475098,53956.4994350868,181095258596,9906,0.000000297831725221
1673136000000,2023-01-08 00:00:00,ELON/USDD,0.0000002806,0.000000315,0.0000002701,0.0000002879,26244.2537947115,90632240831,12905.5538846075,44572731803,3535,0.000000289587689527
1673049600000,2023-01-07 00:00:00,ELON/USDD,0.0000002845,0.0000003011,0.0000002785,0.0000002801,11348.9819575857,39264735760,5540.1423307021,19181798928,1517,0.000000289085262111
1672963200000,2023-01-06 00:00:00,ELON/USDD,0.0000002779,0.0000002837,0.0000002779,0.0000002837,1110.6685664046,3981051720,626.3984648092,2246672801,140,0.000000278994783621
1672876800000,2023-01-05 00:00:00,ELON/USDD,0.0000002871,0.0000002989,0.0000002778,0.0000002851,11563.4882702449,41015846028,6109.9779363375,21669901097,1347,0.000000281931326561
1672790400000,2023-01-04 00:00:00,ELON/USDD,0.000000302,0.000000308,0.0000002816,0.0000002891,26041.0395310041,89881829749,12759.8688899241,44051387349,3159,0.000000289773596979
1672704000000,2023-01-03 00:00:00,ELON/USDD,0.0000003001,0.0000003004,0.0000002752,0.0000002752,641.5694915337,2252743328,318.0429452418,1133223410,59,0.000000285097679805
1672617600000,2023-01-02 00:00:00,ELON/USDD,0.0000002965,0.000000308,0.0000002661,0.00000029,10109.2311231285,35115516999,5086.3976164119,17662380059,1027,0.00000028797557146
1672531200000,2023-01-01 00:00:00,ELON/USDD,0.0000002992,0.0000003013,0.0000002714,0.0000002851,28759.6320302908,99151462896,13778.2057135001,47466211313,2680,0.000000290092616599
1672444800000,2022-12-31 00:00:00,ELON/USDD,0.0000002856,0.0000002999,0.000000258,0.0000002861,78000.5220013773,273916747632,36385.0398220683,127815164850,7660,0.000000284814161694
1672358400000,2022-12-30 00:00:00,ELON/USDD,0.0000002832,0.0000002955,0.0000002722,0.0000002798,57159.3291948902,201214761500,28881.0313322859,101651595024,5518,0.000000284096597302
1672272000000,2022-12-29 00:00:00,ELON/USDD,0.000000288,0.0000003072,0.0000002712,0.0000002831,100842.3879995263,351518703108,47666.9183574552,166156528581,9368,0.000000286921308383
1672185600000,2022-12-28 00:00:00,ELON/USDD,0.0000002969,0.0000003147,0.000000285,0.0000002881,120163.6989702331,409172353416,54893.9141582395,186672088192,11568,0.000000293735934648
1672099200000,2022-12-27 00:00:00,ELON/USDD,0.0000003028,0.0000003091,0.0000002855,0.0000002913,93756.3087300871,313803476687,46181.5580179027,154547297653,8932,0.000000298814621182
1672012800000,2022-12-26 00:00:00,ELON/USDD,0.0000003033,0.0000003091,0.000000292,0.0000003027,77926.4169452061,257430909293,39117.8259060577,129217117413,7840,0.000000302714684232
1671926400000,2022-12-25 00:00:00,ELON/USDD,0.0000002921,0.000000315,0.0000002921,0.0000003035,59734.841312798,197859546259,30635.9183568301,101481596255,5462,0.000000301928123463
1671840000000,2022-12-24 00:00:00,ELON/USDD,0.0000002977,0.0000003123,0.0000002804,0.0000003056,43804.5100743036,145441967839,21830.7763793934,72484597173,4423,0.000000301214476028
1671753600000,2022-12-23 00:00:00,ELON/USDD,0.0000003036,0.000000315,0.0000002819,0.0000003149,69475.1383148251,232320876170,34727.8289296981,116093201779,8192,0.000000299075450157
1671667200000,2022-12-22 00:00:00,ELON/USDD,0.0000002918,0.000000315,0.0000002804,0.0000003033,95973.2365467003,327517924230,50254.8066774554,171514188439,9396,0.000000293057692226
1671580800000,2022-12-21 00:00:00,ELON/USDD,0.0000003016,0.0000003149,0.0000002803,0.0000002918,101930.2699965112,345199385973,50085.1510726806,169731065131,6978,0.000000295321681171
1671494400000,2022-12-20 00:00:00,ELON/USDD,0.000000293,0.0000003106,0.0000002801,0.0000003016,25149.4637714088,83140750383,13100.9713893271,43311770398,2624,0.000000302517895639
1671408000000,2022-12-19 00:00:00,ELON/USDD,0.0000003041,0.0000003323,0.0000002844,0.0000002922,11002.9245633306,35861981344,5379.8306004753,17532167207,1208,0.000000306894363528
1671321600000,2022-12-18 00:00:00,ELON/USDD,0.0000003027,0.0000003184,0.0000002876,0.0000003043,24039.7150511108,78844212390,12022.5457614959,39425374093,1361,0.000000304956657618
1671235200000,2022-12-17 00:00:00,ELON/USDD,0.0000002998,0.0000003125,0.0000002881,0.0000003025,21252.6215905117,71218473786,10326.8354945135,34619571416,1309,0.000000298451274319
1671148800000,2022-12-16 00:00:00,ELON/USDD,0.0000003077,0.0000003239,0.000000287,0.0000002993,29069.1165468424,94279782530,14682.9205082812,47659622029,1307,0.000000308457153741
1671062400000,2022-12-15 00:00:00,ELON/USDD,0.0000003486,0.0000003614,0.0000002911,0.0000003152,41696.4779393915,123264061316,20856.3355267979,61602931171,1245,0.000000338729601509
1670976000000,2022-12-14 00:00:00,ELON/USDD,0.000000354,0.000000375,0.0000003405,0.0000003489,45600.9526751588,127941439623,21210.1577219711,59569440542,1304,0.000000356520483578
1670889600000,2022-12-13 00:00:00,ELON/USDD,0.0000003384,0.000000375,0.0000003251,0.0000003539,43505.1145003815,124757096432,22709.2186572301,65074476795,1249,0.000000348977645326
1670803200000,2022-12-12 00:00:00,ELON/USDD,0.000000356,0.000000356,0.0000003319,0.0000003386,48984.1899194745,143651622568,25280.951640557,74183093306,1405,0.000000341089156511
1670716800000,2022-12-11 00:00:00,ELON/USDD,0.0000003542,0.000000375,0.0000003482,0.000000356,46545.5706483279,131709944010,22060.2612611282,62418784661,1401,0.000000353415481324
1670630400000,2022-12-10 00:00:00,ELON/USDD,0.0000003546,0.0000003562,0.0000003514,0.0000003542,47296.3050734644,133568943628,23064.2254948671,65132503009,1355,0.000000354098738123
1670544000000,2022-12-09 00:00:00,ELON/USDD,0.0000003559,0.000000375,0.000000336,0.0000003534,38094.5265877056,105417298210,19072.0323652669,52768311099,1164,0.000000361457343837
1670457600000,2022-12-08 00:00:00,ELON/USDD,0.0000003388,0.0000003698,0.0000003317,0.0000003559,40179.1138234109,117867703402,18386.5015168531,54009727868,1096,0.000000341102341743
1670371200000,2022-12-07 00:00:00,ELON/USDD,0.0000003587,0.0000003603,0.0000003386,0.0000003388,41565.8325544022,119667577360,21172.8241495958,60936166446,1261,0.000000347494595174
1670284800000,2022-12-06 00:00:00,ELON/USDD,0.0000003594,0.0000003711,0.000000353,0.0000003589,47285.9215819124,130348913806,24643.2985397883,67937637160,1544,0.000000362800801827
1670198400000,2022-12-05 00:00:00,ELON/USDD,0.0000003321,0.0000004145,0.0000003321,0.00000036,51327.2270233123,139013607893,27521.8074551572,74563818039,1724,0.000000370123316729
1670112000000,2022-12-04 00:00:00,ELON/USDD,0.0000003245,0.0000003354,0.000000312,0.0000003321,68628.360400596,212528610767,34010.3996272758,105309236590,1952,0.00000032297404758
1670025600000,2022-12-03 00:00:00,ELON/USDD,0.0000003249,0.0000003292,0.0000003119,0.0000003247,68939.4927440312,215544757837,36517.8040826473,114182336750,1995,0.000000319863503175
1669939200000,2022-12-02 00:00:00,ELON/USDD,0.0000003179,0.0000003275,0.0000003093,0.000000325,64527.5468383605,203922998700,31037.9059040281,98069887410,1904,0.000000316482289714
1669852800000,2022-12-01 00:00:00,ELON/USDD,0.000000331,0.0000003323,0.0000003128,0.0000003176,69398.0693147452,214698838535,36823.2497975022,113908560726,1871,0.000000323267031464
1669766400000,2022-11-30 00:00:00,ELON/USDD,0.0000002927,0.000000331,0.00000025,0.000000331,65613.9451744121,213699120091,33465.2104154938,108869070342,1911,0.000000307223141209
1669680000000,2022-11-29 00:00:00,ELON/USDD,0.0000002842,0.0000003008,0.0000002825,0.0000002926,61421.8128713893,210748648265,29281.5525810211,100398866900,1744,0.000000291482542786
1669593600000,2022-11-28 00:00:00,ELON/USDD,0.0000002972,0.0000003053,0.0000002782,0.0000002841,57975.8336173694,200780832548,28885.5420089907,100021159841,1729,0.000000288814035666
1669507200000,2022-11-27 00:00:00,ELON/USDD,0.0000002814,0.0000003154,0.0000002809,0.0000002969,65921.3634939638,225978956207,33853.122972771,115915862090,1963,0.000000291977917822
1669420800000,2022-11-26 00:00:00,ELON/USDD,0.0000002805,0.0000002931,0.0000002802,0.0000002814,53199.3067224742,186147725484,26405.9761285585,92403383887,1872,0.000000285812104341
1669334400000,2022-11-25 00:00:00,ELON/USDD,0.0000002756,0.0000002905,0.0000002652,0.0000002803,30966.4077103654,111925769256,15349.0484240409,55518076504,1784,0.000000276780307696
1669248000000,2022-11-24 00:00:00,ELON/USDD,0.0000002803,0.0000002998,0.0000002755,0.0000002758,29506.9606376373,104379665069,14992.1872059625,53004540897,1724,0.000000282719992729
1669161600000,2022-11-23 00:00:00,ELON/USDD,0.0000002731,0.0000002998,0.0000002706,0.0000002805,29213.298875139,104773895565,15375.8193613503,55140041100,1733,0.000000278878136438
1669075200000,2022-11-22 00:00:00,ELON/USDD,0.0000002693,0.0000002912,0.0000002611,0.0000002746,29626.4557830873,109397097444,14075.2088925911,52011048032,1647,0.000000270948336377
1668988800000,2022-11-21 00:00:00,ELON/USDD,0.0000002659,0.0000002829,0.0000002527,0.000000269,28212.2804827183,105660532457,14125.1448460905,52965095451,1769,0.000000267059381825
1668902400000,2022-11-20 00:00:00,ELON/USDD,0.0000002881,0.0000002912,0.0000002527,0.0000002657,33994.2872510049,121181393662,16652.1537782815,59367847999,1931,0.000000280673970715
1668816000000,2022-11-19 00:00:00,ELON/USDD,0.0000002852,0.0000003199,0.0000002787,0.0000002893,36705.4033225383,128435578266,18430.5861381762,64473888976,2318,0.000000285835546383
1668729600000,2022-11-18 00:00:00,ELON/USDD,0.0000002844,0.0000002869,0.000000275,0.0000002845,35818.5666501312,126446989910,17533.4574483099,61889026558,1941,0.000000283277845377
1668643200000,2022-11-17 00:00:00,ELON/USDD,0.0000002844,0.0000003226,0.0000002756,0.0000002846,40393.7081941175,142275461578,20438.4001865898,71988535999,2292,0.000000283997588621
1668556800000,2022-11-16 00:00:00,ELON/USDD,0.0000002921,0.000000298,0.0000002776,0.0000002866,39995.5004025604,138558593315,20159.9644928777,69886124619,2400,0.00000028874396081
1668470400000,2022-11-15 00:00:00,ELON/USDD,0.0000002918,0.0000003158,0.0000002873,0.0000002913,36967.0975104705,125013007281,17788.345007207,60117581016,2218,0.000000295745918752
1668384000000,2022-11-14 00:00:00,ELON/USDD,0.0000002901,0.0000003059,0.0000002747,0.0000002913,31127.7596282327,107709161323,15265.7780822175,52800690203,2353,0.000000289181977502
1668297600000,2022-11-13 00:00:00,ELON/USDD,0.0000003288,0.0000003417,0.0000002858,0.0000002901,42090.6164104342,131584381947,21391.2957793951,66885205983,2449,0.000000320365638575
1668211200000,2022-11-12 00:00:00,ELON/USDD,0.0000003469,0.0000003521,0.0000003283,0.0000003287,121227.7909576782,356040114554,61439.0676684885,180472737297,4558,0.00000034057190162
1668124800000,2022-11-11 00:00:00,ELON/USDD,0.0000003487,0.0000003608,0.000000325,0.0000003476,125335.1872249092,367813768260,64635.6157466258,189696625385,3680,0.000000340871930221
1668038400000,2022-11-10 00:00:00,ELON/USDD,0.0000002533,0.0000003863,0.0000002502,0.0000003486,190032.7454898436,641567375343,94924.7232019297,320950440142,4618,0.000000299088059674
1667952000000,2022-11-09 00:00:00,ELON/USDD,0.00000032,0.0000003202,0.0000002525,0.0000002532,50174.582225568,176378672898,24040.6347279073,84424802428,1421,0.000000286413049996
1667865600000,2022-11-08 00:00:00,ELON/USDD,0.0000003929,0.0000003991,0.000000283,0.0000003199,181666.778968105,514894605764,88286.4336556831,250296635383,5048,0.000000354503626063
1667779200000,2022-11-07 00:00:00,ELON/USDD,0.0000003946,0.0000004035,0.00000033,0.0000003928,218849.4240258707,554369109692,109515.2713732998,277301552690,5485,0.000000394829191211
1667692800000,2022-11-06 00:00:00,ELON/USDD,0.0000004292,0.0000004428,0.0000003924,0.0000003945,171410.2959462521,402489030343,87451.7249185272,205185157150,4365,0.0000004261492759
1667606400000,2022-11-05 00:00:00,ELON/USDD,0.0000004384,0.0000004593,0.0000004277,0.000000433,190989.1413716469,433149045791,96219.5376068619,218159689539,4914,0.000000441015255021
1667520000000,2022-11-04 00:00:00,ELON/USDD,0.0000004362,0.0000004567,0.0000004265,0.0000004385,250664.3599239599,572028705989,120057.3002522971,273943287696,6449,0.000000438272445546
1667433600000,2022-11-03 00:00:00,ELON/USDD,0.0000004615,0.000000496,0.0000004275,0.0000004361,287776.0220968911,618514283211,139333.8232853675,299424814734,7014,0.000000465549527261
1667347200000,2022-11-02 00:00:00,ELON/USDD,0.0000004514,0.0000005395,0.0000004443,0.0000004614,288391.122078471,608003646206,144983.6472043345,305469962745,7995,0.000000475093170753
1667260800000,2022-11-01 00:00:00,ELON/USDD,0.000000418,0.0000005,0.0000004122,0.0000004515,203048.3592819521,458630618901,102328.1788696424,230951567004,5516,0.000000443235658596
1667174400000,2022-10-31 00:00:00,ELON/USDD,0.0000003955,0.0000004257,0.0000003817,0.0000004181,270931.6110585486,678475877078,141693.1449019061,354607274710,10932,0.00000039956771187
1667088000000,2022-10-30 00:00:00,ELON/USDD,0.0000004476,0.0000005108,0.0000003697,0.0000003956,289669.1277213461,677544427070,151771.3590082211,353382818518,16756,0.000000430854876672
1667001600000,2022-10-29 00:00:00,ELON/USDD,0.0000002909,0.0000005554,0.000000289,0.000000447,232354.5781820478,596889776070,122679.2095414462,315238550243,12841,0.000000397830096326
1666915200000,2022-10-28 00:00:00,ELON/USDD,0.0000002715,0.000000294,0.0000002658,0.0000002909,141626.6436866388,516513499193,71585.9179317309,261097925049,4094,0.000000274469747165
1666828800000,2022-10-27 00:00:00,ELON/USDD,0.0000002744,0.0000002918,0.00000027,0.0000002729,152236.6972741049,547169557022,73854.6618210378,265442349696,4192,0.000000278312488812
1666742400000,2022-10-26 00:00:00,ELON/USDD,0.0000002558,0.0000002766,0.0000002544,0.0000002745,115393.5428417436,432001170894,61712.1813060434,231229879993,3409,0.000000267224578835
1666656000000,2022-10-25 00:00:00,ELON/USDD,0.0000002417,0.000000261,0.0000002388,0.0000002559,130325.8606730844,529258716084,64160.8464246808,260288730284,3773,0.000000246347596871
1666569600000,2022-10-24 00:00:00,ELON/USDD,0.0000002496,0.0000002501,0.0000002388,0.0000002416,240707.1475756474,984013012202,119821.9838140421,489725912752,5661,0.000000244645448755
1666483200000,2022-10-23 00:00:00,ELON/USDD,0.0000002431,0.0000002505,0.0000002378,0.0000002496,199761.2787301822,820406037875,103345.3410625288,424561102111,5693,0.000000243529313965
1666396800000,2022-10-22 00:00:00,ELON/USDD,0.00000024,0.0000002499,0.000000236,0.0000002429,109720.9812947589,448755394714,54913.5803306016,224583869986,3104,0.000000244542824219
1666310400000,2022-10-21 00:00:00,ELON/USDD,0.0000002433,0.0000002484,0.0000002354,0.0000002401,166308.7191935628,690170081680,81700.8590356146,339071812748,5134,0.000000240972239343
1666224000000,2022-10-20 00:00:00,ELON/USDD,0.0000002448,0.0000002497,0.0000002405,0.0000002432,137860.6961161735,559884099526,69314.3215612501,281462176705,4305,0.000000246249616512
1666137600000,2022-10-19 00:00:00,ELON/USDD,0.0000002538,0.0000002547,0.0000002449,0.0000002451,191301.3334821902,764111532757,95118.6916315503,379803723349,4947,0.000000250379978242
1666051200000,2022-10-18 00:00:00,ELON/USDD,0.0000002692,0.00000027,0.0000002513,0.0000002542,216342.696238918,823025435981,108672.8362553336,413466208254,5874,0.000000262992826199
1665964800000,2022-10-17 00:00:00,ELON/USDD,0.0000002634,0.0000002693,0.0000002548,0.0000002693,305293.6874141314,1166255989313,154884.9319168156,591586984135,8356,0.000000261834920141
1665878400000,2022-10-16 00:00:00,ELON/USDD,0.0000002498,0.0000002648,0.0000002493,0.0000002634,144484.0616530012,564255899968,72211.328814893,281973762384,4277,0.000000256133964222
1665792000000,2022-10-15 00:00:00,ELON/USDD,0.000000245,0.0000002652,0.0000002407,0.0000002497,313556.1551094619,1262828259791,158654.3917980555,638856259262,8467,0.000000248385123754
1665705600000,2022-10-14 00:00:00,ELON/USDD,0.0000002498,0.0000002549,0.0000002409,0.0000002456,132991.1489182787,532923452724,65891.5497396539,264062470438,4038,0.000000249574806544
1665619200000,2022-10-13 00:00:00,ELON/USDD,0.0000002472,0.000000252,0.00000023,0.0000002497,306365.6993287131,1257282208863,157303.6504962104,645345458238,7961,0.000000243765043369
1665532800000,2022-10-12 00:00:00,ELON/USDD,0.0000002475,0.0000002515,0.0000002422,0.0000002471,290743.7683389076,1170171117225,146746.4982177893,590618759625,7411,0.000000248474563564
1665446400000,2022-10-11 00:00:00,ELON/USDD,0.0000002515,0.0000002545,0.0000002417,0.0000002475,309460.1880334007,1254043499316,157993.7811921218,640261579964,8754,0.000000246784048778
1665360000000,2022-10-10 00:00:00,ELON/USDD,0.0000002602,0.0000002674,0.0000002421,0.0000002515,270087.6902813014,1061039023311,132031.4702587468,518783147982,7302,0.000000254617767824
1665273600000,2022-10-09 00:00:00,ELON/USDD,0.0000002605,0.0000002653,0.0000002501,0.0000002559,210305.7432429582,822668195481,104951.2339179148,410652915378,5247,0.000000255663579533
1665187200000,2022-10-08 00:00:00,ELON/USDD,0.0000002527,0.0000002657,0.0000002506,0.0000002605,289284.9661815168,1124909009967,143573.9917369657,558509375017,8276,0.000000257188678339
1665100800000,2022-10-07 00:00:00,ELON/USDD,0.000000261,0.0000002673,0.0000002497,0.0000002528,183860.8918813159,713950350104,90236.2129525202,350477514484,5390,0.000000257552065402
1665014400000,2022-10-06 00:00:00,ELON/USDD,0.0000002533,0.0000002674,0.0000002522,0.0000002579,224245.9360848577,869657269350,105720.9149768795,410198178031,5904,0.000000257875757204
1664928000000,2022-10-05 00:00:00,ELON/USDD,0.0000002622,0.0000002673,0.0000002493,0.000000254,298807.9183109398,1157559788009,148731.5909900016,575995133440,7159,0.000000258161117799
1664841600000,2022-10-04 00:00:00,ELON/USDD,0.000000253,0.000000269,0.000000249,0.0000002623,207812.9486733168,813374962484,103006.3403072617,403446763583,5204,0.000000255605407481
1664755200000,2022-10-03 00:00:00,ELON/USDD,0.0000002557,0.0000002596,0.0000002447,0.0000002529,302121.5566596467,1204316558742,147888.1614035663,589517080317,6890,0.000000250899148032
1664668800000,2022-10-02 00:00:00,ELON/USDD,0.0000002677,0.000000273,0.00000025,0.0000002557,251888.7013783485,966360992323,126457.7098022663,485367303965,6225,0.00000026073146565
1664582400000,2022-10-01 00:00:00,ELON/USDD,0.0000002662,0.0000002745,0.000000255,0.000000262,334604.6604604759,1262500995443,165696.9666217203,625253635322,7965,0.000000265051872772
1664496000000,2022-09-30 00:00:00,ELON/USDD,0.0000002613,0.0000002924,0.000000255,0.0000002662,196486.1766007596,736144576682,93194.8339963574,349245497753,5302,0.000000266960461812
1664409600000,2022-09-29 00:00:00,ELON/USDD,0.0000002614,0.000000285,0.0000002528,0.0000002614,140260.3902831075,530952230864,68609.9724370342,259935311808,3718,0.000000264239226205
1664323200000,2022-09-28 00:00:00,ELON/USDD,0.0000002642,0.0000002719,0.0000002516,0.0000002682,211304.3273454762,812643574012,98370.8628004266,378749946790,5463,0.000000260106262955
1664236800000,2022-09-27 00:00:00,ELON/USDD,0.0000002687,0.0000002841,0.0000002505,0.0000002644,167014.7681916978,627193884319,79622.8579879305,298942960319,3813,0.000000266370256241
1664150400000,2022-09-26 00:00:00,ELON/USDD,0.0000002673,0.0000002845,0.000000251,0.0000002662,197481.8366336636,747890814573,91659.5295786089,347264424646,5220,0.000000264102727412
1664064000000,2022-09-25 00:00:00,ELON/USDD,0.0000002749,0.000000288,0.0000002509,0.0000002673,281906.4728292086,1045149944826,135282.631652887,501631688243,6938,0.000000269764383529
1663977600000,2022-09-24 00:00:00,ELON/USDD,0.0000002658,0.000000299,0.0000002541,0.0000002751,222048.0050475299,828103394380,111516.2717767933,416361339344,5022,0.000000268290214466
1663891200000,2022-09-23 00:00:00,ELON/USDD,0.0000002578,0.0000002822,0.000000246,0.0000002658,253034.3654278721,973617947878,122996.9564641772,473280573084,6349,0.000000259968928971
1663804800000,2022-09-22 00:00:00,ELON/USDD,0.0000002474,0.0000002822,0.000000242,0.000000262,257282.3287510484,1018974154415,125776.0169956733,498561496971,6483,0.000000252604496502
1663718400000,2022-09-21 00:00:00,ELON/USDD,0.000000259,0.0000002621,0.00000024,0.0000002532,224294.7393160946,885253948119,105567.4227282734,417161734649,5933,0.000000253414388025
1663632000000,2022-09-20 00:00:00,ELON/USDD,0.0000002645,0.0000002713,0.0000002493,0.000000254,266569.8474134171,1026980573253,129626.0016864956,499403462050,6623,0.000000259620237753
1663545600000,2022-09-19 00:00:00,ELON/USDD,0.0000002466,0.0000002796,0.0000002404,0.0000002644,176274.8141339242,695207775573,86227.5760373663,340062117830,4855,0.000000253747732108
1663459200000,2022-09-18 00:00:00,ELON/USDD,0.0000002661,0.0000002693,0.0000002408,0.0000002465,200268.0337345866,768532523914,98858.5518211976,379239646520,5255,0.000000260740134448
1663372800000,2022-09-17 00:00:00,ELON/USDD,0.0000002623,0.000000295,0.0000002227,0.0000002701,328237.9434551289,1237099631563,165999.2454196009,625810252493,7456,0.000000265356968426
1663286400000,2022-09-16 00:00:00,ELON/USDD,0.0000002765,0.0000002826,0.0000002573,0.0000002624,314012.1721837995,1172399971507,154746.2196145578,577749173236,7821,0.00000026792449094
1663200000000,2022-09-15 00:00:00,ELON/USDD,0.0000002802,0.0000002931,0.000000248,0.0000002766,269489.1325989886,970404965757,132520.736195432,477562220609,7009,0.000000277759935977
1663113600000,2022-09-14 00:00:00,ELON/USDD,0.0000002818,0.0000002925,0.00000027,0.0000002803,283083.4864206706,1013798380340,139338.4384954885,499135094492,6747,0.000000279302164826
1663027200000,2022-09-13 00:00:00,ELON/USDD,0.0000003025,0.0000003095,0.0000002687,0.0000002818,177679.7448696643,614313721248,87092.6759855066,301250745898,5327,0.000000289468966136
1662940800000,2022-09-12 00:00:00,ELON/USDD,0.0000003015,0.00000031,0.0000002845,0.0000003056,195103.033361883,651497949775,97229.9301370042,324708787415,4830,0.000000299535040001
1662854400000,2022-09-11 00:00:00,ELON/USDD,0.0000002926,0.0000003099,0.0000002874,0.0000003015,141917.7678769441,476990029168,69102.1295614374,232339015942,3653,0.000000297604677211
1662768000000,2022-09-10 00:00:00,ELON/USDD,0.0000002932,0.0000003083,0.0000002781,0.0000002927,278517.0390745009,963800497530,138956.8784455803,481037700235,6435,0.000000289034748626
1662681600000,2022-09-09 00:00:00,ELON/USDD,0.0000002744,0.0000003082,0.0000002731,0.0000002927,255024.4190114001,888049519053,128481.5596390615,447279613635,6320,0.000000287306455177
1662595200000,2022-09-08 00:00:00,ELON/USDD,0.0000002819,0.000000286,0.0000002314,0.0000002745,205664.7630598058,743083094922,99985.9057003983,361380974746,5169,0.000000276829765386
1662508800000,2022-09-07 00:00:00,ELON/USDD,0.0000002756,0.0000002882,0.0000002601,0.0000002798,226687.9300737944,829782698308,109236.3635530815,400209115367,5716,0.00000027337512884
1662422400000,2022-09-06 00:00:00,ELON/USDD,0.0000002886,0.000000296,0.0000002712,0.0000002756,192124.0233145843,672856435194,92488.7732249847,323882373213,4762,0.000000285613805527
1662336000000,2022-09-05 00:00:00,ELON/USDD,0.0000002836,0.0000002918,0.0000002765,0.0000002885,245669.7925580248,865480297781,122297.3458983517,430974698735,5276,0.000000283884030759
1662249600000,2022-09-04 00:00:00,ELON/USDD,0.0000002865,0.0000002898,0.0000002779,0.0000002835,253691.1104442277,892999097878,128044.3362069489,450791289437,5994,0.000000284106323637
1662163200000,2022-09-03 00:00:00,ELON/USDD,0.0000002829,0.0000002909,0.0000002722,0.000000282,163219.0649798199,575109719746,78159.0447009703,275474145265,4632,0.00000028382332054
1662076800000,2022-09-02 00:00:00,ELON/USDD,0.0000002903,0.0000002946,0.0000002806,0.000000283,245368.2642741447,850089596816,120553.5093334938,417728094265,6647,0.000000288657928817
1661990400000,2022-09-01 00:00:00,ELON/USDD,0.000000285,0.0000002956,0.0000002752,0.0000002903,229660.5660065308,806604904032,112596.9292706759,395765477041,5817,0.000000284762002584
1661904000000,2022-08-31 00:00:00,ELON/USDD,0.000000289,0.0000003055,0.0000002824,0.0000002854,218754.5532689119,748439435736,108030.2800324001,369782525318,5674,0.000000292307763657
1661817600000,2022-08-30 00:00:00,ELON/USDD,0.0000002947,0.0000003167,0.0000002771,0.0000002891,200873.0795304245,683524806723,99144.9684055554,337697614199,5122,0.000000293961794342
1661731200000,2022-08-29 00:00:00,ELON/USDD,0.0000002798,0.0000003182,0.0000002742,0.0000002946,319241.2293449726,1110269464517,155635.7690286839,540645699080,5820,0.000000287780104047
1661644800000,2022-08-28 00:00:00,ELON/USDD,0.0000002853,0.0000003199,0.0000002559,0.0000002793,720177.8758199283,2510231789035,351606.5599420953,1225659273158,6648,0.000000286916245758
1661558400000,2022-08-27 00:00:00,ELON/USDD,0.0000002872,0.0000002932,0.0000002264,0.0000002854,509200.1813356416,1781687322245,251596.336725404,880637511414,5066,0.000000285827849983
1661472000000,2022-08-26 00:00:00,ELON/USDD,0.0000003101,0.0000003133,0.0000002829,0.0000002847,734282.8324276105,2424280796353,370701.7360498777,1224121328461,7372,0.000000303033537631
1661385600000,2022-08-25 00:00:00,ELON/USDD,0.0000003123,0.0000003432,0.0000003038,0.0000003102,375073.5129229254,1196629049589,187169.1183127931,597246253513,3854,0.000000313468924178
1661299200000,2022-08-24 00:00:00,ELON/USDD,0.0000003093,0.0000003176,0.0000002989,0.0000003119,25417.2469744147,82227584237,11773.3330835768,38076669959,1655,0.000000309135839866
1661212800000,2022-08-23 00:00:00,ELON/USDD,0.0000003087,0.0000003238,0.0000002965,0.0000003118,94383.0830736816,304846641031,44834.7293433745,145168069287,3278,0.000000309624398161
1661126400000,2022-08-22 00:00:00,ELON/USDD,0.0000003128,0.0000003299,0.0000002964,0.0000003079,247175.0854432541,807535640433,124102.2593274091,406419517536,3221,0.000000306108424453
1661040000000,2022-08-21 00:00:00,ELON/USDD,0.000000302,0.0000003298,0.0000002965,0.000000317,375253.7768395406,1213342592042,183380.7714160712,593162938482,5268,0.000000309323369895
1660953600000,2022-08-20 00:00:00,ELON/USDD,0.0000003054,0.0000003288,0.0000002966,0.0000003019,718443.2868306615,2311003418960,369382.3911583988,1187737236705,5669,0.000000310983076397
1660867200000,2022-08-19 00:00:00,ELON/USDD,0.0000003469,0.0000003517,0.0000002968,0.0000003072,597243.9912571755,1843996497331,302970.0700768368,934345567277,4851,0.000000324245934875
1660780800000,2022-08-18 00:00:00,ELON/USDD,0.000000348,0.000000361,0.0000003411,0.000000347,803373.9244707637,2292973829889,397485.7655270507,1134558177695,6257,0.000000350401618449
1660694400000,2022-08-17 00:00:00,ELON/USDD,0.0000003671,0.0000003921,0.0000003361,0.000000348,589434.7827854081,1633620015220,284475.6009354344,788460741333,5458,0.000000361019404342
1660608000000,2022-08-16 00:00:00,ELON/USDD,0.0000003534,0.0000003799,0.0000003502,0.0000003604,511103.6569569006,1416431923947,255250.1078707386,707600137747,5953,0.000000360892228719
1660521600000,2022-08-15 00:00:00,ELON/USDD,0.0000003867,0.0000004184,0.0000003501,0.000000356,277621.1893750453,755887021447,132521.507134317,360952860166,3427,0.000000367754864988
1660435200000,2022-08-14 00:00:00,ELON/USDD,0.0000003379,0.0000004066,0.0000003303,0.0000003866,370600.2878701268,1045576739650,207102.3388629703,581887024077,3979,0.000000355250259347
1660348800000,2022-08-13 00:00:00,ELON/USDD,0.0000003415,0.0000003556,0.0000003302,0.000000338,277300.7803469678,817677643071,138974.6831294852,409849711952,3420,0.000000339157975234
1660262400000,2022-08-12 00:00:00,ELON/USDD,0.0000003293,0.0000003598,0.0000003206,0.0000003415,593862.4875664459,1801767693188,300196.2976848761,911003420118,6514,0.0000003296323013
1660176000000,2022-08-11 00:00:00,ELON/USDD,0.0000003339,0.0000003479,0.000000327,0.0000003294,352352.9290978556,1052534559941,174476.8853722522,521458824689,3794,0.000000334820366885
1660089600000,2022-08-10 00:00:00,ELON/USDD,0.0000003267,0.0000003494,0.0000003159,0.0000003351,501783.391776175,1534732930040,258494.9294723365,790781378893,5337,0.000000327142977203
1660003200000,2022-08-09 00:00:00,ELON/USDD,0.0000003377,0.000000339,0.0000003178,0.0000003268,526253.7277231367,1604876788155,262292.4899181756,799687161395,5971,0.000000327994977313
1659916800000,2022-08-08 00:00:00,ELON/USDD,0.000000326,0.0000003442,0.0000003244,0.0000003365,538527.3009804578,1610096322457,264570.6242420004,791252487183,5719,0.000000334529031151
1659830400000,2022-08-07 00:00:00,ELON/USDD,0.000000324,0.0000003363,0.0000003143,0.0000003259,186973.1404893044,574077620016,92982.4856753312,285487384007,2380,0.00000032572416275
1659744000000,2022-08-06 00:00:00,ELON/USDD,0.0000003377,0.0000003435,0.0000003106,0.0000003222,57347.8536419192,174293795503,25992.3126819849,78988693179,970,0.000000329199605733
1659657600000,2022-08-05 00:00:00,ELON/USDD,0.0000003268,0.0000003492,0.0000003175,0.0000003376,284041.1759086414,845702721038,138697.7497597291,413204273162,2897,0.000000335938364805
1659571200000,2022-08-04 00:00:00,ELON/USDD,0.0000003328,0.0000003445,0.0000003107,0.0000003245,99159.9419562171,305712151866,49374.1242843222,152247525038,1144,0.000000324415045169
1659484800000,2022-08-03 00:00:00,ELON/USDD,0.0000003335,0.000000345,0.0000003207,0.0000003327,23990.8533594886,72190194639,11449.2415522306,34389135629,374,0.000000332414262151
1659398400000,2022-08-02 00:00:00,ELON/USDD,0.000000355,0.000000355,0.0000003334,0.0000003403,12750.1474548106,36973889353,4949.6629552473,14151014050,132,0.000000344937202367
1659312000000,2022-08-01 00:00:00,ELON/USDD,0.00000035,0.00000035,0.00000035,0.00000035,14.51327814,41466508.99242078,0,0,0,0.00000035
1659225600000,2022-07-31 00:00:00,ELON/USDD,0.00000035,0.00000037,0.00000035,0.00000036,149301.82984003,414090577664.77863112,0,0,0,0.00000036
1659139200000,2022-07-30 00:00:00,ELON/USDD,0.00000035,0.00000038,0.00000035,0.00000037,154339.39892645,421745697055.00581322,0,0,0,0.00000036
1659052800000,2022-07-29 00:00:00,ELON/USDD,0.00000038,0.00000038,0.00000035,0.00000037,249975.45121564,690493701236.53019232,0,0,0,0.00000036
1658966400000,2022-07-28 00:00:00,ELON/USDD,0.00000035,0.00000039,0.00000034,0.00000038,179209.64610229,494441093900.78927484,0,0,0,0.00000036
1658880000000,2022-07-27 00:00:00,ELON/USDD,0.00000032,0.00000036,0.0000003,0.00000036,169307.95456869,508977649619.79420634,0,0,0,0.00000033
1658793600000,2022-07-26 00:00:00,ELON/USDD,0.00000033,0.00000035,0.0000003,0.0000003,223744.38422434,703064725818.4089598,0,0,0,0.00000031
1658707200000,2022-07-25 00:00:00,ELON/USDD,0.00000035,0.00000037,0.00000033,0.00000034,176253.10727156,512877452143.9065258,0,0,0,0.00000034
1658620800000,2022-07-24 00:00:00,ELON/USDD,0.00000037,0.00000038,0.00000035,0.00000037,151471.08832076,419070715896.13156837,0,0,0,0.00000036
1658534400000,2022-07-23 00:00:00,ELON/USDD,0.00000037,0.00000037,0.00000033,0.00000036,150717.06209223,422851512496.32051671,0,0,0,0.00000035
1658448000000,2022-07-22 00:00:00,ELON/USDD,0.00000037,0.00000038,0.00000035,0.00000036,139963.74867513,384660227584.06793683,0,0,0,0.00000036
1658361600000,2022-07-21 00:00:00,ELON/USDD,0.00000037,0.00000038,0.00000034,0.00000038,152558.41515592,430003773831.31114019,0,0,0,0.00000035
1658275200000,2022-07-20 00:00:00,ELON/USDD,0.00000037,0.00000042,0.00000035,0.00000037,230307.12167758,615070280014.81720917,0,0,0,0.00000037
1658188800000,2022-07-19 00:00:00,ELON/USDD,0.00000034,0.00000037,0.00000033,0.00000035,244639.64444046,703641061262.59834704,0,0,0,0.00000034
1658102400000,2022-07-18 00:00:00,ELON/USDD,0.00000033,0.00000035,0.00000031,0.00000034,136378.73289887,417164185697.0969405,0,0,0,0.00000032
1658016000000,2022-07-17 00:00:00,ELON/USDD,0.00000033,0.00000033,0.00000032,0.00000032,6181.63013398,19011926905.59578701,0,0,0,0.00000032
1657929600000,2022-07-16 00:00:00,ELON/USDD,0.00000031,0.00000034,0.0000003,0.00000032,115204.29332295,360910485844.30024831,0,0,0,0.00000031
1657843200000,2022-07-15 00:00:00,ELON/USDD,0.00000031,0.00000033,0.0000003,0.00000032,116267.59062812,365056024982.27697143,0,0,0,0.00000031
1657756800000,2022-07-14 00:00:00,ELON/USDD,0.00000031,0.00000033,0.00000029,0.00000031,175480.98509613,575007749149.5590619,0,0,0,0.0000003
1657670400000,2022-07-13 00:00:00,ELON/USDD,0.00000029,0.00000031,0.00000028,0.00000031,33400.93933729,115046505593.18091842,0,0,0,0.00000029
1657584000000,2022-07-12 00:00:00,ELON/USDD,0.0000003,0.00000032,0.00000028,0.00000029,118872.20183267,396173156358.19848039,0,0,0,0.0000003
1657497600000,2022-07-11 00:00:00,ELON/USDD,0.00000032,0.00000034,0.0000003,0.0000003,11038.04565901,34219003244.91495265,0,0,0,0.00000032
1657411200000,2022-07-10 00:00:00,ELON/USDD,0.00000033,0.00000034,0.00000032,0.00000032,6857.91009506,20785642799.74528114,0,0,0,0.00000032
1657324800000,2022-07-09 00:00:00,ELON/USDD,0.00000034,0.00000034,0.00000032,0.00000034,38201.05573408,114863711216.48134499,0,0,0,0.00000033
1657238400000,2022-07-08 00:00:00,ELON/USDD,0.00000034,0.00000035,0.00000032,0.00000033,78272.43166513,230990160595.80629469,0,0,0,0.00000033
1657152000000,2022-07-07 00:00:00,ELON/USDD,0.00000032,0.00000035,0.00000031,0.00000033,185340.74819424,564312183589.83032298,0,0,0,0.00000032
1657065600000,2022-07-06 00:00:00,ELON/USDD,0.00000032,0.00000033,0.00000031,0.00000033,102278.40723638,319530885642.84045593,0,0,0,0.00000032
1656979200000,2022-07-05 00:00:00,ELON/USDD,0.00000033,0.00000034,0.0000003,0.00000032,73112.03314079,224968318448.56186786,0,0,0,0.00000032
1656892800000,2022-07-04 00:00:00,ELON/USDD,0.00000031,0.00000033,0.0000003,0.00000032,15474.40011822,48662505036.15017962,0,0,0,0.00000031
1656806400000,2022-07-03 00:00:00,ELON/USDD,0.00000032,0.00000033,0.0000003,0.00000032,28042.0693551,87852451215.84763931,0,0,0,0.00000031
1656720000000,2022-07-02 00:00:00,ELON/USDD,0.0000003,0.00000033,0.00000029,0.00000032,16773.53109203,53630450221.47288915,0,0,0,0.00000031
1656633600000,2022-07-01 00:00:00,ELON/USDD,0.00000033,0.00000038,0.00000031,0.00000031,22506.47920724,65289987787.73016567,0,0,0,0.00000034
1656547200000,2022-06-30 00:00:00,ELON/USDD,0.00000032,0.00000034,0.0000003,0.00000033,17639.29886374,54419305118.97840474,0,0,0,0.00000032
1656460800000,2022-06-29 00:00:00,ELON/USDD,0.00000034,0.00000036,0.00000031,0.00000033,31173.15538274,94558873274.4710262,0,0,0,0.00000032
1656374400000,2022-06-28 00:00:00,ELON/USDD,0.00000037,0.00000039,0.00000032,0.00000034,42070.38880498,116729618855.59055524,0,0,0,0.00000036
1656288000000,2022-06-27 00:00:00,ELON/USDD,0.00000037,0.00000041,0.00000034,0.00000037,43801.13877279,116799181276.8298274,0,0,0,0.00000037
1656201600000,2022-06-26 00:00:00,ELON/USDD,0.00000041,0.00000044,0.00000036,0.00000037,70085.86372893,171896773229.67997322,0,0,0,0.0000004
1656115200000,2022-06-25 00:00:00,ELON/USDD,0.00000037,0.00000045,0.00000034,0.00000042,153699.1053796,381016044724.52047872,0,0,0,0.0000004
1656028800000,2022-06-24 00:00:00,ELON/USDD,0.00000027,0.00000038,0.00000027,0.00000037,29583.73421113,90309393503.11497695,0,0,0,0.00000032
1655942400000,2022-06-23 00:00:00,ELON/USDD,0.00000026,0.00000028,0.00000026,0.00000028,9567.11723695,35798785637.44334664,0,0,0,0.00000026
1655856000000,2022-06-22 00:00:00,ELON/USDD,0.00000027,0.00000028,0.00000025,0.00000026,39261.10106971,147535943672.02475347,0,0,0,0.00000026
1655769600000,2022-06-21 00:00:00,ELON/USDD,0.00000026,0.00000029,0.00000026,0.00000028,26484.93861547,97053686107.80223966,0,0,0,0.00000027
1655683200000,2022-06-20 00:00:00,ELON/USDD,0.00000027,0.00000028,0.00000025,0.00000027,30102.00534669,112422775401.00452602,0,0,0,0.00000026
1655596800000,2022-06-19 00:00:00,ELON/USDD,0.00000026,0.00000029,0.00000023,0.00000027,74354.83928745,292700643120.77630496,0,0,0,0.00000025
1655510400000,2022-06-18 00:00:00,ELON/USDD,0.00000028,0.00000029,0.00000022,0.00000025,50152.2349834,193170735173.93551267,0,0,0,0.00000025
1655424000000,2022-06-17 00:00:00,ELON/USDD,0.00000028,0.00000031,0.00000026,0.00000027,71101.44022745,252736307212.69868483,0,0,0,0.00000028
1655337600000,2022-06-16 00:00:00,ELON/USDD,0.00000029,0.00000032,0.00000026,0.00000027,23911.52054126,81617824387.8153114,0,0,0,0.00000029
1655251200000,2022-06-15 00:00:00,ELON/USDD,0.00000029,0.00000029,0.00000025,0.00000029,28525.25809118,103802787885.63969839,0,0,0,0.00000027
1655164800000,2022-06-14 00:00:00,ELON/USDD,0.00000029,0.00000031,0.00000026,0.00000029,32072.32269482,112672942357.80619659,0,0,0,0.00000028
1655078400000,2022-06-13 00:00:00,ELON/USDD,0.00000033,0.00000034,0.00000026,0.00000028,95437.32445047,324759739281.04955167,0,0,0,0.00000029
1654992000000,2022-06-12 00:00:00,ELON/USDD,0.00000037,0.00000037,0.00000032,0.00000033,69844.38731087,203096234712.52024026,0,0,0,0.00000034
1654905600000,2022-06-11 00:00:00,ELON/USDD,0.00000039,0.00000041,0.00000033,0.00000036,233851.20502905,619346533247.79738953,0,0,0,0.00000037
1654819200000,2022-06-10 00:00:00,ELON/USDD,0.00000042,0.00000043,0.00000037,0.00000038,28337.18160572,70006747907.28720541,0,0,0,0.0000004
1654732800000,2022-06-09 00:00:00,ELON/USDD,0.00000044,0.00000044,0.00000041,0.00000042,30340.04008902,70740564119.79745712,0,0,0,0.00000042
1654646400000,2022-06-08 00:00:00,ELON/USDD,0.00000045,0.00000045,0.00000043,0.00000044,24403.3385872,55461817961.22637045,0,0,0,0.00000044
1654560000000,2022-06-07 00:00:00,ELON/USDD,0.00000045,0.00000046,0.00000041,0.00000044,170689.15644179,395890059634.15003266,0,0,0,0.00000043
1654473600000,2022-06-06 00:00:00,ELON/USDD,0.00000044,0.00000048,0.00000044,0.00000046,116185.1770095,252045909735.91728945,0,0,0,0.00000046
1654387200000,2022-06-05 00:00:00,ELON/USDD,0.00000044,0.00000045,0.00000042,0.00000045,58154.92240617,133856223901.20184071,0,0,0,0.00000043
1654300800000,2022-06-04 00:00:00,ELON/USDD,0.00000044,0.00000044,0.00000043,0.00000044,6609.9786322,15215749817.62807615,0,0,0,0.00000043
1654214400000,2022-06-03 00:00:00,ELON/USDD,0.00000046,0.00000046,0.00000041,0.00000043,106228.82160123,241266525134.42641171,0,0,0,0.00000044
1654128000000,2022-06-02 00:00:00,ELON/USDD,0.00000044,0.00000047,0.00000042,0.00000047,116084.77791921,258853254031.01562439,0,0,0,0.00000044
1654041600000,2022-06-01 00:00:00,ELON/USDD,0.00000049,0.0000005,0.00000042,0.00000044,123254.82587802,267767307376.7803809,0,0,0,0.00000046
1653955200000,2022-05-31 00:00:00,ELON/USDD,0.00000048,0.00000052,0.00000046,0.00000048,100017.54110127,203590123900.92442101,0,0,0,0.00000049
1653868800000,2022-05-30 00:00:00,ELON/USDD,0.00000045,0.0000005,0.00000045,0.00000048,163401.55313922,342963027818.54710156,0,0,0,0.00000047
1653782400000,2022-05-29 00:00:00,ELON/USDD,0.00000044,0.00000047,0.00000043,0.00000046,46933.86993567,103472974096.40064291,0,0,0,0.00000045
1653696000000,2022-05-28 00:00:00,ELON/USDD,0.00000043,0.00000047,0.00000042,0.00000046,159975.75676089,355426925153.62077823,0,0,0,0.00000045
1653609600000,2022-05-27 00:00:00,ELON/USDD,0.00000043,0.00000046,0.0000004,0.00000043,96669.54894029,226790180771.43408323,0,0,0,0.00000042
1653523200000,2022-05-26 00:00:00,ELON/USDD,0.00000047,0.00000049,0.00000042,0.00000044,146779.33312563,322373300423.72748578,0,0,0,0.00000045
1653436800000,2022-05-25 00:00:00,ELON/USDD,0.00000049,0.0000005,0.00000047,0.00000049,161696.72072674,335331601277.85918447,0,0,0,0.00000048
1653350400000,2022-05-24 00:00:00,ELON/USDD,0.00000048,0.00000051,0.00000046,0.00000049,207416.91412158,429650542057.37753743,0,0,0,0.00000048
1653264000000,2022-05-23 00:00:00,ELON/USDD,0.0000005,0.00000053,0.00000047,0.00000048,65053.90304925,130308484773.9878223,0,0,0,0.00000049
1653177600000,2022-05-22 00:00:00,ELON/USDD,0.00000052,0.00000053,0.00000048,0.00000049,29023.9800573,57431029360.07296418,0,0,0,0.0000005
1653091200000,2022-05-21 00:00:00,ELON/USDD,0.00000048,0.00000053,0.00000045,0.00000049,123905.08849495,251715843403.88093588,0,0,0,0.00000049
1653004800000,2022-05-20 00:00:00,ELON/USDD,0.0000005,0.00000052,0.00000042,0.00000047,38559.10049991,81153351157.64599491,0,0,0,0.00000047
1652918400000,2022-05-19 00:00:00,ELON/USDD,0.00000047,0.00000052,0.00000046,0.0000005,20656.45540319,41738380656.3531298,0,0,0,0.00000049
