https://www.CryptoDataDownload.com
unix,date,symbol,open,high,low,close,Volume PSG,Volume USDT,buyTakerAmount,buyTakerQuantity,tradeCount,weightedAverage
1694995200000,2023-09-18 00:00:00,PSG/USDT,3.539,3.539,3.539,3.539,0,0,0,0,0,3.54
1694908800000,2023-09-17 00:00:00,PSG/USDT,3.539,3.539,3.539,3.539,0,0,0,0,0,3.54
1694822400000,2023-09-16 00:00:00,PSG/USDT,3.539,3.539,3.539,3.539,0,0,0,0,0,3.54
1694736000000,2023-09-15 00:00:00,PSG/USDT,3.539,3.539,3.539,3.539,0,0,0,0,0,3.54
1694649600000,2023-09-14 00:00:00,PSG/USDT,3.539,3.539,3.539,3.539,0,0,0,0,0,3.54
1694563200000,2023-09-13 00:00:00,PSG/USDT,3.539,3.539,3.539,3.539,0,0,0,0,0,3.54
1694476800000,2023-09-12 00:00:00,PSG/USDT,3.539,3.539,3.539,3.539,0,0,0,0,0,3.54
1694390400000,2023-09-11 00:00:00,PSG/USDT,3.539,3.539,3.539,3.539,0,0,0,0,0,3.54
1694304000000,2023-09-10 00:00:00,PSG/USDT,3.999,3.999,3.539,3.539,3.007,0.84947,0.006,0.00172,2,3.54
1694217600000,2023-09-09 00:00:00,PSG/USDT,2.9,2.9,2.9,2.9,0,0,0,0,0,2.948
1694131200000,2023-09-08 00:00:00,PSG/USDT,2.9,2.9,2.9,2.9,0,0,0,0,0,2.948
1694044800000,2023-09-07 00:00:00,PSG/USDT,2.9,2.9,2.9,2.9,0,0,0,0,0,2.948
1693958400000,2023-09-06 00:00:00,PSG/USDT,2.9,2.9,2.9,2.9,0,0,0,0,0,2.948
1693872000000,2023-09-05 00:00:00,PSG/USDT,2.9,2.9,2.9,2.9,0,0,0,0,0,2.948
1693785600000,2023-09-04 00:00:00,PSG/USDT,2.9,2.9,2.9,2.9,0,0,0,0,0,2.948
1693699200000,2023-09-03 00:00:00,PSG/USDT,2.9,2.9,2.9,2.9,0,0,0,0,0,2.948
1693612800000,2023-09-02 00:00:00,PSG/USDT,2.95,2.95,2.9,2.9,1.172,0.39762,0,0,2,2.948
1693526400000,2023-09-01 00:00:00,PSG/USDT,2.901,2.901,2.901,2.901,0,0,0,0,0,3.197
1693440000000,2023-08-31 00:00:00,PSG/USDT,2.901,2.901,2.901,2.901,0,0,0,0,0,3.197
1693353600000,2023-08-30 00:00:00,PSG/USDT,3.103,3.8,2.9,2.901,55.622,17.49758,25.352,7.40299,29,3.197
1693267200000,2023-08-29 00:00:00,PSG/USDT,3.5,3.5,3.5,3.5,0,0,0,0,0,3.493
1693180800000,2023-08-28 00:00:00,PSG/USDT,3.5,3.5,3.5,3.5,0,0,0,0,0,3.493
1693094400000,2023-08-27 00:00:00,PSG/USDT,3.5,3.5,3.5,3.5,0,0,0,0,0,3.493
1693008000000,2023-08-26 00:00:00,PSG/USDT,3.5,3.5,3.5,3.5,0,0,0,0,0,3.493
1692921600000,2023-08-25 00:00:00,PSG/USDT,3.486,3.5,3.486,3.5,62.573,17.91341,62.573,17.91341,6,3.493
1692835200000,2023-08-24 00:00:00,PSG/USDT,3.24,3.24,3.24,3.24,0,0,0,0,0,3.239
1692748800000,2023-08-23 00:00:00,PSG/USDT,3.24,3.24,3.24,3.24,0,0,0,0,0,3.239
1692662400000,2023-08-22 00:00:00,PSG/USDT,3.24,3.24,3.24,3.24,0,0,0,0,0,3.239
1692576000000,2023-08-21 00:00:00,PSG/USDT,3.24,3.24,3.24,3.24,0,0,0,0,0,3.239
1692489600000,2023-08-20 00:00:00,PSG/USDT,3.24,3.24,3.24,3.24,0,0,0,0,0,3.239
1692403200000,2023-08-19 00:00:00,PSG/USDT,3.239,3.24,3.239,3.24,5.976,1.84505,5.976,1.84505,2,3.239
1692316800000,2023-08-18 00:00:00,PSG/USDT,3,3,2,2.999,38.288,18.54945,35.265,17.35832,4,2.093
1692230400000,2023-08-17 00:00:00,PSG/USDT,3.57,3.57,3.5,3.5,15.096,4.28646,0,0,4,3.522
1692144000000,2023-08-16 00:00:00,PSG/USDT,3.553,3.553,3.552,3.552,3.853,1.08477,0,0,2,3.552
1692057600000,2023-08-15 00:00:00,PSG/USDT,3.9,3.9,3.9,3.9,0,0,0,0,0,3.904
1691971200000,2023-08-14 00:00:00,PSG/USDT,3.9,3.9,3.9,3.9,0,0,0,0,0,3.904
1691884800000,2023-08-13 00:00:00,PSG/USDT,3.9,3.9,3.9,3.9,0,0,0,0,0,3.904
1691798400000,2023-08-12 00:00:00,PSG/USDT,3.9,3.9,3.9,3.9,0,0,0,0,0,3.904
1691712000000,2023-08-11 00:00:00,PSG/USDT,3.9,3.9,3.9,3.9,0,0,0,0,0,3.904
1691625600000,2023-08-10 00:00:00,PSG/USDT,4,4,3.9,3.9,23.781,6.0914,1.01,0.2525,4,3.904
1691539200000,2023-08-09 00:00:00,PSG/USDT,3,3,3,3,0,0,0,0,0,3.004
1691452800000,2023-08-08 00:00:00,PSG/USDT,3,3,3,3,0,0,0,0,0,3.004
1691366400000,2023-08-07 00:00:00,PSG/USDT,3,3,3,3,0,0,0,0,0,3.004
1691280000000,2023-08-06 00:00:00,PSG/USDT,3,3,3,3,0,0,0,0,0,3.004
1691193600000,2023-08-05 00:00:00,PSG/USDT,3,3,3,3,0,0,0,0,0,3.004
1691107200000,2023-08-04 00:00:00,PSG/USDT,3,3,3,3,0,0,0,0,0,3.004
1691020800000,2023-08-03 00:00:00,PSG/USDT,3,3,3,3,0,0,0,0,0,3.004
1690934400000,2023-08-02 00:00:00,PSG/USDT,3,3,3,3,0,0,0,0,0,3.004
1690848000000,2023-08-01 00:00:00,PSG/USDT,3,3,3,3,0,0,0,0,0,3.004
1690761600000,2023-07-31 00:00:00,PSG/USDT,3,3,3,3,0,0,0,0,0,3.004
1690675200000,2023-07-30 00:00:00,PSG/USDT,3,3,3,3,0,0,0,0,0,3.004
1690588800000,2023-07-29 00:00:00,PSG/USDT,3.005,3.005,3,3,2.499,0.83184,0,0,2,3.004
1690502400000,2023-07-28 00:00:00,PSG/USDT,3,3,3,3,0,0,0,0,0,3.001
1690416000000,2023-07-27 00:00:00,PSG/USDT,3.002,3.002,3,3,5.888,1.96203,0,0,3,3.001
1690329600000,2023-07-26 00:00:00,PSG/USDT,4.682,4.682,4.682,4.682,0,0,0,0,0,4.682
1690243200000,2023-07-25 00:00:00,PSG/USDT,4.682,4.682,4.682,4.682,3.234,0.6908,0,0,1,4.682
1690156800000,2023-07-24 00:00:00,PSG/USDT,3.722,5.29,3.294,5.29,10.867,2.10798,10.4,1.96598,3,5.204
1690070400000,2023-07-23 00:00:00,PSG/USDT,3.722,3.722,3.722,3.722,0,0,0,0,0,3.722
1689984000000,2023-07-22 00:00:00,PSG/USDT,3.722,3.722,3.722,3.722,0,0,0,0,0,3.722
1689897600000,2023-07-21 00:00:00,PSG/USDT,3.722,3.722,3.722,3.722,3.237,0.86996,3.237,0.86996,1,3.722
1689811200000,2023-07-20 00:00:00,PSG/USDT,3.3,3.3,3.3,3.3,2.313,0.7012,0,0,2,3.3
1689724800000,2023-07-19 00:00:00,PSG/USDT,3.479,3.479,3.479,3.479,19.009,5.46421,19.009,5.46421,1,3.479
1689638400000,2023-07-18 00:00:00,PSG/USDT,3.472,3.472,3.472,3.472,0,0,0,0,0,3.462
1689552000000,2023-07-17 00:00:00,PSG/USDT,3.445,3.472,3.445,3.472,8.503,2.45588,5.502,1.58491,2,3.462
1689465600000,2023-07-16 00:00:00,PSG/USDT,3.8,3.894,3.446,3.446,14.418,3.79328,1.285,0.33829,5,3.808
1689379200000,2023-07-15 00:00:00,PSG/USDT,3.501,3.893,3.501,3.893,10.417,2.84331,8.099,2.18131,3,3.674
1689292800000,2023-07-14 00:00:00,PSG/USDT,3.3,3.3,3.3,3.3,0,0,0,0,0,3.3
1689206400000,2023-07-13 00:00:00,PSG/USDT,3.3,3.3,3.3,3.3,0,0,0,0,0,3.3
1689120000000,2023-07-12 00:00:00,PSG/USDT,3.3,3.3,3.3,3.3,0,0,0,0,0,3.3
1689033600000,2023-07-11 00:00:00,PSG/USDT,3.3,3.3,3.3,3.3,0,0,0,0,0,3.3
1688947200000,2023-07-10 00:00:00,PSG/USDT,3.3,3.3,3.3,3.3,0,0,0,0,0,3.3
1688860800000,2023-07-09 00:00:00,PSG/USDT,3.3,3.3,3.3,3.3,0,0,0,0,0,3.3
1688774400000,2023-07-08 00:00:00,PSG/USDT,3.3,3.3,3.3,3.3,0,0,0,0,0,3.3
1688688000000,2023-07-07 00:00:00,PSG/USDT,3.3,3.3,3.3,3.3,0,0,0,0,0,3.3
1688601600000,2023-07-06 00:00:00,PSG/USDT,3.3,3.3,3.3,3.3,0,0,0,0,0,3.3
1688515200000,2023-07-05 00:00:00,PSG/USDT,3.3,3.3,3.3,3.3,0,0,0,0,0,3.3
1688428800000,2023-07-04 00:00:00,PSG/USDT,3.3,3.3,3.3,3.3,0,0,0,0,0,3.3
1688342400000,2023-07-03 00:00:00,PSG/USDT,3.3,3.3,3.3,3.3,0,0,0,0,0,3.3
1688256000000,2023-07-02 00:00:00,PSG/USDT,3.3,3.3,3.3,3.3,0,0,0,0,0,3.3
1688169600000,2023-07-01 00:00:00,PSG/USDT,3.3,3.3,3.3,3.3,0,0,0,0,0,3.3
1688083200000,2023-06-30 00:00:00,PSG/USDT,3.3,3.3,3.3,3.3,0,0,0,0,0,3.3
1687996800000,2023-06-29 00:00:00,PSG/USDT,3.3,3.3,3.3,3.3,0,0,0,0,0,3.3
1687910400000,2023-06-28 00:00:00,PSG/USDT,3.301,3.301,3.3,3.3,62.485,18.93228,0,0,4,3.3
1687824000000,2023-06-27 00:00:00,PSG/USDT,3.321,3.321,3.321,3.321,0,0,0,0,0,3.321
1687737600000,2023-06-26 00:00:00,PSG/USDT,3.321,3.321,3.321,3.321,0,0,0,0,0,3.321
1687651200000,2023-06-25 00:00:00,PSG/USDT,3.321,3.321,3.321,3.321,0,0,0,0,0,3.321
1687564800000,2023-06-24 00:00:00,PSG/USDT,3.321,3.321,3.321,3.321,1.712,0.51572,0,0,1,3.321
1687478400000,2023-06-23 00:00:00,PSG/USDT,3.397,3.397,3.397,3.397,0,0,0,0,0,3.386
1687392000000,2023-06-22 00:00:00,PSG/USDT,3.349,3.397,3.349,3.397,4.999,1.47669,4.999,1.47669,3,3.386
1687305600000,2023-06-21 00:00:00,PSG/USDT,3.301,3.301,3.301,3.301,0,0,0,0,0,3.202
1687219200000,2023-06-20 00:00:00,PSG/USDT,3.301,3.301,3.301,3.301,0,0,0,0,0,3.202
1687132800000,2023-06-19 00:00:00,PSG/USDT,3.301,3.301,3.301,3.301,0,0,0,0,0,3.202
1687046400000,2023-06-18 00:00:00,PSG/USDT,3.301,3.301,3.301,3.301,0,0,0,0,0,3.202
1686960000000,2023-06-17 00:00:00,PSG/USDT,3.301,3.301,3.301,3.301,0,0,0,0,0,3.202
1686873600000,2023-06-16 00:00:00,PSG/USDT,3.301,3.301,3.301,3.301,0,0,0,0,0,3.202
1686787200000,2023-06-15 00:00:00,PSG/USDT,3.301,3.301,3.301,3.301,0,0,0,0,0,3.202
1686700800000,2023-06-14 00:00:00,PSG/USDT,3.301,3.301,3.301,3.301,0,0,0,0,0,3.202
1686614400000,2023-06-13 00:00:00,PSG/USDT,3.199,3.301,3.199,3.301,84.397,26.35392,84.397,26.35392,3,3.202
1686528000000,2023-06-12 00:00:00,PSG/USDT,2.901,3.298,2.901,3.298,6.639,2.13371,3.738,1.13371,2,3.124
1686441600000,2023-06-11 00:00:00,PSG/USDT,3.301,3.301,3.301,3.301,0,0,0,0,0,3.301
1686355200000,2023-06-10 00:00:00,PSG/USDT,3.301,3.301,3.301,3.301,0,0,0,0,0,3.301
1686268800000,2023-06-09 00:00:00,PSG/USDT,3.301,3.301,3.301,3.301,1.023,0.31001,0,0,1,3.301
1686182400000,2023-06-08 00:00:00,PSG/USDT,3.45,3.45,3.4,3.4,20.03,5.86708,7.828,2.30248,9,3.414
1686096000000,2023-06-07 00:00:00,PSG/USDT,4.59,4.59,3.583,3.585,91.912,25.57786,1.099,0.23965,4,3.596
1686009600000,2023-06-06 00:00:00,PSG/USDT,3.65,3.65,3.65,3.65,0,0,0,0,0,3.65
1685923200000,2023-06-05 00:00:00,PSG/USDT,3.651,3.651,3.65,3.65,20.399,5.58887,0,0,2,3.65
1685836800000,2023-06-04 00:00:00,PSG/USDT,3.639,3.639,3.639,3.639,2.336,0.64207,1.136,0.31231,2,3.639
1685750400000,2023-06-03 00:00:00,PSG/USDT,3.998,7,3.001,5.018,151.886,34.03605,31.787,7.06384,32,4.534
1685664000000,2023-06-02 00:00:00,PSG/USDT,3.5,3.5,3.5,3.5,0,0,0,0,0,3.618
1685577600000,2023-06-01 00:00:00,PSG/USDT,4.004,4.004,3.5,3.5,5.548,1.53464,0.141,0.03524,17,3.618
1685491200000,2023-05-31 00:00:00,PSG/USDT,4.05,4.05,4.005,4.005,6.237,1.55329,0,0,3,4.015
1685404800000,2023-05-30 00:00:00,PSG/USDT,4.731,4.732,4.08,4.08,15.316,3.5571,5.271,1.11422,5,4.325
1685318400000,2023-05-29 00:00:00,PSG/USDT,4.005,4.005,4.005,4.005,0,0,0,0,0,4.067
1685232000000,2023-05-28 00:00:00,PSG/USDT,4.005,4.005,4.005,4.005,0,0,0,0,0,4.067
1685145600000,2023-05-27 00:00:00,PSG/USDT,4.005,4.005,4.005,4.005,0,0,0,0,0,4.067
1685059200000,2023-05-26 00:00:00,PSG/USDT,4.005,4.005,4.005,4.005,0,0,0,0,0,4.067
1684972800000,2023-05-25 00:00:00,PSG/USDT,4.101,4.101,4.005,4.005,8.12,1.9969,0,0,3,4.067
1684886400000,2023-05-24 00:00:00,PSG/USDT,4.133,4.133,4.133,4.133,4.033,0.976,0,0,1,4.133
1684800000000,2023-05-23 00:00:00,PSG/USDT,4.068,4.068,4.068,4.068,0,0,0,0,0,4.068
1684713600000,2023-05-22 00:00:00,PSG/USDT,4.068,4.068,4.068,4.068,0,0,0,0,0,4.068
1684627200000,2023-05-21 00:00:00,PSG/USDT,4.068,4.068,4.068,4.068,0,0,0,0,0,4.068
1684540800000,2023-05-20 00:00:00,PSG/USDT,4.068,4.068,4.068,4.068,1.829,0.44966,0,0,1,4.068
1684454400000,2023-05-19 00:00:00,PSG/USDT,4.235,4.235,4.234,4.235,8.705,2.05572,4.849,1.14508,4,4.234
1684368000000,2023-05-18 00:00:00,PSG/USDT,4.183,4.183,4.183,4.183,5.268,1.25944,0,0,1,4.183
1684281600000,2023-05-17 00:00:00,PSG/USDT,4.018,4.018,4.018,4.018,0,0,0,0,0,4.018
1684195200000,2023-05-16 00:00:00,PSG/USDT,4.018,4.018,4.018,4.018,0,0,0,0,0,4.018
1684108800000,2023-05-15 00:00:00,PSG/USDT,4.018,4.018,4.018,4.018,0,0,0,0,0,4.018
1684022400000,2023-05-14 00:00:00,PSG/USDT,4.018,4.018,4.018,4.018,0,0,0,0,0,4.018
1683936000000,2023-05-13 00:00:00,PSG/USDT,4.018,4.018,4.018,4.018,0,0,0,0,0,4.018
1683849600000,2023-05-12 00:00:00,PSG/USDT,4.018,4.018,4.018,4.018,0,0,0,0,0,4.018
1683763200000,2023-05-11 00:00:00,PSG/USDT,4.018,4.018,4.018,4.018,0,0,0,0,0,4.018
1683676800000,2023-05-10 00:00:00,PSG/USDT,4.018,4.018,4.018,4.018,1.693,0.42139,0,0,1,4.018
1683590400000,2023-05-09 00:00:00,PSG/USDT,5.035,5.035,5.035,5.035,0,0,0,0,0,5.036
1683504000000,2023-05-08 00:00:00,PSG/USDT,5.037,5.037,5.035,5.035,2.385,0.47372,0,0,2,5.036
1683417600000,2023-05-07 00:00:00,PSG/USDT,7.915,7.915,7.915,7.915,19.997,2.52652,19.997,2.52652,1,7.915
1683331200000,2023-05-06 00:00:00,PSG/USDT,7.916,7.916,7.916,7.916,0,0,0,0,0,8.216
1683244800000,2023-05-05 00:00:00,PSG/USDT,8.28,8.377,7.328,7.916,126.312,15.39127,103.511,12.45088,18,8.216
1683158400000,2023-05-04 00:00:00,PSG/USDT,5.035,5.035,5.035,5.035,0,0,0,0,0,5.036
1683072000000,2023-05-03 00:00:00,PSG/USDT,5.037,5.037,5.035,5.035,9.962,1.97815,3.699,0.73466,4,5.036
1682985600000,2023-05-02 00:00:00,PSG/USDT,5.035,5.233,5.035,5.035,13.052,2.57586,2.197,0.41994,3,5.068
1682899200000,2023-05-01 00:00:00,PSG/USDT,5.67,5.67,5.67,5.67,0,0,0,0,0,5.669
1682812800000,2023-04-30 00:00:00,PSG/USDT,5.669,5.67,5.669,5.67,197.932,34.9148,197.932,34.9148,5,5.669
1682726400000,2023-04-29 00:00:00,PSG/USDT,5.67,5.67,5.67,5.67,0,0,0,0,0,5.67
1682640000000,2023-04-28 00:00:00,PSG/USDT,5.67,5.67,5.67,5.67,0,0,0,0,0,5.67
1682553600000,2023-04-27 00:00:00,PSG/USDT,5.67,5.67,5.67,5.67,0,0,0,0,0,5.67
1682467200000,2023-04-26 00:00:00,PSG/USDT,5.67,5.67,5.67,5.67,0,0,0,0,0,5.67
1682380800000,2023-04-25 00:00:00,PSG/USDT,5.67,5.67,5.67,5.67,0,0,0,0,0,5.67
1682294400000,2023-04-24 00:00:00,PSG/USDT,5.67,5.67,5.67,5.67,0,0,0,0,0,5.67
1682208000000,2023-04-23 00:00:00,PSG/USDT,5.67,5.67,5.67,5.67,0,0,0,0,0,5.67
1682121600000,2023-04-22 00:00:00,PSG/USDT,5.67,5.67,5.67,5.67,0,0,0,0,0,5.67
1682035200000,2023-04-21 00:00:00,PSG/USDT,5.67,5.67,5.67,5.67,1.009,0.17813,1.009,0.17813,1,5.67
1681948800000,2023-04-20 00:00:00,PSG/USDT,4.379,5.67,4.379,5.67,11.666,2.28544,7.287,1.28544,4,5.184
1681862400000,2023-04-19 00:00:00,PSG/USDT,6.195,6.195,6.195,6.195,0,0,0,0,0,6.725
1681776000000,2023-04-18 00:00:00,PSG/USDT,6.195,6.195,6.195,6.195,0,0,0,0,0,6.725
1681689600000,2023-04-17 00:00:00,PSG/USDT,6.195,6.195,6.195,6.195,0,0,0,0,0,6.725
1681603200000,2023-04-16 00:00:00,PSG/USDT,6.547,7,6.195,6.195,40.463,6.02361,37.057,5.47384,6,6.725
1681516800000,2023-04-15 00:00:00,PSG/USDT,5.051,5.051,5.051,5.051,0,0,0,0,0,5.054
1681430400000,2023-04-14 00:00:00,PSG/USDT,5.051,5.051,5.051,5.051,0,0,0,0,0,5.054
1681344000000,2023-04-13 00:00:00,PSG/USDT,5.06,5.06,5.051,5.051,14.176,2.80476,0,0,4,5.054
1681257600000,2023-04-12 00:00:00,PSG/USDT,5.705,5.705,5.705,5.705,0,0,0,0,0,5.652
1681171200000,2023-04-11 00:00:00,PSG/USDT,5.705,5.705,5.705,5.705,0,0,0,0,0,5.652
1681084800000,2023-04-10 00:00:00,PSG/USDT,5.705,5.705,5.705,5.705,0,0,0,0,0,5.652
1680998400000,2023-04-09 00:00:00,PSG/USDT,5.705,5.705,5.705,5.705,0,0,0,0,0,5.652
1680912000000,2023-04-08 00:00:00,PSG/USDT,5.498,5.706,5.498,5.705,20.172,3.5701,8.713,1.56148,7,5.652
1680825600000,2023-04-07 00:00:00,PSG/USDT,4.5,4.5,4.5,4.5,0,0,0,0,0,5.556
1680739200000,2023-04-06 00:00:00,PSG/USDT,5.435,6.299,4.5,4.5,8.272,1.51298,2.809,0.44704,4,5.556
1680652800000,2023-04-05 00:00:00,PSG/USDT,4.501,4.501,4.5,4.5,4.229,0.9397,0,0,2,4.5
1680566400000,2023-04-04 00:00:00,PSG/USDT,5.373,5.373,5.373,5.373,0,0,0,0,0,5.373
1680480000000,2023-04-03 00:00:00,PSG/USDT,5.373,5.373,5.373,5.373,0,0,0,0,0,5.373
1680393600000,2023-04-02 00:00:00,PSG/USDT,5.373,5.373,5.373,5.373,0,0,0,0,0,5.373
1680307200000,2023-04-01 00:00:00,PSG/USDT,5.373,5.373,5.373,5.373,0,0,0,0,0,5.373
1680220800000,2023-03-31 00:00:00,PSG/USDT,5.373,5.373,5.373,5.373,176.393,32.8296,0,0,1,5.373
1680134400000,2023-03-30 00:00:00,PSG/USDT,5.435,5.435,5.435,5.435,0,0,0,0,0,5.418
1680048000000,2023-03-29 00:00:00,PSG/USDT,5.435,5.435,5.435,5.435,0,0,0,0,0,5.418
1679961600000,2023-03-28 00:00:00,PSG/USDT,5.402,5.435,5.402,5.435,6.898,1.27327,6.898,1.27327,2,5.418
1679875200000,2023-03-27 00:00:00,PSG/USDT,4.806,4.806,4.806,4.806,0,0,0,0,0,5.38
1679788800000,2023-03-26 00:00:00,PSG/USDT,4.806,4.806,4.806,4.806,0,0,0,0,0,5.38
1679702400000,2023-03-25 00:00:00,PSG/USDT,4.806,4.806,4.806,4.806,0,0,0,0,0,5.38
1679616000000,2023-03-24 00:00:00,PSG/USDT,4.806,4.806,4.806,4.806,0,0,0,0,0,5.38
1679529600000,2023-03-23 00:00:00,PSG/USDT,5.3,6.001,4.508,4.806,1834.814,341.97057,978.452,188.64591,17,5.38
1679443200000,2023-03-22 00:00:00,PSG/USDT,4.932,4.932,4.932,4.932,0,0,0,0,0,4.932
1679356800000,2023-03-21 00:00:00,PSG/USDT,4.932,4.932,4.932,4.932,9.864,2,9.864,2,1,4.932
1679270400000,2023-03-20 00:00:00,PSG/USDT,4.932,4.932,4.932,4.932,0,0,0,0,0,4.755
1679184000000,2023-03-19 00:00:00,PSG/USDT,4.932,4.932,4.932,4.932,0,0,0,0,0,4.755
1679097600000,2023-03-18 00:00:00,PSG/USDT,4.932,4.932,4.932,4.932,0,0,0,0,0,4.755
1679011200000,2023-03-17 00:00:00,PSG/USDT,4.932,4.932,4.932,4.932,0,0,0,0,0,4.755
1678924800000,2023-03-16 00:00:00,PSG/USDT,4.566,4.932,4.566,4.932,3.393,0.71462,1.76,0.35695,2,4.755
1678838400000,2023-03-15 00:00:00,PSG/USDT,5.159,5.159,5.159,5.159,0,0,0,0,0,5.424
1678752000000,2023-03-14 00:00:00,PSG/USDT,5.159,5.159,5.159,5.159,0,0,0,0,0,5.424
1678665600000,2023-03-13 00:00:00,PSG/USDT,5.159,5.159,5.159,5.159,0,0,0,0,0,5.424
1678579200000,2023-03-12 00:00:00,PSG/USDT,6.369,6.369,4.007,5.159,10.111,1.89744,5.272,0.9484,4,5.424
1678492800000,2023-03-11 00:00:00,PSG/USDT,4.003,4.003,4.003,4.003,3.082,0.77009,0,0,1,4.003
1678406400000,2023-03-10 00:00:00,PSG/USDT,5.811,5.811,5.811,5.811,0,0,0,0,0,5.803
1678320000000,2023-03-09 00:00:00,PSG/USDT,5.811,5.811,5.811,5.811,0,0,0,0,0,5.803
1678233600000,2023-03-08 00:00:00,PSG/USDT,5.799,5.811,5.799,5.811,320.106,55.15826,204.816,35.31826,4,5.803
1678147200000,2023-03-07 00:00:00,PSG/USDT,5.999,5.999,5.999,5.999,0,0,0,0,0,5.999
1678060800000,2023-03-06 00:00:00,PSG/USDT,5.999,5.999,5.999,5.999,0,0,0,0,0,5.999
1677974400000,2023-03-05 00:00:00,PSG/USDT,5.999,5.999,5.999,5.999,0,0,0,0,0,5.999
1677888000000,2023-03-04 00:00:00,PSG/USDT,5.999,5.999,5.999,5.999,1.315,0.21924,1.315,0.21924,1,5.999
1677801600000,2023-03-03 00:00:00,PSG/USDT,5.016,5.016,5.01,5.01,3.711,0.74056,1.307,0.26107,5,5.012
1677715200000,2023-03-02 00:00:00,PSG/USDT,6.15,6.15,6.15,6.15,3.089,0.5024,3.089,0.5024,1,6.15
1677628800000,2023-03-01 00:00:00,PSG/USDT,5.011,5.011,5.011,5.011,0,0,0,0,0,5.031
1677542400000,2023-02-28 00:00:00,PSG/USDT,5.011,5.011,5.011,5.011,0,0,0,0,0,5.031
1677456000000,2023-02-27 00:00:00,PSG/USDT,5.011,5.011,5.011,5.011,0,0,0,0,0,5.031
1677369600000,2023-02-26 00:00:00,PSG/USDT,5.011,5.011,5.011,5.011,0,0,0,0,0,5.031
1677283200000,2023-02-25 00:00:00,PSG/USDT,5.011,5.011,5.011,5.011,0,0,0,0,0,5.031
1677196800000,2023-02-24 00:00:00,PSG/USDT,5.011,5.011,5.011,5.011,0,0,0,0,0,5.031
1677110400000,2023-02-23 00:00:00,PSG/USDT,5.011,5.011,5.011,5.011,0,0,0,0,0,5.031
1677024000000,2023-02-22 00:00:00,PSG/USDT,5.051,5.051,5.011,5.011,0.001,0.0002,0,0,2,5.031
1676937600000,2023-02-21 00:00:00,PSG/USDT,5.01,5.01,5.01,5.01,0,0.0001,0,0,1,5.01
1676851200000,2023-02-20 00:00:00,PSG/USDT,6.001,6.001,6.001,6.001,0,0,0,0,0,6.001
1676764800000,2023-02-19 00:00:00,PSG/USDT,6.001,6.001,6.001,6.001,0.6,0.1,0,0,1,6.001
1676678400000,2023-02-18 00:00:00,PSG/USDT,6.356,6.356,6.356,6.356,1.122,0.17664,1.122,0.17664,1,6.356
1676592000000,2023-02-17 00:00:00,PSG/USDT,8.264,8.264,5.114,6.564,13.288,2.06442,4.484,0.68024,17,6.564
1676505600000,2023-02-16 00:00:00,PSG/USDT,6.65,6.65,6.65,6.65,0,0,0,0,0,6.65
1676419200000,2023-02-15 00:00:00,PSG/USDT,6.65,6.65,6.65,6.65,1.723,0.25919,1.723,0.25919,1,6.65
1676332800000,2023-02-14 00:00:00,PSG/USDT,5.876,5.876,5.876,5.876,0,0.0001,0,0,1,5.876
1676246400000,2023-02-13 00:00:00,PSG/USDT,6.64,6.64,6.64,6.64,0,0,0,0,0,6.263
1676160000000,2023-02-12 00:00:00,PSG/USDT,6.21,6.64,6.146,6.64,22.297,3.56192,3.315,0.49928,5,6.263
1676073600000,2023-02-11 00:00:00,PSG/USDT,6.942,6.945,6.942,6.945,13.86617624,1.997,13.86617624,1.997,3,6.943503609245918541
1675987200000,2023-02-10 00:00:00,PSG/USDT,6.43,6.43,6.201,6.201,12.72598272,2,0,0,3,6.364683060767192366
1675900800000,2023-02-09 00:00:00,PSG/USDT,7.264,7.264,7.264,7.264,0,0,0,0,0,7.262777481085296333
1675814400000,2023-02-08 00:00:00,PSG/USDT,7.261,7.264,7.261,7.264,18.20574914,2.50672,18.20574914,2.50672,3,7.262777481085296333
1675728000000,2023-02-07 00:00:00,PSG/USDT,6.724,6.724,6.724,6.724,0,0,0,0,0,6.823630509572886466
1675641600000,2023-02-06 00:00:00,PSG/USDT,6.724,6.724,6.724,6.724,0,0,0,0,0,6.823630509572886466
1675555200000,2023-02-05 00:00:00,PSG/USDT,7.598,7.598,6.724,6.724,47.17799031,6.92426,5.33554354,0.70223,9,6.823630509572886466
1675468800000,2023-02-04 00:00:00,PSG/USDT,6.27,6.27,6.207,6.207,9.97243599,1.60229,2.6893284,0.42892,2,6.223989599067860249
1675382400000,2023-02-03 00:00:00,PSG/USDT,6.27,6.27,6.27,6.27,0,0,0,0,0,6.927293193501136257
1675296000000,2023-02-02 00:00:00,PSG/USDT,7.148,7.148,6.26,6.27,5096.34856321,735.71915,2682.71868357,387.16896,1302,6.927293193501136257
1675209600000,2023-02-01 00:00:00,PSG/USDT,6.393,7.563,6.256,7.147,19113.43164613,2944.85429,9411.55880091,1449.06039,5431,6.500177290291240364
1675123200000,2023-01-31 00:00:00,PSG/USDT,6.457,6.604,6.272,6.388,16550.79969219,2588.33946,8552.43485551,1337.40222,4853,6.394606827246590961
1675036800000,2023-01-30 00:00:00,PSG/USDT,6.594,6.85,6.351,6.354,12560.36430057,1913.27651,6446.90202258,981.33702,3400,6.565646829951144107
1674950400000,2023-01-29 00:00:00,PSG/USDT,6.532,7.08,6.372,6.593,19957.43650114,3020.76359,10031.69471015,1518.82167,5194,6.608982750278860396
1674864000000,2023-01-28 00:00:00,PSG/USDT,6.545,6.883,6.276,6.531,15672.35332711,2374.60682,7688.35106932,1163.98297,4488,6.601274330652828425
1674777600000,2023-01-27 00:00:00,PSG/USDT,6.53,7.255,6.253,6.544,12516.71811076,1861.75659,6103.81143634,908.13124,4057,6.72555179992504818
1674691200000,2023-01-26 00:00:00,PSG/USDT,6.595,9.347,6.218,6.893,11186.0727146,1664.20312,5631.43538318,837.85882,3345,6.729601431119128154
1674604800000,2023-01-25 00:00:00,PSG/USDT,6.408,7.063,6.05,6.592,18599.20325979,2853.8674,9183.69302658,1408.82073,4759,6.522675795004991565
1674518400000,2023-01-24 00:00:00,PSG/USDT,6.408,6.973,6.171,6.612,14571.54055592,2235.0552,7202.04289746,1104.12593,4057,6.520707949836713391
1674432000000,2023-01-23 00:00:00,PSG/USDT,6.342,6.679,6.06,6.404,17347.66819718,2696.01846,8886.62513182,1380.53348,5251,6.435096118922806519
1674345600000,2023-01-22 00:00:00,PSG/USDT,6.419,6.772,6.019,6.329,20405.16526209,3157.80072,9502.48461308,1477.77388,4750,6.463650940153983061
1674259200000,2023-01-21 00:00:00,PSG/USDT,6.662,8.435,6.257,6.42,23598.65624569,3507.89786,11050.59526697,1659.88861,4757,6.73454471699327178
1674172800000,2023-01-20 00:00:00,PSG/USDT,6.199,7,6.144,6.66,18786.69825241,2898.65739,9429.90328454,1454.53088,5403,6.484697768388321478
1674086400000,2023-01-19 00:00:00,PSG/USDT,6.182,6.692,6,6.197,16556.15551346,2620.58871,8189.61789828,1296.05668,4486,6.31862074753919077
1674000000000,2023-01-18 00:00:00,PSG/USDT,6.629,6.685,6.009,6.13,16427.67867473,2538.00666,8304.00620753,1282.60914,4365,6.475624029142309167
1673913600000,2023-01-17 00:00:00,PSG/USDT,6.476,7,6.043,6.486,12889.04467011,1961.53816,6590.00410172,1003.30532,3590,6.572810384889558218
1673827200000,2023-01-16 00:00:00,PSG/USDT,6.556,6.715,6.138,6.484,15513.35583595,2373.56133,7518.78273658,1149.81295,4647,6.537389000219993504
1673740800000,2023-01-15 00:00:00,PSG/USDT,6.54,6.72,5.697,6.551,13010.56447722,2012.20457,6270.75726901,968.63219,3980,6.46840328866492718
1673654400000,2023-01-14 00:00:00,PSG/USDT,6.088,7.384,5.902,6.54,17810.33273189,2756.90786,8615.29519347,1334.69236,4330,6.467497401188599868
1673568000000,2023-01-13 00:00:00,PSG/USDT,5.974,6.694,5.354,6.088,17989.33979367,2905.35845,9208.40301492,1486.50451,4649,6.200221154229660417
1673481600000,2023-01-12 00:00:00,PSG/USDT,6.253,6.299,5.599,5.974,15558.61063686,2632.74524,8141.33761931,1377.36759,4551,5.912819806878501412
1673395200000,2023-01-11 00:00:00,PSG/USDT,6.05,6.273,5.6,6.252,10600.41019752,1795.90412,5422.16849181,917.74204,3207,5.904539078514860524
1673308800000,2023-01-10 00:00:00,PSG/USDT,5.758,6.796,5.608,5.956,14110.06681853,2435.21465,6936.33231807,1195.61356,3437,5.795194637437518168
1673222400000,2023-01-09 00:00:00,PSG/USDT,5.662,5.911,5.553,5.757,17395.8011342,3058.00441,8503.59716205,1494.40739,4783,5.689052240058997524
1673136000000,2023-01-08 00:00:00,PSG/USDT,5.571,9.94,5.2,5.659,25540.59673283,4542.80846,14499.44951422,2590.31794,4745,5.652859358678099747
1673049600000,2023-01-07 00:00:00,PSG/USDT,5.711,5.999,5.391,5.696,15150.31332944,2660.77218,7675.43058117,1346.48253,4452,5.694936980023833522
1672963200000,2023-01-06 00:00:00,PSG/USDT,5.716,10.388,4.316,5.71,35748.86027615,6128.96501,10262.1991703,1742.78312,4593,5.914593391040021177
1672876800000,2023-01-05 00:00:00,PSG/USDT,5.767,11,4.778,5.739,41407.99069478,6041.45251,33342.90849533,4667.55028,3829,7.23171976813006429
1672790400000,2023-01-04 00:00:00,PSG/USDT,5.407,7.928,4.777,5.553,34318.4781686,5537.65049,27084.70486096,4263.9241,3770,6.24379630090450624
1672704000000,2023-01-03 00:00:00,PSG/USDT,5.553,8,5.285,5.402,20318.40750329,3511.06977,11824.38295673,2014.12691,3544,5.846124617850325353
1672617600000,2023-01-02 00:00:00,PSG/USDT,5.429,5.8,5.25,5.552,16739.30850154,3065.13109,8442.84743973,1545.79985,4535,5.461834984929335317
1672531200000,2023-01-01 00:00:00,PSG/USDT,5.434,5.603,5.22,5.43,15389.09243677,2836.62483,7821.15146035,1440.84438,4396,5.425388458556437006
1672444800000,2022-12-31 00:00:00,PSG/USDT,5.236,5.604,5.104,5.435,13381.83591327,2508.51153,6603.98437691,1238.01317,4142,5.336174757834263729
1672358400000,2022-12-30 00:00:00,PSG/USDT,5.43,5.465,5.041,5.235,14001.25228237,2617.80674,7049.12754454,1317.97283,4142,5.349927865977442893
1672272000000,2022-12-29 00:00:00,PSG/USDT,5.337,5.602,5.111,5.423,14406.37976715,2702.80976,7660.20533471,1436.824,4017,5.331376809811124389
1672185600000,2022-12-28 00:00:00,PSG/USDT,5.747,5.951,5.235,5.348,17267.24731129,3101.89567,8583.76764368,1541.76501,4868,5.573546227615232725
1672099200000,2022-12-27 00:00:00,PSG/USDT,5.577,5.953,5.351,5.764,9579.21159145,1702.53532,4556.99231049,810.0302,2516,5.630989274660971296
1672012800000,2022-12-26 00:00:00,PSG/USDT,5.349,5.706,5.04,5.576,13837.51478199,2522.86691,6834.58414111,1245.84605,3957,5.486035931375931946
1671926400000,2022-12-25 00:00:00,PSG/USDT,5.684,6.545,5.163,5.281,13894.03510223,2445.41473,6727.68474537,1184.51586,3932,5.687761287236082256
1671840000000,2022-12-24 00:00:00,PSG/USDT,5.628,6.545,5.353,5.685,15172.83533853,2715.66098,7663.40082439,1372.14002,4332,5.591387010986692146
1671753600000,2022-12-23 00:00:00,PSG/USDT,5.503,5.642,5.041,5.629,12042.9992731,2183.10684,5812.9503559,1052.60779,2555,5.518635881271225857
1671667200000,2022-12-22 00:00:00,PSG/USDT,5.545,5.699,5.231,5.446,6653.29683541,1203.69584,3312.35040518,597.85426,1067,5.528038379983693069
1671580800000,2022-12-21 00:00:00,PSG/USDT,5.635,5.858,5.158,5.533,7633.29470405,1368.11726,4167.21762874,744.73672,1013,5.58092573943476057
1671494400000,2022-12-20 00:00:00,PSG/USDT,5.621,5.799,5.161,5.67,7435.56410151,1350.8261,3607.70699764,654.81739,1011,5.507098667655185581
1671408000000,2022-12-19 00:00:00,PSG/USDT,6.436,6.454,5.318,5.612,6383.06278375,1108.60606,3532.87930197,612.28471,855,5.764410548354551671
1671321600000,2022-12-18 00:00:00,PSG/USDT,6.294,9.099,5.661,6.449,8720.43851149,1291.93092,4306.83687757,627.55158,1045,6.8247480468027236
1671235200000,2022-12-17 00:00:00,PSG/USDT,6.46,7.132,5.958,6.275,9120.10763446,1381.21112,4474.3416047,677.0671,1239,6.610845725633157371
1671148800000,2022-12-16 00:00:00,PSG/USDT,6.555,7.207,6.15,6.45,12648.07829463,1900.33336,6081.40379843,911.39795,1798,6.665964915502247948
1671062400000,2022-12-15 00:00:00,PSG/USDT,6.41,6.984,6.182,6.579,23722.60387591,3585.22976,11769.67880094,1778.61662,2476,6.620145272378390586
1670976000000,2022-12-14 00:00:00,PSG/USDT,5.456,6.856,4.106,6.421,70567.1401653,13029.61151,35560.92805302,6561.16709,2781,5.442714185585307219
1670889600000,2022-12-13 00:00:00,PSG/USDT,5.173,6.45,4.952,5.466,73176.97328934,14127.39016,34832.24316006,6722.94881,2422,5.182229636698741633
1670803200000,2022-12-12 00:00:00,PSG/USDT,5.315,5.34,5.007,5.122,116203.57084708,22629.02398,55988.81368782,10901.94142,2783,5.13571664830436145
1670716800000,2022-12-11 00:00:00,PSG/USDT,5.383,5.5,5.087,5.315,56018.22260561,10501.92005,28258.07533985,5297.73383,2867,5.33433358983499945
1670630400000,2022-12-10 00:00:00,PSG/USDT,5.343,5.446,5.276,5.38,45518.58668061,8495.96552,23193.04081662,4329.0233,2714,5.357861168551118682
1670544000000,2022-12-09 00:00:00,PSG/USDT,5.332,5.5,5.135,5.359,38366.50032843,7176.58211,18964.29717257,3546.92211,2219,5.34620300810747174
1670457600000,2022-12-08 00:00:00,PSG/USDT,5.3,5.5,5.242,5.333,42169.21419695,7930.11548,20445.96019054,3843.79813,2365,5.317746749964974507
1670371200000,2022-12-07 00:00:00,PSG/USDT,5.442,5.598,2.757,5.3,49485.34228205,9125.11925,23255.08079925,4273.41022,3266,5.425170087804091604
1670284800000,2022-12-06 00:00:00,PSG/USDT,5.601,5.899,5.387,5.442,49834.70959729,8979.9627,24469.97420932,4411.12925,3063,5.550742687423706892
1670198400000,2022-12-05 00:00:00,PSG/USDT,5.503,5.784,5.416,5.605,58364.36438204,10535.17445,28739.65760305,5186.66368,3341,5.540740455537921848
1670112000000,2022-12-04 00:00:00,PSG/USDT,5.491,5.591,5.346,5.503,74326.84303762,13543.56479,36283.22642162,6610.87709,4100,5.488246088739183043
1670025600000,2022-12-03 00:00:00,PSG/USDT,5.59,5.985,5.421,5.562,75258.18227498,13547.99675,36489.30984074,6569.19812,4190,5.555250488675488935
1669939200000,2022-12-02 00:00:00,PSG/USDT,5.483,5.656,5.298,5.587,66612.97301216,12052.1525,32812.72746232,5936.3494,3921,5.527675242478967347
1669852800000,2022-12-01 00:00:00,PSG/USDT,5.494,5.594,5.288,5.483,67749.57966105,12420.39112,32586.80613839,5974.99597,3911,5.454856588228928104
1669766400000,2022-11-30 00:00:00,PSG/USDT,5.484,5.567,5.244,5.488,57591.60902552,10513.04564,28181.11673304,5144.18081,3610,5.478244014235777337
1669680000000,2022-11-29 00:00:00,PSG/USDT,5.404,5.502,5.354,5.482,64927.58651023,11952.41061,31525.05444487,5802.93281,3448,5.432350089149198114
1669593600000,2022-11-28 00:00:00,PSG/USDT,5.455,5.497,5.213,5.383,63597.09748363,11708.23375,31990.00155918,5890.80653,3324,5.432048223889411434
1669507200000,2022-11-27 00:00:00,PSG/USDT,5.548,5.624,5.438,5.491,62020.10982353,11195.7715,32041.92383877,5784.60539,3592,5.539814062934635575
1669420800000,2022-11-26 00:00:00,PSG/USDT,5.605,5.894,5.467,5.582,59618.20731931,10652.60706,30430.79630398,5438.8777,3636,5.596808773476635837
1669334400000,2022-11-25 00:00:00,PSG/USDT,5.518,5.745,5.465,5.612,61293.88098051,11121.15644,30747.00946966,5578.92322,3415,5.511610747306091288
1669248000000,2022-11-24 00:00:00,PSG/USDT,5.759,5.795,5.456,5.518,51931.10500128,9244.45184,26012.67866073,4631.02413,3423,5.618871272225307719
1669161600000,2022-11-23 00:00:00,PSG/USDT,5.539,6.13,5.504,5.777,41106.89861246,7182.36345,21609.64663683,3777.41229,3352,5.725625711633576672
1669075200000,2022-11-22 00:00:00,PSG/USDT,5.51,5.744,5.419,5.656,21178.14885529,3817.59455,10638.89835989,1916.86949,3177,5.548281887071448245
1668988800000,2022-11-21 00:00:00,PSG/USDT,6.122,6.266,5.4,5.512,23807.38780847,4189.51117,12307.54664889,2165.2486,3391,5.687952204794478735
1668902400000,2022-11-20 00:00:00,PSG/USDT,6.586,6.723,6.067,6.115,22666.92509961,3483.52064,11682.01444299,1793.56045,3719,6.509433167387405689
1668816000000,2022-11-19 00:00:00,PSG/USDT,7.238,7.238,6.26,6.603,27929.09958634,4153.34829,13811.57770255,2054.43562,4246,6.730487085726702918
1668729600000,2022-11-18 00:00:00,PSG/USDT,6.62,7.46,6.46,7.238,27089.87090484,3919.64709,13293.0919052,1921.58137,3855,6.921515580362389259
1668643200000,2022-11-17 00:00:00,PSG/USDT,6.359,6.79,6.169,6.615,29766.62825403,4692.98515,14460.5912992,2278.3808,4452,6.344090317203991432
1668556800000,2022-11-16 00:00:00,PSG/USDT,6.369,6.892,6.093,6.356,29642.82946766,4548.74711,14763.77122953,2266.59855,4415,6.520595535854611574
1668470400000,2022-11-15 00:00:00,PSG/USDT,5.715,6.893,5.645,6.398,28508.10841408,4700.30409,14342.30865255,2365.99713,4266,6.080105668165321041
1668384000000,2022-11-14 00:00:00,PSG/USDT,5.478,6.172,5.391,5.721,27204.69060968,4783.95724,14177.66765609,2499.99552,3977,5.691783634125591761
1668297600000,2022-11-13 00:00:00,PSG/USDT,5.92,6.189,5.391,5.497,31483.94907383,5432.6019,15462.01484018,2661.05403,2913,5.80055863481240866
1668211200000,2022-11-12 00:00:00,PSG/USDT,6.188,6.188,5.545,5.919,42921.52547946,7247.09086,21101.54507074,3559.49164,3201,5.923482317076347956
1668124800000,2022-11-11 00:00:00,PSG/USDT,6.101,6.583,5.524,6.188,62754.61972746,10506.7857,31746.77520606,5314.0187,4069,5.975158720593726717
1668038400000,2022-11-10 00:00:00,PSG/USDT,5.032,6.298,4.758,6.097,112502.16347362,20517.1463,56835.8171814,10368.57347,7420,5.498628627116509536
1667952000000,2022-11-09 00:00:00,PSG/USDT,6.254,6.357,4.768,5.051,131001.7644711,23110.28895,65703.56584305,11579.97109,8786,5.688021369699237591
1667865600000,2022-11-08 00:00:00,PSG/USDT,7.537,7.58,5.492,6.253,100932.76108844,14634.45075,50663.87001,7336.21968,8997,6.918818517270676841
1667779200000,2022-11-07 00:00:00,PSG/USDT,7.451,7.886,7.199,7.538,107129.71371201,14428.38951,53857.92426465,7254.65387,9088,7.425621769403414487
1667692800000,2022-11-06 00:00:00,PSG/USDT,7.444,7.984,7.352,7.505,119703.4119122,15661.84087,60412.02916573,7906.03543,9199,7.644804697703022563
1667606400000,2022-11-05 00:00:00,PSG/USDT,7.305,7.94,7.217,7.442,121888.9310036,16339.52991,61626.90154605,8258.66125,9467,7.461365768358972739
1667520000000,2022-11-04 00:00:00,PSG/USDT,6.872,7.442,6.861,7.31,70678.80409679,9910.20322,36376.95226094,5098.89745,5899,7.133196760642432753
1667433600000,2022-11-03 00:00:00,PSG/USDT,6.832,7.111,6.832,6.871,4100.98407795,588.88699,2117.7236214,304.06617,2108,6.964219996992975078
1667347200000,2022-11-02 00:00:00,PSG/USDT,6.88,6.989,6.576,6.833,4421.97207224,650.40721,2107.24654845,309.58137,1960,6.799741456689150228
1667260800000,2022-11-01 00:00:00,PSG/USDT,6.935,7.15,6.85,6.88,4470.86511541,644.22379,2372.06119853,341.46843,2040,6.940375516639502498
1667174400000,2022-10-31 00:00:00,PSG/USDT,6.91,7.497,6.712,6.936,26314.52852612,3750.13088,12986.61935719,1845.3708,2808,7.018199760765224478
1667088000000,2022-10-30 00:00:00,PSG/USDT,6.716,7.522,6.602,6.912,58633.72294596,8491.18731,36073.52392558,5208.42957,4517,6.909978026551470541
1667001600000,2022-10-29 00:00:00,PSG/USDT,6.776,7.1,6.391,6.717,31602.88307602,4673.22453,19361.03452839,2859.61785,3489,6.763153615317122682
1666915200000,2022-10-28 00:00:00,PSG/USDT,6.636,7,6.121,6.776,29256.43280543,4430.03873,13944.75303443,2107.92496,2500,6.605768673349356863
1666828800000,2022-10-27 00:00:00,PSG/USDT,6.755,7.17,6.489,6.637,21124.79169625,3102.34887,12347.98768266,1808.82752,2729,6.810041564167242023
1666742400000,2022-10-26 00:00:00,PSG/USDT,6.787,8.036,6.265,6.756,39529.5698648,5766.19043,21140.49368194,3066.29983,3545,6.859802560849082315
1666656000000,2022-10-25 00:00:00,PSG/USDT,6.696,36.681,5.337,6.78,8795.61740173,1267.10634,4435.95952416,622.09748,2421,7.004731887812855435
1666569600000,2022-10-24 00:00:00,PSG/USDT,6.549,100000,6.22,6.697,2371.09575552,345.69188,1230.7603811,174.57815,1057,1314.102542071714382297
