https://www.CryptoDataDownload.com
unix,date,symbol,open,high,low,close,Volume LINK,Volume USDC,buyTakerAmount,buyTakerQuantity,tradeCount,weightedAverage
1694995200000,2023-09-18 00:00:00,LINK/USDC,6.231,6.231,6.231,6.231,0,0,0,0,0,6.232
1694908800000,2023-09-17 00:00:00,LINK/USDC,6.231,6.231,6.231,6.231,0,0,0,0,0,6.232
1694822400000,2023-09-16 00:00:00,LINK/USDC,6.234,6.234,6.231,6.231,62.574,10.04008,62.574,10.04008,3,6.232
1694736000000,2023-09-15 00:00:00,LINK/USDC,6.186,6.186,6.186,6.186,0,0,0,0,0,6.186
1694649600000,2023-09-14 00:00:00,LINK/USDC,6.186,6.186,6.186,6.186,0,0,0,0,0,6.186
1694563200000,2023-09-13 00:00:00,LINK/USDC,6.186,6.186,6.186,6.186,0,0,0,0,0,6.186
1694476800000,2023-09-12 00:00:00,LINK/USDC,6.186,6.186,6.186,6.186,0,0,0,0,0,6.186
1694390400000,2023-09-11 00:00:00,LINK/USDC,6.186,6.186,6.186,6.186,0,0,0,0,0,6.186
1694304000000,2023-09-10 00:00:00,LINK/USDC,6.186,6.186,6.186,6.186,0,0,0,0,0,6.186
1694217600000,2023-09-09 00:00:00,LINK/USDC,6.186,6.186,6.186,6.186,27.948,4.51803,27.948,4.51803,1,6.186
1694131200000,2023-09-08 00:00:00,LINK/USDC,6.36,6.36,6.268,6.268,1327.549,208.86393,635.999,99.99999,15,6.356
1694044800000,2023-09-07 00:00:00,LINK/USDC,6.798,6.798,6.798,6.798,0,0,0,0,0,6.798
1693958400000,2023-09-06 00:00:00,LINK/USDC,6.798,6.798,6.798,6.798,0,0,0,0,0,6.798
1693872000000,2023-09-05 00:00:00,LINK/USDC,6.798,6.798,6.798,6.798,0,0,0,0,0,6.798
1693785600000,2023-09-04 00:00:00,LINK/USDC,6.798,6.798,6.798,6.798,0,0,0,0,0,6.798
1693699200000,2023-09-03 00:00:00,LINK/USDC,6.798,6.798,6.798,6.798,0,0,0,0,0,6.798
1693612800000,2023-09-02 00:00:00,LINK/USDC,6.798,6.798,6.798,6.798,0,0,0,0,0,6.798
1693526400000,2023-09-01 00:00:00,LINK/USDC,6.798,6.798,6.798,6.798,0,0,0,0,0,6.798
1693440000000,2023-08-31 00:00:00,LINK/USDC,6.798,6.798,6.798,6.798,0,0,0,0,0,6.798
1693353600000,2023-08-30 00:00:00,LINK/USDC,6.798,6.798,6.798,6.798,0,0,0,0,0,6.798
1693267200000,2023-08-29 00:00:00,LINK/USDC,6.798,6.798,6.798,6.798,0,0,0,0,0,6.798
1693180800000,2023-08-28 00:00:00,LINK/USDC,6.798,6.798,6.798,6.798,0,0,0,0,0,6.798
1693094400000,2023-08-27 00:00:00,LINK/USDC,6.798,6.798,6.798,6.798,0,0,0,0,0,6.798
1693008000000,2023-08-26 00:00:00,LINK/USDC,6.798,6.798,6.798,6.798,0,0,0,0,0,6.798
1692921600000,2023-08-25 00:00:00,LINK/USDC,6.798,6.798,6.798,6.798,0,0,0,0,0,6.798
1692835200000,2023-08-24 00:00:00,LINK/USDC,6.798,6.798,6.798,6.798,0,0,0,0,0,6.798
1692748800000,2023-08-23 00:00:00,LINK/USDC,6.798,6.798,6.798,6.798,0,0,0,0,0,6.798
1692662400000,2023-08-22 00:00:00,LINK/USDC,6.798,6.798,6.798,6.798,0,0,0,0,0,6.798
1692576000000,2023-08-21 00:00:00,LINK/USDC,6.798,6.798,6.798,6.798,0,0,0,0,0,6.798
1692489600000,2023-08-20 00:00:00,LINK/USDC,6.798,6.798,6.798,6.798,0,0,0,0,0,6.798
1692403200000,2023-08-19 00:00:00,LINK/USDC,6.798,6.798,6.798,6.798,0,0,0,0,0,6.798
1692316800000,2023-08-18 00:00:00,LINK/USDC,6.798,6.798,6.798,6.798,78.749,11.58424,78.749,11.58424,1,6.798
1692230400000,2023-08-17 00:00:00,LINK/USDC,6.359,6.359,6.195,6.195,3.278,0.52484,0,0,4,6.246
1692144000000,2023-08-16 00:00:00,LINK/USDC,6.968,6.968,6.968,6.968,128.003,18.37024,0,0,1,6.968
1692057600000,2023-08-15 00:00:00,LINK/USDC,6.918,6.918,6.918,6.918,1.004,0.14513,0,0,1,6.918
1691971200000,2023-08-14 00:00:00,LINK/USDC,8.3,8.3,8.3,8.3,0,0,0,0,0,8.3
1691884800000,2023-08-13 00:00:00,LINK/USDC,8.3,8.3,8.3,8.3,0,0,0,0,0,8.3
1691798400000,2023-08-12 00:00:00,LINK/USDC,8.3,8.3,8.3,8.3,0,0,0,0,0,8.3
1691712000000,2023-08-11 00:00:00,LINK/USDC,8.3,8.3,8.3,8.3,1.916,0.23087,1.916,0.23087,1,8.3
1691625600000,2023-08-10 00:00:00,LINK/USDC,7.305,7.305,7.305,7.305,0,0,0,0,0,7.305
1691539200000,2023-08-09 00:00:00,LINK/USDC,7.305,7.305,7.305,7.305,0,0,0,0,0,7.305
1691452800000,2023-08-08 00:00:00,LINK/USDC,7.305,7.305,7.305,7.305,0,0,0,0,0,7.305
1691366400000,2023-08-07 00:00:00,LINK/USDC,7.305,7.305,7.305,7.305,0,0,0,0,0,7.305
1691280000000,2023-08-06 00:00:00,LINK/USDC,7.305,7.305,7.305,7.305,0,0,0,0,0,7.305
1691193600000,2023-08-05 00:00:00,LINK/USDC,7.305,7.305,7.305,7.305,0,0,0,0,0,7.305
1691107200000,2023-08-04 00:00:00,LINK/USDC,7.305,7.305,7.305,7.305,0,0,0,0,0,7.305
1691020800000,2023-08-03 00:00:00,LINK/USDC,7.305,7.305,7.305,7.305,0,0,0,0,0,7.305
1690934400000,2023-08-02 00:00:00,LINK/USDC,7.305,7.305,7.305,7.305,0,0,0,0,0,7.305
1690848000000,2023-08-01 00:00:00,LINK/USDC,7.305,7.305,7.305,7.305,0,0,0,0,0,7.305
1690761600000,2023-07-31 00:00:00,LINK/USDC,7.305,7.305,7.305,7.305,0,0,0,0,0,7.305
1690675200000,2023-07-30 00:00:00,LINK/USDC,7.305,7.305,7.305,7.305,0,0,0,0,0,7.305
1690588800000,2023-07-29 00:00:00,LINK/USDC,7.305,7.305,7.305,7.305,0,0,0,0,0,7.305
1690502400000,2023-07-28 00:00:00,LINK/USDC,7.305,7.305,7.305,7.305,0,0,0,0,0,7.305
1690416000000,2023-07-27 00:00:00,LINK/USDC,7.305,7.305,7.305,7.305,0,0,0,0,0,7.305
1690329600000,2023-07-26 00:00:00,LINK/USDC,7.305,7.305,7.305,7.305,25.684,3.51596,0,0,1,7.305
1690243200000,2023-07-25 00:00:00,LINK/USDC,8.277,8.277,8.277,8.277,0,0,0,0,0,8.277
1690156800000,2023-07-24 00:00:00,LINK/USDC,8.277,8.277,8.277,8.277,0,0,0,0,0,8.277
1690070400000,2023-07-23 00:00:00,LINK/USDC,8.277,8.277,8.277,8.277,0,0,0,0,0,8.277
1689984000000,2023-07-22 00:00:00,LINK/USDC,8.277,8.277,8.277,8.277,18.245,2.20433,18.245,2.20433,4,8.277
1689897600000,2023-07-21 00:00:00,LINK/USDC,8.24,8.24,8.24,8.24,0,0,0,0,0,7.602
1689811200000,2023-07-20 00:00:00,LINK/USDC,7.489,8.24,7.489,8.24,27.611,3.63295,26.472,3.49467,3,7.602
1689724800000,2023-07-19 00:00:00,LINK/USDC,6.925,6.925,6.925,6.925,23.445,3.38557,0,0,4,6.925
1689638400000,2023-07-18 00:00:00,LINK/USDC,7,7,7,7,0,0,0,0,0,6.685
1689552000000,2023-07-17 00:00:00,LINK/USDC,7,7,7,7,0,0,0,0,0,6.685
1689465600000,2023-07-16 00:00:00,LINK/USDC,7,7,7,7,0,0,0,0,0,6.685
1689379200000,2023-07-15 00:00:00,LINK/USDC,7,7,7,7,0,0,0,0,0,6.685
1689292800000,2023-07-14 00:00:00,LINK/USDC,7,7,7,7,0,0,0,0,0,6.685
1689206400000,2023-07-13 00:00:00,LINK/USDC,6.4,7,6.4,7,2.277,0.34129,2.277,0.34129,2,6.685
1689120000000,2023-07-12 00:00:00,LINK/USDC,6.379,6.379,6.379,6.379,0,0,0,0,0,6.379
1689033600000,2023-07-11 00:00:00,LINK/USDC,6.379,6.379,6.379,6.379,0,0,0,0,0,6.379
1688947200000,2023-07-10 00:00:00,LINK/USDC,6.379,6.379,6.379,6.379,0,0,0,0,0,6.379
1688860800000,2023-07-09 00:00:00,LINK/USDC,6.379,6.379,6.379,6.379,0,0,0,0,0,6.379
1688774400000,2023-07-08 00:00:00,LINK/USDC,6.379,6.379,6.379,6.379,0,0,0,0,0,6.379
1688688000000,2023-07-07 00:00:00,LINK/USDC,6.379,6.379,6.379,6.379,0,0,0,0,0,6.379
1688601600000,2023-07-06 00:00:00,LINK/USDC,6.379,6.379,6.379,6.379,0,0,0,0,0,6.379
1688515200000,2023-07-05 00:00:00,LINK/USDC,6.379,6.379,6.379,6.379,0,0,0,0,0,6.379
1688428800000,2023-07-04 00:00:00,LINK/USDC,6.379,6.379,6.379,6.379,0,0,0,0,0,6.379
1688342400000,2023-07-03 00:00:00,LINK/USDC,6.379,6.379,6.379,6.379,0,0,0,0,0,6.379
1688256000000,2023-07-02 00:00:00,LINK/USDC,6.379,6.379,6.379,6.379,0,0,0,0,0,6.379
1688169600000,2023-07-01 00:00:00,LINK/USDC,6.379,6.379,6.379,6.379,0,0,0,0,0,6.379
1688083200000,2023-06-30 00:00:00,LINK/USDC,6.379,6.379,6.379,6.379,76.548,12,76.548,12,2,6.379
1687996800000,2023-06-29 00:00:00,LINK/USDC,5.812,5.812,5.812,5.812,0,0,0,0,0,5.812
1687910400000,2023-06-28 00:00:00,LINK/USDC,5.812,5.812,5.812,5.812,0.015,0.00261,0,0,1,5.812
1687824000000,2023-06-27 00:00:00,LINK/USDC,6.166,6.166,6.165,6.166,141.777,22.99485,138.156,22.40751,7,6.165
1687737600000,2023-06-26 00:00:00,LINK/USDC,6.032,6.032,6.032,6.032,0,0,0,0,0,6.03
1687651200000,2023-06-25 00:00:00,LINK/USDC,6.032,6.032,6.032,6.032,0,0,0,0,0,6.03
1687564800000,2023-06-24 00:00:00,LINK/USDC,6.032,6.032,6.032,6.032,0,0,0,0,0,6.03
1687478400000,2023-06-23 00:00:00,LINK/USDC,6,6.032,6,6.032,21.262,3.52594,21.262,3.52594,2,6.03
1687392000000,2023-06-22 00:00:00,LINK/USDC,5.306,5.306,5.306,5.306,0,0,0,0,0,5.306
1687305600000,2023-06-21 00:00:00,LINK/USDC,5.306,5.306,5.306,5.306,5.142,0.96928,5.142,0.96928,1,5.306
1687219200000,2023-06-20 00:00:00,LINK/USDC,4.739,4.739,4.739,4.739,0,0,0,0,0,4.753
1687132800000,2023-06-19 00:00:00,LINK/USDC,4.739,4.739,4.739,4.739,0,0,0,0,0,4.753
1687046400000,2023-06-18 00:00:00,LINK/USDC,5,5,4.739,4.739,17.619,3.70692,0,0,4,4.753
1686960000000,2023-06-17 00:00:00,LINK/USDC,5.294,5.371,5.294,5.371,49.066,9.25384,0,0,2,5.302
1686873600000,2023-06-16 00:00:00,LINK/USDC,5,5,5,5,0,0,0,0,0,5
1686787200000,2023-06-15 00:00:00,LINK/USDC,5,5,5,5,0,0,0,0,0,5
1686700800000,2023-06-14 00:00:00,LINK/USDC,5,5,5,5,0,0,0,0,0,5
1686614400000,2023-06-13 00:00:00,LINK/USDC,5,5,5,5,0,0,0,0,0,5
1686528000000,2023-06-12 00:00:00,LINK/USDC,5,5,5,5,0.001,0.00022,0,0,2,5
1686441600000,2023-06-11 00:00:00,LINK/USDC,6.055,6.055,6.055,6.055,0,0,0,0,0,6.055
1686355200000,2023-06-10 00:00:00,LINK/USDC,6.055,6.055,6.055,6.055,0,0,0,0,0,6.055
1686268800000,2023-06-09 00:00:00,LINK/USDC,6.055,6.055,6.055,6.055,0,0,0,0,0,6.055
1686182400000,2023-06-08 00:00:00,LINK/USDC,6.055,6.055,6.055,6.055,0,0,0,0,0,6.055
1686096000000,2023-06-07 00:00:00,LINK/USDC,6.055,6.055,6.055,6.055,0,0,0,0,0,6.055
1686009600000,2023-06-06 00:00:00,LINK/USDC,6.055,6.055,6.055,6.055,0,0,0,0,0,6.055
1685923200000,2023-06-05 00:00:00,LINK/USDC,6.055,6.055,6.055,6.055,6.999,1.15605,0,0,1,6.055
1685836800000,2023-06-04 00:00:00,LINK/USDC,6.508,6.508,6.508,6.508,70.099,10.77125,0,0,1,6.508
1685750400000,2023-06-03 00:00:00,LINK/USDC,6.487,6.487,6.402,6.402,78.407,12.23067,8.172,1.25989,2,6.41
1685664000000,2023-06-02 00:00:00,LINK/USDC,6.382,6.382,6.382,6.382,0,0,0,0,0,6.459
1685577600000,2023-06-01 00:00:00,LINK/USDC,6.489,6.489,5.98,6.382,184.277,28.52743,49.071,7.68912,12,6.459
1685491200000,2023-05-31 00:00:00,LINK/USDC,6.599,6.6,5.898,6.029,26.223,4.20499,11.599,1.75768,6,6.251
1685404800000,2023-05-30 00:00:00,LINK/USDC,6.655,6.655,5.956,5.956,71.646,11.94113,4.999,0.75131,5,6.004
1685318400000,2023-05-29 00:00:00,LINK/USDC,6.6,6.6,6.6,6.6,0,0,0,0,0,6.55
1685232000000,2023-05-28 00:00:00,LINK/USDC,6.5,6.6,6.5,6.6,13.1,2,13.1,2,2,6.55
1685145600000,2023-05-27 00:00:00,LINK/USDC,6.203,6.203,6.203,6.203,0,0,0,0,0,6.207
1685059200000,2023-05-26 00:00:00,LINK/USDC,6.203,6.203,6.203,6.203,0,0,0,0,0,6.207
1684972800000,2023-05-25 00:00:00,LINK/USDC,6.203,6.203,6.203,6.203,0,0,0,0,0,6.207
1684886400000,2023-05-24 00:00:00,LINK/USDC,6.261,6.261,6.203,6.203,195.584,31.50767,178.649,28.80046,7,6.207
1684800000000,2023-05-23 00:00:00,LINK/USDC,6.529,6.529,6.529,6.529,0,0,0,0,0,6.518
1684713600000,2023-05-22 00:00:00,LINK/USDC,6.5,6.529,6.019,6.529,22.892,3.51186,6.5,1,5,6.518
1684627200000,2023-05-21 00:00:00,LINK/USDC,6.524,6.524,6.424,6.424,14.917,2.30172,6.38,0.99327,2,6.481
1684540800000,2023-05-20 00:00:00,LINK/USDC,6.662,6.662,6.662,6.662,0,0,0,0,0,6.662
1684454400000,2023-05-19 00:00:00,LINK/USDC,6.662,6.662,6.662,6.662,12.201,1.83153,12.201,1.83153,1,6.662
1684368000000,2023-05-18 00:00:00,LINK/USDC,6.7,6.7,6.7,6.7,0,0,0,0,0,6.7
1684281600000,2023-05-17 00:00:00,LINK/USDC,6.7,6.7,6.7,6.7,0,0,0,0,0,6.7
1684195200000,2023-05-16 00:00:00,LINK/USDC,6.7,6.7,6.7,6.7,0,0,0,0,0,6.7
1684108800000,2023-05-15 00:00:00,LINK/USDC,6.7,6.7,6.7,6.7,6.7,1,6.7,1,1,6.7
1684022400000,2023-05-14 00:00:00,LINK/USDC,6.6,6.6,6.6,6.6,6.6,1,6.6,1,1,6.6
1683936000000,2023-05-13 00:00:00,LINK/USDC,6.526,6.526,6.526,6.526,0,0,0,0,0,6.526
1683849600000,2023-05-12 00:00:00,LINK/USDC,6.526,6.526,6.526,6.526,0,0,0,0,0,6.526
1683763200000,2023-05-11 00:00:00,LINK/USDC,6.526,6.526,6.526,6.526,25.879,3.96567,0,0,1,6.526
1683676800000,2023-05-10 00:00:00,LINK/USDC,6.528,6.528,6.528,6.528,0,0.00001,0,0,1,6.528
1683590400000,2023-05-09 00:00:00,LINK/USDC,6.528,6.528,6.528,6.528,0,0,0,0,0,6.528
1683504000000,2023-05-08 00:00:00,LINK/USDC,6.528,6.528,6.528,6.528,1.009,0.1547,0,0,1,6.528
1683417600000,2023-05-07 00:00:00,LINK/USDC,7.042,7.042,7.042,7.042,0,0,0,0,0,7.042
1683331200000,2023-05-06 00:00:00,LINK/USDC,7.042,7.042,7.042,7.042,0,0,0,0,0,7.042
1683244800000,2023-05-05 00:00:00,LINK/USDC,7.042,7.042,7.042,7.042,87.344,12.40339,0,0,1,7.042
1683158400000,2023-05-04 00:00:00,LINK/USDC,7.114,7.114,7.114,7.114,0,0,0,0,0,7.114
1683072000000,2023-05-03 00:00:00,LINK/USDC,7.114,7.114,7.114,7.114,0,0,0,0,0,7.114
1682985600000,2023-05-02 00:00:00,LINK/USDC,7.114,7.114,7.114,7.114,0,0,0,0,0,7.114
1682899200000,2023-05-01 00:00:00,LINK/USDC,7.114,7.114,7.114,7.114,0,0,0,0,0,7.114
1682812800000,2023-04-30 00:00:00,LINK/USDC,7.114,7.114,7.114,7.114,0,0,0,0,0,7.114
1682726400000,2023-04-29 00:00:00,LINK/USDC,7.114,7.114,7.114,7.114,0,0,0,0,0,7.114
1682640000000,2023-04-28 00:00:00,LINK/USDC,7.114,7.114,7.114,7.114,0,0,0,0,0,7.114
1682553600000,2023-04-27 00:00:00,LINK/USDC,7.114,7.114,7.114,7.114,0,0,0,0,0,7.114
1682467200000,2023-04-26 00:00:00,LINK/USDC,7.114,7.114,7.114,7.114,0,0,0,0,0,7.114
1682380800000,2023-04-25 00:00:00,LINK/USDC,7.114,7.114,7.114,7.114,0,0,0,0,0,7.114
1682294400000,2023-04-24 00:00:00,LINK/USDC,7.114,7.114,7.114,7.114,0,0,0,0,0,7.114
1682208000000,2023-04-23 00:00:00,LINK/USDC,7.114,7.114,7.114,7.114,7.155,1.00581,0,0,2,7.114
1682121600000,2023-04-22 00:00:00,LINK/USDC,7.109,7.191,7.108,7.133,136.742,19.16869,75.76,10.59008,8,7.133
1682035200000,2023-04-21 00:00:00,LINK/USDC,7.468,7.468,7.468,7.468,0,0,0,0,0,7.468
1681948800000,2023-04-20 00:00:00,LINK/USDC,7.468,7.468,7.468,7.468,44.201,5.91879,0,0,1,7.468
1681862400000,2023-04-19 00:00:00,LINK/USDC,8.889,8.889,8.624,8.624,96.441,10.87569,96.441,10.87569,2,8.868
1681776000000,2023-04-18 00:00:00,LINK/USDC,8.374,8.674,8.374,8.674,107.124,12.49007,107.124,12.49007,6,8.579
1681689600000,2023-04-17 00:00:00,LINK/USDC,7.137,7.137,7.137,7.137,0,0,0,0,0,7.137
1681603200000,2023-04-16 00:00:00,LINK/USDC,7.137,7.137,7.137,7.137,0,0,0,0,0,7.137
1681516800000,2023-04-15 00:00:00,LINK/USDC,7.137,7.137,7.137,7.137,0,0,0,0,0,7.137
1681430400000,2023-04-14 00:00:00,LINK/USDC,7.137,7.137,7.137,7.137,0,0,0,0,0,7.137
1681344000000,2023-04-13 00:00:00,LINK/USDC,7.137,7.137,7.137,7.137,0,0,0,0,0,7.137
1681257600000,2023-04-12 00:00:00,LINK/USDC,7.137,7.137,7.137,7.137,0,0,0,0,0,7.137
1681171200000,2023-04-11 00:00:00,LINK/USDC,7.137,7.137,7.137,7.137,0,0,0,0,0,7.137
1681084800000,2023-04-10 00:00:00,LINK/USDC,7.137,7.137,7.137,7.137,0,0,0,0,0,7.137
1680998400000,2023-04-09 00:00:00,LINK/USDC,7.137,7.137,7.137,7.137,0,0,0,0,0,7.137
1680912000000,2023-04-08 00:00:00,LINK/USDC,7.137,7.137,7.137,7.137,0,0,0,0,0,7.137
1680825600000,2023-04-07 00:00:00,LINK/USDC,7.137,7.137,7.137,7.137,0,0,0,0,0,7.137
1680739200000,2023-04-06 00:00:00,LINK/USDC,7.137,7.137,7.137,7.137,0,0,0,0,0,7.137
1680652800000,2023-04-05 00:00:00,LINK/USDC,7.137,7.137,7.137,7.137,0,0,0,0,0,7.137
1680566400000,2023-04-04 00:00:00,LINK/USDC,7.137,7.137,7.137,7.137,0,0,0,0,0,7.137
1680480000000,2023-04-03 00:00:00,LINK/USDC,7.137,7.137,7.137,7.137,0,0,0,0,0,7.137
1680393600000,2023-04-02 00:00:00,LINK/USDC,7.137,7.137,7.137,7.137,0,0,0,0,0,7.137
1680307200000,2023-04-01 00:00:00,LINK/USDC,7.137,7.137,7.137,7.137,0,0,0,0,0,7.137
1680220800000,2023-03-31 00:00:00,LINK/USDC,7.137,7.137,7.137,7.137,0,0,0,0,0,7.137
1680134400000,2023-03-30 00:00:00,LINK/USDC,7.137,7.137,7.137,7.137,0,0,0,0,0,7.137
1680048000000,2023-03-29 00:00:00,LINK/USDC,7.137,7.137,7.137,7.137,0,0,0,0,0,7.137
1679961600000,2023-03-28 00:00:00,LINK/USDC,7.137,7.137,7.137,7.137,0,0,0,0,0,7.137
1679875200000,2023-03-27 00:00:00,LINK/USDC,7.137,7.137,7.137,7.137,0,0,0,0,0,7.137
1679788800000,2023-03-26 00:00:00,LINK/USDC,7.137,7.137,7.137,7.137,0,0,0,0,0,7.137
1679702400000,2023-03-25 00:00:00,LINK/USDC,7.137,7.137,7.137,7.137,0,0,0,0,0,7.137
1679616000000,2023-03-24 00:00:00,LINK/USDC,7.137,7.137,7.137,7.137,17.842,2.5,0,0,1,7.137
1679529600000,2023-03-23 00:00:00,LINK/USDC,7.493,7.493,7.493,7.493,0,0,0,0,0,7.492
1679443200000,2023-03-22 00:00:00,LINK/USDC,7.492,7.493,7.492,7.493,61.182,8.166,61.182,8.166,5,7.492
1679356800000,2023-03-21 00:00:00,LINK/USDC,7.082,7.082,6.992,6.992,1292.119,182.8435,0,0,29,7.066
1679270400000,2023-03-20 00:00:00,LINK/USDC,7.118,8.354,6.992,7.082,1508.966,212.05092,16.042,1.92039,24,7.118
1679184000000,2023-03-19 00:00:00,LINK/USDC,7.208,7.209,7.208,7.208,393.675,54.61589,0,0,21,7.208
1679097600000,2023-03-18 00:00:00,LINK/USDC,7.246,7.246,7.246,7.246,0,0,0,0,0,6.759
1679011200000,2023-03-17 00:00:00,LINK/USDC,6.756,7.246,6.756,7.246,3490.283,516.36238,3471.418,513.75212,19,6.759
1678924800000,2023-03-16 00:00:00,LINK/USDC,6.757,6.757,6.757,6.757,0,0,0,0,0,6.748
1678838400000,2023-03-15 00:00:00,LINK/USDC,6.757,6.757,6.757,6.757,0,0,0,0,0,6.748
1678752000000,2023-03-14 00:00:00,LINK/USDC,6.757,6.757,6.757,6.757,0,0,0,0,0,6.748
1678665600000,2023-03-13 00:00:00,LINK/USDC,6.746,6.758,6.746,6.757,177.331,26.27614,132.908,19.70183,3,6.748
1678579200000,2023-03-12 00:00:00,LINK/USDC,6.5,6.5,6.5,6.5,130,20,0,0,4,6.5
1678492800000,2023-03-11 00:00:00,LINK/USDC,6.364,6.965,6.36,6.36,768.097,114.23479,475.486,68.28155,4,6.736
1678406400000,2023-03-10 00:00:00,LINK/USDC,6.051,6.276,5.978,6.276,146.921,24.17129,27.709,4.47009,5,6.079
1678320000000,2023-03-09 00:00:00,LINK/USDC,6.383,6.383,6.051,6.051,718.61,114.50475,0,0,12,6.276
1678233600000,2023-03-08 00:00:00,LINK/USDC,6.564,6.564,6.564,6.564,29.07,4.4288,0,0,2,6.564
1678147200000,2023-03-07 00:00:00,LINK/USDC,6.83,6.83,6.83,6.83,0,0,0,0,0,6.83
1678060800000,2023-03-06 00:00:00,LINK/USDC,6.83,6.83,6.83,6.83,0,0,0,0,0,6.83
1677974400000,2023-03-05 00:00:00,LINK/USDC,6.831,6.831,6.83,6.83,9.618,1.40815,0,0,2,6.83
1677888000000,2023-03-04 00:00:00,LINK/USDC,6.9,6.901,6.9,6.901,34.139,4.94743,34.139,4.94743,4,6.9
1677801600000,2023-03-03 00:00:00,LINK/USDC,6.99,6.99,6.92,6.949,23.437,3.3842,2.093,0.3012,5,6.925
1677715200000,2023-03-02 00:00:00,LINK/USDC,7.331,7.331,7.331,7.331,0,0,0,0,0,7.354
1677628800000,2023-03-01 00:00:00,LINK/USDC,7.331,7.331,7.331,7.331,0,0,0,0,0,7.354
1677542400000,2023-02-28 00:00:00,LINK/USDC,7.331,7.331,7.331,7.331,0,0,0,0,0,7.354
1677456000000,2023-02-27 00:00:00,LINK/USDC,7.331,7.331,7.331,7.331,0,0,0,0,0,7.354
1677369600000,2023-02-26 00:00:00,LINK/USDC,7.331,7.331,7.331,7.331,0,0,0,0,0,7.354
1677283200000,2023-02-25 00:00:00,LINK/USDC,7.375,7.375,7.331,7.331,38.897,5.28889,38.897,5.28889,3,7.354
1677196800000,2023-02-24 00:00:00,LINK/USDC,7.885,7.885,7.885,7.885,0,0,0,0,0,7.899
1677110400000,2023-02-23 00:00:00,LINK/USDC,7.867,7.945,7.867,7.885,151.525,19.18141,55.837,7.02805,4,7.899
1677024000000,2023-02-22 00:00:00,LINK/USDC,7.959,7.959,7.959,7.959,0,0,0,0,0,8.151
1676937600000,2023-02-21 00:00:00,LINK/USDC,7.959,7.959,7.959,7.959,0,0,0,0,0,8.151
1676851200000,2023-02-20 00:00:00,LINK/USDC,8.119,8.277,7.959,7.959,152.211,18.67362,26.888,3.25,10,8.151
1676764800000,2023-02-19 00:00:00,LINK/USDC,8.16,8.16,8.139,8.139,27.567,3.37944,0,0,2,8.157
1676678400000,2023-02-18 00:00:00,LINK/USDC,7.66,8.067,7.559,8.067,214.578,28.03544,159.356,20.94057,15,7.656
1676592000000,2023-02-17 00:00:00,LINK/USDC,7.639,7.639,7.639,7.639,19.416,2.54175,19.416,2.54175,1,7.639
1676505600000,2023-02-16 00:00:00,LINK/USDC,6.558,6.558,6.558,6.558,0,0,0,0,0,6.675
1676419200000,2023-02-15 00:00:00,LINK/USDC,6.558,6.558,6.558,6.558,0,0,0,0,0,6.675
1676332800000,2023-02-14 00:00:00,LINK/USDC,6.558,6.558,6.558,6.558,0,0,0,0,0,6.675
1676246400000,2023-02-13 00:00:00,LINK/USDC,6.681,6.681,6.558,6.558,104.82,15.70234,0,0,3,6.675
1676160000000,2023-02-12 00:00:00,LINK/USDC,6.933,6.933,6.728,6.728,38.819,5.6065,37.816,5.45734,4,6.924
1676073600000,2023-02-11 00:00:00,LINK/USDC,6.89,6.89,6.89,6.89,46.9237938,6.81042,0,0,3,6.89
1675987200000,2023-02-10 00:00:00,LINK/USDC,6.954,6.999,6.92,6.999,360.68844476,51.84001,330.94486956,47.5552,7,6.957771255384366696
1675900800000,2023-02-09 00:00:00,LINK/USDC,7.3,7.773,6.913,6.984,177.56774483,24.75928,97.29174683,13.45751,14,7.185159126596933756
1675814400000,2023-02-08 00:00:00,LINK/USDC,6.939,6.939,6.939,6.939,0,0,0,0,0,6.939
1675728000000,2023-02-07 00:00:00,LINK/USDC,6.939,6.939,6.939,6.939,142.83341685,20.58415,0,0,1,6.939
1675641600000,2023-02-06 00:00:00,LINK/USDC,7.289,7.289,7.289,7.289,0,0,0,0,0,7.289
1675555200000,2023-02-05 00:00:00,LINK/USDC,7.289,7.289,7.289,7.289,0,0,0,0,0,7.289
1675468800000,2023-02-04 00:00:00,LINK/USDC,7.289,7.289,7.289,7.289,5.19844191,0.71319,1.80461062,0.24758,3,7.289
1675382400000,2023-02-03 00:00:00,LINK/USDC,7.284,7.284,7.284,7.284,33.9383412,4.6593,33.9383412,4.6593,1,7.284
1675296000000,2023-02-02 00:00:00,LINK/USDC,6.912,6.912,6.912,6.912,0,0,0,0,0,6.912
1675209600000,2023-02-01 00:00:00,LINK/USDC,6.912,6.912,6.912,6.912,85.34688768,12.34764,0,0,1,6.912
1675123200000,2023-01-31 00:00:00,LINK/USDC,7,7,7,7,0,0,0,0,0,7.104178282218537486
1675036800000,2023-01-30 00:00:00,LINK/USDC,7.282,7.282,7,7,228.33639212,32.14843,0,0,15,7.104178282218537486
1674950400000,2023-01-29 00:00:00,LINK/USDC,7.425,7.47,7.425,7.47,1188.91850382,159.29966,173.33375742,23.34454,3,7.463442832622445003
1674864000000,2023-01-28 00:00:00,LINK/USDC,7.292,7.292,7.276,7.276,196.67716508,27.02649,181.9,25,3,7.277202145867741322
1674777600000,2023-01-27 00:00:00,LINK/USDC,7.249,7.449,7.249,7.449,191.26592528,26.00832,140.63097717,19.0872,12,7.355027428653338641
1674691200000,2023-01-26 00:00:00,LINK/USDC,6.936,6.936,6.936,6.936,0,0,0,0,0,6.656936777665320976
1674604800000,2023-01-25 00:00:00,LINK/USDC,6.571,6.936,6.571,6.936,37.56606984,5.64469,14.56756984,2.14469,4,6.656936777665320976
1674518400000,2023-01-24 00:00:00,LINK/USDC,6.864,6.864,6.864,6.864,0,0,0,0,0,6.869128386562693919
1674432000000,2023-01-23 00:00:00,LINK/USDC,6.864,6.864,6.864,6.864,0,0,0,0,0,6.869128386562693919
1674345600000,2023-01-22 00:00:00,LINK/USDC,6.896,6.896,6.863,6.864,153.36201318,22.32634,101.37912825,14.77024,7,6.869128386562693919
1674259200000,2023-01-21 00:00:00,LINK/USDC,6.962,7.098,6.851,6.851,255.75532953,36.58885,52.42621064,7.46468,207,6.990542383314885008
1674172800000,2023-01-20 00:00:00,LINK/USDC,6.52,6.962,6.453,6.962,130.7264658,19.38603,1.0563014,0.1582,113,6.748148289300115057
1674086400000,2023-01-19 00:00:00,LINK/USDC,6.438,6.525,6.405,6.515,134.30816598,20.87662,114.66490725,17.83671,24,6.433509746866398231
1674000000000,2023-01-18 00:00:00,LINK/USDC,6.856,6.97,6.493,6.503,1358.22801833,198.70172,935.87724555,134.80674,99,6.839693132431900121
1673913600000,2023-01-17 00:00:00,LINK/USDC,6.698,6.95,6.621,6.856,289.09982279,41.96681,193.007616,27.77088,142,6.890233930001054058
1673827200000,2023-01-16 00:00:00,LINK/USDC,6.666,6.722,6.666,6.677,438.11521167,65.72233,436.03865844,65.41234,10,6.666155702389948927
1673740800000,2023-01-15 00:00:00,LINK/USDC,6.768,6.768,6.768,6.768,4.0770432,0.6024,4.0770432,0.6024,1,6.768
1673654400000,2023-01-14 00:00:00,LINK/USDC,6.605,7.103,6.497,6.84,1492.76419697,218.27624,97.28830275,14.14638,340,6.839502175099068929
1673568000000,2023-01-13 00:00:00,LINK/USDC,6.363,6.595,6.294,6.584,75.14239233,11.65516,58.005,9,24,6.447518557791038586
1673481600000,2023-01-12 00:00:00,LINK/USDC,6.329,6.393,6.125,6.39,60.22212537,9.52998,0,0,79,6.319611894627989262
1673395200000,2023-01-11 00:00:00,LINK/USDC,6.188,6.437,6.039,6.437,11.47603954,1.87066,0.00469901,0.00073,16,6.135429985109653949
1673308800000,2023-01-10 00:00:00,LINK/USDC,6.119,6.286,6.039,6.213,10.45668675,1.69997,0,0,17,6.151891821922465064
1673222400000,2023-01-09 00:00:00,LINK/USDC,5.986,6.213,5.986,6.108,793.01461119,129.54026,777.37584451,126.98292,31,6.121774710385396414
1673136000000,2023-01-08 00:00:00,LINK/USDC,5.829,5.949,5.795,5.949,760.98491972,129.82304,23.796,4,40,5.861758141161788434
1673049600000,2023-01-07 00:00:00,LINK/USDC,5.785,5.823,5.785,5.823,7.27429174,1.25418,0,0,7,5.800061573084502105
1672963200000,2023-01-06 00:00:00,LINK/USDC,5.715,5.715,5.715,5.715,0,0,0,0,0,5.715198944141702046
1672876800000,2023-01-05 00:00:00,LINK/USDC,5.711,5.716,5.711,5.715,89.51755949,15.66307,0,0,5,5.715198944141702046
1672790400000,2023-01-04 00:00:00,LINK/USDC,5.778,5.8,5.749,5.749,468.04406276,80.8668,116.52465194,20.18113,25,5.787856805918817157
1672704000000,2023-01-03 00:00:00,LINK/USDC,5.685,5.685,5.685,5.685,0,0,0,0,0,5.637570898726421508
1672617600000,2023-01-02 00:00:00,LINK/USDC,5.608,5.685,5.608,5.685,9.94007129,1.76326,0.115373,0.02042,4,5.637570898726421508
1672531200000,2023-01-01 00:00:00,LINK/USDC,5.547,5.548,5.547,5.548,168.35051163,30.34538,168.35051163,30.34538,6,5.547813619718964912
1672444800000,2022-12-31 00:00:00,LINK/USDC,5.427,5.65,5.415,5.65,231.98530531,42.04156,137.49844803,24.86939,13,5.519022608241470254
1672358400000,2022-12-30 00:00:00,LINK/USDC,5.555,5.555,5.434,5.434,450.98634249,82.32103,175.4459815,32.02464,19,5.478482382312087028
1672272000000,2022-12-29 00:00:00,LINK/USDC,5.696,5.696,5.572,5.645,344.34729096,61.37603,209.76136124,37.25748,7,5.610793527542842614
1672185600000,2022-12-28 00:00:00,LINK/USDC,5.906,5.906,5.78,5.78,270.46588194,45.99998,0.00011806,0.00002,17,5.879965989368736565
1672099200000,2022-12-27 00:00:00,LINK/USDC,6.006,6.006,5.99,5.99,77.65784865,12.95075,28.6585299,4.77165,3,5.996406775352384165
1672012800000,2022-12-26 00:00:00,LINK/USDC,5.973,6.013,5.946,6.013,601.37263402,100.74718,461.57864294,77.36551,23,5.969174389297562398
1671926400000,2022-12-25 00:00:00,LINK/USDC,5.914,5.938,5.906,5.938,45.69709368,7.70588,34.1595326,5.7527,3,5.930189857038628194
1671840000000,2022-12-24 00:00:00,LINK/USDC,5.968,5.968,5.968,5.968,0,0,0,0,0,5.981096861481420491
1671753600000,2022-12-23 00:00:00,LINK/USDC,5.982,6.012,5.968,5.968,307.58540488,51.4264,162.41588306,27.12566,22,5.981096861481420491
1671667200000,2022-12-22 00:00:00,LINK/USDC,5.973,5.973,5.908,5.961,179.02043839,30.05646,10.46266236,1.75735,8,5.956154479720744246
1671580800000,2022-12-21 00:00:00,LINK/USDC,5.967,5.977,5.903,5.903,200.62027445,33.75867,17.57907444,2.95149,15,5.942895749420155373
1671494400000,2022-12-20 00:00:00,LINK/USDC,6.041,6.074,5.952,6.018,66.88065146,11.10763,24.16637815,3.98516,10,6.021392833370585709
1671408000000,2022-12-19 00:00:00,LINK/USDC,6.003,6.003,5.883,5.89,37.37434594,6.30347,20.81920914,3.53787,5,5.929611589682845429
1671321600000,2022-12-18 00:00:00,LINK/USDC,5.945,6.073,5.945,5.994,25.74425107,4.2814,15.88969549,2.63733,3,6.013476304451298997
1671235200000,2022-12-17 00:00:00,LINK/USDC,5.919,6.014,5.915,5.969,115.83879052,19.44352,72.75619895,12.21777,23,5.957771245623844582
1671148800000,2022-12-16 00:00:00,LINK/USDC,6.195,6.195,5.915,5.915,30.91541835,5.15285,30.91541835,5.15285,5,6.001845591187026585
1671062400000,2022-12-15 00:00:00,LINK/USDC,6.5,6.5,6.5,6.5,6.5,1,0,0,2,6.5
1670976000000,2022-12-14 00:00:00,LINK/USDC,6.892,6.892,6.874,6.874,22.98853992,3.33606,0,0,4,6.890927839067388669
1670889600000,2022-12-13 00:00:00,LINK/USDC,6.692,6.942,6.54,6.935,167.78921533,24.61735,49.91205933,7.36103,37,6.818241158963229054
1670803200000,2022-12-12 00:00:00,LINK/USDC,6.666,6.715,6.556,6.686,1232.93149979,185.55217,758.8237539,113.98676,517,6.644787222304771328
1670716800000,2022-12-11 00:00:00,LINK/USDC,6.845,6.949,6.74,6.74,1696.7507175,245.87652,943.53440954,136.54239,767,6.900904383354097314
1670630400000,2022-12-10 00:00:00,LINK/USDC,6.84,6.916,6.755,6.85,358.04662635,52.08533,340.49211317,49.523,86,6.874433554787018866
1670544000000,2022-12-09 00:00:00,LINK/USDC,7.025,7.026,6.816,6.818,284.0465771,40.75566,56.33613768,8.19514,26,6.97003349673344822
1670457600000,2022-12-08 00:00:00,LINK/USDC,6.894,7.048,6.842,6.902,512.59423938,73.90749,22.46158237,3.24144,113,6.935724732480781151
1670371200000,2022-12-07 00:00:00,LINK/USDC,7.389,7.389,6.976,6.976,12.2468733,1.66626,0,0,2,7.351905637650387058
1670284800000,2022-12-06 00:00:00,LINK/USDC,7.389,7.389,7.389,7.389,0,0,0,0,0,7.389
1670198400000,2022-12-05 00:00:00,LINK/USDC,7.389,7.389,7.389,7.389,0,0,0,0,0,7.389
1670112000000,2022-12-04 00:00:00,LINK/USDC,7.389,7.389,7.389,7.389,36.945,5,36.945,5,1,7.389
1670025600000,2022-12-03 00:00:00,LINK/USDC,7.414,7.415,7.414,7.415,6.51114985,0.87813,0,0,5,7.414790372294994867
1669939200000,2022-12-02 00:00:00,LINK/USDC,7.208,7.208,7.208,7.208,0,0,0,0,0,7.345245767364106619
1669852800000,2022-12-01 00:00:00,LINK/USDC,7.477,7.477,7.208,7.208,734.27821003,100,354.90397208,49.23751,3,7.345245767364106619
1669766400000,2022-11-30 00:00:00,LINK/USDC,7.283,7.283,7.283,7.283,0,0,0,0,0,7.261912979151244896
1669680000000,2022-11-29 00:00:00,LINK/USDC,7.207,7.366,7.207,7.283,552.25117265,76.05439,335.99054725,46.61386,23,7.261912979151244896
1669593600000,2022-11-28 00:00:00,LINK/USDC,6.941,7.233,6.843,7.208,126.17666054,17.53313,124.73529248,17.32547,7,7.197294168524679198
1669507200000,2022-11-27 00:00:00,LINK/USDC,7.139,7.17,7.053,7.053,246.74711366,34.92561,188.38104555,26.70935,22,7.06503390097179222
1669420800000,2022-11-26 00:00:00,LINK/USDC,6.942,7.291,6.892,7.291,306.57954167,43.88444,268.09672592,38.33324,6,6.989879863251574544
1669334400000,2022-11-25 00:00:00,LINK/USDC,6.761,6.866,6.76,6.821,352.95511099,51.85495,0,0,7,6.806951840154425523
1669248000000,2022-11-24 00:00:00,LINK/USDC,6.713,6.842,6.713,6.803,80.21625292,11.82229,15.42664368,2.28848,4,6.785473647387367891
1669161600000,2022-11-23 00:00:00,LINK/USDC,6.32,6.68,6.236,6.666,420.83320132,65.34175,22.20734502,3.51687,17,6.444154927048758258
1669075200000,2022-11-22 00:00:00,LINK/USDC,5.881,6.33,5.881,6.275,490.73115606,78.08429,37.14681602,5.94702,10,6.285099595497079104
1668988800000,2022-11-21 00:00:00,LINK/USDC,5.783,5.822,5.693,5.725,69.79907737,12.22991,59.2996575,10.3947,9,5.707315531028916807
1668902400000,2022-11-20 00:00:00,LINK/USDC,6.169,6.198,5.987,5.987,11.83484442,1.94248,0,0,3,6.094241654696800821
1668816000000,2022-11-19 00:00:00,LINK/USDC,6.135,6.135,6.12,6.124,62.14511041,10.15134,62.14511041,10.15134,5,6.121866350260942434
1668729600000,2022-11-18 00:00:00,LINK/USDC,6.337,6.337,6.151,6.151,760.00770373,122.11235,588.05967169,94.30197,11,6.223932348906968096
1668643200000,2022-11-17 00:00:00,LINK/USDC,6.177,6.305,6.173,6.305,266.75659968,42.5596,1.25437975,0.19895,8,6.26786486380451976
1668556800000,2022-11-16 00:00:00,LINK/USDC,6.162,6.162,6.161,6.161,98.98794047,16.06678,0,0,2,6.161031678406128172
1668470400000,2022-11-15 00:00:00,LINK/USDC,6.325,6.63,6.325,6.598,292.30177202,44.11856,259.89301507,39.19978,4,6.625436021208490242
1668384000000,2022-11-14 00:00:00,LINK/USDC,5.9,6.205,5.823,6.205,12.88161069,2.19165,6.91999497,1.18839,6,5.879231902141113378
1668297600000,2022-11-13 00:00:00,LINK/USDC,6.21,6.483,5.9,6.023,12426.56971391,2105.75789,12402.89625548,2102.06185,31,5.90132221220862085
1668211200000,2022-11-12 00:00:00,LINK/USDC,7.032,7.63,6.21,6.21,82.29899413,12.82003,47.12307099,7.23142,16,6.431939884090658686
1668124800000,2022-11-11 00:00:00,LINK/USDC,6.47,6.47,6.47,6.47,5.9916729,0.92607,0,0,1,6.47
1668038400000,2022-11-10 00:00:00,LINK/USDC,6.674,7.481,6.674,7.3,858.07663817,122.19219,19.46763368,2.77745,44,7.036037190964595017
1667952000000,2022-11-09 00:00:00,LINK/USDC,7.313,7.313,6,6.228,218.45853057,34.20713,28.14785072,4.43422,36,6.421705758916338563
1667865600000,2022-11-08 00:00:00,LINK/USDC,9.111,9.278,7.313,7.437,612.04312743,77.41838,340.65087804,41.89347,42,7.971683564132738087
1667779200000,2022-11-07 00:00:00,LINK/USDC,8.119,9.15,7.942,8.692,5783.389132,706.21832,3116.73651908,380.52349,173,8.191422627358130831
1667692800000,2022-11-06 00:00:00,LINK/USDC,8.642,8.658,8.118,8.119,1534.11378903,183.91917,226.82899209,27.06297,41,8.345477057355140995
1667606400000,2022-11-05 00:00:00,LINK/USDC,8.746,8.868,8.6,8.854,227.38713786,26.1272,39.76594224,4.55855,22,8.703404127365183589
1667520000000,2022-11-04 00:00:00,LINK/USDC,7.755,8.816,7.755,8.779,721.03594421,84.68428,508.88140179,58.79424,42,8.526637634789835236
1667433600000,2022-11-03 00:00:00,LINK/USDC,7.713,7.977,7.713,7.763,496.91278385,63.81966,169.13951787,21.56056,30,7.786915178200219683
1667347200000,2022-11-02 00:00:00,LINK/USDC,7.773,7.86,7.41,7.41,693.8373279,90.54821,386.49584737,49.62412,30,7.666349174923224819
1667260800000,2022-11-01 00:00:00,LINK/USDC,7.855,7.864,7.654,7.654,834.59284493,107.45606,337.31599403,43.03273,22,7.76746881320849667
1667174400000,2022-10-31 00:00:00,LINK/USDC,7.816,8.311,7.7,7.848,4629.41361906,590.08565,632.52063631,78.1742,66,7.849111795123077587
1667088000000,2022-10-30 00:00:00,LINK/USDC,7.667,7.887,7.559,7.771,212.56434875,27.82393,144.68005075,19.03674,16,7.640973006480184741
1667001600000,2022-10-29 00:00:00,LINK/USDC,7.126,7.602,7.113,7.506,674.45994293,90.91029,283.70915918,38.37814,40,7.422308118158666632
1666915200000,2022-10-28 00:00:00,LINK/USDC,6.875,7.132,6.872,7.132,987.10813123,142.18359,655.72856445,94.61398,27,6.943323866936848789
1666828800000,2022-10-27 00:00:00,LINK/USDC,7.281,7.325,6.873,6.903,903.92135856,125.97711,721.90609069,100.32355,28,7.179939560056411279
1666742400000,2022-10-26 00:00:00,LINK/USDC,7.08,7.226,7.055,7.16,577.86465384,80.95338,155.57481779,21.62697,12,7.138728386920333321
1666656000000,2022-10-25 00:00:00,LINK/USDC,6.877,7.183,6.829,7.074,322.03486261,46.12809,227.99359598,32.8447,17,6.984921315836507152
1666569600000,2022-10-24 00:00:00,LINK/USDC,6.868,6.868,6.853,6.853,52.85742985,7.70365,0,0,2,6.861356914750746247
1666483200000,2022-10-23 00:00:00,LINK/USDC,6.872,6.973,6.84,6.955,152.54629506,22.11719,109.716478,15.96917,7,6.89745738712600366
1666396800000,2022-10-22 00:00:00,LINK/USDC,6.787,6.874,6.787,6.855,45.97363348,6.69912,15.06741543,2.20071,6,6.862683303856191093
1666310400000,2022-10-21 00:00:00,LINK/USDC,6.6,6.814,6.571,6.814,58.3427778,8.78957,38.40790623,5.77701,22,6.638162238483269469
1666224000000,2022-10-20 00:00:00,LINK/USDC,6.759,6.895,6.722,6.722,225.48163327,33.18629,18.03650283,2.66072,11,6.794578026507613295
1666137600000,2022-10-19 00:00:00,LINK/USDC,7.006,7.006,6.772,6.785,65.14558606,9.41065,32.20078524,4.65255,13,6.923301651313749801
1666051200000,2022-10-18 00:00:00,LINK/USDC,7.315,7.315,6.975,7.094,3846.61472092,540.61077,3738.05937539,525.37771,26,7.11536111163192028
1665964800000,2022-10-17 00:00:00,LINK/USDC,7.155,7.339,7.142,7.328,211.77204735,29.41813,129.6074992,17.99947,18,7.199188751063892469
1665878400000,2022-10-16 00:00:00,LINK/USDC,6.926,7.075,6.926,7.057,294.87091954,41.95229,258.82264753,36.8255,10,7.028899827146515227
1665792000000,2022-10-15 00:00:00,LINK/USDC,6.877,6.98,6.85,6.85,301.83916028,43.72463,198.73777379,28.75157,24,6.903357398097185027
1665705600000,2022-10-14 00:00:00,LINK/USDC,7.004,7.261,6.828,6.906,1395.11732659,197.71575,840.33804849,118.41706,101,7.05824018069726722
1665619200000,2022-10-13 00:00:00,LINK/USDC,6.949,7.089,6.457,7.04,2259.36245206,335.20235,225.8780572,32.87704,69,6.74259839232071298
1665532800000,2022-10-12 00:00:00,LINK/USDC,7.256,7.256,7.125,7.125,152.01790833,20.96029,150.78806208,20.78768,3,7.252705319733364864
1665446400000,2022-10-11 00:00:00,LINK/USDC,7.222,7.228,7.12,7.161,435.55193223,60.6334,230.63178599,31.96283,10,7.18355480430685449
1665360000000,2022-10-10 00:00:00,LINK/USDC,7.668,7.668,7.494,7.577,190.44154489,25.09319,156.59363608,20.59535,18,7.589704758690744305
1665273600000,2022-10-09 00:00:00,LINK/USDC,7.444,7.597,7.415,7.597,594.08396566,78.95517,570.85580736,75.83316,16,7.524828210889269464
1665187200000,2022-10-08 00:00:00,LINK/USDC,7.615,7.615,7.353,7.353,185.46011442,24.7624,26.8799004,3.58021,4,7.48975662046105622
1665100800000,2022-10-07 00:00:00,LINK/USDC,7.711,7.727,7.516,7.564,339.38945876,44.61313,160.26308152,20.78136,9,7.60864310710013638
1665014400000,2022-10-06 00:00:00,LINK/USDC,7.893,7.918,7.65,7.65,939.7189374,120.62834,538.46308091,68.81799,43,7.79101484057982121
1664928000000,2022-10-05 00:00:00,LINK/USDC,7.81,7.921,7.614,7.881,801.94879775,104.20491,714.53719387,92.87607,35,7.697006257830392752
1664841600000,2022-10-04 00:00:00,LINK/USDC,7.455,7.777,7.422,7.72,493.95657014,64.16349,382.98510933,49.70162,34,7.699113794336137822
1664755200000,2022-10-03 00:00:00,LINK/USDC,7.074,7.318,7.048,7.318,3114.96937145,437.48782,2006.16144715,281.15807,80,7.120426760827696719
1664668800000,2022-10-02 00:00:00,LINK/USDC,7.442,7.513,7.108,7.112,2771.9416347,381.99676,2117.512671,291.3557,95,7.258062898054229348
1664582400000,2022-10-01 00:00:00,LINK/USDC,7.569,7.651,7.33,7.367,1187.67825566,159.82107,628.54093254,84.61127,36,7.432773239819912047
1664496000000,2022-09-30 00:00:00,LINK/USDC,7.846,7.857,7.554,7.595,565.14554651,73.45535,433.11685168,56.47253,28,7.695012254414146522
1664409600000,2022-09-29 00:00:00,LINK/USDC,7.788,7.883,7.702,7.883,552.02384358,71.01093,205.80442759,26.31112,23,7.77418446911901413
1664323200000,2022-09-28 00:00:00,LINK/USDC,8.013,8.49,7.804,7.804,818.49345315,102.23224,516.52606522,64.35978,74,8.008859343119902855
1664236800000,2022-09-27 00:00:00,LINK/USDC,7.969,8.326,7.679,8.083,1070.27191266,132.03633,571.09384961,71.21761,35,8.111075234885030165
1664150400000,2022-09-26 00:00:00,LINK/USDC,7.91,7.912,7.519,7.912,957.13239991,123.81072,469.77653919,60.3362,50,7.73256461297427692
1664064000000,2022-09-25 00:00:00,LINK/USDC,7.654,8.041,7.618,7.79,881.6669381,112.12315,353.22162311,44.70149,34,7.864892799249857671
1663977600000,2022-09-24 00:00:00,LINK/USDC,7.461,7.853,7.431,7.673,1100.46591444,144.77745,708.989003,92.5291,45,7.603223542838312414
1663891200000,2022-09-23 00:00:00,LINK/USDC,7.208,7.48,6.981,7.48,1572.35750128,217.54838,832.51560728,114.64426,43,7.228745815139028709
1663804800000,2022-09-22 00:00:00,LINK/USDC,6.673,7.137,6.669,7.126,1003.30395771,144.75735,338.85871304,48.80859,29,6.932569119982176963
1663718400000,2022-09-21 00:00:00,LINK/USDC,6.885,7.291,6.538,6.65,2360.03655921,340.85486,1145.83483598,164.63195,92,6.925525887507918687
1663632000000,2022-09-20 00:00:00,LINK/USDC,7.283,7.304,6.849,6.875,3890.76273299,549.01431,2820.38643331,394.91397,92,7.090460871154153334
1663545600000,2022-09-19 00:00:00,LINK/USDC,7.515,7.651,7.043,7.323,5893.6420534,816.12053,3193.63372966,447.40472,79,7.225326739712315744
1663459200000,2022-09-18 00:00:00,LINK/USDC,8.101,8.108,7.48,7.526,2503.23793786,312.71858,422.6548127,53.6727,59,8.005508909830293244
1663372800000,2022-09-17 00:00:00,LINK/USDC,7.689,8.065,7.681,8,4026.80592755,509.27587,403.41894349,50.90141,75,7.908300429959704062
1663286400000,2022-09-16 00:00:00,LINK/USDC,7.584,7.789,7.452,7.63,2847.0556574,369.07591,249.45768021,32.65957,58,7.714705121704769646
1663200000000,2022-09-15 00:00:00,LINK/USDC,7.192,7.557,7.069,7.554,869.57445011,119.33499,607.59911166,84.15833,63,7.29061844461520455
1663113600000,2022-09-14 00:00:00,LINK/USDC,7.047,7.448,7.042,7.448,1211.5297644,164.79008,307.13978172,42.0369,39,7.352605713339088638
1663027200000,2022-09-13 00:00:00,LINK/USDC,7.629,7.903,7.054,7.054,318.48627691,43.0528,234.83632473,31.7593,27,7.407808617864413586
1662940800000,2022-09-12 00:00:00,LINK/USDC,8.061,8.221,7.711,7.766,335.88064456,42.17546,226.71486974,28.25177,30,7.967004891804891437
1662854400000,2022-09-11 00:00:00,LINK/USDC,7.944,8.033,7.742,7.939,365.71828467,45.95053,240.74524462,30.11885,24,7.959397282067072747
1662768000000,2022-09-10 00:00:00,LINK/USDC,7.775,7.977,7.676,7.961,1781.3094403,226.63443,643.61163053,81.49653,37,7.861464911299588977
1662681600000,2022-09-09 00:00:00,LINK/USDC,7.374,7.995,6.454,7.733,1808.42555856,240.68486,485.70324084,64.45517,27,7.525218610224882457
1662595200000,2022-09-08 00:00:00,LINK/USDC,7.062,7.499,6.6,7.428,1444.17005514,207.96795,1044.35192957,153.63439,26,6.965682443954319802
1662508800000,2022-09-07 00:00:00,LINK/USDC,6.705,7.104,6.705,7.096,1482.27666921,217.7281,1427.35922215,209.82865,17,6.808281094018832568
1662422400000,2022-09-06 00:00:00,LINK/USDC,7.392,7.418,7.271,7.321,155.09843026,21.15053,120.82984613,16.4658,16,7.333286124111028121
1662336000000,2022-09-05 00:00:00,LINK/USDC,7.228,7.326,7.129,7.295,275.82101401,38.02028,165.4816755,22.7197,26,7.255101864058185862
1662249600000,2022-09-04 00:00:00,LINK/USDC,7.016,7.186,7.016,7.147,121.56539701,16.96782,95.40870389,13.31199,10,7.164702481814812604
1662163200000,2022-09-03 00:00:00,LINK/USDC,6.793,6.793,6.793,6.793,11.61698102,1.71014,0,0,3,6.793
1662076800000,2022-09-02 00:00:00,LINK/USDC,7.015,7.162,7.015,7.141,10729.20890178,1502.41956,10551.64917074,1477.62764,13,7.141288815492615293
1661990400000,2022-09-01 00:00:00,LINK/USDC,6.615,6.875,6.615,6.875,144.96758017,21.61858,112.02732772,16.63895,6,6.706194238104664363
1661904000000,2022-08-31 00:00:00,LINK/USDC,6.767,6.783,6.602,6.728,104.4631046,15.57436,40.00910836,5.91536,7,6.708001414028432004
1661817600000,2022-08-30 00:00:00,LINK/USDC,6.641,6.693,6.641,6.693,145.13628777,21.71521,145.13628777,21.71521,2,6.683683292511223363
1661731200000,2022-08-29 00:00:00,LINK/USDC,6.659,6.659,6.659,6.659,3.79409843,0.56977,3.79409843,0.56977,1,6.659
1661644800000,2022-08-28 00:00:00,LINK/USDC,6.435,6.546,6.435,6.546,49.93890831,7.738,8.54390466,1.30521,2,6.453990671789877578
1661558400000,2022-08-27 00:00:00,LINK/USDC,6.536,6.569,6.536,6.566,653.3298228,99.48221,1.31720008,0.20153,6,6.567303570830472732
1661472000000,2022-08-26 00:00:00,LINK/USDC,7.001,7.001,6.713,6.713,299.63431109,42.81069,0,0,3,6.999094772248467467
1661385600000,2022-08-25 00:00:00,LINK/USDC,7.271,7.271,7.006,7.006,48.95624292,6.85905,20.41158746,2.80726,4,7.139794399075998374
1661299200000,2022-08-24 00:00:00,LINK/USDC,7.129,7.254,7.129,7.254,21.18395906,2.94239,9.3077828,1.3052,3,7.200093404034363725
1661212800000,2022-08-23 00:00:00,LINK/USDC,7.081,7.266,6.849,7.239,409.83126948,57.84713,370.75324733,52.31152,15,7.085102532576914678
1661126400000,2022-08-22 00:00:00,LINK/USDC,7.024,7.024,6.712,6.945,205.77185455,30.41733,183.14635093,27.10913,12,6.765801671420324959
1661040000000,2022-08-21 00:00:00,LINK/USDC,6.956,7.14,6.956,7.063,906.13783675,127.57783,297.95462277,42.16077,18,7.102747604377960543
1660953600000,2022-08-20 00:00:00,LINK/USDC,6.974,7.196,6.7,6.942,1929.36926752,282.95315,589.49261181,84.25101,46,6.822253582348758397
1660867200000,2022-08-19 00:00:00,LINK/USDC,7.605,7.605,6.918,6.933,3732.11501599,524.03279,2202.98039129,310.11786,85,7.123945746103391095
1660780800000,2022-08-18 00:00:00,LINK/USDC,8.018,8.249,7.72,7.72,1616.94923342,199.55483,376.21786493,46.31347,46,8.103386484412524323
1660694400000,2022-08-17 00:00:00,LINK/USDC,8.587,8.729,7.978,7.978,1386.30768525,166.76022,1054.68527795,126.8074,106,8.316889781063810176
1660608000000,2022-08-16 00:00:00,LINK/USDC,8.575,8.645,8.443,8.443,884.70957616,103.97268,529.66726414,62.1479,64,8.509282951234965174
1660521600000,2022-08-15 00:00:00,LINK/USDC,9.062,9.062,8.559,8.76,298.87480607,33.83883,215.19970274,24.40888,18,8.835761369435959427
1660435200000,2022-08-14 00:00:00,LINK/USDC,9.12,9.166,8.81,8.81,514.78292421,57.37315,153.34398768,16.8609,20,8.973765189342332008
1660348800000,2022-08-13 00:00:00,LINK/USDC,9.214,11.876,9.13,9.238,2871.97638885,301.6635,314.61650216,33.13097,32,9.598305333997756545
1660262400000,2022-08-12 00:00:00,LINK/USDC,8.858,9.356,8.858,9.356,222.36541216,24.21064,176.17274064,19.2585,21,9.188517572111876765
1660176000000,2022-08-11 00:00:00,LINK/USDC,9.17,9.17,8.85,9.032,324.44291534,36.08404,247.05417494,27.48383,18,8.991782447213784793
1660089600000,2022-08-10 00:00:00,LINK/USDC,8.489,9.222,8.353,9.063,949.59987762,105.95225,312.65529172,34.7142,29,8.97229556619036582
1660003200000,2022-08-09 00:00:00,LINK/USDC,8.426,8.819,8.426,8.732,87.46673429,10.09421,63.62930893,7.2776,9,8.667059270519953463
1659916800000,2022-08-08 00:00:00,LINK/USDC,8.49,8.633,8.49,8.5,142.59804258,16.66213,11.23317303,1.32197,8,8.558366471035467981
1659830400000,2022-08-07 00:00:00,LINK/USDC,7.536,7.536,7.536,7.536,0,0,0,0,0,7.366393129698167596
1659744000000,2022-08-06 00:00:00,LINK/USDC,7.536,7.536,7.536,7.536,0,0,0,0,0,7.366393129698167596
1659657600000,2022-08-05 00:00:00,LINK/USDC,7.349,7.536,7.349,7.536,389.96306121,52.94083,0,0,10,7.366393129698167596
1659571200000,2022-08-04 00:00:00,LINK/USDC,7.232,7.29,7.232,7.249,27.11504917,3.7287,13.813,1.9,5,7.272018026220307974
1659484800000,2022-08-03 00:00:00,LINK/USDC,7.67414967,7.67414967,7.67414967,7.67414967,0,0,0,0,0,7.836057725772288194
1659398400000,2022-08-02 00:00:00,LINK/USDC,7.67414967,7.67414967,7.67414967,7.67414967,0,0,0,0,0,7.836057725772288194
1659312000000,2022-08-01 00:00:00,LINK/USDC,7.67414967,7.67414967,7.67414967,7.67414967,0,0,0,0,0,7.836057725772288194
1659225600000,2022-07-31 00:00:00,LINK/USDC,7.81290597,8.02575866,7.60569839,7.67414967,1584.1795994082399888,202.21285733,814.1795998303045218,103.64860887,30,7.836057725772288194
1659139200000,2022-07-30 00:00:00,LINK/USDC,7.95417112,8.17087241,7.74321702,7.74321702,23333.8669227611150625,2946.96768825,0,0,0,7.91792425
1659052800000,2022-07-29 00:00:00,LINK/USDC,7.23687315,8.02575866,7.14333364,7.88322212,46319.6048067999386112,6015.62284176,0,0,0,7.69988512
1658966400000,2022-07-28 00:00:00,LINK/USDC,6.88084612,7.27249226,6.75230687,7.26180274,38626.2578299689599794,5611.87702097,0,0,0,6.88294802
1658880000000,2022-07-27 00:00:00,LINK/USDC,6.25893216,6.81947088,6.23503674,6.81947088,28246.6907431640719632,4429.22864904,0,0,0,6.37733858
1658793600000,2022-07-26 00:00:00,LINK/USDC,6.40490239,6.40490239,6.10962911,6.30031257,13883.350718988428265,2208.7412891,0,0,0,6.28563915
1658707200000,2022-07-25 00:00:00,LINK/USDC,7.06830602,7.06830602,6.46090468,6.46090468,13374.139264116299606,1984.2423929,0,0,0,6.74017414
1658620800000,2022-07-24 00:00:00,LINK/USDC,6.94277373,7.19610807,6.94277373,7.13192078,8615.4316998274739562,1218.58324662,0,0,0,7.07003951
1658534400000,2022-07-23 00:00:00,LINK/USDC,6.75864309,7.0052587,6.63861038,6.88084612,12543.046765608656814,1844.53352999,0,0,0,6.8001186
1658448000000,2022-07-22 00:00:00,LINK/USDC,7.06830602,7.27756499,6.75864309,6.81947088,12930.7776883711222144,1833.58342801,0,0,0,7.05218944
1658361600000,2022-07-21 00:00:00,LINK/USDC,6.94277373,7.0052587,6.69835787,7.0052587,9503.5167400091913029,1390.48322011,0,0,0,6.83468639
1658275200000,2022-07-20 00:00:00,LINK/USDC,7.24639709,7.55242764,6.88084612,6.88084612,18774.522210932590076,2584.74204845,0,0,0,7.26359608
1658188800000,2022-07-19 00:00:00,LINK/USDC,7.0052587,7.36395857,6.75864309,7.23962468,62812.4291330025412536,8756.62991188,0,0,0,7.17312822
1658102400000,2022-07-18 00:00:00,LINK/USDC,6.40490239,7.13192078,6.40490239,7.06830602,51812.384382806208476,7620.94412104,0,0,0,6.79868315
1658016000000,2022-07-17 00:00:00,LINK/USDC,6.52070943,6.69835787,6.34253553,6.34253553,16101.7078606904417254,2469.45496042,0,0,0,6.52034887
1657929600000,2022-07-16 00:00:00,LINK/USDC,6.34777244,6.57939581,6.17942194,6.57939581,8246.5959902678691885,1292.91918513,0,0,0,6.37827645
1657843200000,2022-07-15 00:00:00,LINK/USDC,6.23517055,6.40490239,6.17942194,6.29115207,16401.672284206549652,2603.7116081,0,0,0,6.29934292
1657756800000,2022-07-14 00:00:00,LINK/USDC,6.20619358,6.34777244,6.0155363,6.29115207,7384.9967135939109655,1191.99835915,0,0,0,6.19547557
1657670400000,2022-07-13 00:00:00,LINK/USDC,6.0155363,6.17942194,5.75199528,6.17942194,14372.3346493475392588,2392.80262418,0,0,0,6.00648566
1657584000000,2022-07-12 00:00:00,LINK/USDC,6.01585972,6.17942194,5.96187939,5.96187939,8900.9964742066072407,1458.39386923,0,0,0,6.10328709
1657497600000,2022-07-11 00:00:00,LINK/USDC,6.21528961,6.40490239,6.0155363,6.0155363,22256.5503729081897546,3555.24994758,0,0,0,6.26019287
1657411200000,2022-07-10 00:00:00,LINK/USDC,6.46254651,6.46254651,6.12430321,6.17991322,12891.4353703913759388,2053.65896802,0,0,0,6.27730094
1657324800000,2022-07-09 00:00:00,LINK/USDC,6.40490239,6.5252401,6.34777244,6.5252401,5739.6872891639085313,891.62673881,0,0,0,6.43732073
1657238400000,2022-07-08 00:00:00,LINK/USDC,6.62218801,6.77549665,6.34777244,6.34777244,21166.2062619994017839,3212.06023079,0,0,0,6.58960441
1657152000000,2022-07-07 00:00:00,LINK/USDC,6.32856599,6.70142807,6.32856599,6.63861038,13843.9305320513503032,2110.14696422,0,0,0,6.56064756
1657065600000,2022-07-06 00:00:00,LINK/USDC,6.30075539,6.40490239,6.17942194,6.34036682,18200.168403460911252,2893.9545733,0,0,0,6.28903044
1656979200000,2022-07-05 00:00:00,LINK/USDC,6.39081495,6.52070943,6.06967613,6.33714635,16085.5741400040959184,2527.63129432,0,0,0,6.36389262
1656892800000,2022-07-04 00:00:00,LINK/USDC,6.12430321,6.40490239,6.06967613,6.40490239,36164.124507841411288,5711.00071928,0,0,0,6.3323621
1656806400000,2022-07-03 00:00:00,LINK/USDC,6.17942194,6.17942194,6.0155363,6.17819078,5333.242195929186028,871.24207576,0,0,0,6.12142405
1656720000000,2022-07-02 00:00:00,LINK/USDC,6.12430321,6.23503674,6.0115891,6.23503674,6957.6973369335807718,1134.52858694,0,0,0,6.13267697
1656633600000,2022-07-01 00:00:00,LINK/USDC,6.29115207,6.34777244,5.96187939,6.06967613,19125.1339003761077349,3090.27457431,0,0,0,6.18881379
1656547200000,2022-06-30 00:00:00,LINK/USDC,6.23503674,6.23503674,5.90870108,6.23503674,19594.074568825924013,3233.06573282,0,0,0,6.06052465
1656460800000,2022-06-29 00:00:00,LINK/USDC,6.34777244,6.46254651,6.17942194,6.17942194,19886.7496071533244024,3146.11214556,0,0,0,6.32105554
1656374400000,2022-06-28 00:00:00,LINK/USDC,6.57939581,7.19610807,6.29115207,6.29115207,23404.7101361410402878,3500.05792494,0,0,0,6.68694937
1656288000000,2022-06-27 00:00:00,LINK/USDC,6.69835787,6.94277373,6.39,6.52070943,60056.2594015710610352,9215.88188666,0,0,0,6.51660472
1656201600000,2022-06-26 00:00:00,LINK/USDC,7.19610807,7.4586863,6.75468428,6.75468428,27133.1048986139588468,3863.37175444,0,0,0,7.02316697
1656115200000,2022-06-25 00:00:00,LINK/USDC,7.26087304,7.34769465,6.81947088,7.25169002,50627.0808766883054995,7168.04181295,0,0,0,7.06288861
1656028800000,2022-06-24 00:00:00,LINK/USDC,7.06830602,7.39215688,7.0052587,7.3262209,15436.853220059531456,2158.7748448,0,0,0,7.15074722
1655942400000,2022-06-23 00:00:00,LINK/USDC,6.69835787,7.0052587,6.69835787,7.0052587,14455.0311778209333321,2111.65680819,0,0,0,6.84535059
1655856000000,2022-06-22 00:00:00,LINK/USDC,6.75864309,7.0052587,6.52070943,6.63861038,45791.3653596614716496,6860.63960069,0,0,0,6.67450384
1655769600000,2022-06-21 00:00:00,LINK/USDC,6.94277373,7.52581447,6.75864309,6.85522125,55996.709549995990512,7736.05664469,0,0,0,7.2384048
1655683200000,2022-06-20 00:00:00,LINK/USDC,6.52070943,7.19610807,6.34212707,7.0052587,30625.0797149490080848,4524.95773057,0,0,0,6.76803664
1655596800000,2022-06-19 00:00:00,LINK/USDC,5.96187939,6.81253403,5.8559971,6.57939581,79537.8636555032916173,12578.44239493,0,0,0,6.32334761
1655510400000,2022-06-18 00:00:00,LINK/USDC,6.44078917,6.44078917,5.5,5.90870108,31682.0751884756881182,5434.51694222,0,0,0,5.82978681
1655424000000,2022-06-17 00:00:00,LINK/USDC,6.37701899,6.70231104,6.31388018,6.37701899,18018.0758898988769005,2789.04672221,0,0,0,6.46029905
1655337600000,2022-06-16 00:00:00,LINK/USDC,7.25764246,7.45262121,6.25136652,6.31388018,46381.8126187185112336,6997.43404688,0,0,0,6.62840297
1655251200000,2022-06-15 00:00:00,LINK/USDC,6.70231104,7.25764246,5.8,7.25764246,62686.6262123881209558,9753.03903174,0,0,0,6.42739417
1655164800000,2022-06-14 00:00:00,LINK/USDC,5.94796074,6.76933415,5.49284195,6.76933415,76369.7727891629106368,11989.24544516,0,0,0,6.36985648
1655078400000,2022-06-13 00:00:00,LINK/USDC,6.22047036,6.27696303,5.37,5.88907004,163847.3183435773881288,27852.45295512,0,0,0,5.88268899
1654992000000,2022-06-12 00:00:00,LINK/USDC,7.05979454,7.074075,6.27,6.27,92825.7941718184064309,13923.54422683,0,0,0,6.66682223
1654905600000,2022-06-11 00:00:00,LINK/USDC,8.01,8.37065418,6.97553619,7.01113067,46087.926777560734272,6119.9735312,0,0,0,7.53073956
1654819200000,2022-06-10 00:00:00,LINK/USDC,9.23766542,9.48933388,8.05013317,8.05013317,47908.0076690725218176,5479.38242176,0,0,0,8.74332251
1654732800000,2022-06-09 00:00:00,LINK/USDC,8.75417514,9.5,8.51495269,9.32080441,140247.735069052549715,15294.1823027,0,0,0,9.17000545
1654646400000,2022-06-08 00:00:00,LINK/USDC,8.67609033,8.91245938,8.25003479,8.67609033,53606.571555639991329,6283.2826341,0,0,0,8.53161869
1654560000000,2022-06-07 00:00:00,LINK/USDC,7.86178633,8.91245938,7.38385352,8.75417514,62464.6640754533677995,7724.10049645,0,0,0,8.08698231
1654473600000,2022-06-06 00:00:00,LINK/USDC,7.68014761,8.14865444,7.68014761,7.93254241,24538.314828195288418,3091.60786369,0,0,0,7.9370722
1654387200000,2022-06-05 00:00:00,LINK/USDC,7.4503082,7.83034506,7.25271714,7.65328238,46673.471176867490528,6089.91845164,0,0,0,7.6640552
1654300800000,2022-06-04 00:00:00,LINK/USDC,6.84273535,7.38385352,6.68704105,7.38385352,13662.7709083381782338,1959.88216582,0,0,0,6.97122059
1654214400000,2022-06-03 00:00:00,LINK/USDC,7.16065935,7.20933393,6.72331347,6.90522945,25711.7299032350851484,3718.42533764,0,0,0,6.91468231
1654128000000,2022-06-02 00:00:00,LINK/USDC,6.87089047,7.18802492,6.80905246,7.14653543,14235.3481891500202419,2038.69385667,0,0,0,6.98258257
1654041600000,2022-06-01 00:00:00,LINK/USDC,7.51736098,7.72216192,6.80905246,6.92664434,21201.1136701078175265,2880.10170329,0,0,0,7.36123785
1653955200000,2022-05-31 00:00:00,LINK/USDC,7.44231537,7.66608628,7.17095524,7.54722947,62332.8010570538968384,8374.57531936,0,0,0,7.44309994
1653868800000,2022-05-30 00:00:00,LINK/USDC,6.74777099,7.4503082,6.74777099,7.4503082,11252.559883337202888,1581.50704266,0,0,0,7.1150868
1653782400000,2022-05-29 00:00:00,LINK/USDC,6.50811102,6.74777099,6.39149217,6.68704105,10542.6426309342764836,1626.24881006,0,0,0,6.48279806
1653696000000,2022-05-28 00:00:00,LINK/USDC,6.27696303,6.62685768,6.22047036,6.56721596,18013.2313474913744274,2798.59248119,0,0,0,6.43653246
1653609600000,2022-05-27 00:00:00,LINK/USDC,6.62685768,6.68704105,6.22047036,6.22047036,28833.3607379107633632,4474.29554072,0,0,0,6.44422356
1653523200000,2022-05-26 00:00:00,LINK/USDC,6.93329008,7.05979454,6.26888582,6.52998258,37242.8266126987835034,5671.52592178,0,0,0,6.56663253
1653436800000,2022-05-25 00:00:00,LINK/USDC,7.19514883,7.33977132,6.99625639,6.99625639,8712.6068254841868182,1226.00694779,0,0,0,7.10649058
1653350400000,2022-05-24 00:00:00,LINK/USDC,6.98354057,7.26710032,6.77815567,7.26710032,12367.3447544581771834,1764.34066058,0,0,0,7.00961273
1653264000000,2022-05-23 00:00:00,LINK/USDC,7.26710032,7.63779547,7.05337597,7.05337597,50336.8016643183432325,6870.22092587,0,0,0,7.32680975
1653177600000,2022-05-22 00:00:00,LINK/USDC,7.07323463,7.33977132,6.98354057,7.33977132,7499.8178079095835984,1038.82741968,0,0,0,7.21950313
1653091200000,2022-05-21 00:00:00,LINK/USDC,6.84593723,7.05337597,6.77815567,7.05335936,4106.9279292233886369,592.28101197,0,0,0,6.93408677
1653004800000,2022-05-20 00:00:00,LINK/USDC,7.12390973,7.26710032,6.77815567,6.9143966,15612.043799870880678,2203.22323371,0,0,0,7.0860018
1652918400000,2022-05-19 00:00:00,LINK/USDC,6.77815567,7.19514883,6.71104522,7.19514883,19286.5514925319811994,2764.06610446,0,0,0,6.97760139
1652832000000,2022-05-18 00:00:00,LINK/USDC,7.77534284,7.77534284,6.8414612,6.8414612,13417.6609715052918213,1871.44108309,0,0,0,7.16969457
1652745600000,2022-05-17 00:00:00,LINK/USDC,7.48730072,7.94787208,7.33977132,7.71417342,48950.6880495717772544,6273.12037504,0,0,0,7.80324386
1652659200000,2022-05-16 00:00:00,LINK/USDC,7.86922831,7.86922831,7.19514883,7.41316903,24115.4607422075383695,3254.05238295,0,0,0,7.41090121
1652572800000,2022-05-15 00:00:00,LINK/USDC,7.19514883,7.94792059,7.05337597,7.94792059,15906.443899458811715,2143.37585002,0,0,0,7.42121075
1652486400000,2022-05-14 00:00:00,LINK/USDC,7.19514883,7.33977132,6.71104522,7.26710032,19348.757264833185011,2741.74197014,0,0,0,7.05710365
1652400000000,2022-05-13 00:00:00,LINK/USDC,6.51367437,7.63779547,6.51367437,7.12390973,80317.724527109870528,11001.6518132,0,0,0,7.30051504
1652313600000,2022-05-12 00:00:00,LINK/USDC,7.11319488,7.11319488,5.52,6.57881112,62138.1750422577107484,9896.71416991,0,0,0,6.27866724
1652227200000,2022-05-11 00:00:00,LINK/USDC,8.63150214,8.7218637,6.74564638,6.86014873,67541.2860889704231279,8911.28363563,0,0,0,7.57929933
1652140800000,2022-05-10 00:00:00,LINK/USDC,8.16407498,9.11951805,8.03056753,8.90561159,244541.9435235470850651,30100.43589311,0,0,0,8.12419941
1652054400000,2022-05-09 00:00:00,LINK/USDC,9.82016556,9.8350812,8.26210435,8.26210435,116508.8539575154411065,13057.95126771,0,0,0,8.92244515
1651968000000,2022-05-08 00:00:00,LINK/USDC,10.02891457,10.09599999,9.9074036,9.9074036,5525.6095199051970291,556.74027261,0,0,0,9.92493231
1651881600000,2022-05-07 00:00:00,LINK/USDC,10.67498549,10.67498549,10.02891457,10.02891457,25365.676857016187627,2470.25224498,0,0,0,10.26845615
1651795200000,2022-05-06 00:00:00,LINK/USDC,10.96556989,10.96556989,10.46294718,10.8372669,71710.4331817392278823,6707.53519023,0,0,0,10.69102601
1651708800000,2022-05-05 00:00:00,LINK/USDC,11.1588142,11.1588142,10.746467,10.746467,38242.8218550244685952,3470.21239936,0,0,0,11.02031157
1651622400000,2022-05-04 00:00:00,LINK/USDC,11.18506331,11.42089975,11.18506331,11.27759222,13472.2962615255078975,1193.27488197,0,0,0,11.29018675
1651536000000,2022-05-03 00:00:00,LINK/USDC,10.98205284,11.06086069,10.98205284,11.06086069,2789.82984886178657,254.02471382,0,0,0,10.9825135
1651449600000,2022-05-02 00:00:00,LINK/USDC,11.36046801,11.4055138,10.85519399,11.2374629,28543.014456046183878,2620.13511765,0,0,0,10.89371852
1651363200000,2022-05-01 00:00:00,LINK/USDC,11.09712822,11.29430776,11.09712822,11.11784002,30335.2100112001980728,2713.86000652,0,0,0,11.17788314
1651276800000,2022-04-30 00:00:00,LINK/USDC,11.81295003,11.81295003,11.0760551,11.0760551,24004.7651688449745294,2161.25823486,0,0,0,11.10684729
1651190400000,2022-04-29 00:00:00,LINK/USDC,12.16469477,12.37195622,12.00404333,12.00404333,11756.7199150881164685,967.81998885,0,0,0,12.14763081
1651104000000,2022-04-28 00:00:00,LINK/USDC,12.83746773,12.83746773,12.60145768,12.70691927,15292.1442923509720515,1209.38124219,0,0,0,12.64460185
1651017600000,2022-04-27 00:00:00,LINK/USDC,12.39713903,12.70333374,12.39713903,12.70333374,2735.7302436791122296,219.91399117,0,0,0,12.44000088
1650931200000,2022-04-26 00:00:00,LINK/USDC,12.44757999,12.44757999,12.36026785,12.4082718,23653.3366127535001893,1900.31433303,0,0,0,12.44706531
1650844800000,2022-04-25 00:00:00,LINK/USDC,12.86385316,13.42176226,12.62718295,13.42176226,95627.0533171531030072,7412.17816412,0,0,0,12.90134306
1650758400000,2022-04-24 00:00:00,LINK/USDC,13.52247927,13.52407325,13.35447085,13.35447085,4006.2883687003615438,296.79105742,0,0,0,13.49868289
1650672000000,2022-04-23 00:00:00,LINK/USDC,13.63907672,13.63907672,13.43446212,13.43446212,11580.149746075344769,852.83342147,0,0,0,13.5784427
1650585600000,2022-04-22 00:00:00,LINK/USDC,13.74863293,13.79170441,13.51255717,13.51255717,1132.1040949576019116,82.41738029,0,0,0,13.73623004
1650499200000,2022-04-21 00:00:00,LINK/USDC,13.76519471,13.76519471,13.55205162,13.55205162,365.3605877299116732,26.64534222,0,0,0,13.71198706
1650412800000,2022-04-20 00:00:00,LINK/USDC,14.06643548,14.06643548,14.06643548,14.06643548,4005.4616773046457468,284.75314041,0,0,0,14.06643548
1650326400000,2022-04-19 00:00:00,LINK/USDC,14.13245455,14.13245455,14.10156731,14.10156731,85685.6581324773257125,6076.31775437,0,0,0,14.10157625
1650240000000,2022-04-18 00:00:00,LINK/USDC,13.45386133,13.81959196,13.23411798,13.81959196,45154.42970732401308,3374.7787033,0,0,0,13.3799676
1650153600000,2022-04-17 00:00:00,LINK/USDC,14.18482202,14.1912918,14.17844076,14.1912918,408.4551493323461304,28.79731016,0,0,0,14.18379519
1650067200000,2022-04-16 00:00:00,LINK/USDC,14.04109922,14.04109922,13.86404332,13.86404332,33614.034281976813617,2410.91321353,0,0,0,13.9424489
1649980800000,2022-04-15 00:00:00,LINK/USDC,13.93597582,13.93607306,13.84935631,13.93607306,128.0914748210001658,9.22807313,0,0,0,13.88063066
1649894400000,2022-04-14 00:00:00,LINK/USDC,13.79560877,13.79560877,13.46098369,13.46307217,3106.1828175395968251,225.29383051,0,0,0,13.78725201
1649808000000,2022-04-13 00:00:00,LINK/USDC,14.01048886,14.09371137,13.73818302,14.09371137,175.7779095029350648,12.54627092,0,0,0,14.01037094
1649721600000,2022-04-12 00:00:00,LINK/USDC,13.86530707,14.2391494,13.86530707,14.1277003,57243.164459864564457,4044.89630934,0,0,0,14.15194855
1649635200000,2022-04-11 00:00:00,LINK/USDC,14.92196459,14.95577742,13.60210142,13.71080465,13000.8953870051118759,887.09453883,0,0,0,14.65559173
1649548800000,2022-04-10 00:00:00,LINK/USDC,15.5294198,15.77112803,15.43638089,15.54937332,10281.302297893011144,661.2812554,0,0,0,15.54754836
1649462400000,2022-04-09 00:00:00,LINK/USDC,15.32110128,15.38844748,15.32110128,15.33424188,8355.7266855909353883,543.15244549,0,0,0,15.38375967
1649376000000,2022-04-08 00:00:00,LINK/USDC,15.67197823,15.67197823,15.2447002,15.2447002,96983.4999047215657832,6325.87772588,0,0,0,15.33123214
1649289600000,2022-04-07 00:00:00,LINK/USDC,15.63861581,15.63861581,15.63861581,15.63861581,9426.8121328263582655,602.79069755,0,0,0,15.63861581
1649203200000,2022-04-06 00:00:00,LINK/USDC,16.4591722,16.4591722,15.5,15.5,73263.5475472919461114,4719.31772102,0,0,0,15.52418207
1649116800000,2022-04-05 00:00:00,LINK/USDC,16.9068734,16.9068734,16.9068734,16.9068734,285.84236816362756,16.9068734,0,0,0,16.9068734
1649030400000,2022-04-04 00:00:00,LINK/USDC,17.62043484,17.62043484,16.9068734,17.37472663,19435.214694283400792,1124.26570204,0,0,0,17.2870298
1648944000000,2022-04-03 00:00:00,LINK/USDC,17.75421915,17.79028076,17.69772573,17.69772573,461.8412038351329699,26.06018259,0,0,0,17.72210161
1648857600000,2022-04-02 00:00:00,LINK/USDC,17.59029131,17.59029131,17.34657914,17.47071266,11350.1111088838363856,653.83302824,0,0,0,17.35934194
1648771200000,2022-04-01 00:00:00,LINK/USDC,16.60637834,16.85410986,16.57305282,16.85410986,380.7659077872666445,22.75840967,0,0,0,16.73077835
1648684800000,2022-03-31 00:00:00,LINK/USDC,17.43014914,17.71,16.82973236,16.95551293,218562.582726650621745,12623.21718558,0,0,0,17.31433275
1648598400000,2022-03-30 00:00:00,LINK/USDC,17.20144077,17.30167617,17.00303298,17.17928769,2028.5911219733427619,118.39637993,0,0,0,17.13389483
1648512000000,2022-03-29 00:00:00,LINK/USDC,16.79762513,17.43340622,16.79762513,16.91723388,22650.4137178368110731,1344.25652701,0,0,0,16.84977031
1648425600000,2022-03-28 00:00:00,LINK/USDC,16.92121418,17.17,16.70076685,16.70076685,103188.804111128758068,6101.34757389,0,0,0,16.9124612
1648339200000,2022-03-27 00:00:00,LINK/USDC,16.4503178,16.7715068,16.4503178,16.7715068,8348.38273633155876,507.3948936,0,0,0,16.45342285
1648252800000,2022-03-26 00:00:00,LINK/USDC,16.12152137,16.12152137,15.48030237,15.56695315,0,0,0,0,0,15.75452512
1648166400000,2022-03-25 00:00:00,LINK/USDC,16.12152137,16.12152137,15.48030237,15.56695315,16185.3026394157189728,1027.34309769,0,0,0,15.75452512
1648080000000,2022-03-24 00:00:00,LINK/USDC,15.80103922,16.25803347,15.80103922,16.25803347,14059.728842221816992,878.15454912,0,0,0,16.01054035
1647993600000,2022-03-23 00:00:00,LINK/USDC,15.37097473,15.71776504,15.26732575,15.66604644,75906.89911588106283,4850.130783,0,0,0,15.65048501
1647907200000,2022-03-22 00:00:00,LINK/USDC,15.15837161,15.69764036,15.15837161,15.56224864,188016.1125438292786744,12226.09343246,0,0,0,15.37826564
1647820800000,2022-03-21 00:00:00,LINK/USDC,14.54642277,14.54642277,14.54642277,14.54642277,806.8639353486449133,55.46820329,0,0,0,14.54642277
1647734400000,2022-03-20 00:00:00,LINK/USDC,14.7855222,14.7855222,14.69037265,14.69037265,8977.8345201674972756,607.23859277,0,0,0,14.78469028
1647648000000,2022-03-19 00:00:00,LINK/USDC,15.08821197,15.08821197,14.95244139,14.95244139,66556.4975726217905058,4451.02810809,0,0,0,14.95306162
1647561600000,2022-03-18 00:00:00,LINK/USDC,14.38685493,14.38685493,14.29485801,14.29485801,1084.7383772249766852,75.52952286,0,0,0,14.36177982
1647475200000,2022-03-17 00:00:00,LINK/USDC,14.58235272,14.72605934,14.48699114,14.51552746,175914.0999166655637246,11990.32178973,0,0,0,14.67134102
1647388800000,2022-03-16 00:00:00,LINK/USDC,13.76793683,14.45434613,13.76793683,14.45434613,686205.2436509166605526,49309.83134146,0,0,0,13.91619531
1647302400000,2022-03-15 00:00:00,LINK/USDC,13.41140742,13.41140742,13.31294504,13.31294504,411.371141537641481,30.73631953,0,0,0,13.3838777
1647216000000,2022-03-14 00:00:00,LINK/USDC,12.89978216,12.94607237,12.89978216,12.94607237,32747.611485392700136,2538.53048336,0,0,0,12.90022385
1647129600000,2022-03-13 00:00:00,LINK/USDC,13.30570407,13.34478438,12.72377223,12.72377223,465.029119475074422,35.3559281,0,0,0,13.15279062
1647043200000,2022-03-12 00:00:00,LINK/USDC,13.2330117,13.34107165,13.2330117,13.34107165,242.915863188953766,18.28742116,0,0,0,13.28322135
1646956800000,2022-03-11 00:00:00,LINK/USDC,13.05495695,13.34226719,13.05495695,13.34226719,7938.8413638378719,608.0097844,0,0,0,13.05709475
1646870400000,2022-03-10 00:00:00,LINK/USDC,13.48396172,13.48396172,13.10209657,13.26546711,7453.9819970080542657,562.26336993,0,0,0,13.25710049
1646784000000,2022-03-09 00:00:00,LINK/USDC,13.81406672,14.14076245,13.78769748,14.09024866,43549.9159117367535025,3119.69577755,0,0,0,13.95966755
1646697600000,2022-03-08 00:00:00,LINK/USDC,12.74723048,13.45439467,12.74723048,13.21982481,40928.855842792333003,3134.08185755,0,0,0,13.05928106
1646611200000,2022-03-07 00:00:00,LINK/USDC,12.89948328,13.55988372,12.55495457,12.80533152,105861.0981606174520242,8383.78384174,0,0,0,12.62688783
1646524800000,2022-03-06 00:00:00,LINK/USDC,14,14,13.29812295,13.29812295,64733.7450840438921034,4662.51577513,0,0,0,13.88386618
1646438400000,2022-03-05 00:00:00,LINK/USDC,14.14485745,14.14485745,14.14485745,14.14485745,4790.523064763322443,338.67595214,0,0,0,14.14485745
1646352000000,2022-03-04 00:00:00,LINK/USDC,14.58651825,14.58651825,13.73403539,13.78387497,136577.178412737694657,9565.34187265,0,0,0,14.27833738
1646265600000,2022-03-03 00:00:00,LINK/USDC,15.15584219,15.24419048,14.5418447,14.80349633,11732.1077856858565326,800.70712202,0,0,0,14.65218363
1646179200000,2022-03-02 00:00:00,LINK/USDC,15.56079736,15.84343231,15.44276504,15.55450069,116645.5295158911487786,7504.08980951,0,0,0,15.54426086
1646092800000,2022-03-01 00:00:00,LINK/USDC,15.01272575,15.70725033,14.95229161,15.20509602,224896.956111539118987,14911.2102957,0,0,0,15.08240791
1646006400000,2022-02-28 00:00:00,LINK/USDC,13.81997392,14.99197083,13.53127498,14.87806985,172856.616390567691065,12358.17459775,0,0,0,13.98722886
1645920000000,2022-02-27 00:00:00,LINK/USDC,14.33838574,14.45960862,13.60940573,13.60940573,82879.1537998568006643,6052.81005221,0,0,0,13.69267383
1645833600000,2022-02-26 00:00:00,LINK/USDC,14.69284435,14.90073616,14.30269816,14.35262786,57843.7181322042887376,3930.34052748,0,0,0,14.71722812
1645747200000,2022-02-25 00:00:00,LINK/USDC,13.39042924,13.98939151,13.2113154,13.98939151,117658.906113489889122,8514.1588122,0,0,0,13.81920501
1645660800000,2022-02-24 00:00:00,LINK/USDC,12.76567368,13.67099297,11.52269615,13.44619568,195688.8352515754303152,15285.26313808,0,0,0,12.80245119
1645574400000,2022-02-23 00:00:00,LINK/USDC,13.85376685,14.57303556,13.55911791,13.55911791,12147.6269040683424754,878.19585283,0,0,0,13.83248038
1645488000000,2022-02-22 00:00:00,LINK/USDC,13.17801514,14.00319149,13.16074707,13.99272081,510143.0165126392673257,36875.19350933,0,0,0,13.83431429
1645401600000,2022-02-21 00:00:00,LINK/USDC,14.93574518,15.13725162,13.47857669,13.47857669,1008075.4253707121551204,70350.78264566,0,0,0,14.32927094
1645315200000,2022-02-20 00:00:00,LINK/USDC,15.49820495,15.49820495,14.5,14.6649055,196917.864676686003042,13013.03866006,0,0,0,15.1323507
1645228800000,2022-02-19 00:00:00,LINK/USDC,15.33662263,15.33662263,15.07124133,15.2584611,20471.4185145705820455,1347.12323395,0,0,0,15.19639629
1645142400000,2022-02-18 00:00:00,LINK/USDC,15.94012252,15.94292272,15.05152298,15.21792805,340620.376263847592028,22226.1324388,0,0,0,15.32522031
1645056000000,2022-02-17 00:00:00,LINK/USDC,17.17488722,17.1895086,15.50457518,15.56889045,495682.0101502636133088,30976.52678151,0,0,0,16.00185888
1644969600000,2022-02-16 00:00:00,LINK/USDC,16.86694158,17.3515025,16.72239177,17.3515025,256959.219662217770208,15053.38905812,0,0,0,17.0698584
1644883200000,2022-02-15 00:00:00,LINK/USDC,16.32245234,17.32094253,16.29182346,17.32094253,261562.412247273441813,15669.8360719,0,0,0,16.69209627
1644796800000,2022-02-14 00:00:00,LINK/USDC,15.25669523,15.89482775,15.25669523,15.29865453,168035.9304067742024532,10856.21956962,0,0,0,15.47830986
1644710400000,2022-02-13 00:00:00,LINK/USDC,15.93816751,16.28882599,15.78603884,15.86011783,90229.2647433482383687,5712.36735041,0,0,0,15.79542407
1644624000000,2022-02-12 00:00:00,LINK/USDC,16.15351078,16.18093164,15.79716678,15.79716678,201901.29348556988271,12701.6930205,0,0,0,15.89562062
1644537600000,2022-02-11 00:00:00,LINK/USDC,17.20733487,17.69585225,16.13167512,16.13167512,125450.269987012754223,7326.45139074,0,0,0,17.12292395
1644451200000,2022-02-10 00:00:00,LINK/USDC,18.54622504,18.54622504,17.54307433,17.54307433,1148857.8958261118605094,63659.92151713,0,0,0,18.04680038
1644364800000,2022-02-09 00:00:00,LINK/USDC,18.02906859,18.48234916,18.02906859,18.48234916,123861.0832492951090082,6859.67454263,0,0,0,18.05640814
1644278400000,2022-02-08 00:00:00,LINK/USDC,19.3026003,19.41624835,17.85289242,17.85289242,283214.3726725675732278,14995.86042186,0,0,0,18.88617023
1644192000000,2022-02-07 00:00:00,LINK/USDC,18.18,19.32444108,17.76477226,18.977514,283573.5513288792972304,15262.21898654,0,0,0,18.58009976
1644105600000,2022-02-06 00:00:00,LINK/USDC,17.88,17.97467435,17.41521839,17.67335593,202983.4401787720742423,11488.99570423,0,0,0,17.66764001
1644019200000,2022-02-05 00:00:00,LINK/USDC,17.88551765,18.18,17.47814187,17.80385747,23730.217944132488274,1326.7891407,0,0,0,17.88544782
1643932800000,2022-02-04 00:00:00,LINK/USDC,16.39474813,17.46974092,16.39474813,17.46974092,175722.7346568582409572,10506.62249619,0,0,0,16.72494988
1643846400000,2022-02-03 00:00:00,LINK/USDC,15.60306224,16.2,15.31978377,16.1,607828.1551787199468958,38140.19961014,0,0,0,15.93667997
1643760000000,2022-02-02 00:00:00,LINK/USDC,16.76431307,16.76431307,15.67023172,15.87885131,390400.051127910131438,24149.92379153,0,0,0,16.1656846
1643673600000,2022-02-01 00:00:00,LINK/USDC,17.39761153,17.5400315,16.89134639,16.89134639,242278.6612142470332835,13927.07030105,0,0,0,17.39624027
1643587200000,2022-01-31 00:00:00,LINK/USDC,17.81141561,17.81141561,16.59249679,17.233441,679285.9225633007400111,40006.47225219,0,0,0,16.97940069
1643500800000,2022-01-30 00:00:00,LINK/USDC,16.26345381,17.9536967,16.11277405,17.9536967,241881.6179907138059958,13988.90142806,0,0,0,17.29096593
1643414400000,2022-01-29 00:00:00,LINK/USDC,16.17080849,16.6395629,16.02455396,16.12866732,486937.4552912210169588,29891.50466998,0,0,0,16.29016206
1643328000000,2022-01-28 00:00:00,LINK/USDC,15.14598562,15.93808096,14.9892575,15.93808096,64680.6080260202210475,4269.59006469,0,0,0,15.14913775
1643241600000,2022-01-27 00:00:00,LINK/USDC,14.63314091,15.2279351,14.5,15.2279351,41395.7079947017253875,2809.42837775,0,0,0,14.73456605
1643155200000,2022-01-26 00:00:00,LINK/USDC,16.13639736,16.47739362,14.99853872,14.99853872,849514.8546539439483013,52725.87695501,0,0,0,16.11191513
1643068800000,2022-01-25 00:00:00,LINK/USDC,15.27195476,15.79212185,14.58096699,15.79212185,3448.5874301157377394,223.13060486,0,0,0,15.45546579
1642982400000,2022-01-24 00:00:00,LINK/USDC,14.80446259,15.69900127,13.55,15.69900127,101631.6400389850669189,7246.27352843,0,0,0,14.02536623
1642896000000,2022-01-23 00:00:00,LINK/USDC,16.16045652,16.63820783,15.30888865,15.54464462,60010.5211033571117716,3798.87327697,0,0,0,15.79692628
1642809600000,2022-01-22 00:00:00,LINK/USDC,17.67446444,17.72278787,14.36362493,15.57470481,366327.3390546081582663,23496.95433179,0,0,0,15.59041797
1642723200000,2022-01-21 00:00:00,LINK/USDC,20,20.48923168,17.13926385,17.64181218,2027093.820925657643236,111879.82656668,0,0,0,18.1184927
1642636800000,2022-01-20 00:00:00,LINK/USDC,22.29487109,22.29487109,20.27947845,20.27947845,232160.72951412391392,10926.23586155,0,0,0,21.2480064
1642550400000,2022-01-19 00:00:00,LINK/USDC,22.36041327,22.36041327,21.49,21.66265549,100028.3792357784536981,4595.81551829,0,0,0,21.76509889
1642464000000,2022-01-18 00:00:00,LINK/USDC,23.57363184,23.57363184,22.3,23.04443552,149897.3412930108989706,6593.95385631,0,0,0,22.73254326
1642377600000,2022-01-17 00:00:00,LINK/USDC,25.10208755,25.10208755,23.74375085,23.74375085,19029.4343085204928192,778.74330184,0,0,0,24.43608088
1642291200000,2022-01-16 00:00:00,LINK/USDC,25.18070717,26.19749104,25.03458353,25.70053572,118698.4984532707317324,4601.46513012,0,0,0,25.79580527
1642204800000,2022-01-15 00:00:00,LINK/USDC,25.97925016,25.97925016,25.22313889,25.22313889,43655.9447266184412016,1693.68380888,0,0,0,25.77573482
1642118400000,2022-01-14 00:00:00,LINK/USDC,25.19413113,25.62332509,24.07055198,25.62332509,49824.0585536862545946,2001.64691886,0,0,0,24.89153211
1642032000000,2022-01-13 00:00:00,LINK/USDC,26.52132814,26.52132814,24.92129608,24.92129608,135797.6739815373177346,5314.36311487,0,0,0,25.55295358
1641945600000,2022-01-12 00:00:00,LINK/USDC,26.66379046,26.90489584,25.84728385,26.66833,1153844.4617933847512142,43231.04066283,0,0,0,26.69018474
1641859200000,2022-01-11 00:00:00,LINK/USDC,26.92975853,27.01925191,26.02650242,26.8291145,122216.406597632241718,4630.33228531,0,0,0,26.3947378
1641772800000,2022-01-10 00:00:00,LINK/USDC,28.21303357,28.21303357,25.50409069,27.14972822,1057164.3560137637396929,39592.83398611,0,0,0,26.70090139
1641686400000,2022-01-09 00:00:00,LINK/USDC,25.29682587,28.51774659,25.29682587,27.88264861,295608.4189312216022856,10981.41197688,0,0,0,26.91898087
1641600000000,2022-01-08 00:00:00,LINK/USDC,26.12767266,27.3,23.53716048,25.53506989,454160.021504981498875,17901.88370075,0,0,0,25.3693985
1641513600000,2022-01-07 00:00:00,LINK/USDC,24.44605649,26.79944439,22.76422687,26.59353729,1438932.0873847589774115,57950.34009145,0,0,0,24.83043387
1641427200000,2022-01-06 00:00:00,LINK/USDC,25.24381017,25.86457834,23.53092756,25.223,404126.4227331953707359,16270.59601977,0,0,0,24.83783767
1641340800000,2022-01-05 00:00:00,LINK/USDC,23.49044998,26.93074846,22.62358836,25.4537716,986061.4867425308093775,39907.89766575,0,0,0,24.70842977
1641254400000,2022-01-04 00:00:00,LINK/USDC,23.76905184,24.523233,22.86912184,23.55811301,885325.3956882851787894,37130.70376402,0,0,0,23.84348547
1641168000000,2022-01-03 00:00:00,LINK/USDC,21.5814892,23.68806441,21.489405,23.68806441,124469.3977319811534975,5591.86205275,0,0,0,22.25902509
1641081600000,2022-01-02 00:00:00,LINK/USDC,20.79321054,22.11635458,20.71766209,21.70806085,184768.609189975125039,8654.67306423,0,0,0,21.3489993
1640995200000,2022-01-01 00:00:00,LINK/USDC,19.70321361,20.69004978,19.61746275,20.69004978,84964.979321130299718,4241.03209716,0,0,0,20.03403355
1640908800000,2021-12-31 00:00:00,LINK/USDC,19.91741767,20.46875317,19.06906124,19.59361494,62308.7442733577340621,3138.31803613,0,0,0,19.85418417
1640822400000,2021-12-30 00:00:00,LINK/USDC,19.51610638,20.26543704,19.20202035,19.80591399,40937.3002752252172725,2093.86926411,0,0,0,19.55102975
1640736000000,2021-12-29 00:00:00,LINK/USDC,20.4200252,20.87511758,19.63509184,19.63509184,97928.614615434714496,4876.27778176,0,0,0,20.0826571
1640649600000,2021-12-28 00:00:00,LINK/USDC,23.02356682,23.02356682,20.45206983,20.48363569,225118.3460824600373412,10535.93379549,0,0,0,21.36671988
1640563200000,2021-12-27 00:00:00,LINK/USDC,23.14850227,24.29667009,22.90902678,23.13947841,89156.4209401208837879,3787.18333963,0,0,0,23.54161733
1640476800000,2021-12-26 00:00:00,LINK/USDC,21.90064643,23.44488691,21.41973443,23.02942757,215163.5043043914865668,9523.05452721,0,0,0,22.59395908
1640390400000,2021-12-25 00:00:00,LINK/USDC,21.67167613,22.30356837,21.57340872,22.09869791,35589.7860788403368526,1627.55457917,0,0,0,21.86703078
1640304000000,2021-12-24 00:00:00,LINK/USDC,22.05233826,22.56006839,21.33250871,21.41133311,289777.5775031748250289,13172.54105791,0,0,0,21.99860879
1640217600000,2021-12-23 00:00:00,LINK/USDC,19.82806829,22.02148074,19.82806829,22.02148074,222194.7980880864963454,10563.57527017,0,0,0,21.03405262
1640131200000,2021-12-22 00:00:00,LINK/USDC,19.52618065,20.64445885,19.28741549,20.35988776,39593.9282009650046328,2025.21830824,0,0,0,19.55044947
1640044800000,2021-12-21 00:00:00,LINK/USDC,18.6800169,19.50372683,18.6800169,19.50372683,31275.2358499372061866,1658.75498042,0,0,0,18.85464473
1639958400000,2021-12-20 00:00:00,LINK/USDC,18.81791904,18.81791904,18.37328458,18.69190271,68144.2230211231109282,3660.61858153,0,0,0,18.61549394
1639872000000,2021-12-19 00:00:00,LINK/USDC,19.31700331,20.18889841,18.8871753,19.11609625,137208.2428373234921568,6975.71036597,0,0,0,19.66942944
1639785600000,2021-12-18 00:00:00,LINK/USDC,18.15869104,19.82916759,17.9275918,19.50738085,56635.2040710147345215,2981.62908361,0,0,0,18.99471815
1639699200000,2021-12-17 00:00:00,LINK/USDC,18.79495034,19.13253172,17.85038211,18.3496106,2531667.943200063280242,134210.8521362,0,0,0,18.86336241
1639612800000,2021-12-16 00:00:00,LINK/USDC,19.7942965,20.30136247,18.73165703,18.76990379,3831708.6054873475954136,197100.12867581,0,0,0,19.44041656
1639526400000,2021-12-15 00:00:00,LINK/USDC,18.47862484,19.94447699,17.27631646,19.71604809,687271.658021213960394,37457.3604594,0,0,0,18.34810701
1639440000000,2021-12-14 00:00:00,LINK/USDC,17.80632959,18.5628088,17.61154155,18.3889322,1131050.1594940455988354,62333.80006589,0,0,0,18.14505386
1639353600000,2021-12-13 00:00:00,LINK/USDC,20.42210288,20.42210288,17.32427788,17.99954061,812321.8645603784546678,44691.08976229,0,0,0,18.17637182
1639267200000,2021-12-12 00:00:00,LINK/USDC,19.64515193,20.59262217,19.32039161,20.58591768,233277.9386659580065672,11710.95461722,0,0,0,19.91963476
1639180800000,2021-12-11 00:00:00,LINK/USDC,18.27069304,20.20627012,18.27069304,19.93799636,328705.2272250899192975,17009.28113225,0,0,0,19.32505111
1639094400000,2021-12-10 00:00:00,LINK/USDC,20.31920238,20.82636977,18.64488436,18.70171674,1217026.400305668291585,61882.44161338,0,0,0,19.66674825
1639008000000,2021-12-09 00:00:00,LINK/USDC,23.02155533,23.02155533,20.31410386,20.4817789,618573.91144191110886,28434.88192765,0,0,0,21.7540524
1638921600000,2021-12-08 00:00:00,LINK/USDC,21.04024106,23.03325324,20.87673224,22.78694156,542074.0365860846879116,24450.25340846,0,0,0,22.17048746
1638835200000,2021-12-07 00:00:00,LINK/USDC,19.76072367,21.21272861,19.36872929,20.94804486,266838.1906361118133342,13170.68840282,0,0,0,20.26000331
1638748800000,2021-12-06 00:00:00,LINK/USDC,19.34513301,19.90612273,17.41596085,19.90043039,1800811.975073651214472,99701.0873579,0,0,0,18.06210968
1638662400000,2021-12-05 00:00:00,LINK/USDC,20.75014359,20.84028289,18.70232769,19.37297687,250666.8667678419240564,12648.03998308,0,0,0,19.81863333
1638576000000,2021-12-04 00:00:00,LINK/USDC,23.31506742,23.31506742,16.40639692,20.62688747,461637.3291628027756824,22859.74662117,0,0,0,20.19433272
1638489600000,2021-12-03 00:00:00,LINK/USDC,24.6128243,25.82824544,22.77571143,23.24403399,208405.2949508637190204,8850.99136097,0,0,0,23.54598332
1638403200000,2021-12-02 00:00:00,LINK/USDC,24.98664322,25.12577529,24.12748227,24.53402671,252704.911808755271488,10203.9278912,0,0,0,24.76545449
1638316800000,2021-12-01 00:00:00,LINK/USDC,25.29533608,26.90894544,25.01107669,25.46330135,447086.874771697200951,17217.5256111,0,0,0,25.96696441
1638230400000,2021-11-30 00:00:00,LINK/USDC,24.98283428,26.54905393,24.26359684,25.32326786,778868.9868860479353112,31000.81367564,0,0,0,25.12414658
1638144000000,2021-11-29 00:00:00,LINK/USDC,24.7913346,25.56647982,24.66939528,25.11210429,476350.7624269616676276,18934.99985436,0,0,0,25.15715691
1638057600000,2021-11-28 00:00:00,LINK/USDC,23.9400243,24.96650404,22.75744699,24.80388202,4827946.0080625115285934,206492.30442531,0,0,0,23.38075514
1637971200000,2021-11-27 00:00:00,LINK/USDC,24.17843734,25.14476927,23.94673919,24.18368413,155403.8954338383295185,6359.07929645,0,0,0,24.43811253
1637884800000,2021-11-26 00:00:00,LINK/USDC,26.40351094,26.48075421,23.22633557,23.87294221,5341680.0564404201628924,223838.92994991,0,0,0,23.86394564
1637798400000,2021-11-25 00:00:00,LINK/USDC,25.73313647,27.49705715,25.73313647,26.55824057,139850.9879381072720286,5324.02190363,0,0,0,26.26792122
1637712000000,2021-11-24 00:00:00,LINK/USDC,27.10686147,27.10686147,25.2252444,25.2252444,184267.1329669529596544,7016.91038528,0,0,0,26.26043698
1637625600000,2021-11-23 00:00:00,LINK/USDC,26.88849077,27.53312153,26.24270441,26.957004,207573.4330429848659018,7802.03805841,0,0,0,26.60502698
1637539200000,2021-11-22 00:00:00,LINK/USDC,28.94727919,28.94727919,26.35033587,26.77911952,177921.3053181729247126,6507.72508166,0,0,0,27.34001561
1637452800000,2021-11-21 00:00:00,LINK/USDC,28.20765425,29.22459844,27.72966572,29.04717643,23550.3868291840396288,834.62904958,0,0,0,28.21659136
1637366400000,2021-11-20 00:00:00,LINK/USDC,28.47970644,28.63597408,27.51492345,28.3699422,74901.1707283684875149,2675.87406877,0,0,0,27.99129137
1637280000000,2021-11-19 00:00:00,LINK/USDC,26.66137101,28.83395015,26.23318054,28.32977845,228655.614338749917259,8192.91944041,0,0,0,27.9089299
1637193600000,2021-11-18 00:00:00,LINK/USDC,29.38318459,29.48754044,25.93347699,26.47312226,523873.0206924590345354,19438.36740923,0,0,0,26.95046398
1637107200000,2021-11-17 00:00:00,LINK/USDC,29.2237407,29.49128137,28.09657569,29.20025008,87100.770286055915852,3024.95657176,0,0,0,28.79405645
1637020800000,2021-11-16 00:00:00,LINK/USDC,32.0162729,32.0162729,28.13003402,29.27093729,795221.9146394386861878,26663.65145826,0,0,0,29.82419403
1636934400000,2021-11-15 00:00:00,LINK/USDC,34.08332143,34.41097161,32.07010842,32.13168306,520982.7985371329423712,15836.71983852,0,0,0,32.89714056
1636848000000,2021-11-14 00:00:00,LINK/USDC,34.25559555,34.25559555,32.69936892,33.73468911,363292.065553298925687,10960.14091487,0,0,0,33.1466601
1636761600000,2021-11-13 00:00:00,LINK/USDC,34.44882563,34.44882563,33.21946978,34.18627454,229375.5283985039285576,6842.78764721,0,0,0,33.52077256
1636675200000,2021-11-12 00:00:00,LINK/USDC,34.71456971,35.25352649,32.80024799,34.43460208,693069.896158963908618,20815.86684785,0,0,0,33.29526948
1636588800000,2021-11-11 00:00:00,LINK/USDC,33.53793932,36.74744783,33.53793932,34.80980814,600106.6929185961881116,16866.42580997,0,0,0,35.57995628
1636502400000,2021-11-10 00:00:00,LINK/USDC,33.99326979,38.14314878,32.0942168,34.3598006,11841464.3590620410529475,332996.10236927,0,0,0,35.56036925
1636416000000,2021-11-09 00:00:00,LINK/USDC,34.61116881,35.4392024,33.48856331,33.88269951,4010431.771101990497785,116865.28954115,0,0,0,34.3167059
1636329600000,2021-11-08 00:00:00,LINK/USDC,32.41632785,34.74543729,32.41632785,34.5385163,503013.3319748809364266,14930.20627223,0,0,0,33.69098342
1636243200000,2021-11-07 00:00:00,LINK/USDC,31.95123646,32.4366779,31.95123646,32.42251632,64476.629464169077148,2008.0989614,0,0,0,32.10829282
1636156800000,2021-11-06 00:00:00,LINK/USDC,32.72927255,33.12842089,30.80189607,31.83533332,2955196.3933873863502672,94720.26621787,0,0,0,31.19919856
1636070400000,2021-11-05 00:00:00,LINK/USDC,31.02815149,33.71551762,31.02815149,32.78662754,497194.51502448642344,15404.0950384,0,0,0,32.27677535
1635984000000,2021-11-04 00:00:00,LINK/USDC,31.62498418,31.76190401,30.29099462,30.96001528,1222136.8344515476724368,39767.94750796,0,0,0,30.73170508
1635897600000,2021-11-03 00:00:00,LINK/USDC,32.1653795,32.28908517,30.91099604,31.99279895,336897.6741250039184367,10825.50584679,0,0,0,31.12073273
1635811200000,2021-11-02 00:00:00,LINK/USDC,31.38047374,32.43839891,31.08485012,32.24553601,746661.096988870886979,23418.88682393,0,0,0,31.8828603
1635724800000,2021-11-01 00:00:00,LINK/USDC,30.32413062,31.82207914,29.22594894,31.82207914,453125.7625814431282014,14950.54672273,0,0,0,30.30830718
1635638400000,2021-10-31 00:00:00,LINK/USDC,29.71865395,30.65789335,28.76468342,30.01647364,264803.3603157860749748,9083.45483206,0,0,0,29.15227358
1635552000000,2021-10-30 00:00:00,LINK/USDC,30.65068296,30.65068296,29.29284848,29.72646964,57521.1461563688520111,1911.64711953,0,0,0,30.08983487
1635465600000,2021-10-29 00:00:00,LINK/USDC,30.28887862,31.93432616,30.03240475,30.93905313,150520.3234497238864712,4839.89512612,0,0,0,31.09991426
1635379200000,2021-10-28 00:00:00,LINK/USDC,29.3439837,30.72064024,29.04921852,30.31601888,896791.2647679138752148,29885.87135292,0,0,0,30.00719819
1635292800000,2021-10-27 00:00:00,LINK/USDC,32.68723955,33.8609075,28.20890804,28.90548711,3043682.2835265591046885,101957.70705065,0,0,0,29.85240029
1635206400000,2021-10-26 00:00:00,LINK/USDC,32.12541508,33.79276324,31.437633,32.26458864,1306610.5801767940208529,40301.67244059,0,0,0,32.42075331
1635120000000,2021-10-25 00:00:00,LINK/USDC,29.76217962,32.87822445,29.55498543,32.32654084,681952.8113619763764775,21705.24461525,0,0,0,31.41880331
1635033600000,2021-10-24 00:00:00,LINK/USDC,31.05791174,31.05791174,28.80731109,29.5332535,1330891.32858259114646,44816.874689,0,0,0,29.69621014
1634947200000,2021-10-23 00:00:00,LINK/USDC,28.54959584,31.41870691,28.54959584,31.41870691,511747.8615583190820584,16975.96379044,0,0,0,30.14543786
1634860800000,2021-10-22 00:00:00,LINK/USDC,28.56019729,29.81039716,28.26572562,28.28157714,532701.7252134925611566,18507.72569461,0,0,0,28.78266806
1634774400000,2021-10-21 00:00:00,LINK/USDC,27.69007485,29.19735749,27.27514136,28.27329194,1644919.812935476643055,58049.40769242,0,0,0,28.33654775
1634688000000,2021-10-20 00:00:00,LINK/USDC,26.05077801,27.57762642,26.05077801,27.31085558,644343.7020419800017235,23903.44399769,0,0,0,26.95610315
1634601600000,2021-10-19 00:00:00,LINK/USDC,25.66303963,26.21102009,25.5199953,25.78123562,352392.5286683785044171,13704.65015403,0,0,0,25.71335457
1634515200000,2021-10-18 00:00:00,LINK/USDC,26.64465758,26.72366084,25.3099437,25.64335707,426578.54358545504736,16481.162608,0,0,0,25.88279442
1634428800000,2021-10-17 00:00:00,LINK/USDC,27.16324264,27.52542845,25.77408802,26.32964602,480689.4868909204793328,18230.92731972,0,0,0,26.36670524
1634342400000,2021-10-16 00:00:00,LINK/USDC,27.31982322,28.60197717,26.9867479,27.33469266,679795.4683455474767584,24339.03328264,0,0,0,27.93025756
1634256000000,2021-10-15 00:00:00,LINK/USDC,26.495371,27.30940066,26.04130937,26.86536324,1052932.9468047066842133,39625.09124403,0,0,0,26.57237911
1634169600000,2021-10-14 00:00:00,LINK/USDC,25.64245853,27.70244944,25.51706979,26.58321571,641915.054188340454404,23779.54642849,0,0,0,26.9944196
1634083200000,2021-10-13 00:00:00,LINK/USDC,25.1079003,25.64427277,24.14750568,25.64427277,480491.7331734824898622,19258.70816123,0,0,0,24.94932314
1633996800000,2021-10-12 00:00:00,LINK/USDC,24.8184009,24.97980133,23.58103048,24.54980375,1430596.930552409328198,58964.32326012,0,0,0,24.26207665
1633910400000,2021-10-11 00:00:00,LINK/USDC,25.43669026,26.69387562,24.88655683,25.01008192,636942.683658711933,24714.4054068,0,0,0,25.7721225
1633824000000,2021-10-10 00:00:00,LINK/USDC,27.1489186,27.40820327,25.66942032,25.76577688,191463.459345974054581,7132.1649739,0,0,0,26.84506879
1633737600000,2021-10-09 00:00:00,LINK/USDC,26.47115253,27.77495377,26.16352204,27.53796361,95988.8970694984234968,3513.61295964,0,0,0,27.31914362
1633651200000,2021-10-08 00:00:00,LINK/USDC,26.56114563,27.40731067,26.23450657,26.30588769,415780.3604058113900775,15473.14965925,0,0,0,26.87108763
1633564800000,2021-10-07 00:00:00,LINK/USDC,26.58696335,27.52834197,25.96411792,26.69080099,375497.058482302899492,14105.56057959,0,0,0,26.6204988
1633478400000,2021-10-06 00:00:00,LINK/USDC,26.81836583,28.11904441,25.25132348,26.75835182,784243.4983466826972086,28867.30654483,0,0,0,27.16718642
1633392000000,2021-10-05 00:00:00,LINK/USDC,26.62846767,27.37142239,26.26472375,27.37142239,540637.6798365537636762,20145.36293746,0,0,0,26.83682997
1633305600000,2021-10-04 00:00:00,LINK/USDC,27.10497279,27.11059091,25.64950562,26.69952786,278071.605968747594056,10441.1045608,0,0,0,26.63239357
1633219200000,2021-10-03 00:00:00,LINK/USDC,27.34212581,27.97162487,26.70958001,27.33908249,281976.4509670468964544,10328.10587808,0,0,0,27.30185518
1633132800000,2021-10-02 00:00:00,LINK/USDC,26.44018104,27.74315737,25.91732613,26.84106149,381533.344291516187064,14248.09976244,0,0,0,26.7778406
1633046400000,2021-10-01 00:00:00,LINK/USDC,23.63769963,26.542055,23.63769963,26.30563864,915180.918928695704548,35826.5465573,0,0,0,25.54477076
1632960000000,2021-09-30 00:00:00,LINK/USDC,23.31940581,24.24544333,23.31940581,23.51970955,245676.5092272528561785,10353.80262715,0,0,0,23.72814299
1632873600000,2021-09-29 00:00:00,LINK/USDC,22.29474623,23.60407291,22.29474623,22.40546702,444964.837050978002133,19133.11995041,0,0,0,23.2562613
1632787200000,2021-09-28 00:00:00,LINK/USDC,23.0848857,23.6699579,22.10000001,22.10000001,497154.7803240797999501,21681.17786213,0,0,0,22.93024777
1632700800000,2021-09-27 00:00:00,LINK/USDC,24.88168993,25.24605414,23.27148349,23.27148349,240251.8782697869632974,10070.85662546,0,0,0,23.85615119
1632614400000,2021-09-26 00:00:00,LINK/USDC,24.02889594,25.25601173,22.50000012,24.35634108,471960.731152479219939,20365.24036095,0,0,0,23.17481762
1632528000000,2021-09-25 00:00:00,LINK/USDC,23.7343996,24.54585097,22.12476048,24.54585097,163028.5686105278492752,7077.58444954,0,0,0,23.03449288
1632441600000,2021-09-24 00:00:00,LINK/USDC,24.74828163,24.83130323,21.90251208,22.37045563,293348.458151085301125,12810.72288475,0,0,0,22.8986655
1632355200000,2021-09-23 00:00:00,LINK/USDC,24.53418755,25.36556265,23.61598302,25.33983323,87040.162519955645889,3583.37625702,0,0,0,24.28998695
1632268800000,2021-09-22 00:00:00,LINK/USDC,21.54189522,24.3906494,21.21775737,24.13631874,98124.6300601290600392,4330.63095368,0,0,0,22.65827569
1632182400000,2021-09-21 00:00:00,LINK/USDC,22.97116021,24.22766595,20.94521108,21.24066705,3374121.3198616575714342,147287.15505857,0,0,0,22.90845606
1632096000000,2021-09-20 00:00:00,LINK/USDC,26.86016441,26.86016441,23.16527429,23.37534008,1021112.3743237309754202,41281.05152138,0,0,0,24.73561929
1632009600000,2021-09-19 00:00:00,LINK/USDC,27.87101722,28.50406415,27.11397291,27.14605341,127878.9279485452021,4619.16889,0,0,0,27.68440189
1631923200000,2021-09-18 00:00:00,LINK/USDC,27.61824425,29.40944808,27.42900411,28.13716501,89029.4545719284625987,3176.17724001,0,0,0,28.03037987
1631836800000,2021-09-17 00:00:00,LINK/USDC,30.04090241,30.04909977,27.43098059,27.43098059,190996.5529950942109712,6626.28555248,0,0,0,28.82407519
1631750400000,2021-09-16 00:00:00,LINK/USDC,30.90022739,32.0231627,29.07631433,29.92402165,61562.724972507589938,2018.64379155,0,0,0,30.49707196
1631664000000,2021-09-15 00:00:00,LINK/USDC,30.93740968,31.42105208,29.60977152,30.7831943,82625.6468481534861852,2711.55558054,0,0,0,30.47167738
1631577600000,2021-09-14 00:00:00,LINK/USDC,26.88797245,30.64079778,26.88797245,30.64079778,135658.5193263684527,4705.76308345,0,0,0,28.828166
1631491200000,2021-09-13 00:00:00,LINK/USDC,29.84935187,29.84935187,25.35478828,26.91461177,381512.4832537068209463,14362.27436687,0,0,0,26.56351449
1631404800000,2021-09-12 00:00:00,LINK/USDC,26.66001916,29.53271533,26.41284034,29.53271533,309858.446168990407965,10854.2650577,0,0,0,28.54716045
1631318400000,2021-09-11 00:00:00,LINK/USDC,26.4126426,27.38234863,26.4126426,26.89840043,124014.2848145882640813,4608.81215081,0,0,0,26.90807973
1631232000000,2021-09-10 00:00:00,LINK/USDC,28.51640675,29.48449079,25.6718929,26.31307195,578583.6958339628684992,21394.17488261,0,0,0,27.04398272
1631145600000,2021-09-09 00:00:00,LINK/USDC,27.35896465,30.00301559,26.52974535,27.91426438,508894.03967056051329,18370.5962327,0,0,0,27.7015527
1631059200000,2021-09-08 00:00:00,LINK/USDC,27.99157664,29.02839797,25.3246876,27.08833552,482322.449864181170302,17554.80585185,0,0,0,27.47523692
1630972800000,2021-09-07 00:00:00,LINK/USDC,34.64360978,35.28457054,24.20122417,28.20641527,2911313.1807368340227823,102218.09551561,0,0,0,28.48138743
1630886400000,2021-09-06 00:00:00,LINK/USDC,33.461455,36.10285836,33.01209894,34.96884051,508804.184063636467685,14594.2685195,0,0,0,34.86328783
1630800000000,2021-09-05 00:00:00,LINK/USDC,29.82639505,33.56820881,29.74750022,33.56820881,195596.1926858019051264,6131.80140992,0,0,0,31.89865092
1630713600000,2021-09-04 00:00:00,LINK/USDC,30.93569334,30.96388754,29.50268312,30.09645486,29385.013143775952676,976.5273362,0,0,0,30.09133698
1630627200000,2021-09-03 00:00:00,LINK/USDC,29.97835863,31.69985018,29.10649338,30.30876328,138371.3924946614435454,4596.57132438,0,0,0,30.10317533
1630540800000,2021-09-02 00:00:00,LINK/USDC,29.72428114,30.88811269,28.78467403,29.9618366,214271.0828854148746875,7210.37279875,0,0,0,29.71706025
1630454400000,2021-09-01 00:00:00,LINK/USDC,26.67194067,29.79489195,26.11717069,29.79489195,442773.3578522257062862,15521.65850314,0,0,0,28.52616283
1630368000000,2021-08-31 00:00:00,LINK/USDC,24.98575915,27.5044954,24.72372681,26.7403796,418289.062129114484162,15785.69236105,0,0,0,26.49798644
1630281600000,2021-08-30 00:00:00,LINK/USDC,25.81057776,26.49355684,24.36617912,25.03110059,361779.044877724944848,14149.7582324,0,0,0,25.56786052
1630195200000,2021-08-29 00:00:00,LINK/USDC,25.80484089,26.61098948,25.19375613,25.77570521,198596.0857257933247188,7729.47594266,0,0,0,25.69334418
1630108800000,2021-08-28 00:00:00,LINK/USDC,26.05823712,26.20990924,25.40605462,25.75669366,119554.4412378265897068,4643.24248113,0,0,0,25.74805036
1630022400000,2021-08-27 00:00:00,LINK/USDC,24.3941729,26.13660455,24.01885752,26.0514385,261754.4793430826115772,10477.84232812,0,0,0,24.98171581
1629936000000,2021-08-26 00:00:00,LINK/USDC,25.26211043,25.36166305,23.3760657,24.36894926,1660455.6396665746244971,66433.37056159,0,0,0,24.99430069
