https://www.CryptoDataDownload.com
unix,date,symbol,open,high,low,close,Volume TUSD,Volume USDD,buyTakerAmount,buyTakerQuantity,tradeCount,weightedAverage
1694995200000,2023-09-18 00:00:00,TUSD/USDD,1.00252,1.00256,1.00198,1.00236,1645915.9942,1642201.0816,1184784.3006,1182138.9352,2262,1.00226
1694908800000,2023-09-17 00:00:00,TUSD/USDD,1.0024,1.00272,1.00222,1.00254,2296408.8068,2290833.2862,1359454.969,1356177.699,3161,1.00243
1694822400000,2023-09-16 00:00:00,TUSD/USDD,1.00209,1.00274,1.00183,1.00241,2372571.8083,2367075.0473,1239796.7112,1236990.8644,3270,1.00232
1694736000000,2023-09-15 00:00:00,TUSD/USDD,1.00236,1.00261,1.00191,1.00209,2116707.9268,2111924.7587,915742.6842,913709.5397,2470,1.00226
1694649600000,2023-09-14 00:00:00,TUSD/USDD,1.00218,1.00261,1.00216,1.0024,882267.0793,880135.9432,454827.737,453750.5203,1167,1.00242
1694563200000,2023-09-13 00:00:00,TUSD/USDD,1.00259,1.00277,1.002,1.00218,526645.4737,525295.4347,33742.2779,33655.4143,972,1.00257
1694476800000,2023-09-12 00:00:00,TUSD/USDD,1.00518,1.01183,1.00259,1.00259,173275.7281,172160.8153,113235.5217,112436.0515,1077,1.00647
1694390400000,2023-09-11 00:00:00,TUSD/USDD,1.00274,1.00958,1,1.00527,350878.4695,349878.0869,248333.8336,247608.6664,2615,1.00286
1694304000000,2023-09-10 00:00:00,TUSD/USDD,1.00252,1.00287,1.00229,1.00274,927531.349,925138.5506,616957.7663,615394.3591,3187,1.00258
1694217600000,2023-09-09 00:00:00,TUSD/USDD,1.00216,1.00282,1.00207,1.00252,937155.6684,934787.8103,482031.3765,480829.201,3295,1.00253
1694131200000,2023-09-08 00:00:00,TUSD/USDD,1.00174,1.00243,1.00151,1.00216,912878.0368,911135.4959,311389.5441,310795.133,3133,1.00191
1694044800000,2023-09-07 00:00:00,TUSD/USDD,1.00194,1.00207,1.00146,1.00174,448294.7387,447552.0279,310058.0243,309552.6824,1730,1.00165
1693958400000,2023-09-06 00:00:00,TUSD/USDD,1.00189,1.00229,1.00177,1.00192,236113.2427,235640.7679,143520.3216,143232.297,1235,1.002
1693872000000,2023-09-05 00:00:00,TUSD/USDD,1.00155,1.00193,1.00142,1.00192,206207.0294,205869.5981,89268.0154,89117.8283,1038,1.00163
1693785600000,2023-09-04 00:00:00,TUSD/USDD,1.00169,1.00188,1.00139,1.00155,251077.0234,250671.7342,123586.8012,123390.9083,1040,1.00161
1693699200000,2023-09-03 00:00:00,TUSD/USDD,1.00141,1.00189,1.00126,1.00169,468647.7371,467940.4056,301955.4091,301514.448,2266,1.00151
1693612800000,2023-09-02 00:00:00,TUSD/USDD,1.001,1.00151,1.00076,1.00139,349160.0008,348780.4384,278236.7904,277938.6235,1830,1.00108
1693526400000,2023-09-01 00:00:00,TUSD/USDD,1.00167,1.00499,1.00086,1.00101,1361280.0938,1359000.9788,995770.6663,994178.1337,5045,1.00167
1693440000000,2023-08-31 00:00:00,TUSD/USDD,1.00172,1.00206,1.00139,1.00166,1537035.8265,1534426.4215,1216071.4038,1214020.9223,5686,1.0017
1693353600000,2023-08-30 00:00:00,TUSD/USDD,1.00186,1.00207,1.00143,1.00169,1175680.6903,1173630.1086,620634.4898,619566.9367,4353,1.00174
1693267200000,2023-08-29 00:00:00,TUSD/USDD,1.00162,1.00204,1.00139,1.00188,1019906.5306,1018138.5897,405089.1456,404394.3676,3941,1.00173
1693180800000,2023-08-28 00:00:00,TUSD/USDD,1.00149,1.00186,1.00131,1.00157,1053415.2158,1051705.8661,251245.6656,250855.8414,3888,1.00162
1693094400000,2023-08-27 00:00:00,TUSD/USDD,1.00114,1.0018,1.00103,1.00153,629181.5782,628309.0594,432329.3943,431749.3862,2410,1.00138
1693008000000,2023-08-26 00:00:00,TUSD/USDD,1.0015,1.00189,1.00102,1.00115,798797.8151,797673.0981,513001.3873,512304.2694,2965,1.00141
1692921600000,2023-08-25 00:00:00,TUSD/USDD,1.00184,1.00223,1.00124,1.0015,725745.526,724462.8356,332685.2548,332091.9348,2986,1.00177
1692835200000,2023-08-24 00:00:00,TUSD/USDD,1.00273,1.00295,1.00169,1.00183,584984.1536,583545.0541,301238.4383,300496.3337,2508,1.00246
1692748800000,2023-08-23 00:00:00,TUSD/USDD,1.00297,1.00342,1.0025,1.00271,667853.8924,665872.0992,329120.9544,328145.6022,2586,1.00297
1692662400000,2023-08-22 00:00:00,TUSD/USDD,1.00264,1.00307,1.00234,1.00292,734431.6647,732488.7152,371829.7824,370847.0268,2626,1.00265
1692576000000,2023-08-21 00:00:00,TUSD/USDD,1.00342,1.00375,1.00247,1.00264,730049.7987,727802.2919,368696.5912,367560.5352,2937,1.00308
1692489600000,2023-08-20 00:00:00,TUSD/USDD,1.00519,1.00682,1.0031,1.00341,712039.9626,709493.522,359032.4321,357739.7938,2720,1.00358
1692403200000,2023-08-19 00:00:00,TUSD/USDD,1.00647,1.00836,1.00344,1.00523,539234.6042,536499.1343,272190.3074,270809.2977,1956,1.00509
1692316800000,2023-08-18 00:00:00,TUSD/USDD,1.00526,1.01179,1.00348,1.00671,88135.8112,87558.0797,45576.7406,45278.0032,284,1.0066
1692230400000,2023-08-17 00:00:00,TUSD/USDD,1.00522,1.01177,1.00345,1.00525,479885.1409,477328.6962,247026.4345,245713.2985,1866,1.00535
1692144000000,2023-08-16 00:00:00,TUSD/USDD,1.00353,1.0072,1.00344,1.00522,263931.7896,262710.3274,129444.4794,128836.0108,1065,1.00465
1692057600000,2023-08-15 00:00:00,TUSD/USDD,1.00309,1.00375,1.00286,1.00364,502256.1202,500604.9224,247101.8655,246290.1961,2030,1.00329
1691971200000,2023-08-14 00:00:00,TUSD/USDD,1.00241,1.00338,1.00222,1.00303,394247.3035,393120.1925,190268.185,189727.6076,1722,1.00286
1691884800000,2023-08-13 00:00:00,TUSD/USDD,1.00283,1.00331,1.00214,1.00235,295055.2206,294273.2924,156964.1286,156548.4628,1404,1.00265
1691798400000,2023-08-12 00:00:00,TUSD/USDD,1.00966,1.00966,1.00271,1.00283,146580.4214,146042.8276,73058.874,72790.3857,1473,1.00368
1691712000000,2023-08-11 00:00:00,TUSD/USDD,1.00513,1.01037,1.00331,1.00672,218070.6554,216806.7754,109062.1758,108422.6804,1724,1.00583
1691625600000,2023-08-10 00:00:00,TUSD/USDD,1.00374,1.02,1.00341,1.00512,209369.5392,208235.4736,104495.149,103929.3609,1627,1.00544
1691539200000,2023-08-09 00:00:00,TUSD/USDD,1.00274,1.00381,1.00248,1.00374,216543.136,215851.3995,104921.8742,104586.0945,2383,1.0032
1691452800000,2023-08-08 00:00:00,TUSD/USDD,1.00277,1.00316,1.00232,1.00273,207221.3763,206645.4786,104389.9397,104100.0788,1900,1.00278
1691366400000,2023-08-07 00:00:00,TUSD/USDD,1.00353,1.01465,1.00261,1.00276,162978.5313,162419.8845,80726.8871,80452.1712,1536,1.00344
1691280000000,2023-08-06 00:00:00,TUSD/USDD,1.00336,1.00932,1.00292,1.00387,232629.5693,231789.5003,116118.031,115698.4259,1994,1.00362
1691193600000,2023-08-05 00:00:00,TUSD/USDD,1.00297,1.00362,1.00256,1.0034,260136.8165,259349.4501,131537.2858,131139.3652,2104,1.00303
1691107200000,2023-08-04 00:00:00,TUSD/USDD,1.00304,1.00328,1.00271,1.00301,204437.9098,203831.5715,103812.7525,103504.6538,1591,1.00297
1691020800000,2023-08-03 00:00:00,TUSD/USDD,1.00339,1.00901,1.00273,1.00302,190890.8216,190232.6772,91781.0685,91465.605,1745,1.00345
1690934400000,2023-08-02 00:00:00,TUSD/USDD,1.00265,1.01004,1.00241,1.00353,238165.6087,237296.0549,113753.1052,113337.588,2040,1.00366
1690848000000,2023-08-01 00:00:00,TUSD/USDD,1.00191,1.00288,1.00156,1.00288,258111.6989,257563.8229,131424.6178,131145.483,1966,1.00212
1690761600000,2023-07-31 00:00:00,TUSD/USDD,1.00094,1.00214,1.00088,1.00189,248933.4761,248570.5906,124270.3131,124088.8743,1928,1.00145
1690675200000,2023-07-30 00:00:00,TUSD/USDD,1.00096,1.00133,1.00068,1.0011,234668.4741,234439.9857,115904.9934,115792.2663,1804,1.00097
1690588800000,2023-07-29 00:00:00,TUSD/USDD,1.00044,1.00104,1.00036,1.00097,269139.7371,268952.0887,131574.7963,131484.0805,2048,1.00069
1690502400000,2023-07-28 00:00:00,TUSD/USDD,1.00041,1.0007,1.00008,1.00053,310317.7998,310173.7722,156576.9564,156504.5716,2398,1.00046
1690416000000,2023-07-27 00:00:00,TUSD/USDD,0.9999,1.00062,0.99963,1.00036,330385.0523,330377.7404,165259.2815,165255.1899,2381,1.00002
1690329600000,2023-07-26 00:00:00,TUSD/USDD,0.9999,1.00001,0.99923,0.9999,368106.4668,368229.8583,189721.5491,189783.8837,2478,0.99966
1690243200000,2023-07-25 00:00:00,TUSD/USDD,1.00082,1.001,0.99973,0.99989,306173.7289,306011.8325,149189.525,149110.6234,2330,1.00052
1690156800000,2023-07-24 00:00:00,TUSD/USDD,1.00121,1.00131,1.0006,1.00083,333128.7494,332799.3223,166735.1833,166570.5976,2400,1.00098
1690070400000,2023-07-23 00:00:00,TUSD/USDD,1.00153,1.00172,1.00096,1.00107,322658.1828,322233.522,162572.4357,162356.5522,2314,1.00131
1689984000000,2023-07-22 00:00:00,TUSD/USDD,1.00113,1.00165,1.00087,1.00157,324508.6533,324132.1741,163260.6537,163071.0617,2245,1.00116
1689897600000,2023-07-21 00:00:00,TUSD/USDD,1.00091,1.00129,1.00074,1.00096,286849.046,286553.9438,143900.2237,143752.5661,2196,1.00102
1689811200000,2023-07-20 00:00:00,TUSD/USDD,1.00115,1.00135,1.0001,1.0009,338696.4104,338462.887,165388.454,165273.8784,2550,1.00069
1689724800000,2023-07-19 00:00:00,TUSD/USDD,1.00154,1.00177,1.00096,1.00115,332579.0056,332112.2586,163271.377,163042.4612,2281,1.0014
1689638400000,2023-07-18 00:00:00,TUSD/USDD,1.00171,1.00191,1.00124,1.00144,324256.7613,323738.4905,164440.1947,164177.5174,2268,1.0016
1689552000000,2023-07-17 00:00:00,TUSD/USDD,1.00185,1.00207,1.00145,1.00168,302875.2239,302333.3788,141667.4525,141414.0565,2296,1.00179
1689465600000,2023-07-16 00:00:00,TUSD/USDD,1.0018,1.00228,1.0016,1.00182,324975.1698,324345.9967,160419.8744,160108.228,2466,1.00193
1689379200000,2023-07-15 00:00:00,TUSD/USDD,1.00177,1.00217,1.00136,1.00192,416603.6428,415893.2777,206644.6395,206292.5282,2511,1.0017
1689292800000,2023-07-14 00:00:00,TUSD/USDD,1.00168,1.00218,1.00142,1.00177,873144.1572,871610.0496,430611.2926,429854.6609,2438,1.00176
1689206400000,2023-07-13 00:00:00,TUSD/USDD,1.00207,1.00228,1.00149,1.00161,881260.404,879547.2004,457314.788,456425.0871,2463,1.00194
1689120000000,2023-07-12 00:00:00,TUSD/USDD,1.00178,1.00231,1.0015,1.00208,910289.0293,908564.521,466825.3863,465940.4622,2373,1.00189
1689033600000,2023-07-11 00:00:00,TUSD/USDD,1.00166,1.00239,1.00152,1.00177,1061936.3689,1059889.5282,530826.1339,529801.7856,2732,1.00193
1688947200000,2023-07-10 00:00:00,TUSD/USDD,1.00187,1.00206,1.00134,1.00165,1013829.0748,1012047.3246,498196.1304,497318.958,2668,1.00176
1688860800000,2023-07-09 00:00:00,TUSD/USDD,1.00174,1.00206,1.00156,1.00191,908945.3332,907300.7795,449632.1343,448817.9334,2349,1.00181
1688774400000,2023-07-08 00:00:00,TUSD/USDD,1.0017,1.00205,1.0014,1.00171,899485.7501,897888.4976,470395.371,469559.7258,2320,1.00177
1688688000000,2023-07-07 00:00:00,TUSD/USDD,1.00189,1.0021,1.00127,1.00167,851347.9399,849903.5923,422055.6658,421336.5277,2294,1.00169
1688601600000,2023-07-06 00:00:00,TUSD/USDD,1.00145,1.00205,1.00139,1.00181,899911.9989,898367.6991,435403.6217,434655.0226,2307,1.00171
1688515200000,2023-07-05 00:00:00,TUSD/USDD,1.00154,1.00174,1.00116,1.00145,853658.4541,852378.533,413377.2139,412757.6078,2291,1.0015
1688428800000,2023-07-04 00:00:00,TUSD/USDD,1.00174,1.00196,1.00133,1.00154,960859.6684,959313.775,504021.3987,503210.6567,2462,1.00161
1688342400000,2023-07-03 00:00:00,TUSD/USDD,1.0011,1.00198,1.00096,1.00175,921987.9968,920743.8321,461228.6418,460605.2558,2645,1.00135
1688256000000,2023-07-02 00:00:00,TUSD/USDD,1.00063,1.00129,1.00036,1.0011,882313.9522,881593.1116,451176.6385,450805.9477,2522,1.00081
1688169600000,2023-07-01 00:00:00,TUSD/USDD,1.00094,1.00169,1.00049,1.00068,931139.1643,930302.709,470850.0416,470424.4029,2428,1.00089
1688083200000,2023-06-30 00:00:00,TUSD/USDD,1.0016,1.00174,1.00079,1.00094,911004.7802,909851.0322,449960.9913,449391.7041,2574,1.00126
1687996800000,2023-06-29 00:00:00,TUSD/USDD,1.00206,1.00215,1.00141,1.00156,861869.4678,860381.6239,417225.0919,416503.8325,2220,1.00172
1687910400000,2023-06-28 00:00:00,TUSD/USDD,1.00241,1.00262,1.0018,1.00182,977707.0205,975616.404,482390.1188,481357.3779,2391,1.00214
1687824000000,2023-06-27 00:00:00,TUSD/USDD,1.00242,1.00264,1.00202,1.0024,874726.8368,872692.3209,440410.0459,439386.6378,2408,1.00233
1687737600000,2023-06-26 00:00:00,TUSD/USDD,1.00331,1.00352,1.00224,1.0024,937539.6895,934838.5191,467786.3772,466437.3803,2577,1.00288
1687651200000,2023-06-25 00:00:00,TUSD/USDD,1.00511,1.01525,1.00325,1.00335,955440.3491,951198.4371,488471.1428,486299.2905,2562,1.00446
1687564800000,2023-06-24 00:00:00,TUSD/USDD,1.00261,1.00677,1.00236,1.0051,878140.7477,875242.0359,414605.3787,413226.7322,2553,1.00331
1687478400000,2023-06-23 00:00:00,TUSD/USDD,1.00268,1.00303,1.00233,1.00263,967519.1946,964966.4227,492315.4926,491015.3282,2529,1.00264
1687392000000,2023-06-22 00:00:00,TUSD/USDD,1.0028,1.00316,1.00241,1.00272,883393.5756,880934.1094,445927.5202,444686.9707,2525,1.00279
1687305600000,2023-06-21 00:00:00,TUSD/USDD,1.00512,1.00512,1.00259,1.00285,905600.7143,902685.9273,449404.5799,447952.4245,2713,1.00322
1687219200000,2023-06-20 00:00:00,TUSD/USDD,1.00513,1.00676,1.0033,1.00511,814631.9894,810661.7039,414245.3251,412227.7188,2167,1.00489
1687132800000,2023-06-19 00:00:00,TUSD/USDD,1.00333,1.01,1.00304,1.00512,726054.6215,722414.1027,358866.2178,357055.983,2053,1.00504
1687046400000,2023-06-18 00:00:00,TUSD/USDD,1.00235,1.00343,1.00096,1.00332,952489.22,949931.2356,468062.3085,466803.4827,2587,1.00269
1686960000000,2023-06-17 00:00:00,TUSD/USDD,1.00233,1.00347,1.00152,1.00234,998213.1389,995850.2196,487387.1659,486233.9592,2970,1.00237
1686873600000,2023-06-16 00:00:00,TUSD/USDD,1.00183,1.0031,1.00154,1.00233,1061101.9232,1058557.0468,543729.5782,542427.9486,2732,1.0024
1686787200000,2023-06-15 00:00:00,TUSD/USDD,1.00183,1.00212,1.00035,1.00183,907455.9099,905875.9119,445985.3741,445205.3038,2780,1.00174
1686700800000,2023-06-14 00:00:00,TUSD/USDD,1.00161,1.00198,1.00053,1.00183,910664.5119,909180.4729,442859.5698,442139.7057,2811,1.00163
1686614400000,2023-06-13 00:00:00,TUSD/USDD,1.00094,1.00178,1.00061,1.00162,884942.8397,883812.5124,424933.2712,424389.0071,2428,1.00127
1686528000000,2023-06-12 00:00:00,TUSD/USDD,1.00104,1.00123,1.00062,1.00091,1020446.6837,1019492.0101,500714.7669,500247.4397,2595,1.00093
1686441600000,2023-06-11 00:00:00,TUSD/USDD,1.00225,1.00236,1.00085,1.00102,729961.2838,728832.9041,350121.9426,349584.3259,2247,1.00154
1686355200000,2023-06-10 00:00:00,TUSD/USDD,1.00093,1.00409,1.00004,1.00222,361151.9825,360399.5297,181147.8382,180771.2702,1388,1.00208
1686268800000,2023-06-09 00:00:00,TUSD/USDD,1.00109,1.00365,0.99867,1.001,234791.4999,234468.0482,109418.9557,109270.5261,1224,1.00138
1686182400000,2023-06-08 00:00:00,TUSD/USDD,1.00144,1.00383,0.99928,1.00109,316471.21,315979.6035,158226.6987,157988.6419,1306,1.00155
1686096000000,2023-06-07 00:00:00,TUSD/USDD,1.00193,1.00493,1.00018,1.00144,418662.2616,417753.6812,203955.8112,203519.8834,1474,1.00217
1686009600000,2023-06-06 00:00:00,TUSD/USDD,1.00083,1.00436,0.99965,1.00186,289623.6991,289181.425,147141.2865,146914.7474,1347,1.00152
1685923200000,2023-06-05 00:00:00,TUSD/USDD,1.00114,1.00285,0.99941,1.00082,217644.5398,217392.5619,124531.5297,124389.9919,1223,1.00115
1685836800000,2023-06-04 00:00:00,TUSD/USDD,1.00098,1.00316,0.99922,1.00114,544637.3278,543974.317,274399.207,274060.6017,1801,1.00121
1685750400000,2023-06-03 00:00:00,TUSD/USDD,0.99963,1.00419,0.99814,0.99986,641502.2795,641110.6858,324382.8774,324181.6788,1960,1.00061
1685664000000,2023-06-02 00:00:00,TUSD/USDD,0.99972,1.00229,0.99717,0.998,780539.6923,780699.9759,393156.7506,393236.9196,2267,0.99979
1685577600000,2023-06-01 00:00:00,TUSD/USDD,1.00031,1.00438,0.99803,0.99973,526194.6008,526070.4596,267068.5756,267006.887,1872,1.00023
1685491200000,2023-05-31 00:00:00,TUSD/USDD,1.00064,1.0021,0.99676,1.00033,822617.376,822503.7096,420219.0934,420159.7089,2162,1.00013
1685404800000,2023-05-30 00:00:00,TUSD/USDD,1.00202,1.00417,0.99691,0.99988,523747.1434,522878.0275,248607.4575,248198.2071,1852,1.00166
1685318400000,2023-05-29 00:00:00,TUSD/USDD,1.00061,1.00356,0.99867,1.00202,461260.0975,460760.3134,227516.2927,227269.0848,1591,1.00108
1685232000000,2023-05-28 00:00:00,TUSD/USDD,1.00074,1.00275,0.99692,1.00062,419231.1367,418970.1581,212891.8977,212758.4217,1597,1.00062
1685145600000,2023-05-27 00:00:00,TUSD/USDD,1.00166,1.00375,0.99677,1.00074,515522.1508,514837.8458,261346.9453,260998.8694,1875,1.00132
1685059200000,2023-05-26 00:00:00,TUSD/USDD,1.00092,1.00361,0.99884,1.00167,732928.3529,732026.4272,364734.0008,364288.3007,2384,1.00123
1684972800000,2023-05-25 00:00:00,TUSD/USDD,1.00219,1.00384,0.998,1.0012,704320.9159,703361.2766,347417.0145,346940.5538,2182,1.00136
1684886400000,2023-05-24 00:00:00,TUSD/USDD,1.0034,1.00526,1.00039,1.00218,597221.5714,595549.8058,294696.9047,293865.7144,2106,1.0028
1684800000000,2023-05-23 00:00:00,TUSD/USDD,1.00228,1.005,1.00192,1.0034,789073.2604,786958.4424,401941.0251,400868.4806,2280,1.00268
1684713600000,2023-05-22 00:00:00,TUSD/USDD,1.00274,1.00315,1.00159,1.00228,713663.5572,711779.0294,346293.0323,345379.6294,2117,1.00264
1684627200000,2023-05-21 00:00:00,TUSD/USDD,1.00211,1.0032,1.00184,1.00271,911503.423,909293.2298,457959.3054,456847.6972,2601,1.00243
1684540800000,2023-05-20 00:00:00,TUSD/USDD,1.00207,1.00322,1.00181,1.0022,961684.5216,959383.5538,498868.3693,497677.5791,2770,1.00239
1684454400000,2023-05-19 00:00:00,TUSD/USDD,1.00218,1.00411,1.00169,1.00208,937337.6202,935222.6345,466672.5635,465622.4108,2797,1.00226
1684368000000,2023-05-18 00:00:00,TUSD/USDD,1.00194,1.0046,0.99995,1.00218,823443.6972,821652.913,422983.4898,422066.6996,2903,1.00217
1684281600000,2023-05-17 00:00:00,TUSD/USDD,1.00084,1.00381,0.99907,1.00194,846712.5544,845774.9545,404650.6831,404208.1848,2846,1.0011
1684195200000,2023-05-16 00:00:00,TUSD/USDD,1.00125,1.00382,0.99906,1.00084,895943.0151,895029.0884,449901.3717,449448.6983,3100,1.00102
1684108800000,2023-05-15 00:00:00,TUSD/USDD,1.00204,1.00367,0.99901,1.00307,1037147.2675,1036065.5222,515108.4284,514565.1975,3034,1.00104
1684022400000,2023-05-14 00:00:00,TUSD/USDD,1.00112,1.00422,0.99944,1.00202,929445.8283,927859.8955,454981.8493,454212.6422,3006,1.0017
1683936000000,2023-05-13 00:00:00,TUSD/USDD,1.00122,1.0045,0.99908,1.00109,921897.1887,921025.751,471651.0737,471209.2851,2770,1.00094
1683849600000,2023-05-12 00:00:00,TUSD/USDD,1.00046,1.00314,0.99907,1.00125,910755.6891,909957.4302,473688.7259,473272.2044,2916,1.00087
1683763200000,2023-05-11 00:00:00,TUSD/USDD,0.99984,1.00246,0.99913,1.00045,876630.8248,876546.7247,443194.5161,443156.2637,2958,1.00009
1683676800000,2023-05-10 00:00:00,TUSD/USDD,1.00054,1.00213,0.99907,0.99978,933454.5399,933343.1746,467681.608,467628.0559,2778,1.00011
1683590400000,2023-05-09 00:00:00,TUSD/USDD,1.00393,1.00414,0.99935,1.00056,827838.9573,827567.1365,407419.8831,407293.5351,3154,1.00032
1683504000000,2023-05-08 00:00:00,TUSD/USDD,1.00263,1.00474,1.0006,1.00264,601258.8805,599649.3897,298258.6726,297464.4417,3111,1.00268
1683417600000,2023-05-07 00:00:00,TUSD/USDD,1.00209,1.00493,1.00016,1.00262,493773.7373,492631.7133,248441.3639,247869.8226,2509,1.00231
1683331200000,2023-05-06 00:00:00,TUSD/USDD,1.00263,1.0045,1.00043,1.00209,567897.1019,566574.6402,281807.1266,281146.072,2733,1.00233
1683244800000,2023-05-05 00:00:00,TUSD/USDD,1.00438,1.00519,1.00043,1.00275,502369.8404,500633.8304,236826.6486,236010.0799,2895,1.00346
1683158400000,2023-05-04 00:00:00,TUSD/USDD,1.00564,1.00734,1.00006,1.00438,478630.5831,476397.6686,235093.3585,234004.8765,2303,1.00468
1683072000000,2023-05-03 00:00:00,TUSD/USDD,1.00604,1.00785,1.00283,1.00583,435337.0026,432911.4319,213926.4588,212735.6293,2207,1.0056
1682985600000,2023-05-02 00:00:00,TUSD/USDD,1.00966,1.01365,1.00358,1.00606,619756.0941,615147.9982,305584.0113,303329.3908,3104,1.00749
1682899200000,2023-05-01 00:00:00,TUSD/USDD,1.01723,1.04,1.00643,1.01084,320860.3115,317032.564,167757.76,165715.1336,1642,1.01209
1682812800000,2023-04-30 00:00:00,TUSD/USDD,1.01176,1.01818,1.00955,1.01724,631867.7387,623859.0714,323662.2242,319564.7294,2819,1.01283
1682726400000,2023-04-29 00:00:00,TUSD/USDD,1.01193,1.01348,1.00919,1.01177,670049.913,662485.9585,346887.3202,342976.0201,2871,1.01141
1682640000000,2023-04-28 00:00:00,TUSD/USDD,1.01157,1.01557,1.00941,1.01193,516155.7232,510308.2731,247711.7351,244908.1825,2715,1.01145
1682553600000,2023-04-27 00:00:00,TUSD/USDD,1.01217,1.01535,1.00928,1.01167,695486.3441,687661.1431,345521.3172,341631.4266,3191,1.01137
1682467200000,2023-04-26 00:00:00,TUSD/USDD,1.01654,1.02105,1.0099,1.01355,493443.6146,486328.9691,252390.5231,248745.1017,2099,1.01463
1682380800000,2023-04-25 00:00:00,TUSD/USDD,1.01548,1.02102,1.01205,1.01693,615465.1338,606399.9151,293614.36,289287.4134,2891,1.01494
1682294400000,2023-04-24 00:00:00,TUSD/USDD,1.0163,1.02134,1.01263,1.01549,646074.9003,635792.7526,322215.1513,317086.3633,2855,1.01617
1682208000000,2023-04-23 00:00:00,TUSD/USDD,1.01631,1.02122,1.01402,1.01636,462951.8144,455474.0278,243112.9435,239180.8962,2263,1.01641
1682121600000,2023-04-22 00:00:00,TUSD/USDD,1.01592,1.02653,1.0142,1.01817,401609.518,394949.2493,190922.7847,187760.7812,1819,1.01686
1682035200000,2023-04-21 00:00:00,TUSD/USDD,1.01597,1.02275,1.01061,1.01567,855956.9018,842779.1966,416977.9016,410570.9835,3875,1.01563
1681948800000,2023-04-20 00:00:00,TUSD/USDD,1.01599,1.02345,1.01403,1.01598,1037669.6901,1020853.3997,524739.0512,516237.3366,4474,1.01647
1681862400000,2023-04-19 00:00:00,TUSD/USDD,1.01715,1.02357,1.01286,1.01598,1054277.406,1037366.8971,509746.0246,501576.1425,4455,1.0163
1681776000000,2023-04-18 00:00:00,TUSD/USDD,1.01629,1.0227,1.01382,1.01723,827186.4412,814170.2467,408751.5881,402324.9429,3381,1.01598
1681689600000,2023-04-17 00:00:00,TUSD/USDD,1.01386,1.0225,1.012,1.01628,669068.4779,659438.2269,323183.1865,318548.6708,3183,1.0146
1681603200000,2023-04-16 00:00:00,TUSD/USDD,1.01277,1.0147,1.01254,1.01386,626397.2022,617858.2238,313851.9578,309572.7821,2840,1.01382
1681516800000,2023-04-15 00:00:00,TUSD/USDD,1.01359,1.01565,1.01269,1.01302,590766.0848,582829.077,286695.0717,282843.576,2552,1.01361
1681430400000,2023-04-14 00:00:00,TUSD/USDD,1.01488,1.01551,1.01138,1.01359,710207.7041,701050.52,356350.5713,351753.4226,3139,1.01306
1681344000000,2023-04-13 00:00:00,TUSD/USDD,1.01569,1.02337,1.01401,1.01465,405319.7625,398659.9431,203323.6442,199995.5871,1881,1.0167
1681257600000,2023-04-12 00:00:00,TUSD/USDD,1.01797,1.02427,1.01461,1.01561,523914.8921,514702.9643,261374.9651,256773.9162,2308,1.01789
1681171200000,2023-04-11 00:00:00,TUSD/USDD,1.01134,1.0235,1.01004,1.01797,405497.9179,399012.5445,196657.8299,193514.5557,2398,1.01625
1681084800000,2023-04-10 00:00:00,TUSD/USDD,1.00741,1.01206,1.00685,1.01153,481694.2225,477308.781,251933.5361,249651.4331,2745,1.00918
1680998400000,2023-04-09 00:00:00,TUSD/USDD,1.00885,1.00953,1.00483,1.00731,607130.8183,602873.2511,302087.6506,299969.4805,2793,1.00706
1680912000000,2023-04-08 00:00:00,TUSD/USDD,1.01209,1.01349,1.00776,1.00887,583138.7393,576925.8047,285666.2418,282624.9009,2536,1.01077
1680825600000,2023-04-07 00:00:00,TUSD/USDD,1.00944,1.01415,1.00935,1.01206,495696.8625,489941.1389,258061.9037,255052.1174,2428,1.01174
1680739200000,2023-04-06 00:00:00,TUSD/USDD,1.01236,1.01499,1.00887,1.00948,691198.6593,682162.6198,348000.7833,343449.2884,3120,1.01324
1680652800000,2023-04-05 00:00:00,TUSD/USDD,1.01026,1.01494,1.00866,1.01236,755241.9605,746578.2602,379853.3925,375499.9934,3944,1.0116
1680566400000,2023-04-04 00:00:00,TUSD/USDD,1.01273,1.01494,1.00535,1.01025,1004631.7464,993888.0379,505502.6565,500101.4854,4398,1.01081
1680480000000,2023-04-03 00:00:00,TUSD/USDD,1.01264,1.01517,1.00658,1.0133,1100352.5327,1087717.8879,540150.9863,533942.9264,5077,1.01161
1680393600000,2023-04-02 00:00:00,TUSD/USDD,1.01077,1.01946,1.00524,1.01263,1303540.9404,1289628.5452,659522.1837,652498.6697,5553,1.01078
1680307200000,2023-04-01 00:00:00,TUSD/USDD,1.01638,1.02244,1.00448,1.01107,1201800.8442,1188208.0946,607341.9929,600494.9608,5154,1.01144
1680220800000,2023-03-31 00:00:00,TUSD/USDD,1.00618,1.02493,1.00434,1.01467,892125.3363,883591.7494,441174.1144,436936.7663,4384,1.00966
1680134400000,2023-03-30 00:00:00,TUSD/USDD,1.00462,1.00713,1.00301,1.00495,464337.3218,462080.5839,239015.3311,237848.9893,2182,1.00488
1680048000000,2023-03-29 00:00:00,TUSD/USDD,1.00546,1.00771,1.00182,1.00394,100018.8473,99522.5982,48758.016,48514.7602,5115,1.00498
1679961600000,2023-03-28 00:00:00,TUSD/USDD,1.00514,1.0115,1.00292,1.00546,155623.0762,154515.7475,77704.7852,77153.1119,9852,1.00716
1679875200000,2023-03-27 00:00:00,TUSD/USDD,1.00402,1.00984,1.00259,1.00515,36951.8676,36746.3493,18861.0783,18756.3477,2303,1.00559
1679788800000,2023-03-26 00:00:00,TUSD/USDD,1.00337,1.00782,1.00082,1.00782,24156.411,24061.2958,12097.0305,12049.5754,2499,1.00395
1679702400000,2023-03-25 00:00:00,TUSD/USDD,1.00267,1.00714,1.00046,1.0043,38949.8662,38799.0346,18886.3971,18813.3129,3734,1.00388
1679616000000,2023-03-24 00:00:00,TUSD/USDD,1.00296,1.00692,0.99934,1.00366,28238.2605,28147.3953,14067.8777,14022.5139,2955,1.00322
1679529600000,2023-03-23 00:00:00,TUSD/USDD,1.00326,1.00524,0.99931,1.00185,29143.9745,29073.2749,14393.7121,14358.654,2687,1.00243
1679443200000,2023-03-22 00:00:00,TUSD/USDD,1.00138,1.00548,0.99937,1.00327,35282.9165,35211.3375,18334.0409,18297.0255,4050,1.00203
1679356800000,2023-03-21 00:00:00,TUSD/USDD,1.00053,1.00496,0.99932,1.00139,33130.6225,33073.1971,17515.0464,17484.5141,3531,1.00173
1679270400000,2023-03-20 00:00:00,TUSD/USDD,1.00071,1.0043,0.99929,1.00089,29879.3648,29849.6816,15041.6031,15026.7227,3137,1.00099
1679184000000,2023-03-19 00:00:00,TUSD/USDD,1.00233,1.00662,0.99922,1.0007,31560.4686,31483.0106,16262.7001,16223.0749,3576,1.00246
1679097600000,2023-03-18 00:00:00,TUSD/USDD,1.00293,1.0059,0.99935,1.00193,35995.5558,35935.4616,17496,17466.5902,4063,1.00167
1679011200000,2023-03-17 00:00:00,TUSD/USDD,1.00533,1.00719,0.99937,1.00292,29466.0419,29382.4665,13993.5835,13954.4206,3345,1.00284
1678924800000,2023-03-16 00:00:00,TUSD/USDD,1.00772,1.00904,1.00148,1.00536,33315.9828,33111.5616,16054.7823,15955.7968,3935,1.00617
1678838400000,2023-03-15 00:00:00,TUSD/USDD,1.00739,1.01391,1.00504,1.00772,21169.9908,21003.0237,10431.8575,10349.1104,2930,1.00795
1678752000000,2023-03-14 00:00:00,TUSD/USDD,1.01172,1.0169,1.00519,1.0074,24560.4045,24347.0824,12347.5668,12240.1746,2698,1.00876
1678665600000,2023-03-13 00:00:00,TUSD/USDD,1.01382,1.02118,1.00254,1.00939,19142.5007,18964.9936,9146.2926,9060.9584,2641,1.00936
1678579200000,2023-03-12 00:00:00,TUSD/USDD,1.03045,1.0547,1.00482,1.01382,25715.9554,25078.9489,12698.9721,12383.8813,3222,1.02544
1678492800000,2023-03-11 00:00:00,TUSD/USDD,1.00392,1.0699,0.99977,1.03045,33233.7917,32309.0312,19289.8864,18712.0073,4512,1.02895
1678406400000,2023-03-10 00:00:00,TUSD/USDD,1.003,1.00792,1.00071,1.00392,28266.9295,28151.0496,14349.9544,14291.1701,3444,1.00411
1678320000000,2023-03-09 00:00:00,TUSD/USDD,0.9993,1.00548,0.99565,1.0033,36068.6419,36042.4798,18377.7379,18365.0827,3848,1.00072
1678233600000,2023-03-08 00:00:00,TUSD/USDD,0.99893,1.00211,0.99525,0.99954,31147.4585,31175.1148,15120.0568,15133.3675,3401,0.99911
1678147200000,2023-03-07 00:00:00,TUSD/USDD,0.99862,1.00228,0.99557,0.99873,41344.5586,41379.4663,20119.1211,20136.2368,5242,0.99915
1678060800000,2023-03-06 00:00:00,TUSD/USDD,0.99956,1.00204,0.99491,0.99863,75549.7589,75647.6276,38343.8639,38393.744,8372,0.9987
1677974400000,2023-03-05 00:00:00,TUSD/USDD,1.00067,1.00294,0.9959,0.99956,83931.3103,83951.8221,39461.3113,39471.9991,9508,0.99975
1677888000000,2023-03-04 00:00:00,TUSD/USDD,1.00044,1.00488,1,1.00068,53287.5977,53232.0977,25140.9313,25114.2584,6867,1.00104
1677801600000,2023-03-03 00:00:00,TUSD/USDD,1.00154,1.0034,1.00009,1.00044,57310.4134,57261.194,27152.3184,27128.2283,6564,1.00085
1677715200000,2023-03-02 00:00:00,TUSD/USDD,1.00147,1.00518,1.00032,1.0015,58646.5897,58537.1327,28660.8764,28607.1486,6578,1.00187
1677628800000,2023-03-01 00:00:00,TUSD/USDD,1.00242,1.00524,1.00059,1.00172,41294.511,41204.8465,20334.7011,20290.5427,3700,1.00217
1677542400000,2023-02-28 00:00:00,TUSD/USDD,1.00168,1.00464,1.00031,1.00168,93912.6656,93705.8612,46122.2646,46020.9564,9181,1.0022
1677456000000,2023-02-27 00:00:00,TUSD/USDD,1.00213,1.00443,1.00051,1.0015,70412.0561,70267.0599,34677.8378,34606.4845,7030,1.00206
1677369600000,2023-02-26 00:00:00,TUSD/USDD,1.0024,1.00244,1.00195,1.00213,4751.6878,4741.3611,2254.0353,2249.1462,1066,1.00217
1677283200000,2023-02-25 00:00:00,TUSD/USDD,1.00255,1.00267,1.00227,1.0024,4703.4769,4691.9411,2379.0838,2373.2457,1026,1.00245
1677196800000,2023-02-24 00:00:00,TUSD/USDD,1.00228,1.00271,1.00167,1.00255,6490.7471,6476.2762,3347.3709,3339.8792,1219,1.00223
1677110400000,2023-02-23 00:00:00,TUSD/USDD,1.00212,1.00273,1.00207,1.00227,8229.4706,8209.319,4176.3556,4166.1668,1459,1.00245
1677024000000,2023-02-22 00:00:00,TUSD/USDD,1.00317,1.00317,1.00201,1.00211,7015.8451,6998.5394,2940.0174,2932.8619,1359,1.00247
1676937600000,2023-02-21 00:00:00,TUSD/USDD,1.00263,1.00415,1.00241,1.00317,7425.2525,7402.225,4019.3074,4006.9364,1375,1.00311
1676851200000,2023-02-20 00:00:00,TUSD/USDD,1.00287,1.00462,1.00094,1.00265,46018.7739,45898.2915,23346.2501,23285.0938,4798,1.00262
1676764800000,2023-02-19 00:00:00,TUSD/USDD,1.00238,1.00452,1.00096,1.00292,120977.6346,120660.2957,60487.812,60329.2347,12003,1.00263
1676678400000,2023-02-18 00:00:00,TUSD/USDD,1.00204,1.00396,1.0002,1.00238,87814.8491,87621.8511,44542.5632,44444.4665,9373,1.0022
1676592000000,2023-02-17 00:00:00,TUSD/USDD,1.00144,1.00414,0.99954,1.00099,96435.2582,96331.7471,39572.29,39520.077,8305,1.00107
1676505600000,2023-02-16 00:00:00,TUSD/USDD,1.00921,1.01465,1,1.00029,62415.1397,61984.8306,29751.4402,29539.8426,6615,1.00695
1676419200000,2023-02-15 00:00:00,TUSD/USDD,1.01088,1.01806,1.00532,1.00961,64206.0729,63580.2231,32050.8661,31736.7268,7430,1.00984
1676332800000,2023-02-14 00:00:00,TUSD/USDD,1.008,1.01806,1.00485,1.01096,129412.0989,128209.9687,65172.0568,64567.0708,11606,1.00937
1676246400000,2023-02-13 00:00:00,TUSD/USDD,1.00576,1.01438,1.0048,1.00803,53413.5212,53001.8561,26535.7825,26331.9338,5893,1.00776
1676160000000,2023-02-12 00:00:00,TUSD/USDD,1.00713,1.01022,1.0041,1.00696,44754.9799,44435.0186,22423.4043,22263.4206,4034,1.0072
1676073600000,2023-02-11 00:00:00,TUSD/USDD,1.00738,1.0102,1.004,1.0086,37948.813980176,37679.2071,18794.043826596,18660.3622,3476,1.007155764588620497
1675987200000,2023-02-10 00:00:00,TUSD/USDD,1.00782,1.01055,1.00448,1.00708,60129.498974562,59669.9899,29738.008392749,29510.9556,6600,1.007701280847116235
1675900800000,2023-02-09 00:00:00,TUSD/USDD,1.00816,1.01866,1.00502,1.00783,81606.508414501,80929.0796,41209.012386654,40867.6328,8106,1.00837190851864186
1675814400000,2023-02-08 00:00:00,TUSD/USDD,1.00608,1.00992,1.00308,1.00852,90345.663892704,89764.5943,45995.296063546,45699.7756,8904,1.006473763003779086
1675728000000,2023-02-07 00:00:00,TUSD/USDD,1.00725,1.00847,1.00345,1.00608,123353.53008201,122546.2155,62079.485535794,61673.5448,12106,1.006588264132422715
1675641600000,2023-02-06 00:00:00,TUSD/USDD,1.00529,1.00891,1.00274,1.00725,123899.142204215,123159.2796,62024.328820657,61654.0702,12316,1.006007652812325221
1675555200000,2023-02-05 00:00:00,TUSD/USDD,1.0051,1.00872,1.0019,1.0059,127261.115174117,126609.3435,63635.50885273,63309.6887,13740,1.005148430481777225
1675468800000,2023-02-04 00:00:00,TUSD/USDD,1.00731,1.00955,1.00326,1.00515,95942.408066571,95424.59,47937.661983719,47679.8389,9520,1.005427372591966834
1675382400000,2023-02-03 00:00:00,TUSD/USDD,1.00463,1.01457,1.00291,1.00729,45677.017064736,45313.3439,23084.305153383,22900.2931,3824,1.008026692087247316
1675296000000,2023-02-02 00:00:00,TUSD/USDD,1.00738,1.01935,1.00463,1.00744,52291.639687318,51914.7743,25695.47502816,25510.1771,4769,1.007260655558526125
1675209600000,2023-02-01 00:00:00,TUSD/USDD,1.01461,1.01772,1.00471,1.01072,55427.80157663,54923.7474,28400.939040647,28143.4622,5528,1.009178996494121425
1675123200000,2023-01-31 00:00:00,TUSD/USDD,1.01268,1.01815,1.00473,1.00474,78624.947697861,77890.3819,39307.321542216,38941.4427,8035,1.009431766611713871
1675036800000,2023-01-30 00:00:00,TUSD/USDD,1.00882,1.01828,1.0046,1.00883,34493.513480005,34189.5902,17034.663968205,16883.0546,3995,1.008893524779531871
1674950400000,2023-01-29 00:00:00,TUSD/USDD,1.01113,1.01809,1.00353,1.00882,61282.862181885,60748.0633,29945.520491619,29685.1605,5191,1.008807404106599319
1674864000000,2023-01-28 00:00:00,TUSD/USDD,1.01536,1.01995,1.00547,1.01412,108003.260913316,106597.5017,54623.43245357,53912.4784,10388,1.013189104745155373
1674777600000,2023-01-27 00:00:00,TUSD/USDD,1.01641,1.0248,1.00612,1.01087,40334.657369988,39831.9128,20362.818040684,20109.1129,3795,1.01262430392847698
1674691200000,2023-01-26 00:00:00,TUSD/USDD,1.01644,1.02145,1.00812,1.01232,80139.971214343,78918.6075,40526.419482461,39909.1733,7805,1.015477414478690387
1674604800000,2023-01-25 00:00:00,TUSD/USDD,1.01571,1.03,1.01001,1.01645,69511.294072434,68414.4478,34771.523742544,34222.035,7330,1.016033984974819212
1674518400000,2023-01-24 00:00:00,TUSD/USDD,1.0278,1.0378,1.00814,1.01647,72056.080371849,70766.0314,35797.264233795,35160.0175,6584,1.018236279684611512
1674432000000,2023-01-23 00:00:00,TUSD/USDD,1.01621,1.04136,1.00813,1.02099,40744.934029195,39923.5813,20025.513109301,19622.8772,3999,1.020577135604289222
1674345600000,2023-01-22 00:00:00,TUSD/USDD,1.03737,1.03737,1.00812,1.02282,20641.831398612,20179.4643,10404.35363536,10172.4467,2207,1.022921782422987947
1674259200000,2023-01-21 00:00:00,TUSD/USDD,1.03167,1.03984,1.01838,1.02495,55601.713767616,54169.2403,28148.320360523,27423.4061,6401,1.026447111192693556
1674172800000,2023-01-20 00:00:00,TUSD/USDD,1.0311,1.04999,1.024,1.03549,67146.586349131,65051.3534,33247.218725787,32210.1383,7512,1.032210480496105626
1674086400000,2023-01-19 00:00:00,TUSD/USDD,1.02833,1.04109,1.02205,1.03024,57592.828902434,55928.216,27828.831040689,27024.9965,5886,1.029764468991165577
1674000000000,2023-01-18 00:00:00,TUSD/USDD,1.03043,1.03905,1.02128,1.02849,45455.845331625,44181.5169,23149.982610977,22500.8295,4291,1.028844104609256374
1673913600000,2023-01-17 00:00:00,TUSD/USDD,1.02738,1.03906,1.02181,1.02733,51408.620658907,49943.407,24887.425296163,24178.1262,5042,1.029339491797652229
1673827200000,2023-01-16 00:00:00,TUSD/USDD,1.02957,1.03905,1.01579,1.02911,27329.888527599,26549.7912,13177.593367979,12801.8064,2726,1.029384266001150381
1673740800000,2023-01-15 00:00:00,TUSD/USDD,1.02724,1.05,1.01565,1.02956,24358.539684525,23619.8315,12136.747402363,11768.9241,3104,1.031278771829199928
1673654400000,2023-01-14 00:00:00,TUSD/USDD,1.01393,1.03623,1.01359,1.02921,26751.91157263,26038.816,13554.890453394,13192.5953,2510,1.027426177267642363
1673568000000,2023-01-13 00:00:00,TUSD/USDD,1.02169,1.03007,1.01191,1.01771,31602.680950792,31008.6051,15697.889654585,15402.7976,3352,1.019162086383932835
1673481600000,2023-01-12 00:00:00,TUSD/USDD,1.02197,1.03077,1.00813,1.01923,49708.767486562,48647.3102,24321.99396159,23802.6796,4535,1.021822035969483635
1673395200000,2023-01-11 00:00:00,TUSD/USDD,1.02349,1.03622,1.0103,1.02154,66780.063827177,65247.8193,33756.916761058,32984.16,7127,1.023488402765090972
1673308800000,2023-01-10 00:00:00,TUSD/USDD,1.02225,1.03621,1.01196,1.0235,52291.841558705,51130.5736,26181.506050028,25600.1961,5023,1.022714272526685186
1673222400000,2023-01-09 00:00:00,TUSD/USDD,1.02743,1.03623,1.0143,1.02239,63828.428048653,62342.9315,31079.401347532,30355.5613,6330,1.023830745474514663
1673136000000,2023-01-08 00:00:00,TUSD/USDD,1.03037,1.03733,1.02185,1.03073,41958.121255707,40813.0599,19992.298303806,19447.538,4252,1.028058154320407717
1673049600000,2023-01-07 00:00:00,TUSD/USDD,1.03298,1.03992,1.02184,1.02744,57324.478281441,55712.0898,28627.061064332,27821.609,6384,1.028944734620844607
1672963200000,2023-01-06 00:00:00,TUSD/USDD,1.02598,1.03997,1.01426,1.03292,50756.779508219,49410.6102,24684.003189375,24029.4555,4966,1.02726113687872949
1672876800000,2023-01-05 00:00:00,TUSD/USDD,1.02226,1.03968,1.00808,1.026,41450.380392323,40442.5857,20610.153117521,20107.6449,3976,1.024922225915543798
1672790400000,2023-01-04 00:00:00,TUSD/USDD,1.02405,1.03509,1.00817,1.01441,74347.429166426,72615.5265,36394.714989946,35546.8586,8101,1.023851708004640266
1672704000000,2023-01-03 00:00:00,TUSD/USDD,1.02238,1.03059,1.00809,1.02404,65110.81052759,63710.4658,32952.025282686,32243.6971,7315,1.021981361174022062
1672617600000,2023-01-02 00:00:00,TUSD/USDD,1.02373,1.03059,1.01532,1.02234,65305.345248464,63796.3788,33204.750068157,32436.806,6644,1.023654913517340329
1672531200000,2023-01-01 00:00:00,TUSD/USDD,1.02557,1.04,1.00614,1.02339,26941.133392122,26298.7785,13580.654192217,13258.5104,3236,1.024431562177326999
1672444800000,2022-12-31 00:00:00,TUSD/USDD,1.02206,1.04,1.00613,1.02847,40901.044386406,39927.1805,20840.499660872,20344.2544,4798,1.02439986837679258
1672358400000,2022-12-30 00:00:00,TUSD/USDD,1.02391,1.03806,1.00614,1.02447,25911.94608217,25336.783,12600.02838417,12320.6704,2589,1.022704849385487886
1672272000000,2022-12-29 00:00:00,TUSD/USDD,1.02207,1.03805,1.01107,1.02364,34007.914196873,33275.2192,17824.299381261,17442.0355,3491,1.022024953880992068
1672185600000,2022-12-28 00:00:00,TUSD/USDD,1.01755,1.02897,1.00614,1.02041,26801.537632941,26241.1639,13142.957133285,12868.3337,2735,1.021358814715654036
1672099200000,2022-12-27 00:00:00,TUSD/USDD,1.01403,1.03805,1.00615,1.02065,16795.637585225,16451.472,8329.159079075,8159.2261,1996,1.020926320488464764
1672012800000,2022-12-26 00:00:00,TUSD/USDD,1.02211,1.0381,1.00614,1.01969,11373.434441863,11168.5264,5811.580075097,5707.0128,1529,1.018350690992979795
1671926400000,2022-12-25 00:00:00,TUSD/USDD,1.02355,1.03063,1.00599,1.00611,14225.654118473,13986.2253,7116.898279987,6997.5269,1629,1.017124825646454112
1671840000000,2022-12-24 00:00:00,TUSD/USDD,1.02361,1.03812,1.009,1.01535,31680.681165643,31072.1919,15816.48310493,15513.4952,3169,1.01958902408510141
1671753600000,2022-12-23 00:00:00,TUSD/USDD,1.02069,1.03813,1.00908,1.01968,71443.27767759,70082.5677,35453.169723916,34778.393,9168,1.019422342950096786
1671667200000,2022-12-22 00:00:00,TUSD/USDD,1.01661,1.03935,1.00908,1.01377,67373.020474486,66121.242,33489.997211723,32866.3497,8566,1.018937355622927424
1671580800000,2022-12-21 00:00:00,TUSD/USDD,1.01907,1.03155,1.00908,1.01661,119462.055493548,117445.4272,58967.822554399,57970.9599,7647,1.017173593594912575
1671494400000,2022-12-20 00:00:00,TUSD/USDD,1.02432,1.0397,1.00892,1.01907,19399.196415522,19027.1159,9636.212955201,9451.0244,2450,1.019562412251279216
1671408000000,2022-12-19 00:00:00,TUSD/USDD,1.02429,1.03969,1.00892,1.01662,11812.773326777,11547.6799,6350.493479322,6208.523,1239,1.022964319822618448
1671321600000,2022-12-18 00:00:00,TUSD/USDD,1.02043,1.03,1.00892,1.02432,24396.045471562,23858.5464,12437.29799124,12162.2827,1385,1.022535527715782688
1671235200000,2022-12-17 00:00:00,TUSD/USDD,1.03146,1.03989,1.00892,1.02043,22515.043055764,21994.65,11723.466166699,11448.4343,1375,1.023672075680364084
1671148800000,2022-12-16 00:00:00,TUSD/USDD,1.02394,1.039,1.00888,1.03148,28150.849106114,27466.6912,13989.322683564,13648.5619,1346,1.024914883346335086
1671062400000,2022-12-15 00:00:00,TUSD/USDD,1.02204,1.03987,1.00889,1.02395,43501.582073071,42482.851,22341.592036925,21817.6364,1356,1.023984488759763572
1670976000000,2022-12-14 00:00:00,TUSD/USDD,1.02395,1.039,1.00888,1.02207,40570.233358485,39638.0094,21208.623833033,20717.4007,1468,1.023527969248789554
1670889600000,2022-12-13 00:00:00,TUSD/USDD,1.0217,1.03145,1.00881,1.02393,43954.882127004,43004.3481,22186.526248007,21708.9165,1301,1.022119557272679542
1670803200000,2022-12-12 00:00:00,TUSD/USDD,1.02272,1.03725,1.00872,1.02168,51187.189870211,49984.4105,24692.951311547,24114.7596,1415,1.024070909830527506
1670716800000,2022-12-11 00:00:00,TUSD/USDD,1.02309,1.03,1.00778,1.02274,46938.0717277,45815.9412,24755.065109143,24162.7748,1405,1.024493736657782739
1670630400000,2022-12-10 00:00:00,TUSD/USDD,1.02019,1.02824,1.00686,1.02306,46082.160276185,45117.4713,24201.300870525,23694.4447,1333,1.021383688860529378
1670544000000,2022-12-09 00:00:00,TUSD/USDD,1.02218,1.02218,1.01433,1.02019,40828.253867482,39979.3711,19992.865430633,19577.7785,1093,1.021234722556466608
1670457600000,2022-12-08 00:00:00,TUSD/USDD,1.01846,1.03,1.01433,1.02215,40907.677702644,40085.0199,21622.942512216,21188.0863,1113,1.020523427594046329
1670371200000,2022-12-07 00:00:00,TUSD/USDD,1.01944,1.0226,1.00612,1.01844,44784.702827676,43939.3362,21739.52784282,21329.1205,1265,1.019240523285812921
1670284800000,2022-12-06 00:00:00,TUSD/USDD,1.0154,1.02262,1.01209,1.01944,50072.242327791,49219.1307,25484.384837727,25047.6293,1524,1.017340427198941951
1670198400000,2022-12-05 00:00:00,TUSD/USDD,1.01311,1.0187,1.00552,1.0154,49952.739577637,49246.836,25571.226793006,25210.396,1557,1.014335558685868824
1670112000000,2022-12-04 00:00:00,TUSD/USDD,1.01127,1.01869,1.0088,1.01311,69083.726442218,68216.7021,34111.613238778,33682.582,1871,1.012710796590020941
1670025600000,2022-12-03 00:00:00,TUSD/USDD,1.00924,1.0187,1.00552,1.01129,65989.460318837,65275.8508,32712.771209658,32360.9615,1900,1.010934585915762582
1669939200000,2022-12-02 00:00:00,TUSD/USDD,1.01524,1.0198,1.00551,1.00926,70429.971436088,69736.123,36494.963076449,36136.5186,1841,1.009952513998541184
1669852800000,2022-12-01 00:00:00,TUSD/USDD,1.01134,1.01982,1.00472,1.01527,66432.414568648,65747.5482,33644.827484531,33296.0788,1912,1.010422668457982748
1669766400000,2022-11-30 00:00:00,TUSD/USDD,1.01075,1.03,1.00517,1.01134,52573.473815845,51902.3516,26302.263821631,25963.5392,1797,1.01293687303787963
1669680000000,2022-11-29 00:00:00,TUSD/USDD,1.01073,1.021,1.00466,1.01077,64039.715042222,63328.7291,31047.19539968,30700.6692,1826,1.011229532116467781
1669593600000,2022-11-28 00:00:00,TUSD/USDD,1.00865,1.01856,1.0046,1.01075,63892.3550979,63237.8023,33058.210060854,32720.3881,1720,1.010352556804983393
1669507200000,2022-11-27 00:00:00,TUSD/USDD,1.00449,1.00866,1.00428,1.00863,68141.834589316,67785.4471,33503.23435862,33328.0023,2036,1.005259415524237112
1669420800000,2022-11-26 00:00:00,TUSD/USDD,1.0026,1.00482,1.00233,1.00449,50201.454490389,50029.3696,26369.429213566,26278.9518,2515,1.003440098007297966
1669334400000,2022-11-25 00:00:00,TUSD/USDD,1.00866,1.0127,1.00239,1.0026,33294.436939454,33150.6858,16096.530020746,16026.6761,2513,1.004338475149557055
1669248000000,2022-11-24 00:00:00,TUSD/USDD,1.00868,1.01272,1.00396,1.00863,31546.29317874,31333.4815,15750.266177501,15647.0709,2068,1.006795844990650337
1669161600000,2022-11-23 00:00:00,TUSD/USDD,1.02111,1.02114,1.00454,1.00869,26530.896694045,26314.2595,13687.528835897,13576.8619,1978,1.008248487589644068
1669075200000,2022-11-22 00:00:00,TUSD/USDD,1.02094,1.03727,1.0046,1.02109,26535.06944953,26027.8486,13525.112264134,13267.5112,1625,1.019508450232250375
1668988800000,2022-11-21 00:00:00,TUSD/USDD,1.02736,1.07,1.0046,1.02094,28595.457417213,27904.5989,13971.993330122,13636.5147,1819,1.024846727987695586
1668902400000,2022-11-20 00:00:00,TUSD/USDD,1.0274,1.05,1.00479,1.02733,30081.239515602,29367.3147,14302.951366702,13960.8306,1865,1.024333861876357608
1668816000000,2022-11-19 00:00:00,TUSD/USDD,1.01219,1.05,1.01109,1.0274,32955.983759183,32203.72,16769.952643185,16386.5863,2127,1.02340595584363174
1668729600000,2022-11-18 00:00:00,TUSD/USDD,1.01028,1.03472,1.00477,1.01217,32041.720853761,31578.3361,15754.310741479,15526.2434,1920,1.014679232394445448
1668643200000,2022-11-17 00:00:00,TUSD/USDD,1.01956,1.03471,1.00478,1.01031,37907.291383047,37222.2235,18865.493806274,18525.8835,2197,1.018413943239414524
1668556800000,2022-11-16 00:00:00,TUSD/USDD,1.02348,1.02456,1.0048,1.01963,23085.32105682,22708.5381,11520.606276781,11332.4848,1352,1.016598626882207796
1668470400000,2022-11-15 00:00:00,TUSD/USDD,1.01896,1.03472,1.01222,1.02365,16840.10342666,16520.6586,8201.876517258,8046.919,987,1.019342144762171812
1668384000000,2022-11-14 00:00:00,TUSD/USDD,1.0097,1.02729,1.002,1.01896,34225.364421049,33747.9146,17552.148682018,17310.4519,2366,1.01417099817107945
1668297600000,2022-11-13 00:00:00,TUSD/USDD,1.01291,1.025,1.00458,1.00963,542957.863499366,536932.8269,270066.807761716,267068.5363,3406,1.011224580965503047
1668211200000,2022-11-12 00:00:00,TUSD/USDD,1.01975,1.02999,1.00479,1.0129,1779447.649799764,1754272.9526,908583.213500842,895690.3128,5286,1.014357576577716036
1668124800000,2022-11-11 00:00:00,TUSD/USDD,1.03498,1.05,1.00477,1.01974,1138297.16642165,1110563.1974,561554.305765823,547900.858,4150,1.025002579242173448
1668038400000,2022-11-10 00:00:00,TUSD/USDD,1.01147,1.05,1.0046,1.03497,622600.647892494,604464.8236,303963.686482744,295148.2951,3502,1.030146103825298576
1667952000000,2022-11-09 00:00:00,TUSD/USDD,1.00734,1.02656,1.00273,1.01141,592228.037050313,586322.6312,300699.457029334,297690.3898,4687,1.010090845847089377
1667865600000,2022-11-08 00:00:00,TUSD/USDD,1.0035,1.01187,1.0032,1.00735,660298.68937563,657057.1084,342841.751815924,341153.8373,3756,1.004934991604390447
1667779200000,2022-11-07 00:00:00,TUSD/USDD,1.00464,1.00529,1.00249,1.0035,551681.685731547,549650.3279,272407.187556854,271408.781,3940,1.003696448047976572
1667692800000,2022-11-06 00:00:00,TUSD/USDD,1.0047,1.00529,1.00386,1.00464,727788.136958111,724336.8852,377668.297606427,375873.5418,3505,1.004764745121388476
1667606400000,2022-11-05 00:00:00,TUSD/USDD,1.00429,1.0052,0.99465,1.00468,585149.046943574,582555.836,295488.722514017,294177.1536,3844,1.004451585046274337
1667520000000,2022-11-04 00:00:00,TUSD/USDD,1.00552,1.00554,1.00407,1.0043,678417.017294521,675239.3597,346700.030838514,345075.7845,4154,1.004706036740799396
1667433600000,2022-11-03 00:00:00,TUSD/USDD,1.00468,1.00575,1.00343,1.00553,797303.556396526,793554.7579,404114.625948241,402212.8212,5161,1.004724222717589445
1667347200000,2022-11-02 00:00:00,TUSD/USDD,1.00469,1.00555,1.00402,1.00471,712898.56774108,709637.7086,358601.511671772,356961.8186,5536,1.004595197157422131
1667260800000,2022-11-01 00:00:00,TUSD/USDD,1.00421,1.00533,1.00348,1.0046,520332.016473068,518116.5337,259993.090362066,258886.5872,3581,1.004276187079752476
1667174400000,2022-10-31 00:00:00,TUSD/USDD,1.00274,1.0044,1.00208,1.00412,640668.695405969,638849.1425,331144.779826849,330205.9117,4554,1.002848539485632464
1667088000000,2022-10-30 00:00:00,TUSD/USDD,1.00225,1.00282,1.00188,1.00274,590578.906458817,589174.4824,302416.565332447,301697.1879,4583,1.002383745960787739
1667001600000,2022-10-29 00:00:00,TUSD/USDD,1.0028,1.00299,1.00163,1.00225,810860.115513975,809018.5211,401568.573357173,400653.5182,4319,1.002276401607910518
1666915200000,2022-10-28 00:00:00,TUSD/USDD,1.00264,1.00301,1.00231,1.00277,388764.770306801,387734.008,185104.489927091,184614.3997,2382,1.002658447147850766
1666828800000,2022-10-27 00:00:00,TUSD/USDD,1.0046,1.005,1.00159,1.00234,577202.271908602,575242.9455,281142.842391653,280188.255,3356,1.003407550473289592
1666742400000,2022-10-26 00:00:00,TUSD/USDD,1.00383,1.00499,1.00343,1.00478,450285.417493791,448428.4825,226796.119259157,225863.1304,3079,1.004141101107355985
1666656000000,2022-10-25 00:00:00,TUSD/USDD,1.0031,1.0049,1.00292,1.00385,656064.630866721,653700.8193,345385.71728203,344121.6424,3068,1.003616158271049566
1666569600000,2022-10-24 00:00:00,TUSD/USDD,1.00339,1.00417,1.003,1.00321,553709.583055361,551694.6103,276686.674637578,275680.1238,3892,1.003652396946785438
1666483200000,2022-10-23 00:00:00,TUSD/USDD,1.00192,1.00426,1.00185,1.00336,731845.238926655,729543.5171,367041.889296401,365882.5209,5039,1.003155443308610751
1666396800000,2022-10-22 00:00:00,TUSD/USDD,1.00189,1.00353,1.00169,1.00185,706581.177588637,705010.0276,453394.271172157,452364.5729,4088,1.00222865690083617
1666310400000,2022-10-21 00:00:00,TUSD/USDD,1.00209,1.00231,1.00063,1.00192,689145.856053639,687929.8231,330850.248512657,330261.2308,5366,1.001767757231878781
1666224000000,2022-10-20 00:00:00,TUSD/USDD,1.00222,1.00245,1.00101,1.0021,823075.499111515,821674.0313,430839.302816868,430098.2189,7083,1.001705770968469036
1666137600000,2022-10-19 00:00:00,TUSD/USDD,1.0006,1.00394,1.0006,1.00222,564378.876693779,563325.3421,297146.805595152,296576.1595,4561,1.001870431870933533
1666051200000,2022-10-18 00:00:00,TUSD/USDD,0.99999,1.00108,0.9996,1.0008,542972.330820411,542809.386,273071.448550996,272987.3407,4246,1.000300327289220614
1665964800000,2022-10-17 00:00:00,TUSD/USDD,0.99999,1.00015,0.999,0.99984,659103.941418477,659325.0954,307535.272479069,307640.1596,3668,0.999664622386767015
1665878400000,2022-10-16 00:00:00,TUSD/USDD,0.99981,1.00018,0.9998,0.99991,163227.928245806,163223.4081,82756.464721769,82753.9923,1295,1.00002769795554392
1665792000000,2022-10-15 00:00:00,TUSD/USDD,0.99995,1.00019,0.9998,1,226483.200869862,226467.2868,113478.314183066,113470.1779,1147,1.000070275244983621
1665705600000,2022-10-14 00:00:00,TUSD/USDD,1.0001,1.00443,0.99057,0.9998,474301.014373874,474241.4875,254701.821805834,254754.4682,2990,1.000130222921280588
1665619200000,2022-10-13 00:00:00,TUSD/USDD,1.00023,1.00058,1.00002,1.00035,231459.771583781,231386.4824,110973.772613291,110938.0751,1933,1.000316744960873693
1665532800000,2022-10-12 00:00:00,TUSD/USDD,1.0006,1.00078,1.00002,1.00024,116631.262752068,116587.126,56816.68822621,56794.3707,733,1.000378605639202989
1665446400000,2022-10-11 00:00:00,TUSD/USDD,1.00038,1.0008,1.00018,1.00055,144586.75099846,144503.0812,75796.156137186,75752.1553,1119,1.000579023030083467
1665360000000,2022-10-10 00:00:00,TUSD/USDD,1.00021,1.0004,1.00005,1.00029,105201.328699678,105170.075,54578.240630834,54561.9421,1039,1.000297175163863433
1665273600000,2022-10-09 00:00:00,TUSD/USDD,0.99994,1.00038,0.9998,1.00005,449504.725820641,449478.5868,232698.590769352,232685.0347,3900,1.000058173879785428
1665187200000,2022-10-08 00:00:00,TUSD/USDD,1.00007,1.0005,0.99981,0.99995,614522.145383288,614544.1662,296246.854514529,296256.1491,4657,0.999964178533676847
1665100800000,2022-10-07 00:00:00,TUSD/USDD,1.00004,1.00058,0.99861,1.00023,316656.687343524,316591.0263,155830.067241591,155796.3676,2018,1.000207556603294746
1665014400000,2022-10-06 00:00:00,TUSD/USDD,1.0002,1.00038,0.99981,1.00025,303885.647196886,303843.0097,157264.04343714,157241.922,2157,1.000140335732176686
1664928000000,2022-10-05 00:00:00,TUSD/USDD,1.00024,1.00038,0.99989,1.0002,173481.974907884,173444.8506,88641.982983089,88622.6274,1127,1.000214044397885443
1664841600000,2022-10-04 00:00:00,TUSD/USDD,1,1.00038,1,1.00023,197479.921675325,197440.0661,93387.441405668,93368.5631,1561,1.000201862339347858
1664755200000,2022-10-03 00:00:00,TUSD/USDD,1.00027,1.00038,1,1.00019,261632.01250597,261575.3786,130816.541224177,130788.0566,1944,1.000216512649237622
1664668800000,2022-10-02 00:00:00,TUSD/USDD,1.00038,1.00038,1,1.00027,317014.350274214,316946.5472,164351.336721701,164316.1181,2534,1.000213926623687783
1664582400000,2022-10-01 00:00:00,TUSD/USDD,1.00004,1.00039,1,1.00008,135518.671420175,135486.0962,69269.67094625,69252.863,1047,1.00024043334912764
1664496000000,2022-09-30 00:00:00,TUSD/USDD,1.00019,1.0004,0.9999,1.00026,361652.327682129,361586.1066,183491.683137929,183457.6632,2374,1.000183142047358761
1664409600000,2022-09-29 00:00:00,TUSD/USDD,1.00058,1.00059,0.9996,1.00011,233563.91286335,233486.5086,108533.774349697,108496.3131,1689,1.000331535490907567
1664323200000,2022-09-28 00:00:00,TUSD/USDD,1.00031,1.00068,0.9994,1.0004,170305.683684829,170248.7743,82575.784117785,82546.1366,1399,1.000334318810170007
1664236800000,2022-09-27 00:00:00,TUSD/USDD,1.00026,1.0008,1.0002,1.00039,298578.44734534,298421.1212,150347.770335561,150268.0617,2167,1.000527201499414627
1664150400000,2022-09-26 00:00:00,TUSD/USDD,1.00073,1.00078,1.0002,1.00046,251915.649526626,251778.7905,125494.728436391,125426.1069,1638,1.000543572042338093
1664064000000,2022-09-25 00:00:00,TUSD/USDD,1.00071,1.00079,1.0004,1.00073,125202.822451344,125127.783,56349.81888315,56316.125,961,1.000599706573822602
1663977600000,2022-09-24 00:00:00,TUSD/USDD,1.0001,1.0008,1,1.00072,279802.22997813,279717.2026,138932.462624826,138889.5768,1828,1.000304011633216225
1663891200000,2022-09-23 00:00:00,TUSD/USDD,1.0011,1.0011,1.00001,1.0001,202179.677771182,202060.7149,97701.264788837,97644.3798,1546,1.000588800684460595
1663804800000,2022-09-22 00:00:00,TUSD/USDD,1.00098,1.00119,1.0006,1.0009,183986.851336559,183822.4679,90842.219552761,90760.3443,1606,1.000894258078975503
1663718400000,2022-09-21 00:00:00,TUSD/USDD,1.00098,1.001,1.00041,1.00098,401450.050219205,401158.3542,202187.425847737,202040.2404,2422,1.000727145625641223
1663632000000,2022-09-20 00:00:00,TUSD/USDD,1.00077,1.00099,1.0004,1.00082,258693.537015662,258520.8414,119603.304857302,119523.3806,1816,1.000668024273943828
1663545600000,2022-09-19 00:00:00,TUSD/USDD,1.00058,1.00358,1.00021,1.00063,351183.311721871,350952.752,182629.771706746,182504.3402,2689,1.000657040386063134
1663459200000,2022-09-18 00:00:00,TUSD/USDD,1.00026,1.0006,1,1.00021,461737.910514447,461516.1643,230624.406852681,230512.8819,2664,1.000480484062345352
1663372800000,2022-09-17 00:00:00,TUSD/USDD,1.0004,1.00055,1,1.00027,748083.567606261,747802.5859,396792.18010409,396642.6735,6603,1.000375745129603585
1663286400000,2022-09-16 00:00:00,TUSD/USDD,1.00455,1.00467,1.00006,1.0004,475527.370067213,474986.235,247163.392549538,246883.2326,3057,1.001140986638754312
1663200000000,2022-09-15 00:00:00,TUSD/USDD,1.00468,1.00984,1.0034,1.0045,726515.035848647,722686.5134,369649.19857591,367687.1015,5403,1.005298348497487522
1663113600000,2022-09-14 00:00:00,TUSD/USDD,1.00139,1.00864,1.00129,1.00468,802971.376792451,800166.719,400720.04144744,399327.0486,4545,1.003506270528786439
1663027200000,2022-09-13 00:00:00,TUSD/USDD,1.0008,1.0014,1.0004,1.00139,180662.344306707,180473.5195,93683.525877841,93584.8062,1478,1.001046354510223709
1662940800000,2022-09-12 00:00:00,TUSD/USDD,1.0006,1.0012,1.00046,1.0008,262026.847578802,261805.0144,118789.566317781,118686.8885,1620,1.000847343335880884
1662854400000,2022-09-11 00:00:00,TUSD/USDD,1.0008,1.0016,1.0002,1.00081,538734.910586395,538407.9952,266771.112732487,266609.6764,2580,1.000607208854214015
1662768000000,2022-09-10 00:00:00,TUSD/USDD,1.0008,1.0012,1,1.0008,1102067.005653632,1101227.8615,534095.438979428,533686.5132,7305,1.000762024129091059
1662681600000,2022-09-09 00:00:00,TUSD/USDD,1.0022,1.008,1.0005,1.0009,873716.48612568,873016.4826,398482.74177925,398159.8551,6972,1.000801899440355719
1662595200000,2022-09-08 00:00:00,TUSD/USDD,1.0023,1.0149,1.0016,1.0021,401332.99859779,400522.0523,195974.21991532,195580.7015,3663,1.002024931510399605
1662508800000,2022-09-07 00:00:00,TUSD/USDD,1.002,1.0149,1.0014,1.002,625314.23127195,623832.387,315272.89920345,314526.1898,5843,1.002375905390880887
1662422400000,2022-09-06 00:00:00,TUSD/USDD,1.0006,1.0084,1.0004,1.0024,674785.7351936,674081.4377,325830.00975863,325486.2409,5812,1.001045258059864469
1662336000000,2022-09-05 00:00:00,TUSD/USDD,1.0007,1.0014,1.0002,1.0006,708437.5681599,707816.5845,337964.47335572,337670.8453,6685,1.000877369002791126
1662249600000,2022-09-04 00:00:00,TUSD/USDD,1.0009,1.0011,1.0006,1.0009,616682.29291955,616104.1937,284128.55808747,283861.9072,7416,1.000938319761513185
1662163200000,2022-09-03 00:00:00,TUSD/USDD,1.0011,1.0012,1.0006,1.0009,511231.49522345,510796.4839,239511.57144157,239306.7024,4953,1.000851643886098974
1662076800000,2022-09-02 00:00:00,TUSD/USDD,1.0012,1.0016,1.0008,1.0011,563310.37593809,562640.5712,281364.95654621,281029.4974,4710,1.001190485939113372
1661990400000,2022-09-01 00:00:00,TUSD/USDD,1.0015,1.0018,1.001,1.0013,650771.89824626,649848.5991,323994.19536197,323532.8608,6100,1.001420825254376622
1661904000000,2022-08-31 00:00:00,TUSD/USDD,1.001,1.0016,1.0006,1.0015,472657.87953545,472134.6182,239709.62309495,239443.1511,4516,1.001108311832831017
1661817600000,2022-08-30 00:00:00,TUSD/USDD,1.0004,1.0012,1.0003,1.001,686850.99831735,686500.5932,323758.56537609,323593.2315,6527,1.000510463610165384
1661731200000,2022-08-29 00:00:00,TUSD/USDD,1.0004,1.0006,1.0002,1.0004,1034274.58952239,1033862.7817,490345.48369678,490150.161,10435,1.000398320116871944
1661644800000,2022-08-28 00:00:00,TUSD/USDD,1.0004,1.0005,1.0001,1.0004,774097.39025213,773796.0451,369938.12430575,369793.9536,7937,1.000389438672604118
1661558400000,2022-08-27 00:00:00,TUSD/USDD,1.0002,1.0008,1,1.0004,510679.57984831,510546.8375,252363.63496365,252298.2252,5067,1.000260010762138574
1661472000000,2022-08-26 00:00:00,TUSD/USDD,1.0002,1.0003,0.9999,1,560531.28063409,560423.8513,271794.66627319,271742.1337,7464,1.000191694247631542
1661385600000,2022-08-25 00:00:00,TUSD/USDD,1.0002,1.0003,0.9999,1.0002,572353.49673714,572247.8818,291457.35527364,291403.4791,7663,1.000184563148472891
1661299200000,2022-08-24 00:00:00,TUSD/USDD,1.0002,1.0004,0.9996,1.0002,38410.82347705,38409.0386,16663.55208666,16662.0696,5674,1.000046505414510069
1661212800000,2022-08-23 00:00:00,TUSD/USDD,1.0002,1.0004,1,1.0002,31285.42849025,31279.1217,15946.18864206,15942.8844,6579,1.000201630083067
1661126400000,2022-08-22 00:00:00,TUSD/USDD,1.0001,1.0004,1,1.0002,31675.38608094,31668.889,16624.48450124,16620.9404,6711,1.000205157708976026
1661040000000,2022-08-21 00:00:00,TUSD/USDD,1.0004,1.0019,0.9988,1.0001,287349.65795819,287234.5743,144518.8497767,144463.0253,7579,1.000400823072594151
1660953600000,2022-08-20 00:00:00,TUSD/USDD,1.0004,1.0024,0.9981,1.0004,640431.87579056,640181.0068,316636.74247313,316514.9394,10401,1.000392012305527599
1660867200000,2022-08-19 00:00:00,TUSD/USDD,1.0001,1.0048,0.9962,1.0004,560694.82475465,560514.893,270664.64040681,270575.6314,11029,1.000321065586876857
1660780800000,2022-08-18 00:00:00,TUSD/USDD,1.0004,1.0024,0.9988,1.0001,604839.02084927,604642.2961,295573.91421095,295471.401,9464,1.00032540598305337
1660694400000,2022-08-17 00:00:00,TUSD/USDD,1,1.015,0.9996,1.0004,668127.33594306,667866.4278,340314.48104738,340178.4105,9991,1.000390889702033593
1660608000000,2022-08-16 00:00:00,TUSD/USDD,1.0014,1.0085,0.9999,1,692057.64609487,690524.7747,354796.28730406,354015.2489,10270,1.002220947055691855
1660521600000,2022-08-15 00:00:00,TUSD/USDD,1.0021,1.0294,0.9982,1.0014,516336.76009532,514997.176,260463.82970926,259808.0854,6757,1.002606755798623389
1660435200000,2022-08-14 00:00:00,TUSD/USDD,1.0029,1.0297,0.9824,1.0028,784350.01405023,782496.6803,397402.55854393,396483.7257,9774,1.002371090762115018
1660348800000,2022-08-13 00:00:00,TUSD/USDD,0.9991,1.0036,0.9849,1.003,628470.31735568,628441.4375,309430.53169231,309413.0694,10319,1.000046889072015876
1660262400000,2022-08-12 00:00:00,TUSD/USDD,1.0005,1.0013,0.9824,0.999,601752.02741871,601911.212,304241.01726245,304322.0906,8164,0.999737092860124272
1660176000000,2022-08-11 00:00:00,TUSD/USDD,1.0001,1.0016,0.9756,1.0005,644234.90349076,644538.9304,316866.62268213,317017.6858,8681,0.9995320321012077
1660089600000,2022-08-10 00:00:00,TUSD/USDD,1.0003,1.0018,0.9782,1.0001,613705.26692937,613721.8927,304583.32336925,304596.0303,7776,0.999973441254373493
1660003200000,2022-08-09 00:00:00,TUSD/USDD,0.9983,1.005,0.9725,1.0004,582998.1691395,583012.9607,303531.35420893,303543.637,7858,0.999976855223878406
1659916800000,2022-08-08 00:00:00,TUSD/USDD,0.9961,1.0255,0.9702,0.9983,438363.41075307,439065.6248,217462.30768789,217831.3279,5765,0.998411733540293306
1659830400000,2022-08-07 00:00:00,TUSD/USDD,0.9989,1.0146,0.9697,0.996,217726.5849786,218675.7527,112722.34258927,113237.0032,2430,0.995674666588232575
1659744000000,2022-08-06 00:00:00,TUSD/USDD,0.9969,1.0002,0.8901,0.9989,42520.03497965,42789.1275,20000.57984723,20147.7975,754,0.993820805452180887
1659657600000,2022-08-05 00:00:00,TUSD/USDD,0.9998,1.0026,0.8886,0.997,183834.26118652,184384.1723,93182.43244122,93500.7094,2550,0.997138280841391228
1659571200000,2022-08-04 00:00:00,TUSD/USDD,0.7109,1.0093,0.4838,0.9998,79180.30444877,80068.3763,39580.14769044,40113.4781,1052,0.990592545776405067
1659484800000,2022-08-03 00:00:00,TUSD/USDD,0.9852,1.0145,0.4316,0.5593,8516.95963957,11004.9881,4468.07108468,5756.9675,140,0.806773763779473008
1659398400000,2022-08-02 00:00:00,TUSD/USDD,0.9851,0.9851,0.941,0.985,438.85190371,450.8449,0,0,31,0.973531395264305614
1659312000000,2022-08-01 00:00:00,TUSD/USDD,1.00077978,1.00077981,0.9953901,1.00077981,259.4997057,259.40949895,0,0,0,1.00034773
1659225600000,2022-07-31 00:00:00,TUSD/USDD,0.99538988,1.00256521,0.99,1.00077979,152771.0740404,152912.62922454,0,0,0,0.99907427
1659139200000,2022-07-30 00:00:00,TUSD/USDD,1.00106021,1.00363315,0.99000001,0.9986231,135480.28176309,135601.96507944,0,0,0,0.99910264
1659052800000,2022-07-29 00:00:00,TUSD/USDD,0.99538997,1.00410278,0.99,1.00107003,182089.76506957,182270.51966503,0,0,0,0.99900831
1658966400000,2022-07-28 00:00:00,TUSD/USDD,0.99538998,1.00522594,0.99000001,0.99538998,198273.1833467,198603.95049948,0,0,0,0.99833453
1658880000000,2022-07-27 00:00:00,TUSD/USDD,0.99539985,1.00241366,0.99269499,1.00077973,191850.2045195,192081.75386406,0,0,0,0.99879452
1658793600000,2022-07-26 00:00:00,TUSD/USDD,1.00174034,1.00272122,0.99000001,0.99539984,123530.66588229,123597.72791721,0,0,0,0.99945741
1658707200000,2022-07-25 00:00:00,TUSD/USDD,1.00227955,1.00237953,0.99000001,1.0017604,23430.26074404,23392.67200118,0,0,0,1.00160685
1658620800000,2022-07-24 00:00:00,TUSD/USDD,1.00237952,1.00378499,0.99679031,1.0022595,17225.67104102,17199.71826702,0,0,0,1.0015089
1658534400000,2022-07-23 00:00:00,TUSD/USDD,1.00247997,1.00385923,0.99270014,1.00237953,79060.45330027,78892.50211645,0,0,0,1.00212886
1658448000000,2022-07-22 00:00:00,TUSD/USDD,1.0040101,1.00589463,0.99741782,1.0026896,190296.68788806,189827.67922363,0,0,0,1.0024707
1658361600000,2022-07-21 00:00:00,TUSD/USDD,1.00319995,1.00479981,0.9965804,1.00403457,107246.7960547,106870.0081723,0,0,0,1.00352566
1658275200000,2022-07-20 00:00:00,TUSD/USDD,1.00096019,1.00443912,0.99718498,1.00318041,190372.16763941,189884.88933971,0,0,0,1.00256617
1658188800000,2022-07-19 00:00:00,TUSD/USDD,1.00247986,1.00421911,0.99573487,1.00096019,194154.81480698,193686.51222034,0,0,0,1.00241783
1658102400000,2022-07-18 00:00:00,TUSD/USDD,1.00383993,1.00466512,0.9936664,1.00247987,205148.24205119,204600.3195794,0,0,0,1.00267801
1658016000000,2022-07-17 00:00:00,TUSD/USDD,1.00316996,1.00486716,0.99298321,1.00383994,163148.98827927,162616.18566514,0,0,0,1.00327644
1657929600000,2022-07-16 00:00:00,TUSD/USDD,1.00348536,1.00602487,0.99601594,1.00316995,159753.71489624,159314.57062062,0,0,0,1.00275646
1657843200000,2022-07-15 00:00:00,TUSD/USDD,1.00352004,1.00533065,0.99766538,1.00352995,84046.13329957,83745.75290955,0,0,0,1.00358681
1657756800000,2022-07-14 00:00:00,TUSD/USDD,1.00412991,1.00502693,0.99679569,1.00352005,221707.78772593,221109.07192028,0,0,0,1.00270778
1657670400000,2022-07-13 00:00:00,TUSD/USDD,1.00443911,1.00648805,0.99854795,1.00412992,65394.69277362,65144.34728579,0,0,0,1.00384293
1657584000000,2022-07-12 00:00:00,TUSD/USDD,1.00533893,1.01046798,0.99698051,1.00440089,109517.27110097,109101.69674707,0,0,0,1.00380905
1657497600000,2022-07-11 00:00:00,TUSD/USDD,1.00352004,1.00588217,0.99000007,1.00533893,24827.41009178,24730.55553974,0,0,0,1.00391639
1657411200000,2022-07-10 00:00:00,TUSD/USDD,1.00440088,1.00497507,0.99734958,1.00355953,74020.97670397,73731.8018766,0,0,0,1.00392198
1657324800000,2022-07-09 00:00:00,TUSD/USDD,1.00419917,1.00629874,0.9969805,1.00444087,44790.84054586,44595.00921824,0,0,0,1.00439132
1657238400000,2022-07-08 00:00:00,TUSD/USDD,1.00834167,1.00909819,0.99000008,1.00413004,85043.92311983,84690.93666048,0,0,0,1.00416793
1657152000000,2022-07-07 00:00:00,TUSD/USDD,1.00760153,1.01029458,0.99743449,1.00834166,33097.81440514,32826.4679484,0,0,0,1.00826608
1657065600000,2022-07-06 00:00:00,TUSD/USDD,1.00924185,1.01156711,0.99912918,1.00761157,27666.53706141,27454.93147945,0,0,0,1.00770737
1656979200000,2022-07-05 00:00:00,TUSD/USDD,1.00888177,1.01052417,1.00011418,1.00924184,44943.53697865,44567.4814068,0,0,0,1.00843789
1656892800000,2022-07-04 00:00:00,TUSD/USDD,1.01150106,1.0118,0.99984102,1.00888178,99916.5300064,98913.2629485,0,0,0,1.01014289
1656806400000,2022-07-03 00:00:00,TUSD/USDD,1.00816163,1.01220555,1.00112425,1.01120222,53702.33519941,53156.28448015,0,0,0,1.01027255
1656720000000,2022-07-02 00:00:00,TUSD/USDD,1.0085417,1.01283726,0.99841089,1.00816164,60789.92365628,60166.77627547,0,0,0,1.010357
1656633600000,2022-07-01 00:00:00,TUSD/USDD,1.01115489,1.01548547,0.99478244,1.00854171,124724.13369005,123740.63977914,0,0,0,1.00794802
1656547200000,2022-06-30 00:00:00,TUSD/USDD,1.00733368,1.01932263,0.99000001,1.0111549,215270.55149033,213857.59254804,0,0,0,1.006607
1656460800000,2022-06-29 00:00:00,TUSD/USDD,1.01093102,1.02079206,1.00115101,1.00946166,254421.46090409,252298.50794454,0,0,0,1.00841444
1656374400000,2022-06-28 00:00:00,TUSD/USDD,1.01366266,1.02197237,1.00411008,1.01093101,204082.00535605,201452.51414201,0,0,0,1.01305266
1656288000000,2022-06-27 00:00:00,TUSD/USDD,1.01049559,1.02573827,1.00311264,1.01549384,175648.9172257,172485.49454772,0,0,0,1.01834022
1656201600000,2022-06-26 00:00:00,TUSD/USDD,1.02301946,1.02585941,1.001151,1.0151677,156598.08506035,153335.86517993,0,0,0,1.02127499
1656115200000,2022-06-25 00:00:00,TUSD/USDD,1.02712423,1.03,1.00629695,1.02229734,153377.16380966,150075.24146719,0,0,0,1.02200177
1656028800000,2022-06-24 00:00:00,TUSD/USDD,1.02027748,1.03459669,1.00599634,1.02714686,156258.14364384,152496.90170816,0,0,0,1.02466438
1655942400000,2022-06-23 00:00:00,TUSD/USDD,1.02610186,1.05661944,1.00199265,1.02027749,162553.99723253,158770.06447403,0,0,0,1.02383278
1655856000000,2022-06-22 00:00:00,TUSD/USDD,1.0160907,1.03440261,1.00115101,1.02610185,172504.25833295,168075.37370035,0,0,0,1.02635058
1655769600000,2022-06-21 00:00:00,TUSD/USDD,1.04859671,1.09,1.00115101,1.02334008,186105.76166293,179604.48754082,0,0,0,1.03619772
1655683200000,2022-06-20 00:00:00,TUSD/USDD,1.04051625,1.06519731,1.03783605,1.04902047,175091.56864537,166853.22945259,0,0,0,1.04937476
1655596800000,2022-06-19 00:00:00,TUSD/USDD,1.04211158,1.08882788,1.03665069,1.04051624,203473.68148304,192971.7610663,0,0,0,1.05442205
1655510400000,2022-06-18 00:00:00,TUSD/USDD,1.02230576,1.04854017,1.00889503,1.04247815,227966.53827737,220598.34470975,0,0,0,1.03340094
1655424000000,2022-06-17 00:00:00,TUSD/USDD,1.03374471,1.03626308,1.01705298,1.02213371,157466.92209187,153616.4646742,0,0,0,1.02506539
1655337600000,2022-06-16 00:00:00,TUSD/USDD,1.02901647,1.06,1.00292761,1.0337447,170673.03330503,165756.05165921,0,0,0,1.02966396
1655251200000,2022-06-15 00:00:00,TUSD/USDD,1.02517741,1.06,1.01371509,1.02338904,247389.01901385,239619.34147823,0,0,0,1.03242508
1655164800000,2022-06-14 00:00:00,TUSD/USDD,1.01391721,1.03,1.01015689,1.02517735,228887.34285784,223967.5624905,0,0,0,1.02196648
1655078400000,2022-06-13 00:00:00,TUSD/USDD,1.00107484,1.02817968,1.00107484,1.0139172,420877.17964204,415202.90225862,0,0,0,1.01366627
1654992000000,2022-06-12 00:00:00,TUSD/USDD,1.00116036,1.00359697,1.0003003,1.00107485,233455.9315298,233106.69143638,0,0,0,1.00149819
1654905600000,2022-06-11 00:00:00,TUSD/USDD,1.0003779,1.00147971,1.00024004,1.00116035,176643.85365319,176527.83030433,0,0,0,1.00065725
1654819200000,2022-06-10 00:00:00,TUSD/USDD,1.00015095,1.00417481,0.99941534,1.00037789,246088.36593982,246022.28491146,0,0,0,1.00026859
1654732800000,2022-06-09 00:00:00,TUSD/USDD,1.00002993,1.00017997,0.99981996,1.00015094,184088.93429949,184083.45004652,0,0,0,1.00002979
1654646400000,2022-06-08 00:00:00,TUSD/USDD,1.00023004,1.00039993,0.99989997,0.99999003,252400.23298265,252367.63972205,0,0,0,1.00012914
1654560000000,2022-06-07 00:00:00,TUSD/USDD,1.0003136,1.00043992,0.99995999,1.00023003,254591.31492175,254546.57718596,0,0,0,1.00017575
1654473600000,2022-06-06 00:00:00,TUSD/USDD,0.99967003,1.00061988,0.99937987,1.00032505,236038.42078525,236027.54823035,0,0,0,1.00004606
1654387200000,2022-06-05 00:00:00,TUSD/USDD,1.00037899,1.00086562,0.99844402,0.99969321,152141.68580517,152140.0668047,0,0,0,1.00001064
1654300800000,2022-06-04 00:00:00,TUSD/USDD,1.00021459,1.0005399,1.00004001,1.00037898,153085.27066679,153030.38723615,0,0,0,1.00035864
1654214400000,2022-06-03 00:00:00,TUSD/USDD,1.00039111,1.00096155,0.99933588,1.00030003,180958.06265857,180897.33661917,0,0,0,1.00033569
1654128000000,2022-06-02 00:00:00,TUSD/USDD,1.00090993,1.00141972,1.00014002,1.00028005,177921.88791149,177819.25818243,0,0,0,1.00057715
1654041600000,2022-06-01 00:00:00,TUSD/USDD,1.00019413,1.00150997,0.99971994,1.00090994,152322.02509299,152227.97819284,0,0,0,1.0006178
1653955200000,2022-05-31 00:00:00,TUSD/USDD,1.00056995,1.00083984,0.99978443,1.00027122,186169.82934007,186098.00447902,0,0,0,1.00038595
1653868800000,2022-05-30 00:00:00,TUSD/USDD,1.00004,1.00189961,0.99965805,1.00056475,257500.33139774,257392.65317082,0,0,0,1.00041834
1653782400000,2022-05-29 00:00:00,TUSD/USDD,1.00070002,1.00129975,0.99909981,0.99992377,164348.29783867,164254.25001826,0,0,0,1.00057257
1653696000000,2022-05-28 00:00:00,TUSD/USDD,1.00012994,1.00289152,0.99956564,1.00070008,153427.77574737,153325.45187029,0,0,0,1.00066736
1653609600000,2022-05-27 00:00:00,TUSD/USDD,1.00062999,1.00188034,0.99968517,1.00012993,165735.38488654,165662.60906309,0,0,0,1.0004393
1653523200000,2022-05-26 00:00:00,TUSD/USDD,0.99962995,1.00167212,0.99933851,1.00063,156588.85726893,156537.29041871,0,0,0,1.00032942
1653436800000,2022-05-25 00:00:00,TUSD/USDD,0.99977804,1.00068319,0.99915983,0.99960447,201418.19402641,201494.43035317,0,0,0,0.99962164
1653350400000,2022-05-24 00:00:00,TUSD/USDD,0.99957403,1.00017564,0.9985197,0.99977803,162091.87738711,162151.43507457,0,0,0,0.9996327
1653264000000,2022-05-23 00:00:00,TUSD/USDD,0.99919015,1.00999999,0.99506333,0.99957404,172877.40418346,173020.8737233,0,0,0,0.99917079
1653177600000,2022-05-22 00:00:00,TUSD/USDD,0.99956906,0.99988126,0.99508128,0.99942089,130915.97587665,131002.03666843,0,0,0,0.99934305
1653091200000,2022-05-21 00:00:00,TUSD/USDD,0.99954001,1.00013106,0.99809327,0.99956905,145796.06118989,145879.66386472,0,0,0,0.9994269
1653004800000,2022-05-20 00:00:00,TUSD/USDD,0.9998816,1.00021996,0.99842833,0.99954,166931.74605357,167013.89275838,0,0,0,0.99950814
1652918400000,2022-05-19 00:00:00,TUSD/USDD,1.00023781,1.01455744,0.99895644,0.99988159,77630.99635717,77411.30550972,0,0,0,1.00283796
