https://www.CryptoDataDownload.com
unix,date,symbol,open,high,low,close,Volume LQTY,Volume USDT,buyTakerAmount,buyTakerQuantity,tradeCount,weightedAverage
1694995200000,2023-09-18 00:00:00,LQTY/USDT,0.7744,0.7744,0.7744,0.7744,0,0,0,0,0,0.7691
1694908800000,2023-09-17 00:00:00,LQTY/USDT,0.7744,0.7744,0.7744,0.7744,0,0,0,0,0,0.7691
1694822400000,2023-09-16 00:00:00,LQTY/USDT,0.7744,0.7744,0.7744,0.7744,0,0,0,0,0,0.7691
1694736000000,2023-09-15 00:00:00,LQTY/USDT,0.7744,0.7744,0.7744,0.7744,0,0,0,0,0,0.7691
1694649600000,2023-09-14 00:00:00,LQTY/USDT,0.7744,0.7744,0.7744,0.7744,0,0,0,0,0,0.7691
1694563200000,2023-09-13 00:00:00,LQTY/USDT,0.7744,0.7744,0.7744,0.7744,0,0,0,0,0,0.7691
1694476800000,2023-09-12 00:00:00,LQTY/USDT,0.7668,0.7744,0.7668,0.7744,9.509,12.3637,2.5973,3.3873,3,0.7691
1694390400000,2023-09-11 00:00:00,LQTY/USDT,0.8384,0.8386,0.8384,0.8386,99.9999,119.2474,99.9999,119.2474,2,0.8385
1694304000000,2023-09-10 00:00:00,LQTY/USDT,0.8435,0.8435,0.8435,0.8435,0,0,0,0,0,0.8434
1694217600000,2023-09-09 00:00:00,LQTY/USDT,0.8435,0.8435,0.8435,0.8435,0,0,0,0,0,0.8434
1694131200000,2023-09-08 00:00:00,LQTY/USDT,0.8435,0.8435,0.8435,0.8435,0,0,0,0,0,0.8434
1694044800000,2023-09-07 00:00:00,LQTY/USDT,0.8435,0.8435,0.8435,0.8435,0,0,0,0,0,0.8434
1693958400000,2023-09-06 00:00:00,LQTY/USDT,0.8434,0.8435,0.8434,0.8435,211.7809,251.0762,106.0466,125.7244,3,0.8434
1693872000000,2023-09-05 00:00:00,LQTY/USDT,0.7696,0.7696,0.7696,0.7696,0,0,0,0,0,0.7696
1693785600000,2023-09-04 00:00:00,LQTY/USDT,0.7696,0.7696,0.7696,0.7696,0,0,0,0,0,0.7696
1693699200000,2023-09-03 00:00:00,LQTY/USDT,0.7696,0.7696,0.7696,0.7696,0,0,0,0,0,0.7696
1693612800000,2023-09-02 00:00:00,LQTY/USDT,0.7696,0.7696,0.7696,0.7696,2.7299,3.5472,0,0,1,0.7696
1693526400000,2023-09-01 00:00:00,LQTY/USDT,0.8517,0.8517,0.8517,0.8517,0,0,0,0,0,0.8234
1693440000000,2023-08-31 00:00:00,LQTY/USDT,0.8517,0.8517,0.8517,0.8517,0,0,0,0,0,0.8234
1693353600000,2023-08-30 00:00:00,LQTY/USDT,0.8517,0.8517,0.8517,0.8517,0,0,0,0,0,0.8234
1693267200000,2023-08-29 00:00:00,LQTY/USDT,0.8517,0.8517,0.8517,0.8517,0,0,0,0,0,0.8234
1693180800000,2023-08-28 00:00:00,LQTY/USDT,0.8517,0.8517,0.8517,0.8517,0,0,0,0,0,0.8234
1693094400000,2023-08-27 00:00:00,LQTY/USDT,0.8517,0.8517,0.8517,0.8517,0,0,0,0,0,0.8234
1693008000000,2023-08-26 00:00:00,LQTY/USDT,0.8517,0.8517,0.8517,0.8517,0,0,0,0,0,0.8234
1692921600000,2023-08-25 00:00:00,LQTY/USDT,0.8517,0.8517,0.8517,0.8517,0,0,0,0,0,0.8234
1692835200000,2023-08-24 00:00:00,LQTY/USDT,0.8517,0.8517,0.8517,0.8517,0,0,0,0,0,0.8234
1692748800000,2023-08-23 00:00:00,LQTY/USDT,0.8517,0.8517,0.8517,0.8517,0,0,0,0,0,0.8234
1692662400000,2023-08-22 00:00:00,LQTY/USDT,0.8517,0.8517,0.8517,0.8517,0,0,0,0,0,0.8234
1692576000000,2023-08-21 00:00:00,LQTY/USDT,0.8517,0.8517,0.8517,0.8517,0,0,0,0,0,0.8234
1692489600000,2023-08-20 00:00:00,LQTY/USDT,0.8517,0.8517,0.8517,0.8517,0,0,0,0,0,0.8234
1692403200000,2023-08-19 00:00:00,LQTY/USDT,0.8517,0.8517,0.8517,0.8517,0,0,0,0,0,0.8234
1692316800000,2023-08-18 00:00:00,LQTY/USDT,0.8517,0.8517,0.8517,0.8517,0,0,0,0,0,0.8234
1692230400000,2023-08-17 00:00:00,LQTY/USDT,0.8517,0.8517,0.8517,0.8517,0,0,0,0,0,0.8234
1692144000000,2023-08-16 00:00:00,LQTY/USDT,0.8676,0.8676,0.8071,0.8517,20.6586,25.1103,0,0,4,0.8234
1692057600000,2023-08-15 00:00:00,LQTY/USDT,0.9716,0.9716,0.9716,0.9716,0,0,0,0,0,0.9706
1691971200000,2023-08-14 00:00:00,LQTY/USDT,0.9716,0.9716,0.9716,0.9716,0,0,0,0,0,0.9706
1691884800000,2023-08-13 00:00:00,LQTY/USDT,0.9716,0.9716,0.9716,0.9716,0,0,0,0,0,0.9706
1691798400000,2023-08-12 00:00:00,LQTY/USDT,0.9795,0.9795,0.9573,0.9716,8.5361,8.7953,2.5086,2.6205,3,0.9706
1691712000000,2023-08-11 00:00:00,LQTY/USDT,1.0145,1.0145,1.0145,1.0145,0,0,0,0,0,1.0932
1691625600000,2023-08-10 00:00:00,LQTY/USDT,1.0637,1.1068,1.0145,1.0145,167.9085,153.7194,146.8886,133,4,1.0932
1691539200000,2023-08-09 00:00:00,LQTY/USDT,0.9848,0.9848,0.9847,0.9847,7.2351,7.3472,0,0,2,0.9847
1691452800000,2023-08-08 00:00:00,LQTY/USDT,1.1127,1.1127,1.1127,1.1127,0,0,0,0,0,1.0875
1691366400000,2023-08-07 00:00:00,LQTY/USDT,1.1127,1.1127,1.1127,1.1127,0,0,0,0,0,1.0875
1691280000000,2023-08-06 00:00:00,LQTY/USDT,1.0846,1.1127,1.0846,1.1127,30.5229,28.0666,30.5229,28.0666,2,1.0875
1691193600000,2023-08-05 00:00:00,LQTY/USDT,0.9611,0.9611,0.9611,0.9611,0,0,0,0,0,0.9777
1691107200000,2023-08-04 00:00:00,LQTY/USDT,0.9611,0.9611,0.9611,0.9611,0,0,0,0,0,0.9777
1691020800000,2023-08-03 00:00:00,LQTY/USDT,0.9611,0.9611,0.9611,0.9611,0,0,0,0,0,0.9777
1690934400000,2023-08-02 00:00:00,LQTY/USDT,1.04,1.04,0.9611,0.9611,12.9181,13.2242,0,0,3,0.9777
1690848000000,2023-08-01 00:00:00,LQTY/USDT,1.1638,1.1638,1.1638,1.1638,0,0,0,0,0,1.1637
1690761600000,2023-07-31 00:00:00,LQTY/USDT,1.1638,1.1638,1.1638,1.1638,0,0,0,0,0,1.1637
1690675200000,2023-07-30 00:00:00,LQTY/USDT,1.1638,1.1638,1.1638,1.1638,0,0,0,0,0,1.1637
1690588800000,2023-07-29 00:00:00,LQTY/USDT,1.1638,1.1638,1.1638,1.1638,0,0,0,0,0,1.1637
1690502400000,2023-07-28 00:00:00,LQTY/USDT,1.1637,1.1638,1.1637,1.1638,6.2714,5.389,6.2714,5.389,2,1.1637
1690416000000,2023-07-27 00:00:00,LQTY/USDT,0.9372,0.9372,0.9372,0.9372,0,0,0,0,0,0.9372
1690329600000,2023-07-26 00:00:00,LQTY/USDT,0.9372,0.9372,0.9372,0.9372,19.8546,21.1851,19.8546,21.1851,1,0.9372
1690243200000,2023-07-25 00:00:00,LQTY/USDT,1.1117,1.1117,1.1117,1.1117,0,0,0,0,0,1.0838
1690156800000,2023-07-24 00:00:00,LQTY/USDT,1.1117,1.1117,1.1117,1.1117,0,0,0,0,0,1.0838
1690070400000,2023-07-23 00:00:00,LQTY/USDT,1.1117,1.1117,1.1117,1.1117,0,0,0,0,0,1.0838
1689984000000,2023-07-22 00:00:00,LQTY/USDT,1.1117,1.1117,1.1117,1.1117,0,0,0,0,0,1.0838
1689897600000,2023-07-21 00:00:00,LQTY/USDT,1.1117,1.1117,1.1117,1.1117,0,0,0,0,0,1.0838
1689811200000,2023-07-20 00:00:00,LQTY/USDT,1.1117,1.1117,1.1117,1.1117,0,0,0,0,0,1.0838
1689724800000,2023-07-19 00:00:00,LQTY/USDT,1.1117,1.1117,1.1117,1.1117,0,0,0,0,0,1.0838
1689638400000,2023-07-18 00:00:00,LQTY/USDT,1.0747,1.1117,1.0747,1.1117,46.2253,42.6591,0,0,2,1.0838
1689552000000,2023-07-17 00:00:00,LQTY/USDT,1.3476,1.3476,1.3476,1.3476,0,0,0,0,0,1.3476
1689465600000,2023-07-16 00:00:00,LQTY/USDT,1.3476,1.3476,1.3476,1.3476,13.8529,10.2797,13.8529,10.2797,1,1.3476
1689379200000,2023-07-15 00:00:00,LQTY/USDT,1.4112,1.4112,1.2717,1.2717,258.7298,184.1906,55.5776,39.9245,5,1.4049
1689292800000,2023-07-14 00:00:00,LQTY/USDT,1.4383,1.4383,1.2788,1.4369,18.823,13.793,8.3545,5.9254,5,1.3677
1689206400000,2023-07-13 00:00:00,LQTY/USDT,1.445,1.445,1.445,1.445,1.1205,0.7755,1.1205,0.7755,1,1.445
1689120000000,2023-07-12 00:00:00,LQTY/USDT,1.0675,1.106,0.9603,1.0574,42.3997,41.0574,24.3164,22.2938,5,1.0368
1689033600000,2023-07-11 00:00:00,LQTY/USDT,0.9299,0.95,0.9299,0.95,5.098,5.4044,5.098,5.4044,2,0.9434
1688947200000,2023-07-10 00:00:00,LQTY/USDT,0.88,0.88,0.8793,0.8793,4.275,4.8609,0,0,2,0.8794
1688860800000,2023-07-09 00:00:00,LQTY/USDT,0.9862,0.9862,0.9862,0.9862,0,0,0,0,0,0.9862
1688774400000,2023-07-08 00:00:00,LQTY/USDT,0.9862,0.9862,0.9862,0.9862,1.0999,1.1153,1.0999,1.1153,1,0.9862
1688688000000,2023-07-07 00:00:00,LQTY/USDT,0.9936,0.9936,0.9936,0.9936,0,0,0,0,0,0.978
1688601600000,2023-07-06 00:00:00,LQTY/USDT,0.9936,0.9936,0.9936,0.9936,0,0,0,0,0,0.978
1688515200000,2023-07-05 00:00:00,LQTY/USDT,0.9936,0.9936,0.9936,0.9936,0,0,0,0,0,0.978
1688428800000,2023-07-04 00:00:00,LQTY/USDT,0.9936,0.9936,0.9936,0.9936,0,0,0,0,0,0.978
1688342400000,2023-07-03 00:00:00,LQTY/USDT,1.0393,1.0393,0.9198,0.9936,6.3374,6.495,4.0379,3.995,3,0.978
1688256000000,2023-07-02 00:00:00,LQTY/USDT,0.9366,0.9366,0.9366,0.9366,30.2614,32.3099,0,0,1,0.9366
1688169600000,2023-07-01 00:00:00,LQTY/USDT,0.8528,0.8528,0.8527,0.8527,237.2087,278.1551,219.4934,257.3797,5,0.8527
1688083200000,2023-06-30 00:00:00,LQTY/USDT,0.8931,0.8931,0.8931,0.8931,0,0,0,0,0,0.8931
1687996800000,2023-06-29 00:00:00,LQTY/USDT,0.8931,0.8931,0.8931,0.8931,60.87,68.1559,0,0,1,0.8931
1687910400000,2023-06-28 00:00:00,LQTY/USDT,0.9082,0.9082,0.8931,0.8931,43.907,49.0736,0,0,3,0.8947
1687824000000,2023-06-27 00:00:00,LQTY/USDT,0.8931,0.8931,0.8931,0.8931,0,0,0,0,0,0.8931
1687737600000,2023-06-26 00:00:00,LQTY/USDT,0.8931,0.8931,0.8931,0.8931,0,0,0,0,0,0.8931
1687651200000,2023-06-25 00:00:00,LQTY/USDT,0.8931,0.8931,0.8931,0.8931,0,0,0,0,0,0.8931
1687564800000,2023-06-24 00:00:00,LQTY/USDT,0.8931,0.8931,0.8931,0.8931,2.2225,2.4886,0,0,1,0.8931
1687478400000,2023-06-23 00:00:00,LQTY/USDT,0.842,0.842,0.842,0.842,0,0,0,0,0,0.842
1687392000000,2023-06-22 00:00:00,LQTY/USDT,0.842,0.842,0.842,0.842,2.6637,3.1636,0,0,1,0.842
1687305600000,2023-06-21 00:00:00,LQTY/USDT,1.0232,1.0232,1.0232,1.0232,1.8437,1.8019,1.8437,1.8019,1,1.0232
1687219200000,2023-06-20 00:00:00,LQTY/USDT,0.8447,0.8447,0.8447,0.8447,0,0,0,0,0,0.8447
1687132800000,2023-06-19 00:00:00,LQTY/USDT,0.8447,0.8447,0.8447,0.8447,0,0,0,0,0,0.8447
1687046400000,2023-06-18 00:00:00,LQTY/USDT,0.8447,0.8447,0.8447,0.8447,2.9999,3.5515,0,0,1,0.8447
1686960000000,2023-06-17 00:00:00,LQTY/USDT,0.8447,0.8447,0.8447,0.8447,0,0,0,0,0,0.8447
1686873600000,2023-06-16 00:00:00,LQTY/USDT,0.8447,0.8447,0.8447,0.8447,25.7589,30.4948,0,0,1,0.8447
1686787200000,2023-06-15 00:00:00,LQTY/USDT,0.9121,0.9121,0.9121,0.9121,0,0,0,0,0,0.8929
1686700800000,2023-06-14 00:00:00,LQTY/USDT,0.9121,0.9121,0.9121,0.9121,0,0,0,0,0,0.8929
1686614400000,2023-06-13 00:00:00,LQTY/USDT,0.9121,0.9121,0.9121,0.9121,0,0,0,0,0,0.8929
1686528000000,2023-06-12 00:00:00,LQTY/USDT,0.9121,0.9121,0.9121,0.9121,0,0,0,0,0,0.8929
1686441600000,2023-06-11 00:00:00,LQTY/USDT,0.8498,0.9121,0.8498,0.9121,17.3316,19.4299,17.3316,19.4299,3,0.8929
1686355200000,2023-06-10 00:00:00,LQTY/USDT,0.8397,0.8498,0.7505,0.8498,40.8592,53.6643,34.7893,46.1992,4,0.7622
1686268800000,2023-06-09 00:00:00,LQTY/USDT,1.2046,1.2046,1.2046,1.2046,0,0,0,0,0,1.2046
1686182400000,2023-06-08 00:00:00,LQTY/USDT,1.2046,1.2046,1.2046,1.2046,0,0,0,0,0,1.2046
1686096000000,2023-06-07 00:00:00,LQTY/USDT,1.2046,1.2046,1.2046,1.2046,0,0,0,0,0,1.2046
1686009600000,2023-06-06 00:00:00,LQTY/USDT,1.2046,1.2046,1.2046,1.2046,0,0,0,0,0,1.2046
1685923200000,2023-06-05 00:00:00,LQTY/USDT,1.2046,1.2046,1.2046,1.2046,0,0,0,0,0,1.2046
1685836800000,2023-06-04 00:00:00,LQTY/USDT,1.2046,1.2046,1.2046,1.2046,0,0,0,0,0,1.2046
1685750400000,2023-06-03 00:00:00,LQTY/USDT,1.2046,1.2046,1.2046,1.2046,0,0,0,0,0,1.2046
1685664000000,2023-06-02 00:00:00,LQTY/USDT,1.2046,1.2046,1.2046,1.2046,0,0,0,0,0,1.2046
1685577600000,2023-06-01 00:00:00,LQTY/USDT,1.2046,1.2046,1.2046,1.2046,0,0,0,0,0,1.2046
1685491200000,2023-05-31 00:00:00,LQTY/USDT,1.2046,1.2046,1.2046,1.2046,3.0036,2.4935,0,0,1,1.2046
1685404800000,2023-05-30 00:00:00,LQTY/USDT,1.28,1.28,1.28,1.28,0,0,0,0,0,1.28
1685318400000,2023-05-29 00:00:00,LQTY/USDT,1.28,1.28,1.28,1.28,2.2388,1.7491,0,0,1,1.28
1685232000000,2023-05-28 00:00:00,LQTY/USDT,1.3611,1.3611,1.3611,1.3611,0,0,0,0,0,1.3611
1685145600000,2023-05-27 00:00:00,LQTY/USDT,1.3611,1.3611,1.3611,1.3611,99.9998,73.4699,99.9998,73.4699,1,1.3611
1685059200000,2023-05-26 00:00:00,LQTY/USDT,1.3371,1.3371,1.3371,1.3371,0,0,0,0,0,1.3371
1684972800000,2023-05-25 00:00:00,LQTY/USDT,1.3371,1.3371,1.3371,1.3371,0,0,0,0,0,1.3371
1684886400000,2023-05-24 00:00:00,LQTY/USDT,1.3371,1.3371,1.3371,1.3371,0,0,0,0,0,1.3371
1684800000000,2023-05-23 00:00:00,LQTY/USDT,1.3371,1.3371,1.3371,1.3371,0,0,0,0,0,1.3371
1684713600000,2023-05-22 00:00:00,LQTY/USDT,1.3371,1.3371,1.3371,1.3371,0,0,0,0,0,1.3371
1684627200000,2023-05-21 00:00:00,LQTY/USDT,1.3371,1.3371,1.3371,1.3371,0,0,0,0,0,1.3371
1684540800000,2023-05-20 00:00:00,LQTY/USDT,1.3371,1.3371,1.3371,1.3371,0,0,0,0,0,1.3371
1684454400000,2023-05-19 00:00:00,LQTY/USDT,1.3371,1.3371,1.3371,1.3371,0,0,0,0,0,1.3371
1684368000000,2023-05-18 00:00:00,LQTY/USDT,1.3371,1.3371,1.3371,1.3371,0,0,0,0,0,1.3371
1684281600000,2023-05-17 00:00:00,LQTY/USDT,1.3371,1.3371,1.3371,1.3371,0,0,0,0,0,1.3371
1684195200000,2023-05-16 00:00:00,LQTY/USDT,1.3371,1.3371,1.3371,1.3371,2.5622,1.9163,2.5622,1.9163,1,1.3371
1684108800000,2023-05-15 00:00:00,LQTY/USDT,1.1229,1.1229,1.1229,1.1229,0,0,0,0,0,1.123
1684022400000,2023-05-14 00:00:00,LQTY/USDT,1.1229,1.1229,1.1229,1.1229,0,0,0,0,0,1.123
1683936000000,2023-05-13 00:00:00,LQTY/USDT,1.1233,1.1233,1.1229,1.1229,3.1561,2.8104,1.0463,0.9318,4,1.123
1683849600000,2023-05-12 00:00:00,LQTY/USDT,1.1393,1.1393,1.1393,1.1393,21.3705,18.7576,0,0,1,1.1393
1683763200000,2023-05-11 00:00:00,LQTY/USDT,1.461,1.461,1.461,1.461,0,0,0,0,0,1.461
1683676800000,2023-05-10 00:00:00,LQTY/USDT,1.461,1.461,1.461,1.461,0,0,0,0,0,1.461
1683590400000,2023-05-09 00:00:00,LQTY/USDT,1.461,1.461,1.461,1.461,0,0,0,0,0,1.461
1683504000000,2023-05-08 00:00:00,LQTY/USDT,1.461,1.461,1.461,1.461,0,0,0,0,0,1.461
1683417600000,2023-05-07 00:00:00,LQTY/USDT,1.461,1.461,1.461,1.461,0,0,0,0,0,1.461
1683331200000,2023-05-06 00:00:00,LQTY/USDT,1.461,1.461,1.461,1.461,2.8054,1.9202,0,0,1,1.461
1683244800000,2023-05-05 00:00:00,LQTY/USDT,1.646,1.6508,1.4904,1.4904,20.1532,12.7982,0,0,3,1.5787
1683158400000,2023-05-04 00:00:00,LQTY/USDT,1.5983,1.5983,1.5983,1.5983,0,0,0,0,0,1.8946
1683072000000,2023-05-03 00:00:00,LQTY/USDT,1.5983,1.5983,1.5983,1.5983,0,0,0,0,0,1.8946
1682985600000,2023-05-02 00:00:00,LQTY/USDT,1.5983,1.5983,1.5983,1.5983,0,0,0,0,0,1.8946
1682899200000,2023-05-01 00:00:00,LQTY/USDT,1.8,1.9906,1.5983,1.5983,36.7547,19.4912,21.8928,11,5,1.8946
1682812800000,2023-04-30 00:00:00,LQTY/USDT,1.6872,1.6872,1.6872,1.6872,0,0,0,0,0,1.6872
1682726400000,2023-04-29 00:00:00,LQTY/USDT,1.6872,1.6872,1.6872,1.6872,0,0,0,0,0,1.6872
1682640000000,2023-04-28 00:00:00,LQTY/USDT,1.6872,1.6872,1.6872,1.6872,0,0,0,0,0,1.6872
1682553600000,2023-04-27 00:00:00,LQTY/USDT,1.6872,1.6872,1.6872,1.6872,0,0,0,0,0,1.6872
1682467200000,2023-04-26 00:00:00,LQTY/USDT,1.6872,1.6872,1.6872,1.6872,1.5331,0.9087,0,0,1,1.6872
1682380800000,2023-04-25 00:00:00,LQTY/USDT,1.9186,1.9186,1.9186,1.9186,5.42,2.825,5.42,2.825,1,1.9186
1682294400000,2023-04-24 00:00:00,LQTY/USDT,2,2,2,2,0,0,0,0,0,2
1682208000000,2023-04-23 00:00:00,LQTY/USDT,2,2,2,2,0,0,0,0,0,2
1682121600000,2023-04-22 00:00:00,LQTY/USDT,2,2,2,2,0,0,0,0,0,2
1682035200000,2023-04-21 00:00:00,LQTY/USDT,2,2,2,2,0.8472,0.4236,0,0,1,2
1681948800000,2023-04-20 00:00:00,LQTY/USDT,2,2,2,2,0.2528,0.1264,0,0,1,2
1681862400000,2023-04-19 00:00:00,LQTY/USDT,2.2154,2.2154,2.1724,2.1724,5.6292,2.5714,0,0,2,2.1893
1681776000000,2023-04-18 00:00:00,LQTY/USDT,2.2154,2.2154,2.2154,2.2154,1.7763,0.8018,0,0,1,2.2154
1681689600000,2023-04-17 00:00:00,LQTY/USDT,2.3693,2.3693,2.3693,2.3693,0,0,0,0,0,2.4541
1681603200000,2023-04-16 00:00:00,LQTY/USDT,2.3693,2.3693,2.3693,2.3693,0,0,0,0,0,2.4541
1681516800000,2023-04-15 00:00:00,LQTY/USDT,2.443,2.4547,2.3649,2.3693,229.5688,93.5437,228.7137,93.1822,5,2.4541
1681430400000,2023-04-14 00:00:00,LQTY/USDT,2.0449,2.4481,2.0449,2.4481,4.8537,2.232,1.7577,0.718,2,2.1909
1681344000000,2023-04-13 00:00:00,LQTY/USDT,2.2,2.2,2.2,2.2,0,0,0,0,0,2.2
1681257600000,2023-04-12 00:00:00,LQTY/USDT,2.2,2.2,2.2,2.2,0,0,0,0,0,2.2
1681171200000,2023-04-11 00:00:00,LQTY/USDT,2.2,2.2,2.2,2.2,0,0,0,0,0,2.2
1681084800000,2023-04-10 00:00:00,LQTY/USDT,2.2,2.2,2.2,2.2,0,0,0,0,0,2.2
1680998400000,2023-04-09 00:00:00,LQTY/USDT,2.2,2.2,2.2,2.2,46.7007,21.2276,0,0,1,2.2
1680912000000,2023-04-08 00:00:00,LQTY/USDT,2.2723,2.2723,2.2722,2.2722,7.447,3.2774,0,0,2,2.2722
1680825600000,2023-04-07 00:00:00,LQTY/USDT,2.4594,2.4594,2.4594,2.4594,0,0,0,0,0,2.4693
1680739200000,2023-04-06 00:00:00,LQTY/USDT,2.415,2.5328,2.415,2.4594,982.3312,397.9149,522.0729,211.8003,11,2.4693
1680652800000,2023-04-05 00:00:00,LQTY/USDT,2.5675,2.5675,2.5173,2.5173,12.0595,4.7747,2.054,0.8,2,2.5258
1680566400000,2023-04-04 00:00:00,LQTY/USDT,2.3027,2.4983,2.3027,2.4983,53.7407,21.8466,23.8811,9.8047,6,2.4608
1680480000000,2023-04-03 00:00:00,LQTY/USDT,2.3157,2.3157,2.2974,2.2974,8.0899,3.5073,4.0902,1.7663,2,2.3066
1680393600000,2023-04-02 00:00:00,LQTY/USDT,2.2602,2.2602,2.2602,2.2602,4.0001,1.7698,0,0,1,2.2602
1680307200000,2023-04-01 00:00:00,LQTY/USDT,2.3386,2.3386,2.3386,2.3386,3.4541,1.477,3.4541,1.477,1,2.3386
1680220800000,2023-03-31 00:00:00,LQTY/USDT,2.1295,2.1295,2.1295,2.1295,0,0,0,0,0,2.142
1680134400000,2023-03-30 00:00:00,LQTY/USDT,2.2002,2.2002,2.1295,2.1295,67.3171,31.431,55.342,25.9883,2,2.142
1680048000000,2023-03-29 00:00:00,LQTY/USDT,2.2016,2.2016,2.2016,2.2016,0,0,0,0,0,2.2016
1679961600000,2023-03-28 00:00:00,LQTY/USDT,2.2016,2.2016,2.2016,2.2016,193.7401,87.9997,2.1789,0.9897,2,2.2016
1679875200000,2023-03-27 00:00:00,LQTY/USDT,2.4461,2.4461,2.0313,2.0628,549.0998,252.2876,179.9244,84.8609,9,2.1848
1679788800000,2023-03-26 00:00:00,LQTY/USDT,2.1379,2.1379,2.1379,2.1379,0,0,0,0,0,2.1379
1679702400000,2023-03-25 00:00:00,LQTY/USDT,2.1379,2.1379,2.1379,2.1379,7.8439,3.669,0,0,1,2.1379
1679616000000,2023-03-24 00:00:00,LQTY/USDT,2.2745,2.338,2.0836,2.0836,23.1662,10.5342,6.7975,2.9357,4,2.2044
1679529600000,2023-03-23 00:00:00,LQTY/USDT,2.2932,2.2932,2.2932,2.2932,0,0,0,0,0,2.2361
1679443200000,2023-03-22 00:00:00,LQTY/USDT,2.4008,2.4008,2.1165,2.2932,6.4409,2.8848,6.2866,2.8205,3,2.2361
1679356800000,2023-03-21 00:00:00,LQTY/USDT,2.4008,2.4008,2.4008,2.4008,0,0,0,0,0,2.4008
1679270400000,2023-03-20 00:00:00,LQTY/USDT,2.4008,2.4008,2.4008,2.4008,3.8456,1.6018,0,0,1,2.4008
1679184000000,2023-03-19 00:00:00,LQTY/USDT,2.4017,2.4017,2.4017,2.4017,0,0,0,0,0,2.4035
1679097600000,2023-03-18 00:00:00,LQTY/USDT,2.4036,2.4036,2.4017,2.4017,55.014,22.8882,0,0,2,2.4035
1679011200000,2023-03-17 00:00:00,LQTY/USDT,2.8872,2.8872,2.8872,2.8872,12.5694,4.3535,12.5694,4.3535,1,2.8872
1678924800000,2023-03-16 00:00:00,LQTY/USDT,2.415,3.02,2.415,2.8872,135.9743,50.9327,4.5214,1.5676,7,2.6959
1678838400000,2023-03-15 00:00:00,LQTY/USDT,3.1506,3.1506,3.1506,3.1506,0,0,0,0,0,3.1843
1678752000000,2023-03-14 00:00:00,LQTY/USDT,2.8,3.56,2.8,3.1506,193.6478,61.1932,186.2095,58.8125,12,3.1843
1678665600000,2023-03-13 00:00:00,LQTY/USDT,2.2,2.5,2.2,2.5,11.2556,4.6223,11.2556,4.6223,3,2.4413
1678579200000,2023-03-12 00:00:00,LQTY/USDT,1.72,1.72,1.72,1.72,0,0,0,0,0,1.9037
1678492800000,2023-03-11 00:00:00,LQTY/USDT,1.857,1.9042,1.72,1.72,8.52,4.4755,8.5176,4.4741,4,1.9037
1678406400000,2023-03-10 00:00:00,LQTY/USDT,1.857,1.857,1.857,1.857,0,0,0,0,0,1.857
1678320000000,2023-03-09 00:00:00,LQTY/USDT,1.857,1.857,1.857,1.857,4.0764,2.1952,3.1284,1.6847,2,1.857
1678233600000,2023-03-08 00:00:00,LQTY/USDT,1.778,1.778,1.72,1.72,14.2839,8.1273,0,0,4,1.7576
1678147200000,2023-03-07 00:00:00,LQTY/USDT,1.8161,1.8161,1.8161,1.8161,0,0,0,0,0,1.8161
1678060800000,2023-03-06 00:00:00,LQTY/USDT,1.8161,1.8161,1.8161,1.8161,7.5727,4.1698,0,0,1,1.8161
1677974400000,2023-03-05 00:00:00,LQTY/USDT,1.86,2.0832,1.7505,1.9917,29.9274,15.4417,14.5221,7.2429,11,1.944
1677888000000,2023-03-04 00:00:00,LQTY/USDT,1.7236,1.7236,1.6625,1.6625,25.0786,14.89,9.1395,5.3026,2,1.6847
1677801600000,2023-03-03 00:00:00,LQTY/USDT,1.6212,1.8614,1.62,1.8614,605.3245,348.3415,316.9795,170.4707,10,1.7459
1677715200000,2023-03-02 00:00:00,LQTY/USDT,1.6201,1.6201,1.6201,1.6201,1.4998,0.9258,0,0,1,1.6201
1677628800000,2023-03-01 00:00:00,LQTY/USDT,2.0356,2.0832,1.62,2.0832,14.201,7.229,8.2484,3.96,7,1.983
1677542400000,2023-02-28 00:00:00,LQTY/USDT,1.2092,3.88,1.2092,2.3,1534.8716,736.6766,923.1415,417.2351,83,2.2287
1677456000000,2023-02-27 00:00:00,LQTY/USDT,1.0999,1.0999,1.0999,1.0999,0,0,0,0,0,1.0998
1677369600000,2023-02-26 00:00:00,LQTY/USDT,1.0998,1.0999,1.0998,1.0999,9.0921,8.2667,9.0921,8.2667,2,1.0998
1677283200000,2023-02-25 00:00:00,LQTY/USDT,1.2501,1.2501,0.7,1.0999,252.156,216.2981,27.8243,27.2861,22,1.1847
1677196800000,2023-02-24 00:00:00,LQTY/USDT,0.8502,0.8502,0.8502,0.8502,0,0,0,0,0,0.8502
1677110400000,2023-02-23 00:00:00,LQTY/USDT,0.8502,0.8502,0.8502,0.8502,0,0,0,0,0,0.8502
1677024000000,2023-02-22 00:00:00,LQTY/USDT,0.8502,0.8502,0.8502,0.8502,0,0,0,0,0,0.8502
1676937600000,2023-02-21 00:00:00,LQTY/USDT,0.8502,0.8502,0.8502,0.8502,0,0,0,0,0,0.8502
1676851200000,2023-02-20 00:00:00,LQTY/USDT,0.8502,0.8502,0.8502,0.8502,0,0,0,0,0,0.8502
1676764800000,2023-02-19 00:00:00,LQTY/USDT,0.8502,0.8502,0.8502,0.8502,0,0,0,0,0,0.8502
1676678400000,2023-02-18 00:00:00,LQTY/USDT,0.8502,0.8502,0.8502,0.8502,0,0,0,0,0,0.8502
1676592000000,2023-02-17 00:00:00,LQTY/USDT,0.8502,0.8502,0.8502,0.8502,0,0,0,0,0,0.8502
1676505600000,2023-02-16 00:00:00,LQTY/USDT,0.8502,0.8502,0.8502,0.8502,0,0,0,0,0,0.8502
1676419200000,2023-02-15 00:00:00,LQTY/USDT,0.8502,0.8502,0.8502,0.8502,0,0,0,0,0,0.8502
1676332800000,2023-02-14 00:00:00,LQTY/USDT,0.8502,0.8502,0.8502,0.8502,1.42,1.6703,0,0,1,0.8502
1676246400000,2023-02-13 00:00:00,LQTY/USDT,0.6048,0.9238,0.6048,0.9238,9.0351,11.1588,7.827,9.1613,4,0.8241
1676160000000,2023-02-12 00:00:00,LQTY/USDT,1.3229,1.3229,1.3229,1.3229,0,0,0,0,0,1.4111
1676073600000,2023-02-11 00:00:00,LQTY/USDT,1.3229,1.3229,1.3229,1.3229,0,0,0,0,0,1.411142029343671329
1675987200000,2023-02-10 00:00:00,LQTY/USDT,1.3229,1.3229,1.3229,1.3229,0,0,0,0,0,1.411142029343671329
1675900800000,2023-02-09 00:00:00,LQTY/USDT,1.3229,1.3229,1.3229,1.3229,0,0,0,0,0,1.411142029343671329
1675814400000,2023-02-08 00:00:00,LQTY/USDT,1.3229,1.3229,1.3229,1.3229,0,0,0,0,0,1.411142029343671329
1675728000000,2023-02-07 00:00:00,LQTY/USDT,1.3229,1.3229,1.3229,1.3229,0,0,0,0,0,1.411142029343671329
1675641600000,2023-02-06 00:00:00,LQTY/USDT,1.3229,1.3229,1.3229,1.3229,0,0,0,0,0,1.411142029343671329
1675555200000,2023-02-05 00:00:00,LQTY/USDT,1.4948,1.4948,1.3229,1.3229,9.7401718,6.9281,1.2660956,0.847,4,1.411142029343671329
1675468800000,2023-02-04 00:00:00,LQTY/USDT,0.6038,0.6038,0.6037,0.6037,2.68205516,4.4421,0,0,2,0.603780907986247382
1675382400000,2023-02-03 00:00:00,LQTY/USDT,1.0089,1.0089,1.0089,1.0089,0,0,0,0,0,0.981911785538224198
1675296000000,2023-02-02 00:00:00,LQTY/USDT,1.0089,1.0089,1.0089,1.0089,0,0,0,0,0,0.981911785538224198
1675209600000,2023-02-01 00:00:00,LQTY/USDT,0.6583,1.14,0.6583,1.0089,19.00522825,20.0202,14.51703571,15.5716,7,0.981911785538224198
1675123200000,2023-01-31 00:00:00,LQTY/USDT,0.6248,0.6248,0.6248,0.6248,1.0331068,1.6535,1.0331068,1.6535,1,0.6248
1675036800000,2023-01-30 00:00:00,LQTY/USDT,0.5742,0.5742,0.5742,0.5742,0,0,0,0,0,0.5742
1674950400000,2023-01-29 00:00:00,LQTY/USDT,0.5742,0.5742,0.5742,0.5742,0,0,0,0,0,0.5742
1674864000000,2023-01-28 00:00:00,LQTY/USDT,0.5742,0.5742,0.5742,0.5742,0,0,0,0,0,0.5742
1674777600000,2023-01-27 00:00:00,LQTY/USDT,0.5742,0.5742,0.5742,0.5742,0,0,0,0,0,0.5742
1674691200000,2023-01-26 00:00:00,LQTY/USDT,0.5742,0.5742,0.5742,0.5742,0,0,0,0,0,0.5742
1674604800000,2023-01-25 00:00:00,LQTY/USDT,0.5742,0.5742,0.5742,0.5742,0,0,0,0,0,0.5742
1674518400000,2023-01-24 00:00:00,LQTY/USDT,0.5742,0.5742,0.5742,0.5742,0.95081778,1.6559,0,0,1,0.5742
1674432000000,2023-01-23 00:00:00,LQTY/USDT,0.6486,0.6486,0.6486,0.6486,0,0,0,0,0,0.592525291634399427
1674345600000,2023-01-22 00:00:00,LQTY/USDT,0.6486,0.6486,0.6486,0.6486,0,0,0,0,0,0.592525291634399427
1674259200000,2023-01-21 00:00:00,LQTY/USDT,0.6486,0.6486,0.6486,0.6486,0,0,0,0,0,0.592525291634399427
1674172800000,2023-01-20 00:00:00,LQTY/USDT,0.6486,0.6486,0.6486,0.6486,0,0,0,0,0,0.592525291634399427
1674086400000,2023-01-19 00:00:00,LQTY/USDT,0.6486,0.6486,0.6486,0.6486,0,0,0,0,0,0.592525291634399427
1674000000000,2023-01-18 00:00:00,LQTY/USDT,0.6486,0.6486,0.6486,0.6486,0,0,0,0,0,0.592525291634399427
1673913600000,2023-01-17 00:00:00,LQTY/USDT,0.6486,0.6486,0.6486,0.6486,0,0,0,0,0,0.592525291634399427
1673827200000,2023-01-16 00:00:00,LQTY/USDT,0.6486,0.6486,0.6486,0.6486,0,0,0,0,0,0.592525291634399427
1673740800000,2023-01-15 00:00:00,LQTY/USDT,0.6486,0.6486,0.6486,0.6486,0,0,0,0,0,0.592525291634399427
1673654400000,2023-01-14 00:00:00,LQTY/USDT,0.6486,0.6486,0.6486,0.6486,0,0,0,0,0,0.592525291634399427
1673568000000,2023-01-13 00:00:00,LQTY/USDT,0.6486,0.6486,0.6486,0.6486,0,0,0,0,0,0.592525291634399427
1673481600000,2023-01-12 00:00:00,LQTY/USDT,0.6486,0.6486,0.6486,0.6486,0,0,0,0,0,0.592525291634399427
1673395200000,2023-01-11 00:00:00,LQTY/USDT,0.6486,0.6486,0.6486,0.6486,0,0,0,0,0,0.592525291634399427
1673308800000,2023-01-10 00:00:00,LQTY/USDT,0.6486,0.6486,0.6486,0.6486,0,0,0,0,0,0.592525291634399427
1673222400000,2023-01-09 00:00:00,LQTY/USDT,0.6486,0.6486,0.6486,0.6486,0,0,0,0,0,0.592525291634399427
1673136000000,2023-01-08 00:00:00,LQTY/USDT,0.5245,0.6486,0.5245,0.6486,3.6485665,6.2267,3.6485665,6.2267,2,0.592525291634399427
1673049600000,2023-01-07 00:00:00,LQTY/USDT,0.505,0.505,0.505,0.505,0,0,0,0,0,0.505
1672963200000,2023-01-06 00:00:00,LQTY/USDT,0.505,0.505,0.505,0.505,0,0,0,0,0,0.505
1672876800000,2023-01-05 00:00:00,LQTY/USDT,0.505,0.505,0.505,0.505,0,0,0,0,0,0.505
1672790400000,2023-01-04 00:00:00,LQTY/USDT,0.505,0.505,0.505,0.505,0,0,0,0,0,0.505
1672704000000,2023-01-03 00:00:00,LQTY/USDT,0.505,0.505,0.505,0.505,0,0,0,0,0,0.505
1672617600000,2023-01-02 00:00:00,LQTY/USDT,0.505,0.505,0.505,0.505,0.0424705,0.0841,0,0,1,0.505
1672531200000,2023-01-01 00:00:00,LQTY/USDT,0.5116,0.5116,0.5116,0.5116,0,0,0,0,0,0.511510020776553924
1672444800000,2022-12-31 00:00:00,LQTY/USDT,0.5116,0.5116,0.5116,0.5116,0,0,0,0,0,0.511510020776553924
1672358400000,2022-12-30 00:00:00,LQTY/USDT,0.5116,0.5116,0.5116,0.5116,0,0,0,0,0,0.511510020776553924
1672272000000,2022-12-29 00:00:00,LQTY/USDT,0.5116,0.5116,0.5116,0.5116,0,0,0,0,0,0.511510020776553924
1672185600000,2022-12-28 00:00:00,LQTY/USDT,0.5116,0.5116,0.5116,0.5116,0,0,0,0,0,0.511510020776553924
1672099200000,2022-12-27 00:00:00,LQTY/USDT,0.5116,0.5116,0.5116,0.5116,0,0,0,0,0,0.511510020776553924
1672012800000,2022-12-26 00:00:00,LQTY/USDT,0.5116,0.5116,0.5116,0.5116,0,0,0,0,0,0.511510020776553924
1671926400000,2022-12-25 00:00:00,LQTY/USDT,0.5116,0.5116,0.5116,0.5116,0,0,0,0,0,0.511510020776553924
1671840000000,2022-12-24 00:00:00,LQTY/USDT,0.5116,0.5116,0.5116,0.5116,0,0,0,0,0,0.511510020776553924
1671753600000,2022-12-23 00:00:00,LQTY/USDT,0.5116,0.5116,0.5116,0.5116,0,0,0,0,0,0.511510020776553924
1671667200000,2022-12-22 00:00:00,LQTY/USDT,0.5115,0.5116,0.5115,0.5116,14.52688454,28.4,14.52688454,28.4,3,0.511510020776553924
1671580800000,2022-12-21 00:00:00,LQTY/USDT,0.5001,0.5001,0.5001,0.5001,0,0,0,0,0,0.5001
1671494400000,2022-12-20 00:00:00,LQTY/USDT,0.5001,0.5001,0.5001,0.5001,0,0,0,0,0,0.5001
1671408000000,2022-12-19 00:00:00,LQTY/USDT,0.5001,0.5001,0.5001,0.5001,0,0,0,0,0,0.5001
1671321600000,2022-12-18 00:00:00,LQTY/USDT,0.5001,0.5001,0.5001,0.5001,1.0002,2,0,0,1,0.5001
1671235200000,2022-12-17 00:00:00,LQTY/USDT,0.501,0.501,0.501,0.501,1.0999956,2.1956,0,0,1,0.501
1671148800000,2022-12-16 00:00:00,LQTY/USDT,0.5001,0.5001,0.5001,0.5001,0,0,0,0,0,0.501409948911655347
1671062400000,2022-12-15 00:00:00,LQTY/USDT,0.5001,0.5001,0.5001,0.5001,0,0,0,0,0,0.501409948911655347
1670976000000,2022-12-14 00:00:00,LQTY/USDT,0.5001,0.5001,0.5001,0.5001,0,0,0,0,0,0.501409948911655347
1670889600000,2022-12-13 00:00:00,LQTY/USDT,0.5001,0.5001,0.5001,0.5001,0,0,0,0,0,0.501409948911655347
1670803200000,2022-12-12 00:00:00,LQTY/USDT,0.5001,0.5001,0.5001,0.5001,0,0,0,0,0,0.501409948911655347
1670716800000,2022-12-11 00:00:00,LQTY/USDT,0.5001,0.5001,0.5001,0.5001,0,0,0,0,0,0.501409948911655347
1670630400000,2022-12-10 00:00:00,LQTY/USDT,0.5001,0.5001,0.5001,0.5001,0,0,0,0,0,0.501409948911655347
1670544000000,2022-12-09 00:00:00,LQTY/USDT,0.5001,0.5001,0.5001,0.5001,0,0,0,0,0,0.501409948911655347
1670457600000,2022-12-08 00:00:00,LQTY/USDT,0.5001,0.5001,0.5001,0.5001,0,0,0,0,0,0.501409948911655347
1670371200000,2022-12-07 00:00:00,LQTY/USDT,0.5001,0.5001,0.5001,0.5001,0,0,0,0,0,0.501409948911655347
1670284800000,2022-12-06 00:00:00,LQTY/USDT,0.5001,0.5001,0.5001,0.5001,0,0,0,0,0,0.501409948911655347
1670198400000,2022-12-05 00:00:00,LQTY/USDT,0.5001,0.5001,0.5001,0.5001,0,0,0,0,0,0.501409948911655347
1670112000000,2022-12-04 00:00:00,LQTY/USDT,0.5001,0.5001,0.5001,0.5001,0,0,0,0,0,0.501409948911655347
1670025600000,2022-12-03 00:00:00,LQTY/USDT,0.5001,0.5001,0.5001,0.5001,0,0,0,0,0,0.501409948911655347
1669939200000,2022-12-02 00:00:00,LQTY/USDT,0.5001,0.5001,0.5001,0.5001,0,0,0,0,0,0.501409948911655347
1669852800000,2022-12-01 00:00:00,LQTY/USDT,0.5001,0.5001,0.5001,0.5001,0,0,0,0,0,0.501409948911655347
1669766400000,2022-11-30 00:00:00,LQTY/USDT,0.5001,0.5001,0.5001,0.5001,0,0,0,0,0,0.501409948911655347
1669680000000,2022-11-29 00:00:00,LQTY/USDT,0.5001,0.5001,0.5001,0.5001,0,0,0,0,0,0.501409948911655347
1669593600000,2022-11-28 00:00:00,LQTY/USDT,0.5051,0.5051,0.5001,0.5001,10.18339317,20.3099,0,0,3,0.501409948911655347
1669507200000,2022-11-27 00:00:00,LQTY/USDT,0.5511,0.5511,0.5511,0.5511,0,0,0,0,0,0.550933511375554999
1669420800000,2022-11-26 00:00:00,LQTY/USDT,0.5511,0.5511,0.5511,0.5511,0,0,0,0,0,0.550933511375554999
1669334400000,2022-11-25 00:00:00,LQTY/USDT,0.55,0.5511,0.55,0.5511,22.38144205,40.6246,0,0,3,0.550933511375554999
1669248000000,2022-11-24 00:00:00,LQTY/USDT,0.55,0.55,0.55,0.55,0,0,0,0,0,0.55
1669161600000,2022-11-23 00:00:00,LQTY/USDT,0.55,0.55,0.55,0.55,0.052415,0.0953,0,0,1,0.55
1669075200000,2022-11-22 00:00:00,LQTY/USDT,0.52,0.52,0.52,0.52,0,0,0,0,0,0.567862307067967485
1668988800000,2022-11-21 00:00:00,LQTY/USDT,0.52,0.52,0.52,0.52,0,0,0,0,0,0.567862307067967485
1668902400000,2022-11-20 00:00:00,LQTY/USDT,0.52,0.52,0.52,0.52,0,0,0,0,0,0.567862307067967485
1668816000000,2022-11-19 00:00:00,LQTY/USDT,0.52,0.52,0.52,0.52,0,0,0,0,0,0.567862307067967485
1668729600000,2022-11-18 00:00:00,LQTY/USDT,0.52,0.52,0.52,0.52,0,0,0,0,0,0.567862307067967485
1668643200000,2022-11-17 00:00:00,LQTY/USDT,0.52,0.52,0.52,0.52,0,0,0,0,0,0.567862307067967485
1668556800000,2022-11-16 00:00:00,LQTY/USDT,0.52,0.52,0.52,0.52,0,0,0,0,0,0.567862307067967485
1668470400000,2022-11-15 00:00:00,LQTY/USDT,0.52,0.52,0.52,0.52,0,0,0,0,0,0.567862307067967485
1668384000000,2022-11-14 00:00:00,LQTY/USDT,0.6001,0.6001,0.52,0.52,19.3120795,34.1762,0,0,3,0.567862307067967485
1668297600000,2022-11-13 00:00:00,LQTY/USDT,0.9,0.9,0.9,0.9,0,0,0,0,0,0.899950966196157764
1668211200000,2022-11-12 00:00:00,LQTY/USDT,0.9,0.9,0.9,0.9,0,0,0,0,0,0.899950966196157764
1668124800000,2022-11-11 00:00:00,LQTY/USDT,0.9,0.9,0.9,0.9,0,0,0,0,0,0.899950966196157764
1668038400000,2022-11-10 00:00:00,LQTY/USDT,0.9,0.9,0.9,0.9,0,0,0,0,0,0.899950966196157764
1667952000000,2022-11-09 00:00:00,LQTY/USDT,0.9,0.9,0.9,0.9,0,0,0,0,0,0.899950966196157764
1667865600000,2022-11-08 00:00:00,LQTY/USDT,0.9,0.9,0.9,0.9,0,0,0,0,0,0.899950966196157764
1667779200000,2022-11-07 00:00:00,LQTY/USDT,0.9,0.9,0.9,0.9,0,0,0,0,0,0.899950966196157764
1667692800000,2022-11-06 00:00:00,LQTY/USDT,0.9,0.9,0.9,0.9,0,0,0,0,0,0.899950966196157764
1667606400000,2022-11-05 00:00:00,LQTY/USDT,0.9,0.9,0.9,0.9,0,0,0,0,0,0.899950966196157764
1667520000000,2022-11-04 00:00:00,LQTY/USDT,0.8999,0.9,0.8999,0.9,102.96824946,114.4154,102.96824946,114.4154,2,0.899950966196157764
1667433600000,2022-11-03 00:00:00,LQTY/USDT,0.7,0.7,0.7,0.7,1.67678,2.3954,1.67678,2.3954,1,0.7
1667347200000,2022-11-02 00:00:00,LQTY/USDT,1.0177,1.0177,1.0177,1.0177,0,0,0,0,0,1.105279330898131031
1667260800000,2022-11-01 00:00:00,LQTY/USDT,1.0177,1.0177,1.0177,1.0177,0,0,0,0,0,1.105279330898131031
1667174400000,2022-10-31 00:00:00,LQTY/USDT,1.012,1.1503,1.012,1.0177,154.73681722,140.4079,56.9945172,53.0805,7,1.105279330898131031
1667088000000,2022-10-30 00:00:00,LQTY/USDT,1.12,1.12,1.12,1.12,0,0,0,0,0,1.12
1667001600000,2022-10-29 00:00:00,LQTY/USDT,1.12,1.12,1.12,1.12,0,0,0,0,0,1.12
1666915200000,2022-10-28 00:00:00,LQTY/USDT,1.12,1.12,1.12,1.12,0,0,0,0,0,1.12
1666828800000,2022-10-27 00:00:00,LQTY/USDT,1.12,1.12,1.12,1.12,0,0,0,0,0,1.12
1666742400000,2022-10-26 00:00:00,LQTY/USDT,1.12,1.12,1.12,1.12,0,0,0,0,0,1.12
1666656000000,2022-10-25 00:00:00,LQTY/USDT,1.12,1.12,1.12,1.12,0,0,0,0,0,1.12
1666569600000,2022-10-24 00:00:00,LQTY/USDT,1.12,1.12,1.12,1.12,3.36,3,3.36,3,1,1.12
1666483200000,2022-10-23 00:00:00,LQTY/USDT,1.2399,1.2399,1,1.123,130.98335132,118.9739,13.65789734,12.6823,6,1.102838219951875941
1666396800000,2022-10-22 00:00:00,LQTY/USDT,0.4514,0.4514,0.4514,0.4514,0,0,0,0,0,0.4514
1666310400000,2022-10-21 00:00:00,LQTY/USDT,0.4514,0.4514,0.4514,0.4514,0,0,0,0,0,0.4514
1666224000000,2022-10-20 00:00:00,LQTY/USDT,0.4514,0.4514,0.4514,0.4514,0,0,0,0,0,0.4514
1666137600000,2022-10-19 00:00:00,LQTY/USDT,0.4514,0.4514,0.4514,0.4514,0,0,0,0,0,0.4514
1666051200000,2022-10-18 00:00:00,LQTY/USDT,0.4514,0.4514,0.4514,0.4514,2.25370478,4.9927,0.62374452,1.3818,2,0.4514
1665964800000,2022-10-17 00:00:00,LQTY/USDT,0.4511,0.4511,0.4511,0.4511,0,0,0,0,0,0.4511
1665878400000,2022-10-16 00:00:00,LQTY/USDT,0.4511,0.4511,0.4511,0.4511,0,0,0,0,0,0.4511
1665792000000,2022-10-15 00:00:00,LQTY/USDT,0.4511,0.4511,0.4511,0.4511,0,0,0,0,0,0.4511
1665705600000,2022-10-14 00:00:00,LQTY/USDT,0.4511,0.4511,0.4511,0.4511,0.45042335,0.9985,0,0,1,0.4511
1665619200000,2022-10-13 00:00:00,LQTY/USDT,0.391,0.391,0.391,0.391,0,0,0,0,0,0.707922299418513125
1665532800000,2022-10-12 00:00:00,LQTY/USDT,0.391,0.391,0.391,0.391,0,0,0,0,0,0.707922299418513125
1665446400000,2022-10-11 00:00:00,LQTY/USDT,0.391,0.391,0.391,0.391,0,0,0,0,0,0.707922299418513125
1665360000000,2022-10-10 00:00:00,LQTY/USDT,0.391,0.391,0.391,0.391,0,0,0,0,0,0.707922299418513125
1665273600000,2022-10-09 00:00:00,LQTY/USDT,0.391,0.391,0.391,0.391,0,0,0,0,0,0.707922299418513125
1665187200000,2022-10-08 00:00:00,LQTY/USDT,0.391,0.391,0.391,0.391,0,0,0,0,0,0.707922299418513125
1665100800000,2022-10-07 00:00:00,LQTY/USDT,0.391,0.391,0.391,0.391,0,0,0,0,0,0.707922299418513125
1665014400000,2022-10-06 00:00:00,LQTY/USDT,0.391,0.391,0.391,0.391,0,0,0,0,0,0.707922299418513125
1664928000000,2022-10-05 00:00:00,LQTY/USDT,0.391,0.391,0.391,0.391,0,0,0,0,0,0.707922299418513125
1664841600000,2022-10-04 00:00:00,LQTY/USDT,0.391,0.391,0.391,0.391,0,0,0,0,0,0.707922299418513125
1664755200000,2022-10-03 00:00:00,LQTY/USDT,0.391,0.391,0.391,0.391,0,0,0,0,0,0.707922299418513125
1664668800000,2022-10-02 00:00:00,LQTY/USDT,0.391,0.391,0.391,0.391,0,0,0,0,0,0.707922299418513125
1664582400000,2022-10-01 00:00:00,LQTY/USDT,0.391,0.391,0.391,0.391,0,0,0,0,0,0.707922299418513125
1664496000000,2022-09-30 00:00:00,LQTY/USDT,0.391,0.391,0.391,0.391,0,0,0,0,0,0.707922299418513125
1664409600000,2022-09-29 00:00:00,LQTY/USDT,0.391,0.391,0.391,0.391,0,0,0,0,0,0.707922299418513125
1664323200000,2022-09-28 00:00:00,LQTY/USDT,0.391,0.391,0.391,0.391,0,0,0,0,0,0.707922299418513125
1664236800000,2022-09-27 00:00:00,LQTY/USDT,0.391,0.391,0.391,0.391,0,0,0,0,0,0.707922299418513125
1664150400000,2022-09-26 00:00:00,LQTY/USDT,0.391,0.391,0.391,0.391,0,0,0,0,0,0.707922299418513125
1664064000000,2022-09-25 00:00:00,LQTY/USDT,0.7889,0.7889,0.391,0.391,46.70352195,71.1915,0,0,4,0.707922299418513125
1663977600000,2022-09-24 00:00:00,LQTY/USDT,0.7999,0.7999,0.7999,0.7999,0,0,0,0,0,0.799854956426173727
1663891200000,2022-09-23 00:00:00,LQTY/USDT,0.7998,0.7999,0.7998,0.7999,5.4587701,6.8247,5.4587701,6.8247,2,0.799854956426173727
1663804800000,2022-09-22 00:00:00,LQTY/USDT,0.7998,0.7998,0.7998,0.7998,0,0,0,0,0,0.74390548632583886
1663718400000,2022-09-21 00:00:00,LQTY/USDT,0.7998,0.7998,0.7998,0.7998,0,0,0,0,0,0.74390548632583886
1663632000000,2022-09-20 00:00:00,LQTY/USDT,0.6998,0.9998,0.2006,0.7998,45.90639262,77.0851,40.61346132,50.6996,9,0.74390548632583886
1663545600000,2022-09-19 00:00:00,LQTY/USDT,0.4041,0.4041,0.4041,0.4041,4.99996971,12.3731,0,0,1,0.4041
1663459200000,2022-09-18 00:00:00,LQTY/USDT,0.702,0.702,0.702,0.702,0,0,0,0,0,0.702
1663372800000,2022-09-17 00:00:00,LQTY/USDT,0.702,0.702,0.702,0.702,2.5507872,3.6336,2.5507872,3.6336,1,0.702
1663286400000,2022-09-16 00:00:00,LQTY/USDT,0.4004,0.9989,0.4004,0.4004,34.63219375,38.2898,34.18562763,37.1745,5,0.913738129220849601
1663200000000,2022-09-15 00:00:00,LQTY/USDT,0.7999,0.7999,0.7999,0.7999,0,0,0,0,0,0.838344157107629956
1663113600000,2022-09-14 00:00:00,LQTY/USDT,0.7999,0.7999,0.7999,0.7999,0,0,0,0,0,0.838344157107629956
1663027200000,2022-09-13 00:00:00,LQTY/USDT,0.8386,0.8999,0.7999,0.7999,594.41854163,709.1162,15.0635104,17.5308,7,0.838344157107629956
1662940800000,2022-09-12 00:00:00,LQTY/USDT,0.8384,0.8384,0.8384,0.8384,3.34873728,3.9942,0,0,1,0.8384
1662854400000,2022-09-11 00:00:00,LQTY/USDT,0.9989,0.9989,0.9989,0.9989,56.84899724,56.9116,38.86560076,38.9084,2,0.9989
1662768000000,2022-09-10 00:00:00,LQTY/USDT,0.884,0.884,0.884,0.884,13.4777292,15.2463,0,0,1,0.884
1662681600000,2022-09-09 00:00:00,LQTY/USDT,0.999,0.999,0.999,0.999,0.999999,1.001,0.999999,1.001,1,0.999
1662595200000,2022-09-08 00:00:00,LQTY/USDT,0.9999,0.9999,0.9999,0.9999,0.99999999,1.0001,0.99999999,1.0001,1,0.9999
1662508800000,2022-09-07 00:00:00,LQTY/USDT,0.85,0.85,0.85,0.85,17.99994,21.1764,0,0,2,0.85
1662422400000,2022-09-06 00:00:00,LQTY/USDT,0.895,0.895,0.895,0.895,16.8939305,18.8759,0,0,1,0.895
1662336000000,2022-09-05 00:00:00,LQTY/USDT,0.9599,0.9599,0.9599,0.9599,0,0,0,0,0,0.9599
1662249600000,2022-09-04 00:00:00,LQTY/USDT,0.9599,0.9599,0.9599,0.9599,0,0,0,0,0,0.9599
1662163200000,2022-09-03 00:00:00,LQTY/USDT,0.9599,0.9599,0.9599,0.9599,0,0,0,0,0,0.9599
1662076800000,2022-09-02 00:00:00,LQTY/USDT,0.9599,0.9599,0.9599,0.9599,15.17496311,15.8089,15.17496311,15.8089,1,0.9599
1661990400000,2022-09-01 00:00:00,LQTY/USDT,0.9999,0.9999,0.9999,0.9999,0,0,0,0,0,0.9999
1661904000000,2022-08-31 00:00:00,LQTY/USDT,0.9999,0.9999,0.9999,0.9999,0.99999999,1.0001,0.99999999,1.0001,1,0.9999
1661817600000,2022-08-30 00:00:00,LQTY/USDT,0.84,0.84,0.84,0.84,0,0,0,0,0,0.970637254662886067
1661731200000,2022-08-29 00:00:00,LQTY/USDT,0.84,0.84,0.84,0.84,0,0,0,0,0,0.970637254662886067
1661644800000,2022-08-28 00:00:00,LQTY/USDT,0.84,0.84,0.84,0.84,0,0,0,0,0,0.970637254662886067
1661558400000,2022-08-27 00:00:00,LQTY/USDT,0.9999,0.9999,0.84,0.84,11.01599991,11.4009,10.41607191,10.6867,3,0.970637254662886067
1661472000000,2022-08-26 00:00:00,LQTY/USDT,0.84,0.84,0.84,0.84,8.4,10,0,0,1,0.84
1661385600000,2022-08-25 00:00:00,LQTY/USDT,0.8405,0.8405,0.8405,0.8405,0,0,0,0,0,0.831834145716589782
1661299200000,2022-08-24 00:00:00,LQTY/USDT,0.82,0.85,0.8182,0.8405,64.70049645,77.8041,10.98251,12.9206,6,0.831834145716589782
1661212800000,2022-08-23 00:00:00,LQTY/USDT,0.9,0.9,0.9,0.9,0,0,0,0,0,0.900246730637588243
1661126400000,2022-08-22 00:00:00,LQTY/USDT,0.9,0.9,0.9,0.9,0,0,0,0,0,0.900246730637588243
1661040000000,2022-08-21 00:00:00,LQTY/USDT,0.9,0.9,0.9,0.9,0,0,0,0,0,0.900246730637588243
1660953600000,2022-08-20 00:00:00,LQTY/USDT,0.9009,0.9009,0.9,0.9,32.829291,36.467,0,0,4,0.900246730637588243
1660867200000,2022-08-19 00:00:00,LQTY/USDT,1,1,1,1,0,0,0,0,0,1
1660780800000,2022-08-18 00:00:00,LQTY/USDT,1,1,1,1,27,27,0,0,1,1
1660694400000,2022-08-17 00:00:00,LQTY/USDT,1,1.0365,1,1,752.94524841,750.3423,734.40504104,731.821,9,1.003567794516413766
1660608000000,2022-08-16 00:00:00,LQTY/USDT,1.9999,1.9999,1.9999,1.9999,1.099945,0.55,1.099945,0.55,1,1.9999
1660521600000,2022-08-15 00:00:00,LQTY/USDT,1,1,1,1,0.7008,0.7008,0,0,1,1
1660435200000,2022-08-14 00:00:00,LQTY/USDT,2.2,2.2,2.2,2.2,1.54418,0.7019,1.54418,0.7019,1,2.2
1660348800000,2022-08-13 00:00:00,LQTY/USDT,0.98,0.98,0.98,0.98,0,0,0,0,0,0.98
1660262400000,2022-08-12 00:00:00,LQTY/USDT,0.98,0.98,0.98,0.98,5.13471,5.2395,5.13471,5.2395,1,0.98
1658534400000,2022-07-23 00:00:00,LQTY/USDT,1.089991,1.089991,1.089991,1.089991,18.80962145361663,17.25667593,0,0,0,1.089991
1658448000000,2022-07-22 00:00:00,LQTY/USDT,1.00048786,1.00048786,1.00048786,1.00048786,0,0,0,0,0,1.00048786
1658361600000,2022-07-21 00:00:00,LQTY/USDT,1.00048786,1.00048786,1.00048786,1.00048786,0,0,0,0,0,1.00048786
1658275200000,2022-07-20 00:00:00,LQTY/USDT,1.00048786,1.00048786,1.00048786,1.00048786,0,0,0,0,0,1.00048786
1658188800000,2022-07-19 00:00:00,LQTY/USDT,1.00048786,1.00048786,1.00048786,1.00048786,0,0,0,0,0,1.00048786
1658102400000,2022-07-18 00:00:00,LQTY/USDT,1.00048786,1.00048786,1.00048786,1.00048786,0,0,0,0,0,1.00048786
1658016000000,2022-07-17 00:00:00,LQTY/USDT,1.00048786,1.00048786,1.00048786,1.00048786,0,0,0,0,0,1.00048786
1657929600000,2022-07-16 00:00:00,LQTY/USDT,1.00048786,1.00048786,1.00048786,1.00048786,0,0,0,0,0,1.00048786
1657843200000,2022-07-15 00:00:00,LQTY/USDT,1.00048786,1.00048786,1.00048786,1.00048786,0,0,0,0,0,1.00048786
1657756800000,2022-07-14 00:00:00,LQTY/USDT,1.00048786,1.00048786,1.00048786,1.00048786,0,0,0,0,0,1.00048786
1657670400000,2022-07-13 00:00:00,LQTY/USDT,1.00048786,1.00048786,1.00048786,1.00048786,0,0,0,0,0,1.00048786
1657584000000,2022-07-12 00:00:00,LQTY/USDT,1.00048786,1.00048786,1.00048786,1.00048786,0,0,0,0,0,1.00048786
1657497600000,2022-07-11 00:00:00,LQTY/USDT,1.00048786,1.00048786,1.00048786,1.00048786,0,0,0,0,0,1.00048786
1657411200000,2022-07-10 00:00:00,LQTY/USDT,1.00048786,1.00048786,1.00048786,1.00048786,0,0,0,0,0,1.00048786
1657324800000,2022-07-09 00:00:00,LQTY/USDT,1.00048786,1.00048786,1.00048786,1.00048786,0,0,0,0,0,1.00048786
1657238400000,2022-07-08 00:00:00,LQTY/USDT,1.00048786,1.00048786,1.00048786,1.00048786,0,0,0,0,0,1.00048786
1657152000000,2022-07-07 00:00:00,LQTY/USDT,1.00048786,1.00048786,1.00048786,1.00048786,0,0,0,0,0,1.00048786
1657065600000,2022-07-06 00:00:00,LQTY/USDT,1.00048786,1.00048786,1.00048786,1.00048786,0,0,0,0,0,1.00048786
1656979200000,2022-07-05 00:00:00,LQTY/USDT,1.00048786,1.00048786,1.00048786,1.00048786,0,0,0,0,0,1.00048786
1656892800000,2022-07-04 00:00:00,LQTY/USDT,1.00048786,1.00048786,1.00048786,1.00048786,0,0,0,0,0,1.00048786
1656806400000,2022-07-03 00:00:00,LQTY/USDT,1.00048786,1.00048786,1.00048786,1.00048786,0,0,0,0,0,1.00048786
1656720000000,2022-07-02 00:00:00,LQTY/USDT,1.00048786,1.00048786,1.00048786,1.00048786,0,0,0,0,0,1.00048786
1656633600000,2022-07-01 00:00:00,LQTY/USDT,1.00048786,1.00048786,1.00048786,1.00048786,0,0,0,0,0,1.00048786
1656547200000,2022-06-30 00:00:00,LQTY/USDT,1.00048786,1.00048786,1.00048786,1.00048786,0,0,0,0,0,1.00048786
1656460800000,2022-06-29 00:00:00,LQTY/USDT,1.00048786,1.00048786,1.00048786,1.00048786,0,0,0,0,0,1.00048786
1656374400000,2022-06-28 00:00:00,LQTY/USDT,1.00048786,1.00048786,1.00048786,1.00048786,0,0,0,0,0,1.00048786
1656288000000,2022-06-27 00:00:00,LQTY/USDT,1.00048786,1.00048786,1.00048786,1.00048786,0,0,0,0,0,1.00048786
1656201600000,2022-06-26 00:00:00,LQTY/USDT,1.00048786,1.00048786,1.00048786,1.00048786,0,0,0,0,0,1.00048786
1656115200000,2022-06-25 00:00:00,LQTY/USDT,1.00048786,1.00048786,1.00048786,1.00048786,0,0,0,0,0,1.00048786
1656028800000,2022-06-24 00:00:00,LQTY/USDT,1.00048786,1.00048786,1.00048786,1.00048786,14.2004919438259142,14.19356747,0,0,0,1.00048786
1655942400000,2022-06-23 00:00:00,LQTY/USDT,0.97542702,0.97542702,0.97542702,0.97542702,0,0,0,0,0,0.97542702
1655856000000,2022-06-22 00:00:00,LQTY/USDT,0.97542702,0.97542702,0.97542702,0.97542702,0,0,0,0,0,0.97542702
1655769600000,2022-06-21 00:00:00,LQTY/USDT,0.97542702,0.97542702,0.97542702,0.97542702,0,0,0,0,0,0.97542702
1655683200000,2022-06-20 00:00:00,LQTY/USDT,0.97542702,0.97542702,0.97542702,0.97542702,38.7261087447317454,39.70169777,0,0,0,0.97542702
1655596800000,2022-06-19 00:00:00,LQTY/USDT,1.19464126,1.19464126,1.19464126,1.19464126,0,0,0,0,0,1.19464126
1655510400000,2022-06-18 00:00:00,LQTY/USDT,1.19464126,1.19464126,1.19464126,1.19464126,0,0,0,0,0,1.19464126
1655424000000,2022-06-17 00:00:00,LQTY/USDT,1.19464126,1.19464126,1.19464126,1.19464126,58.0883870554674592,48.62412592,0,0,0,1.19464126
1655337600000,2022-06-16 00:00:00,LQTY/USDT,0.88152301,0.90708034,0.81510001,0.81510001,0,0,0,0,0,0.90213085
1655251200000,2022-06-15 00:00:00,LQTY/USDT,0.88152301,0.90708034,0.81510001,0.81510001,0,0,0,0,0,0.90213085
1655164800000,2022-06-14 00:00:00,LQTY/USDT,0.88152301,0.90708034,0.81510001,0.81510001,469.1785775813670875,520.07818775,0,0,0,0.90213085
1655078400000,2022-06-13 00:00:00,LQTY/USDT,0.7309488,0.7309488,0.72933958,0.72933959,163.1497094104022892,223.59862197,0,0,0,0.72965436
1654992000000,2022-06-12 00:00:00,LQTY/USDT,1.1672917,1.1672917,1.1672917,1.1672917,0,0,0,0,0,1.1672917
1654905600000,2022-06-11 00:00:00,LQTY/USDT,1.1672917,1.1672917,1.1672917,1.1672917,0,0,0,0,0,1.1672917
1654819200000,2022-06-10 00:00:00,LQTY/USDT,1.1672917,1.1672917,1.1672917,1.1672917,0,0,0,0,0,1.1672917
1654732800000,2022-06-09 00:00:00,LQTY/USDT,1.1672917,1.1672917,1.1672917,1.1672917,0,0,0,0,0,1.1672917
1654646400000,2022-06-08 00:00:00,LQTY/USDT,1.1672917,1.1672917,1.1672917,1.1672917,4.669145707038981,3.99998193,0,0,0,1.1672917
1654560000000,2022-06-07 00:00:00,LQTY/USDT,0.70000011,1.17032843,0.7,0.99999999,0,0,0,0,0,0.79201899
1654473600000,2022-06-06 00:00:00,LQTY/USDT,0.70000011,1.17032843,0.7,0.99999999,173.4069058387431822,218.94286378,0,0,0,0.79201899
1654387200000,2022-06-05 00:00:00,LQTY/USDT,1.27016185,1.27016185,1.27016185,1.27016185,0,0,0,0,0,1.27016185
1654300800000,2022-06-04 00:00:00,LQTY/USDT,1.27016185,1.27016185,1.27016185,1.27016185,0,0,0,0,0,1.27016185
1654214400000,2022-06-03 00:00:00,LQTY/USDT,1.27016185,1.27016185,1.27016185,1.27016185,0,0,0,0,0,1.27016185
1654128000000,2022-06-02 00:00:00,LQTY/USDT,1.27016185,1.27016185,1.27016185,1.27016185,0,0,0,0,0,1.27016185
1654041600000,2022-06-01 00:00:00,LQTY/USDT,1.27016185,1.27016185,1.27016185,1.27016185,0,0,0,0,0,1.27016185
1653955200000,2022-05-31 00:00:00,LQTY/USDT,1.27016185,1.27016185,1.27016185,1.27016185,0,0,0,0,0,1.27016185
1653868800000,2022-05-30 00:00:00,LQTY/USDT,1.27016185,1.27016185,1.27016185,1.27016185,0,0,0,0,0,1.27016185
1653782400000,2022-05-29 00:00:00,LQTY/USDT,1.27016185,1.27016185,1.27016185,1.27016185,0,0,0,0,0,1.27016185
1653696000000,2022-05-28 00:00:00,LQTY/USDT,1.27016185,1.27016185,1.27016185,1.27016185,1.451980006325071,1.14314566,0,0,0,1.27016185
1653609600000,2022-05-27 00:00:00,LQTY/USDT,1.6228243,1.6228243,1.6228243,1.6228243,0,0,0,0,0,1.6228243
1653523200000,2022-05-26 00:00:00,LQTY/USDT,1.6228243,1.6228243,1.6228243,1.6228243,0,0,0,0,0,1.6228243
1653436800000,2022-05-25 00:00:00,LQTY/USDT,1.6228243,1.6228243,1.6228243,1.6228243,0,0,0,0,0,1.6228243
1653350400000,2022-05-24 00:00:00,LQTY/USDT,1.6228243,1.6228243,1.6228243,1.6228243,0,0,0,0,0,1.6228243
1653264000000,2022-05-23 00:00:00,LQTY/USDT,1.6228243,1.6228243,1.6228243,1.6228243,17.851067283771757,10.99999999,0,0,0,1.6228243
1653177600000,2022-05-22 00:00:00,LQTY/USDT,1.56348091,1.6,1.56348091,1.6,0,0,0,0,0,1.59952361
1653091200000,2022-05-21 00:00:00,LQTY/USDT,1.56348091,1.6,1.56348091,1.6,2275.1025719096417422,1422.36260702,0,0,0,1.59952361
1653004800000,2022-05-20 00:00:00,LQTY/USDT,2.69487562,2.69487562,1.6,1.6,190.5898607535374891,114.90388159,0,0,0,1.65868949
1652918400000,2022-05-19 00:00:00,LQTY/USDT,2.22466647,2.69487562,1.64,2.69487562,2292.689984753030393,1384.13934245,0,0,0,1.65640114
1652832000000,2022-05-18 00:00:00,LQTY/USDT,1.45436283,1.46666667,1.00033113,1.00033113,0,0,0,0,0,1.46533361
1652745600000,2022-05-17 00:00:00,LQTY/USDT,1.45436283,1.46666667,1.00033113,1.00033113,0,0,0,0,0,1.46533361
1652659200000,2022-05-16 00:00:00,LQTY/USDT,1.45436283,1.46666667,1.00033113,1.00033113,0,0,0,0,0,1.46533361
1652572800000,2022-05-15 00:00:00,LQTY/USDT,1.45436283,1.46666667,1.00033113,1.00033113,0,0,0,0,0,1.46533361
1652486400000,2022-05-14 00:00:00,LQTY/USDT,1.45436283,1.46666667,1.00033113,1.00033113,0,0,0,0,0,1.46533361
1652400000000,2022-05-13 00:00:00,LQTY/USDT,1.45436283,1.46666667,1.00033113,1.00033113,1781.3085116337269304,1215.63342264,0,0,0,1.46533361
1652313600000,2022-05-12 00:00:00,LQTY/USDT,1.39927649,1.42460466,1.39927648,1.42460466,3317.800282596973893,2349.81526677,0,0,0,1.4119409
1652227200000,2022-05-11 00:00:00,LQTY/USDT,1.2,1.31307132,1,1.31307132,99.1073152410101331,84.47985407,0,0,0,1.17314733
1652140800000,2022-05-10 00:00:00,LQTY/USDT,1.27,1.27,1.27,1.27,0,0,0,0,0,1.27
1652054400000,2022-05-09 00:00:00,LQTY/USDT,1.27,1.27,1.27,1.27,2.54,2,0,0,0,1.27
1651968000000,2022-05-08 00:00:00,LQTY/USDT,1.50961601,1.50961601,1.50961601,1.50961601,6.95369742876669,4.606269,0,0,0,1.50961601
1651881600000,2022-05-07 00:00:00,LQTY/USDT,1.59010237,2.22466647,1.25100299,1.53343296,10533.105696038864697,7370.65296594,0,0,0,1.42906005
1651795200000,2022-05-06 00:00:00,LQTY/USDT,1.461147,1.756203,1.461147,1.756203,15.9136507500626574,9.83581362,0,0,0,1.61792927
1651708800000,2022-05-05 00:00:00,LQTY/USDT,1.49946713,1.50632617,1.47423957,1.47423957,67.7031732401397642,45.29179338,0,0,0,1.49482209
1651622400000,2022-05-04 00:00:00,LQTY/USDT,1.56401355,1.56401355,1.54422219,1.54422219,0,0,0,0,0,1.55306768
1651536000000,2022-05-03 00:00:00,LQTY/USDT,1.56401355,1.56401355,1.54422219,1.54422219,0,0,0,0,0,1.55306768
1651449600000,2022-05-02 00:00:00,LQTY/USDT,1.56401355,1.56401355,1.54422219,1.54422219,241.0238727670168368,155.19212451,0,0,0,1.55306768
1651363200000,2022-05-01 00:00:00,LQTY/USDT,1.73465203,1.78691819,1.7090498,1.78691819,0,0,0,0,0,1.77436543
1651276800000,2022-04-30 00:00:00,LQTY/USDT,1.73465203,1.78691819,1.7090498,1.78691819,0,0,0,0,0,1.77436543
1651190400000,2022-04-29 00:00:00,LQTY/USDT,1.73465203,1.78691819,1.7090498,1.78691819,0,0,0,0,0,1.77436543
1651104000000,2022-04-28 00:00:00,LQTY/USDT,1.73465203,1.78691819,1.7090498,1.78691819,419.2835632425285806,236.30057042,0,0,0,1.77436543
1651017600000,2022-04-27 00:00:00,LQTY/USDT,1.61226631,1.69209518,1.61226631,1.67802199,749.148960267050196,446.4703774,0,0,0,1.67793654
1650931200000,2022-04-26 00:00:00,LQTY/USDT,1.70662773,1.72212672,1,1.61748694,1213.2086988639951284,746.07631909,0,0,0,1.62611876
1650844800000,2022-04-25 00:00:00,LQTY/USDT,3,8.389999,1.68475594,1.69802171,18456.9218248661151774,5013.34311522,0,0,0,3.68155967
1650758400000,2022-04-24 00:00:00,LQTY/USDT,1.78165505,1.78686389,1.78165505,1.78686389,442.116835452179459,247.96196206,0,0,0,1.78300265
1650672000000,2022-04-23 00:00:00,LQTY/USDT,1.77232746,1.77232746,1.77232746,1.77232746,44.2072017094178202,24.94302137,0,0,0,1.77232746
1650585600000,2022-04-22 00:00:00,LQTY/USDT,1.79858825,1.79858825,1.78975547,1.79311629,5.9195816639381262,3.30000001,0,0,0,1.79381262
1650499200000,2022-04-21 00:00:00,LQTY/USDT,1.84586886,1.88,1.84586886,1.87931585,277.402969658098016,147.60841262,0,0,0,1.8793168
1650412800000,2022-04-20 00:00:00,LQTY/USDT,1.8000001,1.85729072,1.8,1.85729072,485.695608562627698,266.4483233,0,0,0,1.82285106
1650326400000,2022-04-19 00:00:00,LQTY/USDT,1.88035855,1.88036,1.86426422,1.86426422,8.245041382522539,4.39999998,0,0,0,1.87387305
1650240000000,2022-04-18 00:00:00,LQTY/USDT,2,2,1.87000226,1.94889961,0,0,0,0,0,1.89184958
1650153600000,2022-04-17 00:00:00,LQTY/USDT,2,2,1.87000226,1.94889961,636.4995126393309044,336.44298118,0,0,0,1.89184958
1650067200000,2022-04-16 00:00:00,LQTY/USDT,2.15,2.15,2.1,2.1,6.6823913705909633,3.15500003,0,0,0,2.11803211
1649980800000,2022-04-15 00:00:00,LQTY/USDT,2.27088657,2.75452057,2.27088657,2.31,66.3379053292193208,24.70741509,0,0,0,2.68493912
1649894400000,2022-04-14 00:00:00,LQTY/USDT,1.8811142,1.8811142,1.84162685,1.84162685,49.6353017472647894,26.92876741,0,0,0,1.84320734
1649808000000,2022-04-13 00:00:00,LQTY/USDT,1.79256398,1.87513422,1.79256398,1.87513422,578.9830589321740695,320.58401981,0,0,0,1.80602595
1649721600000,2022-04-12 00:00:00,LQTY/USDT,1.77400001,3.299999,1.774,1.78822187,594.2623101475998838,330.89316773,0,0,0,1.79593406
1649635200000,2022-04-11 00:00:00,LQTY/USDT,2,2,2,2,52.92890648,26.46445324,0,0,0,2
1649548800000,2022-04-10 00:00:00,LQTY/USDT,2.1159412,2.1159412,1.10000001,2,74.294912182144358,36.91020101,0,0,0,2.0128558
1649462400000,2022-04-09 00:00:00,LQTY/USDT,2.282206,2.282206,2.282206,2.282206,0,0,0,0,0,2.282206
1649376000000,2022-04-08 00:00:00,LQTY/USDT,2.282206,2.282206,2.282206,2.282206,0,0,0,0,0,2.282206
1649289600000,2022-04-07 00:00:00,LQTY/USDT,2.282206,2.282206,2.282206,2.282206,15.40954270846482,6.75203847,0,0,0,2.282206
1649203200000,2022-04-06 00:00:00,LQTY/USDT,2.6,2.6,2.27001812,2.35928261,21.1120364206510044,8.63727722,0,0,0,2.44429302
1649116800000,2022-04-05 00:00:00,LQTY/USDT,2.7001,2.7001,2.7,2.7,27.0008054351639795,10.00000205,0,0,0,2.70007999
1649030400000,2022-04-04 00:00:00,LQTY/USDT,3.0686196,3.0686196,3.04439746,3.04439746,0,0,0,0,0,3.04544298
1648944000000,2022-04-03 00:00:00,LQTY/USDT,3.0686196,3.0686196,3.04439746,3.04439746,0,0,0,0,0,3.04544298
1648857600000,2022-04-02 00:00:00,LQTY/USDT,3.0686196,3.0686196,3.04439746,3.04439746,214.8711562719051906,70.55497597,0,0,0,3.04544298
1648771200000,2022-04-01 00:00:00,LQTY/USDT,2.93679338,2.93679338,2.93679338,2.93679338,0,0,0,0,0,2.93679338
1648684800000,2022-03-31 00:00:00,LQTY/USDT,2.93679338,2.93679338,2.93679338,2.93679338,17.6015415517060744,5.99345588,0,0,0,2.93679338
1648598400000,2022-03-30 00:00:00,LQTY/USDT,2.67723677,2.67723677,2.57,2.57,0,0,0,0,0,2.67102703
1648512000000,2022-03-29 00:00:00,LQTY/USDT,2.67723677,2.67723677,2.57,2.57,0,0,0,0,0,2.67102703
1648425600000,2022-03-28 00:00:00,LQTY/USDT,2.67723677,2.67723677,2.57,2.57,0,0,0,0,0,2.67102703
1648339200000,2022-03-27 00:00:00,LQTY/USDT,2.67723677,2.67723677,2.57,2.57,0,0,0,0,0,2.67102703
1648252800000,2022-03-26 00:00:00,LQTY/USDT,2.67723677,2.67723677,2.57,2.57,0,0,0,0,0,2.67102703
1648166400000,2022-03-25 00:00:00,LQTY/USDT,2.67723677,2.67723677,2.57,2.57,170.0819605383704778,63.67661526,0,0,0,2.67102703
1648080000000,2022-03-24 00:00:00,LQTY/USDT,2.68253931,2.68253931,2.55000001,2.6825393,0,0,0,0,0,2.64457466
1647993600000,2022-03-23 00:00:00,LQTY/USDT,2.68253931,2.68253931,2.55000001,2.6825393,0,0,0,0,0,2.64457466
1647907200000,2022-03-22 00:00:00,LQTY/USDT,2.68253931,2.68253931,2.55000001,2.6825393,10.9872628322197286,4.15464271,0,0,0,2.64457466
1647820800000,2022-03-21 00:00:00,LQTY/USDT,2.17,2.37333886,2.17,2.37333886,0,0,0,0,0,2.2839184
1647734400000,2022-03-20 00:00:00,LQTY/USDT,2.17,2.37333886,2.17,2.37333886,0,0,0,0,0,2.2839184
1647648000000,2022-03-19 00:00:00,LQTY/USDT,2.17,2.37333886,2.17,2.37333886,0,0,0,0,0,2.2839184
1647561600000,2022-03-18 00:00:00,LQTY/USDT,2.17,2.37333886,2.17,2.37333886,545.309063874031328,238.76030942,0,0,0,2.2839184
1647475200000,2022-03-17 00:00:00,LQTY/USDT,4,4,4,4,0,0,0,0,0,4
1647388800000,2022-03-16 00:00:00,LQTY/USDT,4,4,4,4,0,0,0,0,0,4
1647302400000,2022-03-15 00:00:00,LQTY/USDT,4,4,4,4,0,0,0,0,0,4
1647216000000,2022-03-14 00:00:00,LQTY/USDT,4,4,4,4,0,0,0,0,0,4
1647129600000,2022-03-13 00:00:00,LQTY/USDT,4,4,4,4,0,0,0,0,0,4
1647043200000,2022-03-12 00:00:00,LQTY/USDT,4,4,4,4,0,0,0,0,0,4
1646956800000,2022-03-11 00:00:00,LQTY/USDT,4,4,4,4,0,0,0,0,0,4
1646870400000,2022-03-10 00:00:00,LQTY/USDT,4,4,4,4,0,0,0,0,0,4
1646784000000,2022-03-09 00:00:00,LQTY/USDT,4,4,4,4,4,1,0,0,0,4
1646697600000,2022-03-08 00:00:00,LQTY/USDT,3,3,3,3,0,0,0,0,0,3
1646611200000,2022-03-07 00:00:00,LQTY/USDT,3,3,3,3,0,0,0,0,0,3
1646524800000,2022-03-06 00:00:00,LQTY/USDT,3,3,3,3,576,192,0,0,0,3
1646438400000,2022-03-05 00:00:00,LQTY/USDT,2.50095466,2.50095466,2.50095466,2.50095466,0,0,0,0,0,2.50095466
1646352000000,2022-03-04 00:00:00,LQTY/USDT,2.50095466,2.50095466,2.50095466,2.50095466,11.8078777572630654,4.72134819,0,0,0,2.50095466
1646265600000,2022-03-03 00:00:00,LQTY/USDT,3.4310096,3.65931096,3.4310096,3.65931096,0,0,0,0,0,3.53606294
1646179200000,2022-03-02 00:00:00,LQTY/USDT,3.4310096,3.65931096,3.4310096,3.65931096,7.4999896018218882,2.12100003,0,0,0,3.53606294
1646092800000,2022-03-01 00:00:00,LQTY/USDT,2,2,2,2,0,0,0,0,0,2
1646006400000,2022-02-28 00:00:00,LQTY/USDT,2,2,2,2,0,0,0,0,0,2
1645920000000,2022-02-27 00:00:00,LQTY/USDT,2,2,2,2,0,0,0,0,0,2
1645833600000,2022-02-26 00:00:00,LQTY/USDT,2,2,2,2,0,0,0,0,0,2
1645747200000,2022-02-25 00:00:00,LQTY/USDT,2,2,2,2,0,0,0,0,0,2
1645660800000,2022-02-24 00:00:00,LQTY/USDT,2,2,2,2,139.74435688,69.87217844,0,0,0,2
1645574400000,2022-02-23 00:00:00,LQTY/USDT,2.2000002,2.2000002,2.00002816,2.10704748,0,0,0,0,0,2.07266909
1645488000000,2022-02-22 00:00:00,LQTY/USDT,2.2000002,2.2000002,2.00002816,2.10704748,44.8477479452015284,21.63767876,0,0,0,2.07266909
1645401600000,2022-02-21 00:00:00,LQTY/USDT,2.99999999,2.99999999,2.99999999,2.99999999,0,0,0,0,0,2.99999999
1645315200000,2022-02-20 00:00:00,LQTY/USDT,2.99999999,2.99999999,2.99999999,2.99999999,30.9839002667203321,10.32796679,0,0,0,2.99999999
1645228800000,2022-02-19 00:00:00,LQTY/USDT,2.22881926,2.99999999,2.22881926,2.9999999,28.305620944550604,9.83213622,0,0,0,2.8788882
1645142400000,2022-02-18 00:00:00,LQTY/USDT,2.3543332,2.3543332,2.04307854,2.09502689,11.9795849135621268,5.50000002,0,0,0,2.17810634
1645056000000,2022-02-17 00:00:00,LQTY/USDT,2.53361673,2.53361673,2.53361673,2.53361673,2.786978403,1.1,0,0,0,2.53361673
1644969600000,2022-02-16 00:00:00,LQTY/USDT,2.59347727,2.60349661,2.59347727,2.60325423,8.5802231599986472,3.29999998,0,0,0,2.60006764
1644883200000,2022-02-15 00:00:00,LQTY/USDT,2.53420066,2.57360538,2.49797879,2.57360538,13.9937489145900222,5.49546837,0,0,0,2.54641606
1644796800000,2022-02-14 00:00:00,LQTY/USDT,2.46392315,2.54194726,2.00002145,2.54194726,2116.597802687977011,918.02944194,0,0,0,2.30558815
1644710400000,2022-02-13 00:00:00,LQTY/USDT,2.7020354,2.70781219,2.7020354,2.70781219,174.4915779758296158,64.57548162,0,0,0,2.70213359
1644624000000,2022-02-12 00:00:00,LQTY/USDT,2.5,2.59999999,2.5,2.59999999,14.04464281,5.5,0,0,0,2.55357142
1644537600000,2022-02-11 00:00:00,LQTY/USDT,3.11426504,3.11426504,2.6300244,2.6300244,158.2418879058385062,60.01000002,0,0,0,2.63692531
1644451200000,2022-02-10 00:00:00,LQTY/USDT,3.00522438,3.14,2.8730001,2.8730001,322.14561814123506,109.94087484,0,0,0,2.9301715
1644364800000,2022-02-09 00:00:00,LQTY/USDT,3.00542737,3.00542737,2.80000001,3.00522438,482.2058139324104985,165.43695369,0,0,0,2.91474065
1644278400000,2022-02-08 00:00:00,LQTY/USDT,3.14368104,3.14368104,3,3,41.1534092525883156,13.49006931,0,0,0,3.05064476
1644192000000,2022-02-07 00:00:00,LQTY/USDT,2.9,3.1254748,2.700001,3.1254748,551.2904309497609474,193.70973514,0,0,0,2.84596141
1644105600000,2022-02-06 00:00:00,LQTY/USDT,3.03526596,3.03526596,3.03526596,3.03526596,3.3387925256473404,1.09999999,0,0,0,3.03526596
1644019200000,2022-02-05 00:00:00,LQTY/USDT,3.0778139,3.0778139,2.98570532,2.98570532,118.6502919245242425,39.63305259,0,0,0,2.99372075
1643932800000,2022-02-04 00:00:00,LQTY/USDT,2.83252711,3.03750406,2.70001065,2.92184228,237.2959129415855054,83.97030386,0,0,0,2.82595039
1643846400000,2022-02-03 00:00:00,LQTY/USDT,2.93296026,2.93296026,2.86454781,2.86536309,99.1292595746527003,34.49563577,0,0,0,2.87367539
1643760000000,2022-02-02 00:00:00,LQTY/USDT,3.1401318,3.1401318,3,3,9.4496356044826954,3.10000001,0,0,0,3.04826954
1643673600000,2022-02-01 00:00:00,LQTY/USDT,3.09098512,3.16306527,3.09098512,3.16306527,84.033460300368088,26.59272328,0,0,0,3.1600171
1643587200000,2022-01-31 00:00:00,LQTY/USDT,3.135376,4.82,3.135376,3.3,1212.2084310329658336,358.87074076,0,0,0,3.37784136
1643500800000,2022-01-30 00:00:00,LQTY/USDT,3.15533019,3.1957,3.07635914,3.1957,108.1294184771073297,34.35225039,0,0,0,3.14766623
1643414400000,2022-01-29 00:00:00,LQTY/USDT,2.8726802,2.87828594,2.8726802,2.87828594,0,0,0,0,0,2.87635074
1643328000000,2022-01-28 00:00:00,LQTY/USDT,2.8726802,2.87828594,2.8726802,2.87828594,0,0,0,0,0,2.87635074
1643241600000,2022-01-27 00:00:00,LQTY/USDT,2.8726802,2.87828594,2.8726802,2.87828594,79.2550986461755368,27.55404532,0,0,0,2.87635074
1643155200000,2022-01-26 00:00:00,LQTY/USDT,2.8827909,2.88818892,2.61000871,2.80844173,78.0266641256036074,28.50523942,0,0,0,2.73727447
1643068800000,2022-01-25 00:00:00,LQTY/USDT,4.31950994,4.32757988,3.1,3.35151012,0,0,0,0,0,3.20397818
1642982400000,2022-01-24 00:00:00,LQTY/USDT,4.31950994,4.32757988,3.1,3.35151012,718.493359139871653,224.25039085,0,0,0,3.20397818
1642896000000,2022-01-23 00:00:00,LQTY/USDT,3.7880033,4.33238056,3.7880033,4.2858954,3608.1612636239151904,877.88123501,0,0,0,4.11007904
1642809600000,2022-01-22 00:00:00,LQTY/USDT,3.2,3.7880033,3.156001,3.23806961,597.2385670738412802,182.27669574,0,0,0,3.27654923
1642723200000,2022-01-21 00:00:00,LQTY/USDT,5.00000001,5.00000001,3.92187006,3.92187006,591.1844724770074088,124.00145192,0,0,0,4.76756089
1642636800000,2022-01-20 00:00:00,LQTY/USDT,5.000001,5.05829021,4.87446767,5.05829021,5043.9068917286983284,1009.39033546,0,0,0,4.99698354
1642550400000,2022-01-19 00:00:00,LQTY/USDT,5.34330506,5.34330506,5.07876804,5.1135056,1101.5164770093794004,215.37965026,0,0,0,5.11430154
1642464000000,2022-01-18 00:00:00,LQTY/USDT,5.6717868,6.58055537,5.64125845,6.01,2738.3148257532823287,460.88184573,0,0,0,5.94146819
1642377600000,2022-01-17 00:00:00,LQTY/USDT,5.67053086,6.15808882,5.67053086,6.15808882,1003.4875646140989246,176.32939902,0,0,0,5.69098273
1642291200000,2022-01-16 00:00:00,LQTY/USDT,5.88000002,5.88000002,5.07876797,5.48010015,2293.1754292649158005,402.66488083,0,0,0,5.69499735
1642204800000,2022-01-15 00:00:00,LQTY/USDT,5.91880005,5.91880005,5.88000002,5.88000002,19819.3675461099509412,3370.29315186,0,0,0,5.88060642
1642118400000,2022-01-14 00:00:00,LQTY/USDT,5.88000011,6.36610281,5.88000002,6.36610281,3393.9151047136707706,573.35293597,0,0,0,5.91941698
1642032000000,2022-01-13 00:00:00,LQTY/USDT,6.25243661,8.2,5.97,5.97,2758.999113828930812,404.5314958,0,0,0,6.82023314
1641945600000,2022-01-12 00:00:00,LQTY/USDT,5.00000001,10,5.00000001,5.88000002,56529.2531637658511526,8386.38122053,0,0,0,6.74060142
1641859200000,2022-01-11 00:00:00,LQTY/USDT,5.00000001,5.00000001,5.00000001,5.00000001,0,0,0,0,0,5.00000001
1641772800000,2022-01-10 00:00:00,LQTY/USDT,5.00000001,5.00000001,5.00000001,5.00000001,19.3546812887093625,3.87093625,0,0,0,5.00000001
1641686400000,2022-01-09 00:00:00,LQTY/USDT,5,5,4.66000001,4.66000001,0,0,0,0,0,4.87253032
1641600000000,2022-01-08 00:00:00,LQTY/USDT,5,5,4.66000001,4.66000001,0,0,0,0,0,4.87253032
1641513600000,2022-01-07 00:00:00,LQTY/USDT,5,5,4.66000001,4.66000001,0,0,0,0,0,4.87253032
1641427200000,2022-01-06 00:00:00,LQTY/USDT,5,5,4.66000001,4.66000001,1036.9477225757857872,212.81503746,0,0,0,4.87253032
1641340800000,2022-01-05 00:00:00,LQTY/USDT,5.89999999,5.89999999,5,5.00000001,177.9523678361974576,35.42187832,0,0,0,5.02379818
1641254400000,2022-01-04 00:00:00,LQTY/USDT,6.3,6.3,5.00000001,5.8012345,2265.034982270365251,430.1425041,0,0,0,5.26577811
1641168000000,2022-01-03 00:00:00,LQTY/USDT,6.34059155,6.34059155,6.34059155,6.34059155,0,0,0,0,0,6.34059155
1641081600000,2022-01-02 00:00:00,LQTY/USDT,6.34059155,6.34059155,6.34059155,6.34059155,0,0,0,0,0,6.34059155
1640995200000,2022-01-01 00:00:00,LQTY/USDT,6.34059155,6.34059155,6.34059155,6.34059155,6.3405922474650705,1.00000011,0,0,0,6.34059155
1640908800000,2021-12-31 00:00:00,LQTY/USDT,6.21000011,6.21000011,6.21000003,6.21000003,0,0,0,0,0,6.2100001
1640822400000,2021-12-30 00:00:00,LQTY/USDT,6.21000011,6.21000011,6.21000003,6.21000003,0,0,0,0,0,6.2100001
1640736000000,2021-12-29 00:00:00,LQTY/USDT,6.21000011,6.21000011,6.21000003,6.21000003,0,0,0,0,0,6.2100001
1640649600000,2021-12-28 00:00:00,LQTY/USDT,6.21000011,6.21000011,6.21000003,6.21000003,6936.333009300781926,1116.96181926,0,0,0,6.2100001
1640563200000,2021-12-27 00:00:00,LQTY/USDT,5.71,11.5,5.71,6.21000021,7716.905635548295875,1016.4022333,0,0,0,7.59237375
1640476800000,2021-12-26 00:00:00,LQTY/USDT,6.9799997,6.9799998,6.9799997,6.9799998,0,0,0,0,0,6.97999978
1640390400000,2021-12-25 00:00:00,LQTY/USDT,6.9799997,6.9799998,6.9799997,6.9799998,0,0,0,0,0,6.97999978
1640304000000,2021-12-24 00:00:00,LQTY/USDT,6.9799997,6.9799998,6.9799997,6.9799998,939.5263936786193232,134.60263944,0,0,0,6.97999978
1640217600000,2021-12-23 00:00:00,LQTY/USDT,5.655,7,5.655,7,0,0,0,0,0,6.14587938
1640131200000,2021-12-22 00:00:00,LQTY/USDT,5.655,7,5.655,7,57.5473337431932378,9.36356381,0,0,0,6.14587938
1640044800000,2021-12-21 00:00:00,LQTY/USDT,5.655,5.655,5.655,5.655,0,0,0,0,0,5.655
1639958400000,2021-12-20 00:00:00,LQTY/USDT,5.655,5.655,5.655,5.655,0,0,0,0,0,5.655
1639872000000,2021-12-19 00:00:00,LQTY/USDT,5.655,5.655,5.655,5.655,6.2205001131,1.10000002,0,0,0,5.655
1639785600000,2021-12-18 00:00:00,LQTY/USDT,5.655,5.655,5.655,5.655,12.44100028275,2.20000005,0,0,0,5.655
1639699200000,2021-12-17 00:00:00,LQTY/USDT,5.50000001,5.50000001,5.50000001,5.50000001,3.0324926005136229,0.55136229,0,0,0,5.50000001
1639612800000,2021-12-16 00:00:00,LQTY/USDT,5.50000001,5.50000001,5.50000001,5.50000001,7.4480197685418541,1.35418541,0,0,0,5.50000001
1639526400000,2021-12-15 00:00:00,LQTY/USDT,5.65500002,5.65500002,5.655,5.655,0,0,0,0,0,5.655
1639440000000,2021-12-14 00:00:00,LQTY/USDT,5.65500002,5.65500002,5.655,5.655,0,0,0,0,0,5.655
1639353600000,2021-12-13 00:00:00,LQTY/USDT,5.65500002,5.65500002,5.655,5.655,113.8737583815,20.1368273,0,0,0,5.655
1639267200000,2021-12-12 00:00:00,LQTY/USDT,7.2999,8.0299894,5.655,5.655,0,0,0,0,0,6.80323459
1639180800000,2021-12-11 00:00:00,LQTY/USDT,7.2999,8.0299894,5.655,5.655,0,0,0,0,0,6.80323459
1639094400000,2021-12-10 00:00:00,LQTY/USDT,7.2999,8.0299894,5.655,5.655,1190.0159986711880872,174.91914808,0,0,0,6.80323459
1639008000000,2021-12-09 00:00:00,LQTY/USDT,7.30029991,7.30029991,7.3002999,7.3002999,116.700329575368021,15.98568979,0,0,0,7.3002999
1638921600000,2021-12-08 00:00:00,LQTY/USDT,7.10000001,8.2999,7.10000001,8.2999,247.9890160505026592,33.41697952,0,0,0,7.42104821
1638835200000,2021-12-07 00:00:00,LQTY/USDT,6.19999998,7.10000035,5.99999999,7.10000035,3453.4598037124970664,510.55463826,0,0,0,6.76413364
1638748800000,2021-12-06 00:00:00,LQTY/USDT,7.50000001,7.50000001,5,6.19999999,3866.9397867900148383,626.80129857,0,0,0,6.16932319
1638662400000,2021-12-05 00:00:00,LQTY/USDT,8.40000003,8.40000003,8.40000003,8.40000003,41.9999998979999991,4.99999997,0,0,0,8.40000003
1638576000000,2021-12-04 00:00:00,LQTY/USDT,8.50000007,8.50000007,7.5,7.5,1726.168264257436956,221.83099268,0,0,0,7.7814567
1638489600000,2021-12-03 00:00:00,LQTY/USDT,10.24998424,10.24998424,8.50000006,8.50000006,22.2801531291711228,2.37637964,0,0,0,9.37567077
1638403200000,2021-12-02 00:00:00,LQTY/USDT,8.50000007,8.50000007,8.50000007,8.50000007,668.9814889142592751,78.70370393,0,0,0,8.50000007
1638316800000,2021-12-01 00:00:00,LQTY/USDT,9.52221393,9.52221393,8.95,8.99170025,3361.1087179025275369,374.32722139,0,0,0,8.97906571
1638230400000,2021-11-30 00:00:00,LQTY/USDT,9.9067,11.49995499,9.16066091,9.16066091,6543.1391853590279896,650.28851428,0,0,0,10.06190182
1638144000000,2021-11-29 00:00:00,LQTY/USDT,7.33300002,7.33300011,7.33000006,7.33000006,0,0,0,0,0,7.33268998
1638057600000,2021-11-28 00:00:00,LQTY/USDT,7.33300002,7.33300011,7.33000006,7.33000006,1463.569055454673321,199.59510895,0,0,0,7.33268998
1637971200000,2021-11-27 00:00:00,LQTY/USDT,9.11,9.99999899,7.30000001,9.99554983,13704.504372864726989,1538.55082321,0,0,0,8.9074109
1637884800000,2021-11-26 00:00:00,LQTY/USDT,9.1222,9.92,9.1,9.92,1576.7283822681032207,172.84096499,0,0,0,9.12242293
1637798400000,2021-11-25 00:00:00,LQTY/USDT,10,10,10,10,0,0,0,0,0,10
1637712000000,2021-11-24 00:00:00,LQTY/USDT,10,10,10,10,2046.780261,204.6780261,0,0,0,10
1637625600000,2021-11-23 00:00:00,LQTY/USDT,9.10000001,10,9.1,10,4583.4032791893508389,498.22212357,0,0,0,9.19951777
1637539200000,2021-11-22 00:00:00,LQTY/USDT,9.51000001,9.51000001,9.10000001,9.10000001,362.7990961170893632,38.34494272,0,0,0,9.46145881
1637452800000,2021-11-21 00:00:00,LQTY/USDT,10.77776986,10.77776986,10.77776986,10.77776986,11.8555467382223014,1.09999999,0,0,0,10.77776986
1637366400000,2021-11-20 00:00:00,LQTY/USDT,11,11,9.51,9.51,1834.41063958283935,191.3529886,0,0,0,9.58652725
1637280000000,2021-11-19 00:00:00,LQTY/USDT,9.6,11,9.6,9.7,382.6425124734472304,39.43407556,0,0,0,9.70334684
1637193600000,2021-11-18 00:00:00,LQTY/USDT,9.61,9.61,9.6,9.6,101.9937282470260504,10.62018274,0,0,0,9.60376396
1637107200000,2021-11-17 00:00:00,LQTY/USDT,11.55,11.55,11.55,11.55,25.4100012705,2.20000011,0,0,0,11.55
1637020800000,2021-11-16 00:00:00,LQTY/USDT,11.50001011,12,10.2,12,2231.3472987974237802,195.38563986,0,0,0,11.42022157
1636934400000,2021-11-15 00:00:00,LQTY/USDT,13.73090882,13.86821791,11.7500001,12.69999991,800.7937311169883584,63.40672574,0,0,0,12.62947616
1636848000000,2021-11-14 00:00:00,LQTY/USDT,10.94299999,14.49,9,11.23090882,0,0,0,0,0,11.97647471
1636761600000,2021-11-13 00:00:00,LQTY/USDT,10.94299999,14.49,9,11.23090882,25713.944079587036469,2147.0378139,0,0,0,11.97647471
1636675200000,2021-11-12 00:00:00,LQTY/USDT,11.5,11.50000001,9.7700101,9.7700101,414.9114568377898199,38.94199553,0,0,0,10.65460183
1636588800000,2021-11-11 00:00:00,LQTY/USDT,10.00000004,12.39999872,10,10,1319.8285791419394021,120.71879293,0,0,0,10.93308297
1636502400000,2021-11-10 00:00:00,LQTY/USDT,13.48746465,13.48746465,9.8,10,3464.7259935821772084,319.86439764,0,0,0,10.83185881
1636416000000,2021-11-09 00:00:00,LQTY/USDT,11.86,11.86,11.86,11.86,783.2067510192,66.03766872,0,0,0,11.86
1636329600000,2021-11-08 00:00:00,LQTY/USDT,12.00000001,12.00000001,11.60000001,11.60000001,366.345073063833079,30.93386605,0,0,0,11.84284798
1636243200000,2021-11-07 00:00:00,LQTY/USDT,9.77001003,14.49999985,9.77001003,12,69438.3236666374553456,6066.86949896,0,0,0,11.44549486
1636156800000,2021-11-06 00:00:00,LQTY/USDT,7.50000007,11.999999,7.20000001,9.77001003,28458.9547589368914786,2974.51893042,0,0,0,9.56758233
1636070400000,2021-11-05 00:00:00,LQTY/USDT,7,9,7,9,39464.942520559475872,4428.35766619,0,0,0,8.9118688
1635984000000,2021-11-04 00:00:00,LQTY/USDT,7,7,7,7,830.27164668,118.61023524,0,0,0,7
1635897600000,2021-11-03 00:00:00,LQTY/USDT,8.49999999,8.49999999,7.15,7.15,280.5116750406593412,38.74999994,0,0,0,7.23901098
1635811200000,2021-11-02 00:00:00,LQTY/USDT,8.60000001,8.99,6.4250001,7.53414632,31196.963492026293624,4386.5981473,0,0,0,7.11188088
1635724800000,2021-11-01 00:00:00,LQTY/USDT,6.80000001,8.99899991,6.5,8.5,3425.9641227666523112,423.67934929,0,0,0,8.08621928
1635638400000,2021-10-31 00:00:00,LQTY/USDT,6.09,9,6.09,6.7,35048.0109283908519405,4597.01441247,0,0,0,7.62408115
1635552000000,2021-10-30 00:00:00,LQTY/USDT,6.12599999,6.12599999,5.89979894,5.89979894,179.1386592484702884,29.27498894,0,0,0,6.11917086
1635465600000,2021-10-29 00:00:00,LQTY/USDT,6.12,6.12599999,5.21836518,6.12599999,2555.7630912014443632,454.54511183,0,0,0,5.62268304
1635379200000,2021-10-28 00:00:00,LQTY/USDT,6.126,6.126,6.126,6.126,85.67548567104,13.98555104,0,0,0,6.126
1635292800000,2021-10-27 00:00:00,LQTY/USDT,6.26,6.26,6.26,6.26,657.3,105,0,0,0,6.26
1635206400000,2021-10-26 00:00:00,LQTY/USDT,6.46199966,6.46199966,6.32696199,6.32696199,1669.993382297115055,260.1757045,0,0,0,6.41871379
1635120000000,2021-10-25 00:00:00,LQTY/USDT,6.61999725,6.61999725,6.61999701,6.61999701,146.7195769084170558,22.16308739,0,0,0,6.61999722
1635033600000,2021-10-24 00:00:00,LQTY/USDT,6.62299999,6.62299999,6.62299999,6.62299999,781.2758183880996262,117.96403738,0,0,0,6.62299999
1634947200000,2021-10-23 00:00:00,LQTY/USDT,7.49624997,7.49624997,5.3000001,7.24129,2140.8423955198826728,353.73883198,0,0,0,6.05204236
1634860800000,2021-10-22 00:00:00,LQTY/USDT,7,7.49999997,6.09001011,7.49999997,870.7689288121886678,121.88103263,0,0,0,7.14441706
1634774400000,2021-10-21 00:00:00,LQTY/USDT,5.99999983,7.5,5.99999983,7,18420.3137425334880529,2897.56154773,0,0,0,6.35717773
1634688000000,2021-10-20 00:00:00,LQTY/USDT,5.30000011,6,5.30000011,5.99999999,72.968962789424845,12.94904675,0,0,0,5.63508374
1634601600000,2021-10-19 00:00:00,LQTY/USDT,5.30000011,5.30000011,5.30000011,5.30000011,57.1942078090495714,10.79135974,0,0,0,5.30000011
1634515200000,2021-10-18 00:00:00,LQTY/USDT,7.09999999,7.09999999,7.09999999,7.09999999,0,0,0,0,0,7.09999999
1634428800000,2021-10-17 00:00:00,LQTY/USDT,7.09999999,7.09999999,7.09999999,7.09999999,7.1000004159999994,1.00000006,0,0,0,7.09999999
1634342400000,2021-10-16 00:00:00,LQTY/USDT,6.70477371,7.49999993,5.30000013,7.4,102.1985510252599294,14.21234734,0,0,0,7.19082841
1634256000000,2021-10-15 00:00:00,LQTY/USDT,7.93998143,7.93998143,5.3,7.49999999,3905.254721763148005,680.04699798,0,0,0,5.74262475
1634169600000,2021-10-14 00:00:00,LQTY/USDT,6.99999044,6.99999044,6.99999044,6.99999044,14.0513529698403072,2.00733888,0,0,0,6.99999044
1634083200000,2021-10-13 00:00:00,LQTY/USDT,7.99999044,7.99999044,7.99999044,7.99999044,8.7999891640003824,1.09999996,0,0,0,7.99999044
1633996800000,2021-10-12 00:00:00,LQTY/USDT,6.48,6.48,5.520001,5.520001,76.030178325268685,12.2119445,0,0,0,6.22588633
1633910400000,2021-10-11 00:00:00,LQTY/USDT,6.48,8.01999868,6.48,8.01999868,229.4385340138427745,31.02423291,0,0,0,7.39546195
1633824000000,2021-10-10 00:00:00,LQTY/USDT,8.25,8.25,6.48,6.48000001,9388.5551097392461656,1230.30533928,0,0,0,7.63107727
1633737600000,2021-10-09 00:00:00,LQTY/USDT,5.00000001,8.48,5.00000001,8.25,26398.6121099421035793,3756.06915899,0,0,0,7.02825507
1633651200000,2021-10-08 00:00:00,LQTY/USDT,4.40000003,4.40000003,4.2,4.2,353.1094608002248088,81.45511148,0,0,0,4.33501906
1633564800000,2021-10-07 00:00:00,LQTY/USDT,5.30000001,5.30000001,5.30000001,5.30000001,212.7611200984360749,40.14360749,0,0,0,5.30000001
1633478400000,2021-10-06 00:00:00,LQTY/USDT,5.30000001,5.30000001,5.3,5.30000001,270.300000212,51.00000004,0,0,0,5.3
1633392000000,2021-10-05 00:00:00,LQTY/USDT,5.82,5.82,5.82,5.82,0,0,0,0,0,5.82
1633305600000,2021-10-04 00:00:00,LQTY/USDT,5.82,5.82,5.82,5.82,0,0,0,0,0,5.82
1633219200000,2021-10-03 00:00:00,LQTY/USDT,5.82,5.82,5.82,5.82,58.2,10,0,0,0,5.82
1633132800000,2021-10-02 00:00:00,LQTY/USDT,6.10999899,6.10999899,4.30000001,6.0999999,0,0,0,0,0,5.90463647
1633046400000,2021-10-01 00:00:00,LQTY/USDT,6.10999899,6.10999899,4.30000001,6.0999999,0,0,0,0,0,5.90463647
1632960000000,2021-09-30 00:00:00,LQTY/USDT,6.10999899,6.10999899,4.30000001,6.0999999,0,0,0,0,0,5.90463647
1632873600000,2021-09-29 00:00:00,LQTY/USDT,6.10999899,6.10999899,4.30000001,6.0999999,0,0,0,0,0,5.90463647
1632787200000,2021-09-28 00:00:00,LQTY/USDT,6.10999899,6.10999899,4.30000001,6.0999999,0,0,0,0,0,5.90463647
1632700800000,2021-09-27 00:00:00,LQTY/USDT,6.10999899,6.10999899,4.30000001,6.0999999,0,0,0,0,0,5.90463647
1632614400000,2021-09-26 00:00:00,LQTY/USDT,6.10999899,6.10999899,4.30000001,6.0999999,0,0,0,0,0,5.90463647
1632528000000,2021-09-25 00:00:00,LQTY/USDT,6.10999899,6.10999899,4.30000001,6.0999999,135.5341548346861338,22.95385254,0,0,0,5.90463647
1632441600000,2021-09-24 00:00:00,LQTY/USDT,4.30000001,4.30000001,4.30000001,4.30000001,8.60000002,2,0,0,0,4.30000001
1632355200000,2021-09-23 00:00:00,LQTY/USDT,4.20000001,4.20000001,4.20000001,4.20000001,38.1473470628270166,9.08270166,0,0,0,4.20000001
1632268800000,2021-09-22 00:00:00,LQTY/USDT,4.09999991,4.09999991,4.09999991,4.09999991,128.7532406657092892,31.40323012,0,0,0,4.09999991
1632182400000,2021-09-21 00:00:00,LQTY/USDT,5,5.8,4.09999991,4.09999991,339.0880516229870646,61.82995337,0,0,0,5.48420358
1632096000000,2021-09-20 00:00:00,LQTY/USDT,5.40000003,5.40000003,5.40000003,5.40000003,0,0,0,0,0,5.40000003
1632009600000,2021-09-19 00:00:00,LQTY/USDT,5.40000003,5.40000003,5.40000003,5.40000003,0,0,0,0,0,5.40000003
1631923200000,2021-09-18 00:00:00,LQTY/USDT,5.40000003,5.40000003,5.40000003,5.40000003,0,0,0,0,0,5.40000003
1631836800000,2021-09-17 00:00:00,LQTY/USDT,5.40000003,5.40000003,5.40000003,5.40000003,138.4630087272389331,25.64129777,0,0,0,5.40000003
1631750400000,2021-09-16 00:00:00,LQTY/USDT,5.8,5.8,5.8,5.8,12.759999826,2.19999997,0,0,0,5.8
1631664000000,2021-09-15 00:00:00,LQTY/USDT,5.8,5.8,5.8,5.8,19.13999971,3.29999995,0,0,0,5.8
1631577600000,2021-09-14 00:00:00,LQTY/USDT,5.40000003,5.40000003,5.40000003,5.40000003,0,0,0,0,0,5.40000003
1631491200000,2021-09-13 00:00:00,LQTY/USDT,5.40000003,5.40000003,5.40000003,5.40000003,5.4539998142999988,1.00999996,0,0,0,5.40000003
1631404800000,2021-09-12 00:00:00,LQTY/USDT,5.65263156,5.65263157,5.65263156,5.65263157,696.1790786303335716,123.16017261,0,0,0,5.65263156
1631318400000,2021-09-11 00:00:00,LQTY/USDT,5.55955678,5.55955678,5.55955678,5.55955678,6.0286275934510244,1.08437198,0,0,0,5.55955678
1631232000000,2021-09-10 00:00:00,LQTY/USDT,5.69999999,5.8,5.40000003,5.40000003,0,0,0,0,0,5.78592552
1631145600000,2021-09-09 00:00:00,LQTY/USDT,5.69999999,5.8,5.40000003,5.40000003,1167.7678233577727592,201.82904521,0,0,0,5.78592552
1631059200000,2021-09-08 00:00:00,LQTY/USDT,5.8,5.8,5.40000003,5.79999996,777.3054465317779638,136.32620638,0,0,0,5.70180501
1630972800000,2021-09-07 00:00:00,LQTY/USDT,5.80000001,5.80000001,5.8,5.8,1790.309007962,308.67396689,0,0,0,5.8
1630886400000,2021-09-06 00:00:00,LQTY/USDT,5.40000003,5.40000003,5.40000003,5.40000003,0,0,0,0,0,5.40000003
1630800000000,2021-09-05 00:00:00,LQTY/USDT,5.40000003,5.40000003,5.40000003,5.40000003,0,0,0,0,0,5.40000003
1630713600000,2021-09-04 00:00:00,LQTY/USDT,5.40000003,5.40000003,5.40000003,5.40000003,47.4066529673702928,8.77900976,0,0,0,5.40000003
1630627200000,2021-09-03 00:00:00,LQTY/USDT,6.1111111,6.89999954,5.29999928,6.89999954,3805.1778010440540681,575.91702999,0,0,0,6.60716319
1630540800000,2021-09-02 00:00:00,LQTY/USDT,6.11110986,6.1111111,5.19999921,6.11111109,1305.2528429932053653,215.57241617,0,0,0,6.05482309
1630454400000,2021-09-01 00:00:00,LQTY/USDT,6.59999965,6.59999965,5.10000001,5.29999922,2058.7619671214837008,377.82766732,0,0,0,5.44894444
1630368000000,2021-08-31 00:00:00,LQTY/USDT,6.89999998,6.89999998,4.09999991,5,2445.558956799836053,469.10690563,0,0,0,5.2132231
1630281600000,2021-08-30 00:00:00,LQTY/USDT,5.49999923,7.3099999,5.49999923,6.99999999,1901.4792118508972912,319.24278736,0,0,0,5.95621667
1630195200000,2021-08-29 00:00:00,LQTY/USDT,5.9,5.99999944,5.9,5.99999944,13.0285645887792516,2.19999999,0,0,0,5.92207484
1630108800000,2021-08-28 00:00:00,LQTY/USDT,5.34,5.34,5,5.00000002,1090.2201773700676028,213.12164914,0,0,0,5.11548302
1630022400000,2021-08-27 00:00:00,LQTY/USDT,6.44807885,6.5,5.59999999,5.60000003,8142.7430150650035792,1345.51368752,0,0,0,6.05177271
1629936000000,2021-08-26 00:00:00,LQTY/USDT,5.34000002,5.34000002,5.34000001,5.34000001,21.8775508117691962,4.09691962,0,0,0,5.34000001
1629849600000,2021-08-25 00:00:00,LQTY/USDT,6.4480789,6.4480789,6.4480789,6.4480789,219.854109819756976,34.09606384,0,0,0,6.4480789
1629763200000,2021-08-24 00:00:00,LQTY/USDT,6.50699288,6.50699288,5.33699238,5.33699238,6728.413997695531572,1040.94044694,0,0,0,6.4637838
1629676800000,2021-08-23 00:00:00,LQTY/USDT,6.50699323,6.50699323,5,5,948.0641909715798458,183.55298969,0,0,0,5.16507082
1629590400000,2021-08-22 00:00:00,LQTY/USDT,6.51,6.51,6.50699326,6.50699326,419.4562133654951949,64.45635691,0,0,0,6.50760039
1629504000000,2021-08-21 00:00:00,LQTY/USDT,7.30999974,7.3099999,6.50699326,6.50699326,5492.4035130142372184,769.87552193,0,0,0,7.13414488
1629417600000,2021-08-20 00:00:00,LQTY/USDT,7.39999986,7.39999987,6.50699792,7.30999885,2702.6260554893266982,369.82811894,0,0,0,7.30778953
1629331200000,2021-08-19 00:00:00,LQTY/USDT,6.10000003,7.17208231,5.2,5.70429582,4901.5026490715044825,921.89677775,0,0,0,5.31675863
1629244800000,2021-08-18 00:00:00,LQTY/USDT,6.10000003,6.10000003,6.10000003,6.10000003,21.7660235230460168,3.56820056,0,0,0,6.10000003
1629158400000,2021-08-17 00:00:00,LQTY/USDT,7.09713609,7.20000001,6.2,6.2,1217.1004937660806749,172.43103903,0,0,0,7.05847683
1629072000000,2021-08-16 00:00:00,LQTY/USDT,7,7.00000001,6.1,6.1,2933.6292887277367606,459.91360598,0,0,0,6.37865297
1628985600000,2021-08-15 00:00:00,LQTY/USDT,8.73999998,8.73999998,6.90000002,6.99999999,2797.9703680807611342,389.89803569,0,0,0,7.17615918
1628899200000,2021-08-14 00:00:00,LQTY/USDT,8.02087286,8.74999999,8.02087286,8.73999999,950.617562107219531,108.80477033,0,0,0,8.7369107
1628812800000,2021-08-13 00:00:00,LQTY/USDT,7.1,8.77888999,7.1,8.77888999,2842.7775953156149752,341.50948728,0,0,0,8.32415409
1628726400000,2021-08-12 00:00:00,LQTY/USDT,8.4148148,8.7,7.14,7.14,2469.7382748618529144,334.31928196,0,0,0,7.38736414
1628640000000,2021-08-11 00:00:00,LQTY/USDT,7,8.7,7,7.14000025,8893.5568589484792698,1034.43943033,0,0,0,8.59746506
1628553600000,2021-08-10 00:00:00,LQTY/USDT,6.976571,8.7,6.11,8.09999999,3257.5369481990504505,481.40008695,0,0,0,6.76679759
1628467200000,2021-08-09 00:00:00,LQTY/USDT,8.97999977,8.97999977,6.9,8.07999963,5211.7891375086883808,615.11403041,0,0,0,8.47288288
1628380800000,2021-08-08 00:00:00,LQTY/USDT,6.50000002,8.14143876,5.2,5.2,1045.4167208609496324,173.15040133,0,0,0,6.03762228
1628294400000,2021-08-07 00:00:00,LQTY/USDT,6.35765539,6.94999998,6.34082439,6.50000002,1114.2603726527592067,163.76066623,0,0,0,6.80420029
1628208000000,2021-08-06 00:00:00,LQTY/USDT,7.14,7.90000001,6,6.33085818,7492.7123300239121104,1172.34236848,0,0,0,6.39123223
1628121600000,2021-08-05 00:00:00,LQTY/USDT,6.5,7.12500011,6.5,6.95000022,1527.77276477713973,222.9206663,0,0,0,6.8534371
1628035200000,2021-08-04 00:00:00,LQTY/USDT,6.30000001,8.99999991,5.899999,7.12500011,16190.8814025156956928,2401.37868512,0,0,0,6.74232744
1627948800000,2021-08-03 00:00:00,LQTY/USDT,8.9,8.9999999,6.2,6.5,18777.5031318929461872,2849.24348382,0,0,0,6.59034696
1627862400000,2021-08-02 00:00:00,LQTY/USDT,12.99999999,13,5.4945,8.9,10212.350415539204394,1347.33929022,0,0,0,7.5796427
1627776000000,2021-08-01 00:00:00,LQTY/USDT,4.8,14.79,4.36387236,10,82474.3104432797253125,8903.41653125,0,0,0,9.26322049
1627689600000,2021-07-31 00:00:00,LQTY/USDT,4.40813507,4.40813507,4,4,49.76254636542054,11.8363163,0,0,0,4.2042258
1627603200000,2021-07-30 00:00:00,LQTY/USDT,4.13875,4.13875,3.96429698,3.96429698,8.909220232,2.2,0,0,0,4.04964556
1627516800000,2021-07-29 00:00:00,LQTY/USDT,3.99999999,4.1,3.6,4.1,9026.7387169864932633,2253.29688681,0,0,0,4.00601393
1627430400000,2021-07-28 00:00:00,LQTY/USDT,4.2,4.2,3.15,4.09999999,1213.7746009091843883,318.81633717,0,0,0,3.80712799
1627344000000,2021-07-27 00:00:00,LQTY/USDT,4.300001,7.5899999,4,4.8,20301.2074037952148176,4852.78336584,0,0,0,4.18341514
1627257600000,2021-07-26 00:00:00,LQTY/USDT,4.75000002,8.5,3.86315787,4.7,5344.9886064778926092,1041.50254162,0,0,0,5.13199766
1627171200000,2021-07-25 00:00:00,LQTY/USDT,4.75000001,8.9,4.75000001,4.75000002,14304.3660113752941387,1691.32427949,0,0,0,8.45749463
1627084800000,2021-07-24 00:00:00,LQTY/USDT,5.8,8.99999999,5.8,8.99999999,4471.3245353309381592,605.03877054,0,0,0,7.39014548
1626998400000,2021-07-23 00:00:00,LQTY/USDT,5.8,5.8,5.8,5.8,0,0,0,0,0,5.8
1626912000000,2021-07-22 00:00:00,LQTY/USDT,5.8,5.8,5.8,5.8,116.000000232,20.00000004,0,0,0,5.8
1626825600000,2021-07-21 00:00:00,LQTY/USDT,5.84375,5.84375,5.84375,5.84375,0,0,0,0,0,5.84375
1626739200000,2021-07-20 00:00:00,LQTY/USDT,5.84375,5.84375,5.84375,5.84375,0,0,0,0,0,5.84375
1626652800000,2021-07-19 00:00:00,LQTY/USDT,5.84375,5.84375,5.84375,5.84375,0,0,0,0,0,5.84375
1626566400000,2021-07-18 00:00:00,LQTY/USDT,5.84375,5.84375,5.84375,5.84375,12.8562497078125,2.19999995,0,0,0,5.84375
1626480000000,2021-07-17 00:00:00,LQTY/USDT,5,5,4.75,4.75,0,0,0,0,0,4.99579896
1626393600000,2021-07-16 00:00:00,LQTY/USDT,5,5,4.75,4.75,5076.914665373675316,1016.23678335,0,0,0,4.99579896
1626307200000,2021-07-15 00:00:00,LQTY/USDT,5,5,5,5,160,32,0,0,0,5
1626220800000,2021-07-14 00:00:00,LQTY/USDT,5,5,5,5,0,0,0,0,0,5
1626134400000,2021-07-13 00:00:00,LQTY/USDT,5,5,5,5,0,0,0,0,0,5
1626048000000,2021-07-12 00:00:00,LQTY/USDT,5,5,5,5,0,0,0,0,0,5
1625961600000,2021-07-11 00:00:00,LQTY/USDT,5,5,5,5,0,0,0,0,0,5
1625875200000,2021-07-10 00:00:00,LQTY/USDT,5,5,5,5,0,0,0,0,0,5
1625788800000,2021-07-09 00:00:00,LQTY/USDT,5,5,5,5,0,0,0,0,0,5
1625702400000,2021-07-08 00:00:00,LQTY/USDT,5,5,5,5,25,5,0,0,0,5
1625616000000,2021-07-07 00:00:00,LQTY/USDT,4.70516023,4.70516023,4.70516022,4.70516022,47.8148569639824366,10.16221653,0,0,0,4.70516022
1625529600000,2021-07-06 00:00:00,LQTY/USDT,4.70516022,4.70516022,4.70516022,4.70516022,0,0,0,0,0,4.70516022
1625443200000,2021-07-05 00:00:00,LQTY/USDT,4.70516022,4.70516022,4.70516022,4.70516022,0,0,0,0,0,4.70516022
1625356800000,2021-07-04 00:00:00,LQTY/USDT,4.70516022,4.70516022,4.70516022,4.70516022,0,0,0,0,0,4.70516022
1625270400000,2021-07-03 00:00:00,LQTY/USDT,4.70516022,4.70516022,4.70516022,4.70516022,0,0,0,0,0,4.70516022
1625184000000,2021-07-02 00:00:00,LQTY/USDT,4.70516022,4.70516022,4.70516022,4.70516022,110.039506547318469,23.38698395,0,0,0,4.70516022
1625097600000,2021-07-01 00:00:00,LQTY/USDT,6.89,6.89,4.70516022,4.70516022,886.6041480878123712,129.59176407,0,0,0,6.84151616
1625011200000,2021-06-30 00:00:00,LQTY/USDT,5.00000011,6.89000027,5,6.89,3120.4513517399051872,614.90276464,0,0,0,5.07470698
1624924800000,2021-06-29 00:00:00,LQTY/USDT,7,7,5.00000002,5.00000002,133.742084199154784,23.11260766,0,0,0,5.7865424
1624838400000,2021-06-28 00:00:00,LQTY/USDT,7,7,7,7,0,0,0,0,0,7
1624752000000,2021-06-27 00:00:00,LQTY/USDT,7,7,7,7,0,0,0,0,0,7
1624665600000,2021-06-26 00:00:00,LQTY/USDT,7,7,7,7,27.40570049,3.91510007,0,0,0,7
1624579200000,2021-06-25 00:00:00,LQTY/USDT,7,7,7,7,8.32976823,1.18996689,0,0,0,7
1624492800000,2021-06-24 00:00:00,LQTY/USDT,7,7,7,7,62.99999874,8.99999982,0,0,0,7
1624406400000,2021-06-23 00:00:00,LQTY/USDT,6,6,6,6,7.33879836,1.22313306,0,0,0,6
1624320000000,2021-06-22 00:00:00,LQTY/USDT,7,7,5,7,0,0,0,0,0,6.10603298
1624233600000,2021-06-21 00:00:00,LQTY/USDT,7,7,5,7,0,0,0,0,0,6.10603298
1624147200000,2021-06-20 00:00:00,LQTY/USDT,7,7,5,7,263.5219834371026064,43.15764168,0,0,0,6.10603298
1624060800000,2021-06-19 00:00:00,LQTY/USDT,9.8,9.8,9.8,9.8,37.203864754,3.79631273,0,0,0,9.8
1623974400000,2021-06-18 00:00:00,LQTY/USDT,7.80000001,9.8,7.80000001,9.8,2308.3232783088616828,237.24902596,0,0,0,9.72953743
1623888000000,2021-06-17 00:00:00,LQTY/USDT,8.53,9.3,7.8,7.8,2960.599245636596988,351.65925348,0,0,0,8.4189431
1623801600000,2021-06-16 00:00:00,LQTY/USDT,12.5,13.5,8.5,8.5,310.722166153079527,28.82369314,0,0,0,10.78009555
1623715200000,2021-06-15 00:00:00,LQTY/USDT,15.9,16,7.7,12,14571.1288048161584322,1786.46954454,0,0,0,8.15638243
1623628800000,2021-06-14 00:00:00,LQTY/USDT,10.9999888,10.9999888,9.09999945,9.9999888,551.5538817342257352,54.65597922,0,0,0,10.09137316
1623542400000,2021-06-13 00:00:00,LQTY/USDT,11,16.73528728,8.1,8.1,0,0,0,0,0,13.40139322
1623456000000,2021-06-12 00:00:00,LQTY/USDT,11,16.73528728,8.1,8.1,0,0,0,0,0,13.40139322
1623369600000,2021-06-11 00:00:00,LQTY/USDT,11,16.73528728,8.1,8.1,0,0,0,0,0,13.40139322
1623283200000,2021-06-10 00:00:00,LQTY/USDT,11,16.73528728,8.1,8.1,3710.4668022068808404,276.87172082,0,0,0,13.40139322
1623196800000,2021-06-09 00:00:00,LQTY/USDT,10.91666665,11,10.91666665,11,66.2758993975845024,6.06108332,0,0,0,10.93466232
1623110400000,2021-06-08 00:00:00,LQTY/USDT,12,12,9.91666665,10,15719.6836165566159348,1571.01722698,0,0,0,10.00605426
1623024000000,2021-06-07 00:00:00,LQTY/USDT,13,13,12,12,29783.0448245512,2480.92,0,0,0,12.00483886
1622937600000,2021-06-06 00:00:00,LQTY/USDT,15,15,14,14,0,0,0,0,0,14.33920704
1622851200000,2021-06-05 00:00:00,LQTY/USDT,15,15,14,14,311.160792051039648,21.69999995,0,0,0,14.33920704
1622764800000,2021-06-04 00:00:00,LQTY/USDT,15.76726959,15.76726959,14.9,14.9,0,0,0,0,0,14.92905467
1622678400000,2021-06-03 00:00:00,LQTY/USDT,15.76726959,15.76726959,14.9,14.9,918.9240391602815595,61.55272785,0,0,0,14.92905467
1622592000000,2021-06-02 00:00:00,LQTY/USDT,15,15.86764364,15,15.86764364,41.5796777710298444,2.69425316,0,0,0,15.43272859
1622505600000,2021-06-01 00:00:00,LQTY/USDT,16.73528727,16.73528728,13.99999996,14.9,0,0,0,0,0,14.59991317
1622419200000,2021-05-31 00:00:00,LQTY/USDT,16.73528727,16.73528728,13.99999996,14.9,0,0,0,0,0,14.59991317
1622332800000,2021-05-30 00:00:00,LQTY/USDT,16.73528727,16.73528728,13.99999996,14.9,0,0,0,0,0,14.59991317
1622246400000,2021-05-29 00:00:00,LQTY/USDT,16.73528727,16.73528728,13.99999996,14.9,7252.1874200753464781,496.72811993,0,0,0,14.59991317
1622160000000,2021-05-28 00:00:00,LQTY/USDT,16.73528728,16.73528728,16.73528728,16.73528728,200.5320697752265384,11.98258903,0,0,0,16.73528728
1622073600000,2021-05-27 00:00:00,LQTY/USDT,15,21.99999996,13.99999996,13.99999996,6424.9756817539295388,345.45939591,0,0,0,18.59835268
1621987200000,2021-05-26 00:00:00,LQTY/USDT,10.53639503,22,10.53639503,15,8842.0147881667625576,572.58175694,0,0,0,15.44236204
1621900800000,2021-05-25 00:00:00,LQTY/USDT,8.68579801,8.92208738,8.68579801,8.92208738,110.3476302033606504,12.42208728,0,0,0,8.88317943
1621814400000,2021-05-24 00:00:00,LQTY/USDT,9.4,10.00000001,6.50000001,10.00000001,25476.9425100500108972,2872.04676436,0,0,0,8.87065727
1621728000000,2021-05-23 00:00:00,LQTY/USDT,12,12,9.48,9.48,383.710405203003928,34.19787518,0,0,0,11.2202996
1621641600000,2021-05-22 00:00:00,LQTY/USDT,12,12,12,12,303.5948184,25.2995682,0,0,0,12
1621555200000,2021-05-21 00:00:00,LQTY/USDT,15,15,12,12,3001.3010990736221604,235.91126884,0,0,0,12.72216081
1621468800000,2021-05-20 00:00:00,LQTY/USDT,13.005,15,13.005,15,702.678772895933375,52.09331125,0,0,0,13.4888483
1621382400000,2021-05-19 00:00:00,LQTY/USDT,14.05100001,23.79999999,13.29999998,13.29999998,9810.1326663407682208,529.09220396,0,0,0,18.54144248
1621296000000,2021-05-18 00:00:00,LQTY/USDT,14.9260061,21.99999999,14.9260061,17.87289997,43449.7092157159765596,2675.89985382,0,0,0,16.23741978
1621209600000,2021-05-17 00:00:00,LQTY/USDT,20,22.85739094,14.1260004,14.9260061,297816.7838655085999498,18481.30964206,0,0,0,16.11448483
1621123200000,2021-05-16 00:00:00,LQTY/USDT,24.99999987,24.99999987,18.00000001,18.00000001,696.2191655957002792,36.34941241,0,0,0,19.15351912
1621036800000,2021-05-15 00:00:00,LQTY/USDT,20,24.99999984,17.5,17.67,13200.5369970969288192,655.67038176,0,0,0,20.13288592
1620950400000,2021-05-14 00:00:00,LQTY/USDT,24.99999998,25,21.47826088,25,1191.9921578247191097,48.00000171,0,0,0,24.83316907
1620864000000,2021-05-13 00:00:00,LQTY/USDT,25.2,25.2,17,17,31789.0181295768735292,1523.24737156,0,0,0,20.86924207
1620777600000,2021-05-12 00:00:00,LQTY/USDT,25.50000001,27.86887204,25.2,26.2,14333.3481692256716184,557.15077428,0,0,0,25.72615678
1620691200000,2021-05-11 00:00:00,LQTY/USDT,27,33.88999997,25.2,25.5,81972.9237535494191544,3123.31280412,0,0,0,26.24550562
1620604800000,2021-05-10 00:00:00,LQTY/USDT,27,68.5,25.2,27.15,356944.7460160748602809,10143.96071697,0,0,0,35.18790697
1620518400000,2021-05-09 00:00:00,LQTY/USDT,22.84320176,95,22.84320176,27,1789392.4506409916021229,36937.11650609,0,0,0,48.44429181
1620432000000,2021-05-08 00:00:00,LQTY/USDT,18.99999999,26.9999999,18.00000008,21.2083334,102180.341035657052962,3873.05315924,0,0,0,26.38237505
1620345600000,2021-05-07 00:00:00,LQTY/USDT,15.99999999,23.99999999,15.99999999,17.99999999,2125.4796742146196065,115.96709541,0,0,0,18.32829965
1620259200000,2021-05-06 00:00:00,LQTY/USDT,24.87999975,26.99999998,15.50000501,26.99999963,186607.8138589347126924,8886.11007476,0,0,0,20.99994399
1620172800000,2021-05-05 00:00:00,LQTY/USDT,22.03096546,27.03096543,21.11,24.87999975,7093.0547522164373606,296.23778603,0,0,0,23.94378802
1620086400000,2021-05-04 00:00:00,LQTY/USDT,25.00000067,28.09876598,21.10000003,22.30717248,645695.783335719635424,27232.6198866,0,0,0,23.71038064
1620000000000,2021-05-03 00:00:00,LQTY/USDT,30.00000007,35.9899992,25.00000068,25.00000068,127373.2615727795283856,4609.62178181,0,0,0,27.63204176
1619913600000,2021-05-02 00:00:00,LQTY/USDT,38.03203674,61.91148987,25,29.99,52042.4155079258065519,1546.99501879,0,0,0,33.64097161
1619827200000,2021-05-01 00:00:00,LQTY/USDT,30.38114288,30.38114288,30.38114288,30.38114288,182.286852722828568,5.99999985,0,0,0,30.38114288
1619740800000,2021-04-30 00:00:00,LQTY/USDT,35,39.59999999,35,39.59999999,357.6400325828988189,9.97780013,0,0,0,35.84357553
1619654400000,2021-04-29 00:00:00,LQTY/USDT,25,43.29999998,25,35,2106.0768807863418843,67.23492831,0,0,0,31.32414853
1619568000000,2021-04-28 00:00:00,LQTY/USDT,42.29999989,42.29999989,11.91148987,42.29999989,485.65928519095316,31.92296968,0,0,0,15.2134745
1619481600000,2021-04-27 00:00:00,LQTY/USDT,43.99999999,43.99999999,42.29999989,42.29999989,387.33241302,9,0,0,0,43.03693478
1619395200000,2021-04-26 00:00:00,LQTY/USDT,84.91148999,84.91148999,41,43.99999999,26437.326264872567136,628.4710632,0,0,0,42.06609948
