https://www.CryptoDataDownload.com
unix,date,symbol,open,high,low,close,Volume SPELL,Volume USDT,buyTakerAmount,buyTakerQuantity,tradeCount,weightedAverage
1694995200000,2023-09-18 00:00:00,SPELL/USDT,0.000481,0.000481,0.000481,0.000481,22.711732,47217.74,0,0,1,0.000481
1694908800000,2023-09-17 00:00:00,SPELL/USDT,0.000487,0.000487,0.000487,0.000487,0,0,0,0,0,0.000483
1694822400000,2023-09-16 00:00:00,SPELL/USDT,0.000487,0.000487,0.000487,0.000487,0,0,0,0,0,0.000483
1694736000000,2023-09-15 00:00:00,SPELL/USDT,0.000474,0.000487,0.000474,0.000487,4.281071,8849.31,4.281071,8849.31,2,0.000483
1694649600000,2023-09-14 00:00:00,SPELL/USDT,0.000445,0.000453,0.000437,0.000437,170.773277,380612.28,169.740182,378248.22,6,0.000448
1694563200000,2023-09-13 00:00:00,SPELL/USDT,0.000453,0.000453,0.00045,0.00045,102.000187,225210.13,0,0,2,0.000452
1694476800000,2023-09-12 00:00:00,SPELL/USDT,0.000415,0.000509,0.000415,0.000488,998.060487,2032470.09,950.249901,1932588.22,15,0.000492
1694390400000,2023-09-11 00:00:00,SPELL/USDT,0.000401,0.000401,0.000401,0.000401,0,0,0,0,0,0.000405
1694304000000,2023-09-10 00:00:00,SPELL/USDT,0.000401,0.000401,0.000401,0.000401,0,0,0,0,0,0.000405
1694217600000,2023-09-09 00:00:00,SPELL/USDT,0.000401,0.000401,0.000401,0.000401,0,0,0,0,0,0.000405
1694131200000,2023-09-08 00:00:00,SPELL/USDT,0.000414,0.000414,0.000401,0.000401,38.518407,95006.57,13.4,32367.15,3,0.000405
1694044800000,2023-09-07 00:00:00,SPELL/USDT,0.000354,0.000354,0.000354,0.000354,0,0,0,0,0,0.000354
1693958400000,2023-09-06 00:00:00,SPELL/USDT,0.000354,0.000354,0.000354,0.000354,3.359183,9489.22,0,0,1,0.000354
1693872000000,2023-09-05 00:00:00,SPELL/USDT,0.000348,0.000348,0.000348,0.000348,0,0,0,0,0,0.000348
1693785600000,2023-09-04 00:00:00,SPELL/USDT,0.000348,0.000348,0.000348,0.000348,0,0,0,0,0,0.000348
1693699200000,2023-09-03 00:00:00,SPELL/USDT,0.000348,0.000348,0.000348,0.000348,0,0,0,0,0,0.000348
1693612800000,2023-09-02 00:00:00,SPELL/USDT,0.000348,0.000348,0.000348,0.000348,2.451172,7043.6,0,0,1,0.000348
1693526400000,2023-09-01 00:00:00,SPELL/USDT,0.000361,0.000361,0.000361,0.000361,0,0,0,0,0,0.000407
1693440000000,2023-08-31 00:00:00,SPELL/USDT,0.000414,0.000414,0.000361,0.000361,2.874605,7072.79,2.509995,6062.79,3,0.000407
1693353600000,2023-08-30 00:00:00,SPELL/USDT,0.000386,0.000386,0.000386,0.000386,0,0,0,0,0,0.000393
1693267200000,2023-08-29 00:00:00,SPELL/USDT,0.000386,0.000386,0.000386,0.000386,0,0,0,0,0,0.000393
1693180800000,2023-08-28 00:00:00,SPELL/USDT,0.000386,0.000386,0.000386,0.000386,0,0,0,0,0,0.000393
1693094400000,2023-08-27 00:00:00,SPELL/USDT,0.000386,0.000386,0.000386,0.000386,0,0,0,0,0,0.000393
1693008000000,2023-08-26 00:00:00,SPELL/USDT,0.000386,0.000386,0.000386,0.000386,0,0,0,0,0,0.000393
1692921600000,2023-08-25 00:00:00,SPELL/USDT,0.000386,0.000386,0.000386,0.000386,0,0,0,0,0,0.000393
1692835200000,2023-08-24 00:00:00,SPELL/USDT,0.000386,0.000386,0.000386,0.000386,0,0,0,0,0,0.000393
1692748800000,2023-08-23 00:00:00,SPELL/USDT,0.000386,0.000386,0.000386,0.000386,0,0,0,0,0,0.000393
1692662400000,2023-08-22 00:00:00,SPELL/USDT,0.000386,0.000386,0.000386,0.000386,0,0,0,0,0,0.000393
1692576000000,2023-08-21 00:00:00,SPELL/USDT,0.000401,0.000401,0.000374,0.000386,33.66922,85577.85,10.955794,27631.24,7,0.000393
1692489600000,2023-08-20 00:00:00,SPELL/USDT,0.000415,0.000415,0.000415,0.000415,3.945919,9508.24,3.945919,9508.24,1,0.000415
1692403200000,2023-08-19 00:00:00,SPELL/USDT,0.000389,0.000391,0.000389,0.000391,8.777173,22505.6,8.777173,22505.6,3,0.00039
1692316800000,2023-08-18 00:00:00,SPELL/USDT,0.000384,0.0004,0.000379,0.0004,595.300097,1536333.7,571.05056,1474850.53,5,0.000387
1692230400000,2023-08-17 00:00:00,SPELL/USDT,0.000414,0.000414,0.000409,0.000409,605.218766,1461913.56,0.47747,1167.41,7,0.000413
1692144000000,2023-08-16 00:00:00,SPELL/USDT,0.000459,0.000459,0.000423,0.000423,8.150584,19268.52,0,0,2,0.000423
1692057600000,2023-08-15 00:00:00,SPELL/USDT,0.000459,0.000459,0.000459,0.000459,3.239488,7057.71,0,0,1,0.000459
1691971200000,2023-08-14 00:00:00,SPELL/USDT,0.000474,0.000474,0.000474,0.000474,0,0,0,0,0,0.000511
1691884800000,2023-08-13 00:00:00,SPELL/USDT,0.000474,0.000474,0.000474,0.000474,0,0,0,0,0,0.000511
1691798400000,2023-08-12 00:00:00,SPELL/USDT,0.000519,0.000519,0.000474,0.000474,6.487783,12701.76,6.487783,12701.76,4,0.000511
1691712000000,2023-08-11 00:00:00,SPELL/USDT,0.000468,0.000468,0.000468,0.000468,0,0,0,0,0,0.000468
1691625600000,2023-08-10 00:00:00,SPELL/USDT,0.000468,0.000468,0.000468,0.000468,0.26704,570.6,0,0,1,0.000468
1691539200000,2023-08-09 00:00:00,SPELL/USDT,0.00045,0.00045,0.00045,0.00045,5.297548,11772.33,0,0,1,0.00045
1691452800000,2023-08-08 00:00:00,SPELL/USDT,0.000468,0.000468,0.000468,0.000468,0,0,0,0,0,0.000467
1691366400000,2023-08-07 00:00:00,SPELL/USDT,0.000468,0.000468,0.000468,0.000468,0,0,0,0,0,0.000467
1691280000000,2023-08-06 00:00:00,SPELL/USDT,0.000464,0.000468,0.000464,0.000468,21.05248,45024.96,18.825154,40224.69,2,0.000467
1691193600000,2023-08-05 00:00:00,SPELL/USDT,0.000429,0.000464,0.000407,0.000464,71.617486,171500.91,3.245986,6995.66,7,0.000418
1691107200000,2023-08-04 00:00:00,SPELL/USDT,0.000446,0.000446,0.000446,0.000446,0,0,0,0,0,0.000446
1691020800000,2023-08-03 00:00:00,SPELL/USDT,0.000446,0.000446,0.000446,0.000446,0,0,0,0,0,0.000446
1690934400000,2023-08-02 00:00:00,SPELL/USDT,0.000446,0.000446,0.000446,0.000446,0,0,0,0,0,0.000446
1690848000000,2023-08-01 00:00:00,SPELL/USDT,0.000446,0.000446,0.000446,0.000446,8.991935,20161.29,0,0,1,0.000446
1690761600000,2023-07-31 00:00:00,SPELL/USDT,0.000465,0.000485,0.000433,0.00047,58.086035,123595.89,38.506875,82564.97,6,0.00047
1690675200000,2023-07-30 00:00:00,SPELL/USDT,0.000466,0.000466,0.000466,0.000466,0,0,0,0,0,0.000466
1690588800000,2023-07-29 00:00:00,SPELL/USDT,0.000466,0.000466,0.000466,0.000466,0,0,0,0,0,0.000466
1690502400000,2023-07-28 00:00:00,SPELL/USDT,0.000466,0.000466,0.000466,0.000466,0,0,0,0,0,0.000466
1690416000000,2023-07-27 00:00:00,SPELL/USDT,0.000466,0.000466,0.000466,0.000466,9.380002,20128.76,9.380002,20128.76,1,0.000466
1690329600000,2023-07-26 00:00:00,SPELL/USDT,0.000458,0.00051,0.000454,0.000454,59.546384,124413.69,35.339127,71093.74,3,0.00048
1690243200000,2023-07-25 00:00:00,SPELL/USDT,0.000504,0.000505,0.000502,0.000502,11.383941,22573.81,11.383941,22573.81,9,0.000504
1690156800000,2023-07-24 00:00:00,SPELL/USDT,0.000419,0.000457,0.000419,0.000456,69.533512,152477.99,0,0,3,0.000456
1690070400000,2023-07-23 00:00:00,SPELL/USDT,0.000457,0.000457,0.000457,0.000457,0,0,0,0,0,0.000441
1689984000000,2023-07-22 00:00:00,SPELL/USDT,0.000457,0.000457,0.000457,0.000457,0,0,0,0,0,0.000441
1689897600000,2023-07-21 00:00:00,SPELL/USDT,0.000457,0.000457,0.000457,0.000457,0,0,0,0,0,0.000441
1689811200000,2023-07-20 00:00:00,SPELL/USDT,0.000457,0.000457,0.000457,0.000457,0,0,0,0,0,0.000441
1689724800000,2023-07-19 00:00:00,SPELL/USDT,0.000457,0.000457,0.000457,0.000457,0,0,0,0,0,0.000441
1689638400000,2023-07-18 00:00:00,SPELL/USDT,0.0002,0.000457,0.0002,0.000457,3.637146,8558.32,3.423912,7492.15,2,0.000441
1689552000000,2023-07-17 00:00:00,SPELL/USDT,0.000497,0.000497,0.000497,0.000497,0,0,0,0,0,0.000529
1689465600000,2023-07-16 00:00:00,SPELL/USDT,0.000497,0.000497,0.000497,0.000497,0,0,0,0,0,0.000529
1689379200000,2023-07-15 00:00:00,SPELL/USDT,0.000497,0.000497,0.000497,0.000497,0,0,0,0,0,0.000529
1689292800000,2023-07-14 00:00:00,SPELL/USDT,0.000506,0.000537,0.000497,0.000497,254.275862,480696.08,21.212885,41296.86,8,0.000529
1689206400000,2023-07-13 00:00:00,SPELL/USDT,0.000467,0.000536,0.000467,0.000536,14.28047,29700.04,1.471561,2745.45,4,0.000481
1689120000000,2023-07-12 00:00:00,SPELL/USDT,0.000479,0.000483,0.000479,0.000483,40.121475,83237.17,30.292707,62717.82,2,0.000482
1689033600000,2023-07-11 00:00:00,SPELL/USDT,0.000499,0.000499,0.000499,0.000499,0,0,0,0,0,0.0005
1688947200000,2023-07-10 00:00:00,SPELL/USDT,0.000499,0.000499,0.000499,0.000499,0,0,0,0,0,0.0005
1688860800000,2023-07-09 00:00:00,SPELL/USDT,0.000499,0.000499,0.000499,0.000499,0,0,0,0,0,0.0005
1688774400000,2023-07-08 00:00:00,SPELL/USDT,0.000499,0.000499,0.000499,0.000499,0,0,0,0,0,0.0005
1688688000000,2023-07-07 00:00:00,SPELL/USDT,0.000499,0.000499,0.000499,0.000499,0,0,0,0,0,0.0005
1688601600000,2023-07-06 00:00:00,SPELL/USDT,0.000499,0.000499,0.000499,0.000499,0,0,0,0,0,0.0005
1688515200000,2023-07-05 00:00:00,SPELL/USDT,0.000501,0.000501,0.000499,0.000499,8.20253,16402.26,0,0,2,0.0005
1688428800000,2023-07-04 00:00:00,SPELL/USDT,0.000564,0.000564,0.000564,0.000564,0,0,0,0,0,0.000507
1688342400000,2023-07-03 00:00:00,SPELL/USDT,0.000429,0.000564,0.000429,0.000564,42.782562,84395.81,22.307867,43795.39,6,0.000507
1688256000000,2023-07-02 00:00:00,SPELL/USDT,0.000436,0.000436,0.000436,0.000436,0,0,0,0,0,0.000436
1688169600000,2023-07-01 00:00:00,SPELL/USDT,0.000436,0.000436,0.000436,0.000436,4.554822,10446.84,4.554822,10446.84,1,0.000436
1688083200000,2023-06-30 00:00:00,SPELL/USDT,0.000483,0.000521,0.000461,0.000498,16.548485,33469.8,13.069779,25923.8,5,0.000495
1687996800000,2023-06-29 00:00:00,SPELL/USDT,0.000447,0.000447,0.000447,0.000447,0,0,0,0,0,0.000452
1687910400000,2023-06-28 00:00:00,SPELL/USDT,0.000429,0.000505,0.000429,0.000447,58.039685,128449.86,28.378667,61929.46,6,0.000452
1687824000000,2023-06-27 00:00:00,SPELL/USDT,0.000443,0.000443,0.000443,0.000443,0,0,0,0,0,0.000443
1687737600000,2023-06-26 00:00:00,SPELL/USDT,0.000443,0.000443,0.000443,0.000443,0,0,0,0,0,0.000443
1687651200000,2023-06-25 00:00:00,SPELL/USDT,0.000443,0.000443,0.000443,0.000443,1.226503,2768.63,0,0,1,0.000443
1687564800000,2023-06-24 00:00:00,SPELL/USDT,0.000485,0.000485,0.000485,0.000485,2.934574,6050.67,2.934574,6050.67,3,0.000485
1687478400000,2023-06-23 00:00:00,SPELL/USDT,0.000461,0.000461,0.000461,0.000461,0,0,0,0,0,0.000461
1687392000000,2023-06-22 00:00:00,SPELL/USDT,0.000461,0.000461,0.000461,0.000461,0,0,0,0,0,0.000461
1687305600000,2023-06-21 00:00:00,SPELL/USDT,0.000461,0.000461,0.000461,0.000461,3.196822,6934.54,3.196822,6934.54,1,0.000461
1687219200000,2023-06-20 00:00:00,SPELL/USDT,0.000446,0.000472,0.000446,0.000472,21.215696,45879.24,21.215696,45879.24,5,0.000462
1687132800000,2023-06-19 00:00:00,SPELL/USDT,0.00045,0.00045,0.000401,0.000448,4.867157,11237.31,3.377471,7522.38,3,0.000434
1687046400000,2023-06-18 00:00:00,SPELL/USDT,0.000413,0.000413,0.000413,0.000413,0,0,0,0,0,0.000416
1686960000000,2023-06-17 00:00:00,SPELL/USDT,0.000413,0.000413,0.000413,0.000413,0,0,0,0,0,0.000416
1686873600000,2023-06-16 00:00:00,SPELL/USDT,0.000433,0.000433,0.000413,0.000413,12.409556,29821.95,12.409556,29821.95,2,0.000416
1686787200000,2023-06-15 00:00:00,SPELL/USDT,0.00044,0.00044,0.00044,0.00044,0,0,0,0,0,0.000439
1686700800000,2023-06-14 00:00:00,SPELL/USDT,0.000441,0.000441,0.000439,0.00044,16.505789,37514.29,16.505789,37514.29,4,0.000439
1686614400000,2023-06-13 00:00:00,SPELL/USDT,0.000485,0.000486,0.00043,0.00043,863.950131,2008139.48,637.995692,1482664.04,8,0.00043
1686528000000,2023-06-12 00:00:00,SPELL/USDT,0.000437,0.000437,0.000437,0.000437,1.2236,2800,1.2236,2800,1,0.000437
1686441600000,2023-06-11 00:00:00,SPELL/USDT,0.000429,0.000429,0.000426,0.000426,15.749586,36905.33,3.991986,9305.33,2,0.000426
1686355200000,2023-06-10 00:00:00,SPELL/USDT,0.000429,0.000429,0.000408,0.000412,61.437135,147351.52,24.987815,59072.85,4,0.000417
1686268800000,2023-06-09 00:00:00,SPELL/USDT,0.000503,0.000557,0.000503,0.000557,52.995089,104853.37,49.07639,97093.57,4,0.000505
1686182400000,2023-06-08 00:00:00,SPELL/USDT,0.0005,0.00056,0.000495,0.000495,10.187707,19421.6,0,0,3,0.000526
1686096000000,2023-06-07 00:00:00,SPELL/USDT,0.000568,0.000568,0.000568,0.000568,1.099994,1936.61,0,0,1,0.000568
1686009600000,2023-06-06 00:00:00,SPELL/USDT,0.000527,0.000527,0.000527,0.000527,1.0013,1900,1.0013,1900,1,0.000527
1685923200000,2023-06-05 00:00:00,SPELL/USDT,0.000553,0.000553,0.000524,0.000524,169.15041,315531.68,0,0,6,0.000536
1685836800000,2023-06-04 00:00:00,SPELL/USDT,0.00058,0.00059,0.000577,0.00059,27.364228,47052.17,17.364234,29810.8,3,0.000581
1685750400000,2023-06-03 00:00:00,SPELL/USDT,0.000553,0.000553,0.000553,0.000553,23.302662,42138.63,0,0,1,0.000553
1685664000000,2023-06-02 00:00:00,SPELL/USDT,0.000552,0.000552,0.000552,0.000552,0,0,0,0,0,0.000552
1685577600000,2023-06-01 00:00:00,SPELL/USDT,0.000552,0.000552,0.000552,0.000552,0.124056,224.74,0,0,1,0.000552
1685491200000,2023-05-31 00:00:00,SPELL/USDT,0.000599,0.000599,0.000599,0.000599,0,0,0,0,0,0.000599
1685404800000,2023-05-30 00:00:00,SPELL/USDT,0.000599,0.000599,0.000599,0.000599,25.291624,42223.08,25.291624,42223.08,1,0.000599
1685318400000,2023-05-29 00:00:00,SPELL/USDT,0.000572,0.000572,0.000572,0.000572,0,0,0,0,0,0.000572
1685232000000,2023-05-28 00:00:00,SPELL/USDT,0.000572,0.000572,0.000572,0.000572,0,0,0,0,0,0.000572
1685145600000,2023-05-27 00:00:00,SPELL/USDT,0.000572,0.000572,0.000572,0.000572,14.071737,24600.94,0,0,1,0.000572
1685059200000,2023-05-26 00:00:00,SPELL/USDT,0.000551,0.000551,0.000551,0.000551,0.550145,998.45,0,0,1,0.000551
1684972800000,2023-05-25 00:00:00,SPELL/USDT,0.000551,0.000573,0.000551,0.000573,17.330927,31376.94,1.099999,1919.72,2,0.000552
1684886400000,2023-05-24 00:00:00,SPELL/USDT,0.00055,0.00055,0.00055,0.00055,0,0,0,0,0,0.00055
1684800000000,2023-05-23 00:00:00,SPELL/USDT,0.00055,0.00055,0.00055,0.00055,0.021719,39.49,0,0,1,0.00055
1684713600000,2023-05-22 00:00:00,SPELL/USDT,0.000552,0.000552,0.000552,0.000552,0,0,0,0,0,0.000552
1684627200000,2023-05-21 00:00:00,SPELL/USDT,0.000552,0.000552,0.000552,0.000552,0,0,0,0,0,0.000552
1684540800000,2023-05-20 00:00:00,SPELL/USDT,0.000552,0.000552,0.000552,0.000552,1.197713,2169.77,0,0,1,0.000552
1684454400000,2023-05-19 00:00:00,SPELL/USDT,0.0006,0.0006,0.000558,0.000558,80.811341,139565.47,0,0,2,0.000579
1684368000000,2023-05-18 00:00:00,SPELL/USDT,0.000563,0.000563,0.000563,0.000563,0,0,0,0,0,0.000563
1684281600000,2023-05-17 00:00:00,SPELL/USDT,0.000563,0.000563,0.000563,0.000563,0.449701,798.76,0.449701,798.76,1,0.000563
1684195200000,2023-05-16 00:00:00,SPELL/USDT,0.000578,0.000578,0.000578,0.000578,31.51301,54520.78,31.51301,54520.78,1,0.000578
1684108800000,2023-05-15 00:00:00,SPELL/USDT,0.000648,0.000691,0.000576,0.000576,6.000064,9386.72,3.999996,5914.38,5,0.000643
1684022400000,2023-05-14 00:00:00,SPELL/USDT,0.000552,0.000552,0.000552,0.000552,0,0,0,0,0,0.000552
1683936000000,2023-05-13 00:00:00,SPELL/USDT,0.000552,0.000552,0.000552,0.000552,0,0,0,0,0,0.000552
1683849600000,2023-05-12 00:00:00,SPELL/USDT,0.000552,0.000552,0.000552,0.000552,25.98339,47071.36,0,0,1,0.000552
1683763200000,2023-05-11 00:00:00,SPELL/USDT,0.000599,0.000599,0.000599,0.000599,0,0,0,0,0,0.000591
1683676800000,2023-05-10 00:00:00,SPELL/USDT,0.000556,0.000599,0.000553,0.000599,44.468385,75306.32,0,0,4,0.000591
1683590400000,2023-05-09 00:00:00,SPELL/USDT,0.000619,0.000619,0.000619,0.000619,8.776287,14178.17,8.776287,14178.17,1,0.000619
1683504000000,2023-05-08 00:00:00,SPELL/USDT,0.0006,0.0006,0.0006,0.0006,3.099996,5166.66,0,0,2,0.0006
1683417600000,2023-05-07 00:00:00,SPELL/USDT,0.00065,0.000654,0.000641,0.00065,138.873656,214341.16,69.383677,107170.58,14,0.000647
1683331200000,2023-05-06 00:00:00,SPELL/USDT,0.000607,0.000646,0.000606,0.000629,263.494585,421627.47,205.825562,326545.47,8,0.000625
1683244800000,2023-05-05 00:00:00,SPELL/USDT,0.000607,0.000674,0.000606,0.000664,198.069267,325163.09,195.298561,320990.34,9,0.000609
1683158400000,2023-05-04 00:00:00,SPELL/USDT,0.000611,0.000611,0.000611,0.000611,6.896381,11287.04,0,0,1,0.000611
1683072000000,2023-05-03 00:00:00,SPELL/USDT,0.000652,0.000652,0.00064,0.00064,52.725555,81833.26,3.725561,5821.19,3,0.000644
1682985600000,2023-05-02 00:00:00,SPELL/USDT,0.000653,0.000653,0.000653,0.000653,43.910005,67243.5,0,0,2,0.000653
1682899200000,2023-05-01 00:00:00,SPELL/USDT,0.000653,0.0007,0.000653,0.0007,42.619436,64753.02,0,0,2,0.000658
1682812800000,2023-04-30 00:00:00,SPELL/USDT,0.000654,0.000677,0.000654,0.000677,7.044995,10717.88,1.044996,1543.57,2,0.000657
1682726400000,2023-04-29 00:00:00,SPELL/USDT,0.000692,0.000692,0.000692,0.000692,0,0,0,0,0,0.000691
1682640000000,2023-04-28 00:00:00,SPELL/USDT,0.000692,0.000692,0.000692,0.000692,0,0,0,0,0,0.000691
1682553600000,2023-04-27 00:00:00,SPELL/USDT,0.000692,0.000692,0.000692,0.000692,0,0,0,0,0,0.000691
1682467200000,2023-04-26 00:00:00,SPELL/USDT,0.000683,0.000692,0.000683,0.000692,14.543755,21022.49,0,0,2,0.000691
1682380800000,2023-04-25 00:00:00,SPELL/USDT,0.000653,0.000653,0.000653,0.000653,11.30979,17319.74,0,0,1,0.000653
1682294400000,2023-04-24 00:00:00,SPELL/USDT,0.000675,0.000675,0.000653,0.000665,457.031214,682615.22,1.158569,1742.21,5,0.000669
1682208000000,2023-04-23 00:00:00,SPELL/USDT,0.000675,0.000675,0.000675,0.000675,54.444156,80658.01,0,0,1,0.000675
1682121600000,2023-04-22 00:00:00,SPELL/USDT,0.000675,0.000675,0.000675,0.000675,0,0,0,0,0,0.000689
1682035200000,2023-04-21 00:00:00,SPELL/USDT,0.0007,0.0007,0.000675,0.000675,153.40584,222482.43,0,0,5,0.000689
1681948800000,2023-04-20 00:00:00,SPELL/USDT,0.000701,0.000701,0.0007,0.0007,67.099985,95854.88,0,0,4,0.0007
1681862400000,2023-04-19 00:00:00,SPELL/USDT,0.000763,0.000763,0.000763,0.000763,11.394939,14934.39,0,0,1,0.000763
1681776000000,2023-04-18 00:00:00,SPELL/USDT,0.000763,0.000763,0.000763,0.000763,131.977239,172971.48,14.494726,18997.02,2,0.000763
1681689600000,2023-04-17 00:00:00,SPELL/USDT,0.000706,0.000706,0.000706,0.000706,124.339039,176117.62,0,0,1,0.000706
1681603200000,2023-04-16 00:00:00,SPELL/USDT,0.000707,0.000707,0.000707,0.000707,0,0,0,0,0,0.000756
1681516800000,2023-04-15 00:00:00,SPELL/USDT,0.000707,0.000707,0.000707,0.000707,0,0,0,0,0,0.000756
1681430400000,2023-04-14 00:00:00,SPELL/USDT,0.000794,0.000794,0.000707,0.000707,43.383603,57458.11,2.823783,3557.99,5,0.000756
1681344000000,2023-04-13 00:00:00,SPELL/USDT,0.00077,0.00077,0.00077,0.00077,22.032895,28614.15,0,0,1,0.00077
1681257600000,2023-04-12 00:00:00,SPELL/USDT,0.000702,0.00077,0.000702,0.00077,61.958498,80970.1,0,0,2,0.000765
1681171200000,2023-04-11 00:00:00,SPELL/USDT,0.000795,0.000795,0.000795,0.000795,0,0,0,0,0,0.000781
1681084800000,2023-04-10 00:00:00,SPELL/USDT,0.000795,0.000795,0.000795,0.000795,0,0,0,0,0,0.000781
1680998400000,2023-04-09 00:00:00,SPELL/USDT,0.000795,0.000795,0.000795,0.000795,0,0,0,0,0,0.000781
1680912000000,2023-04-08 00:00:00,SPELL/USDT,0.000753,0.000795,0.000753,0.000795,29.96184,38360.05,0,0,2,0.000781
1680825600000,2023-04-07 00:00:00,SPELL/USDT,0.000781,0.000785,0.000762,0.000782,302.672866,387834.12,60.793577,77942.56,19,0.00078
1680739200000,2023-04-06 00:00:00,SPELL/USDT,0.000808,0.000808,0.000795,0.000795,15.279076,18932.01,15.279076,18932.01,2,0.000807
1680652800000,2023-04-05 00:00:00,SPELL/USDT,0.00085,0.000877,0.000777,0.000777,332.940047,394777.01,107.419812,126224.86,5,0.000845
1680566400000,2023-04-04 00:00:00,SPELL/USDT,0.000834,0.00085,0.000834,0.00085,533.744098,629139.98,521.845287,615124.89,11,0.000848
1680480000000,2023-04-03 00:00:00,SPELL/USDT,0.000822,0.000822,0.000822,0.000822,19.102869,23239.5,2.662869,3239.5,2,0.000822
1680393600000,2023-04-02 00:00:00,SPELL/USDT,0.000763,0.000803,0.000763,0.000803,20.55074,25754.01,0,0,2,0.000798
1680307200000,2023-04-01 00:00:00,SPELL/USDT,0.000792,0.000969,0.000788,0.000857,419.947535,483846.46,255.752856,308524.39,14,0.000873
1680220800000,2023-03-31 00:00:00,SPELL/USDT,0.000734,0.001069,0.000706,0.000864,272.092457,337505.54,213.315941,261390.54,16,0.000813
1680134400000,2023-03-30 00:00:00,SPELL/USDT,0.000691,0.0008,0.000678,0.000708,1552.999783,2027275.42,1143.861853,1477689.74,22,0.000767
1680048000000,2023-03-29 00:00:00,SPELL/USDT,0.000685,0.000685,0.000685,0.000685,1.024869,1496.16,1.024869,1496.16,1,0.000685
1679961600000,2023-03-28 00:00:00,SPELL/USDT,0.000657,0.000657,0.000657,0.000657,15.762172,23991.13,15.762172,23991.13,1,0.000657
1679875200000,2023-03-27 00:00:00,SPELL/USDT,0.000741,0.000741,0.000741,0.000741,0,0,0,0,0,0.000715
1679788800000,2023-03-26 00:00:00,SPELL/USDT,0.000741,0.000741,0.000741,0.000741,0,0,0,0,0,0.000715
1679702400000,2023-03-25 00:00:00,SPELL/USDT,0.000667,0.000741,0.000667,0.000741,5.683968,7966.97,5.683968,7966.97,2,0.000715
1679616000000,2023-03-24 00:00:00,SPELL/USDT,0.000686,0.000686,0.000683,0.000683,17.284448,25202.66,17.284448,25202.66,2,0.000685
1679529600000,2023-03-23 00:00:00,SPELL/USDT,0.000666,0.000666,0.000666,0.000666,0,0,0,0,0,0.000668
1679443200000,2023-03-22 00:00:00,SPELL/USDT,0.000669,0.000669,0.000666,0.000666,370.719263,554243.18,15.412065,23141.24,8,0.000668
1679356800000,2023-03-21 00:00:00,SPELL/USDT,0.000683,0.0007,0.000669,0.0007,2.583955,3784.21,0,0,3,0.000683
1679270400000,2023-03-20 00:00:00,SPELL/USDT,0.000786,0.000786,0.000786,0.000786,2.128637,2708.19,2.128637,2708.19,1,0.000786
1679184000000,2023-03-19 00:00:00,SPELL/USDT,0.000794,0.000794,0.000794,0.000794,0,0,0,0,0,0.000794
1679097600000,2023-03-18 00:00:00,SPELL/USDT,0.000794,0.000794,0.000794,0.000794,1.514531,1907.47,1.514531,1907.47,1,0.000794
1679011200000,2023-03-17 00:00:00,SPELL/USDT,0.000735,0.000735,0.000731,0.000731,13.073154,17861.47,3.017197,4105.03,2,0.000731
1678924800000,2023-03-16 00:00:00,SPELL/USDT,0.000735,0.000735,0.000735,0.000735,0,0,0,0,0,0.000764
1678838400000,2023-03-15 00:00:00,SPELL/USDT,0.000735,0.000735,0.000735,0.000735,0,0,0,0,0,0.000764
1678752000000,2023-03-14 00:00:00,SPELL/USDT,0.00083,0.00083,0.000735,0.000735,5.174203,6791.97,1.591027,1916.9,2,0.000764
1678665600000,2023-03-13 00:00:00,SPELL/USDT,0.00068,0.000696,0.00064,0.00064,203.949726,296202.66,49.834061,71610.42,7,0.000689
1678579200000,2023-03-12 00:00:00,SPELL/USDT,0.000616,0.000616,0.000616,0.000616,4.182978,6790.55,0,0,1,0.000616
1678492800000,2023-03-11 00:00:00,SPELL/USDT,0.000636,0.000636,0.000608,0.000608,8.865857,14194.51,5.35138,8414.12,2,0.000624
1678406400000,2023-03-10 00:00:00,SPELL/USDT,0.000641,0.000641,0.000629,0.000629,14.460869,22693.52,4.490871,7139.7,3,0.000637
1678320000000,2023-03-09 00:00:00,SPELL/USDT,0.000747,0.000747,0.000747,0.000747,0,0,0,0,0,0.000746
1678233600000,2023-03-08 00:00:00,SPELL/USDT,0.000747,0.000747,0.000747,0.000747,0,0,0,0,0,0.000746
1678147200000,2023-03-07 00:00:00,SPELL/USDT,0.000747,0.000747,0.000747,0.000747,0,0,0,0,0,0.000746
1678060800000,2023-03-06 00:00:00,SPELL/USDT,0.000747,0.000747,0.000747,0.000747,0,0,0,0,0,0.000746
1677974400000,2023-03-05 00:00:00,SPELL/USDT,0.000747,0.000747,0.000747,0.000747,0,0,0,0,0,0.000746
1677888000000,2023-03-04 00:00:00,SPELL/USDT,0.000745,0.000747,0.000744,0.000747,145.532461,194900.42,129.001125,172692.27,4,0.000746
1677801600000,2023-03-03 00:00:00,SPELL/USDT,0.000786,0.000786,0.000756,0.000761,167.334541,221153.25,1.843971,2423.09,4,0.000756
1677715200000,2023-03-02 00:00:00,SPELL/USDT,0.00077,0.000903,0.00077,0.000903,42.187316,47136.46,4.896753,5440.93,4,0.000896
1677628800000,2023-03-01 00:00:00,SPELL/USDT,0.000819,0.000819,0.000819,0.000819,0,0,0,0,0,0.000819
1677542400000,2023-02-28 00:00:00,SPELL/USDT,0.000819,0.000819,0.000819,0.000819,4.536965,5539.64,0,0,1,0.000819
1677456000000,2023-02-27 00:00:00,SPELL/USDT,0.000826,0.000838,0.000826,0.000838,10.404144,12512.72,5.610935,6792.9,2,0.000831
1677369600000,2023-02-26 00:00:00,SPELL/USDT,0.000926,0.000926,0.00083,0.00083,2.000823,2160.82,1.999993,2159.82,2,0.000925
1677283200000,2023-02-25 00:00:00,SPELL/USDT,0.000827,0.000827,0.000827,0.000827,8.929491,10797.45,0,0,1,0.000827
1677196800000,2023-02-24 00:00:00,SPELL/USDT,0.000858,0.000858,0.000858,0.000858,89.778425,104636.86,0,0,4,0.000858
1677110400000,2023-02-23 00:00:00,SPELL/USDT,0.000895,0.000942,0.000871,0.000871,60.193427,67008.09,55.22351,61302.1,3,0.000898
1677024000000,2023-02-22 00:00:00,SPELL/USDT,0.000883,0.000883,0.000883,0.000883,5.111492,5788.78,0,0,1,0.000883
1676937600000,2023-02-21 00:00:00,SPELL/USDT,0.000885,0.000885,0.000885,0.000885,5.416987,6120.89,0,0,1,0.000885
1676851200000,2023-02-20 00:00:00,SPELL/USDT,0.000916,0.000916,0.000916,0.000916,0,0,0,0,0,0.000916
1676764800000,2023-02-19 00:00:00,SPELL/USDT,0.000916,0.000916,0.000916,0.000916,4.033505,4403.39,2.751105,3003.39,2,0.000916
1676678400000,2023-02-18 00:00:00,SPELL/USDT,0.000954,0.000998,0.000945,0.000994,601.384691,618349.9,102.859376,107073.14,14,0.000972
1676592000000,2023-02-17 00:00:00,SPELL/USDT,0.000865,0.000964,0.000865,0.000964,109.475969,117337.09,104.874696,112017.7,12,0.000933
1676505600000,2023-02-16 00:00:00,SPELL/USDT,0.000858,0.000903,0.000858,0.000903,8.872118,9973.77,8.872118,9973.77,4,0.00089
1676419200000,2023-02-15 00:00:00,SPELL/USDT,0.000811,0.000811,0.000811,0.000811,0.028571,35.23,0,0,1,0.000811
1676332800000,2023-02-14 00:00:00,SPELL/USDT,0.000851,0.000851,0.000803,0.000803,3.073207,3686.79,1.998343,2348.23,2,0.000834
1676246400000,2023-02-13 00:00:00,SPELL/USDT,0.000806,0.000807,0.000806,0.000807,33.904817,42063.29,33.904817,42063.29,2,0.000806
1676160000000,2023-02-12 00:00:00,SPELL/USDT,0.000803,0.000803,0.000803,0.000803,1.098624,1368.15,1.098624,1368.15,1,0.000803
1676073600000,2023-02-11 00:00:00,SPELL/USDT,0.000804,0.000804,0.000804,0.000804,0,0,0,0,0,0.000804381195895198
1675987200000,2023-02-10 00:00:00,SPELL/USDT,0.000804,0.000804,0.000804,0.000804,0,0,0,0,0,0.000804381195895198
1675900800000,2023-02-09 00:00:00,SPELL/USDT,0.000817,0.000817,0.000804,0.000804,119.5181852,148585.1,3.5046032,4289.6,5,0.000804381195895198
1675814400000,2023-02-08 00:00:00,SPELL/USDT,0.00082,0.00082,0.00082,0.00082,0,0,0,0,0,0.00082
1675728000000,2023-02-07 00:00:00,SPELL/USDT,0.00082,0.00082,0.00082,0.00082,0,0,0,0,0,0.00082
1675641600000,2023-02-06 00:00:00,SPELL/USDT,0.00082,0.00082,0.00082,0.00082,1.0326998,1259.39,1.0326998,1259.39,1,0.00082
1675555200000,2023-02-05 00:00:00,SPELL/USDT,0.000943,0.000945,0.000835,0.000886,384.93428982,413983.21,142.33313902,151133.88,15,0.000931234933750174
1675468800000,2023-02-04 00:00:00,SPELL/USDT,0.000826,0.000885,0.00082,0.000853,205.86241795,240578.42,196.85937885,230161.92,16,0.000856137573165083
1675382400000,2023-02-03 00:00:00,SPELL/USDT,0.000764,0.000764,0.000764,0.000764,1.9999992,2617.8,0,0,1,0.000764
1675296000000,2023-02-02 00:00:00,SPELL/USDT,0.000768,0.000768,0.000768,0.000768,0,0,0,0,0,0.000774326802641131
1675209600000,2023-02-01 00:00:00,SPELL/USDT,0.000777,0.000777,0.000768,0.000768,168.89276145,218121.79,50.16485376,65318.82,3,0.000774326802641131
1675123200000,2023-01-31 00:00:00,SPELL/USDT,0.000769,0.000862,0.000751,0.000768,19.16420524,25108.53,1.16024338,1345.99,5,0.000764059948594036
1675036800000,2023-01-30 00:00:00,SPELL/USDT,0.000808,0.000808,0.000787,0.000787,109.18461427,138569.71,0,0,2,0.00078796390888683
1674950400000,2023-01-29 00:00:00,SPELL/USDT,0.000815,0.000815,0.000815,0.000815,2.44059085,2994.59,2.44059085,2994.59,1,0.000815
1674864000000,2023-01-28 00:00:00,SPELL/USDT,0.000846,0.000846,0.000846,0.000846,0,0,0,0,0,0.000841694788676996
1674777600000,2023-01-27 00:00:00,SPELL/USDT,0.000787,0.000846,0.000787,0.000846,69.87516102,83046.58,5.09876838,6478.74,5,0.000841694788676996
1674691200000,2023-01-26 00:00:00,SPELL/USDT,0.000728,0.000728,0.000728,0.000728,34.29270936,47105.37,34.29270936,47105.37,2,0.000728
1674604800000,2023-01-25 00:00:00,SPELL/USDT,0.000728,0.000728,0.000728,0.000728,395.39682728,543127.51,395.39682728,543127.51,5,0.000728
1674518400000,2023-01-24 00:00:00,SPELL/USDT,0.000823,0.000823,0.000728,0.000728,6.71502592,8908.14,1.99166,2420,2,0.000756176763910391
1674432000000,2023-01-23 00:00:00,SPELL/USDT,0.00081,0.00081,0.00081,0.00081,18.3347793,22635.53,18.3347793,22635.53,1,0.00081
1674345600000,2023-01-22 00:00:00,SPELL/USDT,0.000723,0.00081,0.000723,0.00081,56.90283004,71557.42,56.90283004,71557.42,7,0.000795414640226563
1674259200000,2023-01-21 00:00:00,SPELL/USDT,0.000711,0.000711,0.000704,0.000704,17.85774135,25359.84,0,0,2,0.000704175741535756
1674172800000,2023-01-20 00:00:00,SPELL/USDT,0.000723,0.000723,0.000723,0.000723,4.72246248,6531.76,4.72246248,6531.76,3,0.000723
1674086400000,2023-01-19 00:00:00,SPELL/USDT,0.000695,0.000695,0.000695,0.000695,0,0,0,0,0,0.000695
1674000000000,2023-01-18 00:00:00,SPELL/USDT,0.000695,0.000695,0.000695,0.000695,0,0,0,0,0,0.000695
1673913600000,2023-01-17 00:00:00,SPELL/USDT,0.000695,0.000695,0.000695,0.000695,0.3539774,509.32,0,0,1,0.000695
1673827200000,2023-01-16 00:00:00,SPELL/USDT,0.00074,0.00074,0.00063,0.000722,102.60870833,147805.12,31.69940248,45385.92,9,0.00069688986432298
1673740800000,2023-01-15 00:00:00,SPELL/USDT,0.000706,0.000706,0.000691,0.000703,8.59430187,12239.77,0,0,4,0.000702202272111951
1673654400000,2023-01-14 00:00:00,SPELL/USDT,0.000661,0.000798,0.000661,0.000798,19.43054893,26754.79,17.56541184,23933.1,3,0.000727878687351628
1673568000000,2023-01-13 00:00:00,SPELL/USDT,0.00055,0.00055,0.00055,0.00055,0,0,0,0,0,0.00055
1673481600000,2023-01-12 00:00:00,SPELL/USDT,0.00055,0.00055,0.00055,0.00055,0,0,0,0,0,0.00055
1673395200000,2023-01-11 00:00:00,SPELL/USDT,0.00055,0.00055,0.00055,0.00055,7.583741,13788.62,0,0,1,0.00055
1673308800000,2023-01-10 00:00:00,SPELL/USDT,0.000598,0.000598,0.000598,0.000598,1.0299952,1722.4,1.0299952,1722.4,1,0.000598
1673222400000,2023-01-09 00:00:00,SPELL/USDT,0.000619,0.000619,0.000619,0.000619,0,0,0,0,0,0.000619
1673136000000,2023-01-08 00:00:00,SPELL/USDT,0.000619,0.000619,0.000619,0.000619,1.99999519,3231.01,1.99999519,3231.01,1,0.000619
1673049600000,2023-01-07 00:00:00,SPELL/USDT,0.000558,0.000579,0.000541,0.000541,59.71215713,106106.82,13.69640762,24502.4,5,0.000563136389385535
1672963200000,2023-01-06 00:00:00,SPELL/USDT,0.000535,0.000535,0.000535,0.000535,1.7795919,3326.34,0,0,1,0.000535
1672876800000,2023-01-05 00:00:00,SPELL/USDT,0.000587,0.00059,0.000553,0.00059,7.19999316,12337.65,7.19999316,12337.65,3,0.000583888884627773
1672790400000,2023-01-04 00:00:00,SPELL/USDT,0.000605,0.000605,0.000605,0.000605,1.0099991,1669.42,1.0099991,1669.42,1,0.000605
1672704000000,2023-01-03 00:00:00,SPELL/USDT,0.000532,0.000532,0.000532,0.000532,0.96752712,1818.66,0,0,1,0.000532
1672617600000,2023-01-02 00:00:00,SPELL/USDT,0.000516,0.000516,0.000516,0.000516,0,0,0,0,0,0.00052952286390659
1672531200000,2023-01-01 00:00:00,SPELL/USDT,0.000516,0.000516,0.000516,0.000516,0,0,0,0,0,0.00052952286390659
1672444800000,2022-12-31 00:00:00,SPELL/USDT,0.000578,0.000582,0.000516,0.000516,5.85848046,11089.84,1.20037818,2062.51,3,0.00052952286390659
1672358400000,2022-12-30 00:00:00,SPELL/USDT,0.00051,0.00051,0.000506,0.000506,18.4706013,36488.17,0,0,2,0.000506209495767742
1672272000000,2022-12-29 00:00:00,SPELL/USDT,0.00051,0.00051,0.00051,0.00051,0,0,0,0,0,0.00051
1672185600000,2022-12-28 00:00:00,SPELL/USDT,0.00051,0.00051,0.00051,0.00051,0,0,0,0,0,0.00051
1672099200000,2022-12-27 00:00:00,SPELL/USDT,0.00051,0.00051,0.00051,0.00051,0.1326204,260.04,0,0,1,0.00051
1672012800000,2022-12-26 00:00:00,SPELL/USDT,0.000548,0.000548,0.000548,0.000548,0,0,0,0,0,0.000548
1671926400000,2022-12-25 00:00:00,SPELL/USDT,0.000548,0.000548,0.000548,0.000548,0,0,0,0,0,0.000548
1671840000000,2022-12-24 00:00:00,SPELL/USDT,0.000548,0.000548,0.000548,0.000548,0,0,0,0,0,0.000548
1671753600000,2022-12-23 00:00:00,SPELL/USDT,0.000548,0.000548,0.000548,0.000548,201.00169816,366791.42,201.00169816,366791.42,2,0.000548
1671667200000,2022-12-22 00:00:00,SPELL/USDT,0.000525,0.000588,0.000525,0.000546,303.03579642,532846.25,285.69270702,501082.35,6,0.000569029952750093
1671580800000,2022-12-21 00:00:00,SPELL/USDT,0.000547,0.000547,0.000547,0.000547,0,0,0,0,0,0.000547
1671494400000,2022-12-20 00:00:00,SPELL/USDT,0.000547,0.000547,0.000547,0.000547,0,0,0,0,0,0.000547
1671408000000,2022-12-19 00:00:00,SPELL/USDT,0.000547,0.000547,0.000547,0.000547,0,0,0,0,0,0.000547
1671321600000,2022-12-18 00:00:00,SPELL/USDT,0.000547,0.000547,0.000547,0.000547,29.65640909,54216.47,0,0,1,0.000547
1671235200000,2022-12-17 00:00:00,SPELL/USDT,0.000512,0.000547,0.000512,0.000539,912.75837544,1693976.57,818.53445131,1510148.9,9,0.000538985765752502
1671148800000,2022-12-16 00:00:00,SPELL/USDT,0.000626,0.000626,0.000579,0.000579,887.19048853,1516391.18,1.85609,2965,10,0.00058507348270907
1671062400000,2022-12-15 00:00:00,SPELL/USDT,0.000587,0.000587,0.000587,0.000587,0,0,0,0,0,0.000587
1670976000000,2022-12-14 00:00:00,SPELL/USDT,0.000587,0.000587,0.000587,0.000587,4.78005253,8143.19,0,0,1,0.000587
1670889600000,2022-12-13 00:00:00,SPELL/USDT,0.000654,0.000654,0.000654,0.000654,1.81065132,2768.58,1.81065132,2768.58,1,0.000654
1670803200000,2022-12-12 00:00:00,SPELL/USDT,0.000679,0.000679,0.000605,0.000605,4.80273778,7375.42,3.12531478,4602.82,2,0.00065315447028632
1670716800000,2022-12-11 00:00:00,SPELL/USDT,0.000616,0.000616,0.000616,0.000616,0,0,0,0,0,0.000616
1670630400000,2022-12-10 00:00:00,SPELL/USDT,0.000616,0.000616,0.000616,0.000616,0,0,0,0,0,0.000616
1670544000000,2022-12-09 00:00:00,SPELL/USDT,0.000616,0.000616,0.000616,0.000616,0,0,0,0,0,0.000616
1670457600000,2022-12-08 00:00:00,SPELL/USDT,0.000616,0.000616,0.000616,0.000616,11.63512504,18888.19,0,0,1,0.000616
1670371200000,2022-12-07 00:00:00,SPELL/USDT,0.000626,0.000626,0.000606,0.000606,7.35098066,12077.61,0,0,2,0.000608720735494357
1670284800000,2022-12-06 00:00:00,SPELL/USDT,0.000634,0.000684,0.000621,0.000621,89.83354614,143767.82,1.00000116,1461.99,7,0.000625020094652805
1670198400000,2022-12-05 00:00:00,SPELL/USDT,0.000603,0.000603,0.000602,0.000602,12.84442177,21307.97,0,0,2,0.000602799208378066
1670112000000,2022-12-04 00:00:00,SPELL/USDT,0.000627,0.000627,0.000627,0.000627,0,0,0,0,0,0.000627
1670025600000,2022-12-03 00:00:00,SPELL/USDT,0.000627,0.000627,0.000627,0.000627,0,0,0,0,0,0.000627
1669939200000,2022-12-02 00:00:00,SPELL/USDT,0.000627,0.000627,0.000627,0.000627,0.00544236,8.68,0.00544236,8.68,1,0.000627
1669852800000,2022-12-01 00:00:00,SPELL/USDT,0.000613,0.000627,0.000505,0.000627,202.81976366,331652.06,5.10578013,8143.19,6,0.000611861776343614
1669766400000,2022-11-30 00:00:00,SPELL/USDT,0.000651,0.000692,0.000651,0.000687,8.99998826,13224.16,8.99998826,13224.16,6,0.000680951767648193
1669680000000,2022-11-29 00:00:00,SPELL/USDT,0.000604,0.000604,0.000604,0.000604,0,0,0,0,0,0.000573411116644772
1669593600000,2022-11-28 00:00:00,SPELL/USDT,0.000548,0.000604,0.000548,0.000604,24.91683684,43555.75,0,0,2,0.000573411116644772
1669507200000,2022-11-27 00:00:00,SPELL/USDT,0.000625,0.000625,0.000625,0.000625,0,0,0,0,0,0.00062335814610698
1669420800000,2022-11-26 00:00:00,SPELL/USDT,0.000616,0.000625,0.000616,0.000625,6.16745534,9894.23,0,0,2,0.00062335814610698
1669334400000,2022-11-25 00:00:00,SPELL/USDT,0.000627,0.000627,0.000562,0.000608,3.62755629,5956.1,0,0,4,0.0006095109279338
1669248000000,2022-11-24 00:00:00,SPELL/USDT,0.000659,0.000659,0.000627,0.000633,31.74452446,50415,10.04779138,15810.96,3,0.000629718161259234
1669161600000,2022-11-23 00:00:00,SPELL/USDT,0.000505,0.000505,0.000505,0.000505,0,0,0,0,0,0.000598403635894727
1669075200000,2022-11-22 00:00:00,SPELL/USDT,0.000505,0.000505,0.000505,0.000505,0,0,0,0,0,0.000598403635894727
1668988800000,2022-11-21 00:00:00,SPELL/USDT,0.00061,0.00061,0.000505,0.000505,6.10934355,10245.3,0,0,2,0.000598403635894727
1668902400000,2022-11-20 00:00:00,SPELL/USDT,0.000657,0.000657,0.000657,0.000657,0,0,0,0,0,0.000678497748921954
1668816000000,2022-11-19 00:00:00,SPELL/USDT,0.000657,0.000657,0.000657,0.000657,0,0,0,0,0,0.000678497748921954
1668729600000,2022-11-18 00:00:00,SPELL/USDT,0.000709,0.000709,0.000657,0.000657,2.4188455,3570.02,2.4188455,3570.02,2,0.000678497748921954
1668643200000,2022-11-17 00:00:00,SPELL/USDT,0.000612,0.000612,0.000612,0.000612,12.31248528,20118.44,0,0,1,0.000612
1668556800000,2022-11-16 00:00:00,SPELL/USDT,0.000618,0.000618,0.000618,0.000618,0,0,0,0,0,0.000619850853232005
1668470400000,2022-11-15 00:00:00,SPELL/USDT,0.000647,0.000647,0.000618,0.000618,9.5949284,15481.36,0,0,2,0.000619850853232005
1668384000000,2022-11-14 00:00:00,SPELL/USDT,0.000644,0.000645,0.000612,0.000645,35.18088415,55259.78,0,0,5,0.000636917996560071
1668297600000,2022-11-13 00:00:00,SPELL/USDT,0.000678,0.000684,0.000612,0.000612,53.61851744,80205.39,5.81856228,8506.67,5,0.00066861793224173
1668211200000,2022-11-12 00:00:00,SPELL/USDT,0.000695,0.000696,0.000695,0.000696,49.30939662,70922.93,49.30939662,70922.93,4,0.000695253508434026
1668124800000,2022-11-11 00:00:00,SPELL/USDT,0.00061,0.00061,0.00061,0.00061,0,0,0,0,0,0.000611626783706466
1668038400000,2022-11-10 00:00:00,SPELL/USDT,0.000612,0.000612,0.00061,0.00061,24.46503156,40000,0,0,9,0.000611626783706466
1667952000000,2022-11-09 00:00:00,SPELL/USDT,0.000709,0.00071,0.000612,0.000612,215.08208584,345384.94,13.28339946,18713.84,20,0.000623725441890102
1667865600000,2022-11-08 00:00:00,SPELL/USDT,0.0009,0.0009,0.00072,0.00072,268.38692322,328542.08,19.999998,22222.22,32,0.000819425890840452
1667779200000,2022-11-07 00:00:00,SPELL/USDT,0.00091,0.00093,0.000904,0.000904,174.92948061,192360.44,93.85759662,102975.65,13,0.000909406502066498
1667692800000,2022-11-06 00:00:00,SPELL/USDT,0.000972,0.000972,0.00091,0.00091,212.10674061,222431.65,63.84238232,69206,8,0.0009543042511348
1667606400000,2022-11-05 00:00:00,SPELL/USDT,0.000993,0.00107,0.000993,0.001011,371.35597616,366075.84,203.28628579,199653.15,14,0.001014704996929162
1667520000000,2022-11-04 00:00:00,SPELL/USDT,0.000878,0.001119,0.000877,0.001003,704.38265933,675373.99,669.55305104,641468.77,20,0.001046176829383315
1667433600000,2022-11-03 00:00:00,SPELL/USDT,0.000932,0.000932,0.000815,0.000865,320.49098235,365261.7,5.09662791,5862.28,18,0.000879635684986468
1667347200000,2022-11-02 00:00:00,SPELL/USDT,0.000854,0.000854,0.000854,0.000854,0,0,0,0,0,0.000860865264757192
1667260800000,2022-11-01 00:00:00,SPELL/USDT,0.000867,0.000874,0.000851,0.000854,32.57253402,37841.71,8.25323444,9443.06,6,0.000860865264757192
1667174400000,2022-10-31 00:00:00,SPELL/USDT,0.000864,0.000868,0.000863,0.000868,197.90472438,229278.14,0,0,4,0.000863165252439235
1667088000000,2022-10-30 00:00:00,SPELL/USDT,0.000897,0.000939,0.000897,0.0009,62.30333254,67982.52,10.33475874,11006.42,7,0.00091665546251661
1667001600000,2022-10-29 00:00:00,SPELL/USDT,0.000869,0.000891,0.000863,0.000891,140.25019924,162256.74,21.83295521,25040.93,6,0.000864392917903563
1666915200000,2022-10-28 00:00:00,SPELL/USDT,0.000835,0.000855,0.00083,0.000855,13.33303615,15967.28,2.33304705,2728.71,3,0.000835124574439108
1666828800000,2022-10-27 00:00:00,SPELL/USDT,0.00084,0.00084,0.00084,0.00084,34.4790768,41046.52,0,0,2,0.00084
1666742400000,2022-10-26 00:00:00,SPELL/USDT,0.000826,0.000826,0.000826,0.000826,0,0,0,0,0,0.000825726617060795
1666656000000,2022-10-25 00:00:00,SPELL/USDT,0.000826,0.000826,0.000826,0.000826,0,0,0,0,0,0.000825726617060795
1666569600000,2022-10-24 00:00:00,SPELL/USDT,0.000826,0.000826,0.000826,0.000826,0,0,0,0,0,0.000825726617060795
1666483200000,2022-10-23 00:00:00,SPELL/USDT,0.000823,0.000826,0.000823,0.000826,4.54409245,5503.15,0,0,2,0.000825726617060795
1666396800000,2022-10-22 00:00:00,SPELL/USDT,0.000972,0.000972,0.000824,0.000824,35.99070056,39971,0,0,4,0.000906211769477153
1666310400000,2022-10-21 00:00:00,SPELL/USDT,0.001098,0.001098,0.001098,0.001098,0,0,0,0,0,0.000912422374755319
1666224000000,2022-10-20 00:00:00,SPELL/USDT,0.001098,0.001098,0.001098,0.001098,0,0,0,0,0,0.000912422374755319
1666137600000,2022-10-19 00:00:00,SPELL/USDT,0.001098,0.001098,0.001098,0.001098,0,0,0,0,0,0.000912422374755319
1666051200000,2022-10-18 00:00:00,SPELL/USDT,0.001098,0.001098,0.001098,0.001098,0,0,0,0,0,0.000912422374755319
1665964800000,2022-10-17 00:00:00,SPELL/USDT,0.000897,0.001098,0.000897,0.001098,36.17210434,39724.85,1.99999602,1821.49,3,0.000912422374755319
1665878400000,2022-10-16 00:00:00,SPELL/USDT,0.001076,0.001879,0.000882,0.000882,359.13711891,319946.96,187.65773776,134701.08,64,0.001233379296953402
1665792000000,2022-10-15 00:00:00,SPELL/USDT,0.000999,0.000999,0.000888,0.000888,33.1563623,36537.38,19.05638568,20799.23,7,0.000908956543683924
1665705600000,2022-10-14 00:00:00,SPELL/USDT,0.00091,0.000997,0.00091,0.000997,20.43316892,20678.27,18.51833782,18574.06,2,0.000988847064625549
1665619200000,2022-10-13 00:00:00,SPELL/USDT,0.000821,0.00085,0.000815,0.00085,67.1706012,81917.06,0,0,14,0.000820027402089112
1665532800000,2022-10-12 00:00:00,SPELL/USDT,0.000931,0.000931,0.000931,0.000931,0,0,0,0,0,0.000961292074494513
1665446400000,2022-10-11 00:00:00,SPELL/USDT,0.00098,0.00098,0.000931,0.000931,167.15639748,173912.07,60.64288889,63541.03,18,0.000961292074494513
1665360000000,2022-10-10 00:00:00,SPELL/USDT,0.000996,0.000997,0.000957,0.000957,18.06501574,18205.38,10.96394278,11018.88,9,0.000992399062666964
1665273600000,2022-10-09 00:00:00,SPELL/USDT,0.000992,0.000992,0.000992,0.000992,1.0049952,1013.1,1.0049952,1013.1,1,0.000992
1665187200000,2022-10-08 00:00:00,SPELL/USDT,0.000999,0.000999,0.000999,0.000999,12.12417369,12136.31,3.44287368,3446.32,2,0.000999
1665100800000,2022-10-07 00:00:00,SPELL/USDT,0.001003,0.001003,0.000991,0.000991,20.2055394,20246.42,1.00593437,1015.07,11,0.000997992713005224
1665014400000,2022-10-06 00:00:00,SPELL/USDT,0.001009,0.001009,0.001006,0.001006,145.38726273,144476.97,90.6279244,90087.4,3,0.001006301414218598
1664928000000,2022-10-05 00:00:00,SPELL/USDT,0.001011,0.001011,0.001007,0.001008,186.57619673,184749.57,145.56021567,144034.58,7,0.00100988953602254
1664841600000,2022-10-04 00:00:00,SPELL/USDT,0.001026,0.001026,0.001026,0.001026,0,0,0,0,0,0.001036416230379276
1664755200000,2022-10-03 00:00:00,SPELL/USDT,0.001026,0.001026,0.001026,0.001026,0,0,0,0,0,0.001036416230379276
1664668800000,2022-10-02 00:00:00,SPELL/USDT,0.001026,0.001026,0.001026,0.001026,0,0,0,0,0,0.001036416230379276
1664582400000,2022-10-01 00:00:00,SPELL/USDT,0.001036,0.001054,0.001026,0.001026,263.28073196,254067.04,86.75872412,82313.78,6,0.001036416230379276
1664496000000,2022-09-30 00:00:00,SPELL/USDT,0.001,0.001,0.001,0.001,0,0,0,0,0,0.001
1664409600000,2022-09-29 00:00:00,SPELL/USDT,0.001,0.001,0.001,0.001,0,0,0,0,0,0.001
1664323200000,2022-09-28 00:00:00,SPELL/USDT,0.001,0.001,0.001,0.001,15.35819,15358.19,0,0,14,0.001
1664236800000,2022-09-27 00:00:00,SPELL/USDT,0.001072,0.001072,0.001055,0.001057,103.54016704,97928.64,76.54840188,72463.9,6,0.001057318599040767
1664150400000,2022-09-26 00:00:00,SPELL/USDT,0.001067,0.001069,0.00106,0.00106,198.59397416,186237.99,144.75640456,135447.83,8,0.001066359565620869
1664064000000,2022-09-25 00:00:00,SPELL/USDT,0.001096,0.001096,0.001096,0.001096,3.74732264,3419.09,3.74732264,3419.09,1,0.001096
1663977600000,2022-09-24 00:00:00,SPELL/USDT,0.001069,0.001106,0.001069,0.001104,15.96517608,14663.44,9.05680634,8200.98,4,0.001089057412693439
1663891200000,2022-09-23 00:00:00,SPELL/USDT,0.001045,0.001076,0.001045,0.001076,85.54183095,81264.91,0,0,9,0.001052798757550442
1663804800000,2022-09-22 00:00:00,SPELL/USDT,0.00107,0.00107,0.00107,0.00107,2.738879,2559.7,2.738879,2559.7,1,0.00107
1663718400000,2022-09-21 00:00:00,SPELL/USDT,0.00109,0.001103,0.001071,0.001103,164.5873267,150894.09,0.9999987,917.43,5,0.001090965789774382
1663632000000,2022-09-20 00:00:00,SPELL/USDT,0.001108,0.001108,0.001089,0.001089,16.59787149,15209.71,15.58787844,14282.26,4,0.001091301018882029
1663545600000,2022-09-19 00:00:00,SPELL/USDT,0.001096,0.001113,0.001088,0.001113,22.67349092,20584.24,19.18844452,17398.64,7,0.001101560478432052
1663459200000,2022-09-18 00:00:00,SPELL/USDT,0.001214,0.001214,0.001093,0.001094,157.21103624,142228.24,135.33103624,122228.24,20,0.001106086646614031
1663372800000,2022-09-17 00:00:00,SPELL/USDT,0.001202,0.001211,0.001202,0.001211,102.78492661,84891.68,100.51473325,83003,3,0.001210778854366202
1663286400000,2022-09-16 00:00:00,SPELL/USDT,0.001207,0.001218,0.001177,0.001177,51.91216103,43455.42,15.96987201,13211.72,15,0.001194750485258885
1663200000000,2022-09-15 00:00:00,SPELL/USDT,0.001207,0.001207,0.001207,0.001207,3.34775934,2773.62,0,0,4,0.001207
1663113600000,2022-09-14 00:00:00,SPELL/USDT,0.001224,0.001224,0.001207,0.001207,89.62582702,73959.42,8.51277118,7043.46,9,0.001211827005672629
1663027200000,2022-09-13 00:00:00,SPELL/USDT,0.001333,0.001333,0.001223,0.001224,33.3786427,26900.32,20.248657,16438.18,12,0.001241213328622254
1662940800000,2022-09-12 00:00:00,SPELL/USDT,0.001362,0.001362,0.001326,0.001347,66.09849489,49200.69,33.73415721,24939.33,7,0.001343575436487369
1662854400000,2022-09-11 00:00:00,SPELL/USDT,0.001371,0.001371,0.001255,0.001255,27.77037379,21051.05,15.97103949,11649.19,2,0.001321712842788854
1662768000000,2022-09-10 00:00:00,SPELL/USDT,0.001382,0.001387,0.001369,0.001386,244.74665628,177140.77,4.46925149,3224.94,23,0.001381654695852247
1662681600000,2022-09-09 00:00:00,SPELL/USDT,0.001354,0.001354,0.001354,0.001354,14.59908526,10782.19,0,0,7,0.001354
1662595200000,2022-09-08 00:00:00,SPELL/USDT,0.001708,0.001708,0.001354,0.001354,7.29015578,5231.09,1.80066066,1176.81,6,0.001402558625363145
1662508800000,2022-09-07 00:00:00,SPELL/USDT,0.001228,0.00125,0.00121,0.00125,94.5379363,76643.01,25.97005632,20809.34,13,0.001233576010537474
1662422400000,2022-09-06 00:00:00,SPELL/USDT,0.001412,0.001433,0.001404,0.001426,75.15715513,52881.15,64.81558862,45529.72,10,0.001421319561303221
1662336000000,2022-09-05 00:00:00,SPELL/USDT,0.001321,0.001321,0.001321,0.001321,0,0,0,0,0,0.001321
1662249600000,2022-09-04 00:00:00,SPELL/USDT,0.001321,0.001321,0.001321,0.001321,7.03782565,5327.65,7.03782565,5327.65,1,0.001321
1662163200000,2022-09-03 00:00:00,SPELL/USDT,0.001347,0.001347,0.001326,0.001326,15.92279316,11984.39,0,0,3,0.001328664089805962
1662076800000,2022-09-02 00:00:00,SPELL/USDT,0.001347,0.001347,0.001347,0.001347,1.00999407,749.81,0,0,1,0.001347
1661990400000,2022-09-01 00:00:00,SPELL/USDT,0.001335,0.001347,0.001309,0.001347,27.37197623,20732.6,5.26246006,3933.36,15,0.001320379181012824
1661904000000,2022-08-31 00:00:00,SPELL/USDT,0.001898,0.001898,0.001378,0.001378,16.76150681,11363.11,16.76150681,11363.11,6,0.001502690368369691
1661817600000,2022-08-30 00:00:00,SPELL/USDT,0.001391,0.001395,0.001338,0.001344,852.08816761,613293.07,2.12368383,1550.2,19,0.001389389315892188
1661731200000,2022-08-29 00:00:00,SPELL/USDT,0.001416,0.001416,0.001416,0.001416,1.29855696,917.06,0,0,1,0.001416
1661644800000,2022-08-28 00:00:00,SPELL/USDT,0.001379,0.001416,0.001379,0.001416,12.80625648,9200.21,7.72344563,5589.07,5,0.001392075328239871
1661558400000,2022-08-27 00:00:00,SPELL/USDT,0.00132,0.00132,0.001312,0.001312,17.35035952,13219.74,0,0,2,0.001312461088128506
1661472000000,2022-08-26 00:00:00,SPELL/USDT,0.001524,0.001524,0.001376,0.001376,29.31684413,20322.36,3.11560083,2107.7,25,0.001444206652503351
1661385600000,2022-08-25 00:00:00,SPELL/USDT,0.001551,0.001551,0.001539,0.001539,2.0121771,1302.38,1.00218141,651.19,2,0.001545023300970873
1661299200000,2022-08-24 00:00:00,SPELL/USDT,0.001608,0.001608,0.001551,0.001551,9.98315937,6342.85,1.26246747,813.97,9,0.001574419602502046
1661212800000,2022-08-23 00:00:00,SPELL/USDT,0.001504,0.001623,0.001503,0.001608,402.97761932,253167.48,85.46646092,54966.97,9,0.001592526920135262
1661126400000,2022-08-22 00:00:00,SPELL/USDT,0.00152,0.00152,0.001505,0.001505,872.30687185,574151.36,830.8529304,546613.77,9,0.001519304362923951
1661040000000,2022-08-21 00:00:00,SPELL/USDT,0.001526,0.001526,0.001526,0.001526,1.14271458,748.83,0,0,1,0.001526
1660953600000,2022-08-20 00:00:00,SPELL/USDT,0.001583,0.001583,0.001505,0.001505,113.76551886,75403.4,109.18574223,72392.37,4,0.001508917164067685
1660867200000,2022-08-19 00:00:00,SPELL/USDT,0.001554,0.001612,0.001554,0.001612,255.9211515,160837.69,166.18556136,103092.78,5,0.001591663016528275
1660780800000,2022-08-18 00:00:00,SPELL/USDT,0.00151,0.001712,0.001489,0.001712,385.75315143,229805.18,367.09370326,217273.65,7,0.001680086340743674
1660694400000,2022-08-17 00:00:00,SPELL/USDT,0.001737,0.001737,0.001524,0.001524,986.4929946,636674.05,688.08945244,442466.54,14,0.001550270113184721
1660608000000,2022-08-16 00:00:00,SPELL/USDT,0.001687,0.001826,0.001641,0.001826,1142.22703194,666195,198.72300994,117646.15,16,0.001714798726421476
1660521600000,2022-08-15 00:00:00,SPELL/USDT,0.001436,0.001816,0.001399,0.001816,937.66580877,650662.45,137.44921183,91672.82,19,0.001443055135813242
1660435200000,2022-08-14 00:00:00,SPELL/USDT,0.001456,0.001456,0.001454,0.001454,23.05617474,15841.62,23.05617474,15841.62,2,0.001455418304767757
1660348800000,2022-08-13 00:00:00,SPELL/USDT,0.001532,0.001532,0.001524,0.001524,37.16119328,24274.82,37.16119328,24274.82,2,0.001530858637753625
1660262400000,2022-08-12 00:00:00,SPELL/USDT,0.001521,0.001525,0.001492,0.001492,153.90295733,102655.35,118.7159782,79568.35,6,0.001499340068207446
1660176000000,2022-08-11 00:00:00,SPELL/USDT,0.001543,0.001566,0.001513,0.001566,370.57805469,241809.63,370.57805469,241809.63,14,0.001532658483466036
1660089600000,2022-08-10 00:00:00,SPELL/USDT,0.001468,0.001549,0.001426,0.001543,1338.161476,892501.5,868.32537864,580227.98,17,0.001500492650808171
1660003200000,2022-08-09 00:00:00,SPELL/USDT,0.001255,0.00165,0.001255,0.001482,1295.53385521,860458.95,566.26094255,384147.45,16,0.001507658012002919
1659916800000,2022-08-08 00:00:00,SPELL/USDT,0.001025,0.001025,0.001025,0.001025,1.139964,1112.16,0,0,1,0.001025
1659830400000,2022-08-07 00:00:00,SPELL/USDT,0.000949,0.000949,0.000949,0.000949,0,0,0,0,0,0.001123365908296574
1659744000000,2022-08-06 00:00:00,SPELL/USDT,0.001255,0.001255,0.000949,0.000949,17.5492856,15923.12,9.9999906,7968.12,2,0.001123365908296574
1659657600000,2022-08-05 00:00:00,SPELL/USDT,0.001286,0.001286,0.001286,0.001286,77.28505064,60097.24,77.28505064,60097.24,1,0.001286
1659571200000,2022-08-04 00:00:00,SPELL/USDT,0.00071,0.00071,0.00071,0.00071,1.6827,2370,0,0,1,0.00071
1659484800000,2022-08-03 00:00:00,SPELL/USDT,0.001083,0.001083,0.001074,0.001074,4.12379133,3815.72,3.09353535,2856.45,2,0.001080751509938792
1659398400000,2022-08-02 00:00:00,SPELL/USDT,0.001093,0.001093,0.001093,0.001093,0,0,0,0,0,0.001107985194059892
1659312000000,2022-08-01 00:00:00,SPELL/USDT,0.001093,0.001093,0.001093,0.001093,0,0,0,0,0,0.001107985194059892
1659225600000,2022-07-31 00:00:00,SPELL/USDT,0.00110646,0.00111206,0.001093,0.001093,63.88380729,57660.39195443,0,0,0,0.00110793
1659139200000,2022-07-30 00:00:00,SPELL/USDT,0.00111208,0.00115338,0.00111107,0.00111107,136.67023634,120238.2070685,0,0,0,0.00113666
1659052800000,2022-07-29 00:00:00,SPELL/USDT,0.00111527,0.0011202,0.00107436,0.00107436,124.27511452,115501.45020196,0,0,0,0.00107596
1658966400000,2022-07-28 00:00:00,SPELL/USDT,0.00106216,0.00112547,0.00106216,0.00111081,624.66150959,570671.51258245,0,0,0,0.0010946
1658880000000,2022-07-27 00:00:00,SPELL/USDT,0.00097825,0.00112988,0.00097825,0.00106216,836.93225996,778212.30364487,0,0,0,0.00107545
1658793600000,2022-07-26 00:00:00,SPELL/USDT,0.00099721,0.00099721,0.0009607,0.0009607,435.80049196,448799.52819652,0,0,0,0.00097103
1658707200000,2022-07-25 00:00:00,SPELL/USDT,0.00104,0.00104,0.00104,0.00104,51.41302031,49435.59645677,0,0,0,0.00104
1658620800000,2022-07-24 00:00:00,SPELL/USDT,0.00106786,0.00120709,0.00105349,0.00106904,27.6195888,25621.55027939,0,0,0,0.00107798
1658534400000,2022-07-23 00:00:00,SPELL/USDT,0.00106397,0.00106397,0.00105537,0.00105537,123.47243557,116977.49723839,0,0,0,0.00105552
1658448000000,2022-07-22 00:00:00,SPELL/USDT,0.0011191,0.00112598,0.00106397,0.00106397,11.23704647,10157.74921103,0,0,0,0.00110625
1658361600000,2022-07-21 00:00:00,SPELL/USDT,0.00104738,0.00111904,0.00104738,0.001114,199.72273254,186033.14027075,0,0,0,0.00107358
1658275200000,2022-07-20 00:00:00,SPELL/USDT,0.00114641,0.00120519,0.00108102,0.00108102,935.8782561,841428.08543939,0,0,0,0.00111224
1658188800000,2022-07-19 00:00:00,SPELL/USDT,0.00102242,0.00126005,0.00102242,0.00115969,1659.9520174,1376522.15360367,0,0,0,0.0012059
1658102400000,2022-07-18 00:00:00,SPELL/USDT,0.00104649,0.00104649,0.00102242,0.00102242,33.4093379,32066.7854328,0,0,0,0.00104186
1658016000000,2022-07-17 00:00:00,SPELL/USDT,0.00100753,0.00102847,0.00099721,0.00099721,129.00367406,126427.16921883,0,0,0,0.00102037
1657929600000,2022-07-16 00:00:00,SPELL/USDT,0.00096474,0.00106782,0.00096474,0.00100753,525.30477018,504232.34020622,0,0,0,0.00104179
1657843200000,2022-07-15 00:00:00,SPELL/USDT,0.00095813,0.0009882,0.00095813,0.00096747,65.45028051,68110.70517409,0,0,0,0.00096093
1657756800000,2022-07-14 00:00:00,SPELL/USDT,0.00094107,0.00094692,0.00091547,0.00094692,110.30790081,117395.15433363,0,0,0,0.00093962
1657670400000,2022-07-13 00:00:00,SPELL/USDT,0.00097037,0.00097443,0.00091003,0.00091418,63.70959906,65702.92552339,0,0,0,0.00096966
1657584000000,2022-07-12 00:00:00,SPELL/USDT,0.00093803,0.00098312,0.00091194,0.0009656,492.26836331,517082.85667033,0,0,0,0.00095201
1657497600000,2022-07-11 00:00:00,SPELL/USDT,0.00099995,0.00102758,0.00094927,0.00094927,179.91279682,180717.70724061,0,0,0,0.00099554
1657411200000,2022-07-10 00:00:00,SPELL/USDT,0.00098322,0.00114163,0.00098135,0.0010412,1439.35136378,1327536.80142642,0,0,0,0.00108422
1657324800000,2022-07-09 00:00:00,SPELL/USDT,0.00097108,0.00097724,0.00096732,0.00096732,113.01810655,116360.87653369,0,0,0,0.00097127
1657238400000,2022-07-08 00:00:00,SPELL/USDT,0.00100823,0.00100823,0.00096,0.00096,773.63291795,802186.26284868,0,0,0,0.0009644
1657152000000,2022-07-07 00:00:00,SPELL/USDT,0.00096038,0.00100419,0.00096038,0.00099662,2251.17871986,2296891.55014923,0,0,0,0.00098009
1657065600000,2022-07-06 00:00:00,SPELL/USDT,0.00095708,0.00096738,0.0009491,0.00095194,215.68498314,227192.57879103,0,0,0,0.00094934
1656979200000,2022-07-05 00:00:00,SPELL/USDT,0.00096388,0.00096847,0.0009497,0.00096846,1871.2173866,1932332.13621543,0,0,0,0.00096837
1656892800000,2022-07-04 00:00:00,SPELL/USDT,0.00096676,0.00098025,0.000956,0.0009578,1860.71249261,1936309.75341507,0,0,0,0.00096095
1656806400000,2022-07-03 00:00:00,SPELL/USDT,0.00096986,0.00099802,0.00096123,0.0009702,462.68194385,473797.55020887,0,0,0,0.00097653
1656720000000,2022-07-02 00:00:00,SPELL/USDT,0.00091967,0.00094499,0.00090538,0.00094499,373.71107952,398053.58504538,0,0,0,0.00093884
1656633600000,2022-07-01 00:00:00,SPELL/USDT,0.00093833,0.00100994,0.00092897,0.00093874,1449.18029893,1541332.04863663,0,0,0,0.00094021
1656547200000,2022-06-30 00:00:00,SPELL/USDT,0.00093478,0.00106736,0.00091748,0.00091748,1631.9738838,1665941.37068871,0,0,0,0.00097961
1656460800000,2022-06-29 00:00:00,SPELL/USDT,0.0009129,0.00114482,0.00086757,0.00100395,4183.75808242,4067834.95727409,0,0,0,0.00102849
1656374400000,2022-06-28 00:00:00,SPELL/USDT,0.00100512,0.00100512,0.00091039,0.00091039,615.77491182,651048.38705592,0,0,0,0.00094582
1656288000000,2022-06-27 00:00:00,SPELL/USDT,0.00107429,0.00112668,0.0009855,0.0009855,1501.50163518,1410039.45840869,0,0,0,0.00106486
1656201600000,2022-06-26 00:00:00,SPELL/USDT,0.00084073,0.00130632,0.00084073,0.0010622,4999.04508874,4640581.8981373,0,0,0,0.00107724
1656115200000,2022-06-25 00:00:00,SPELL/USDT,0.00084023,0.00084414,0.0008122,0.00082492,386.57170089,474612.44103703,0,0,0,0.00081449
1656028800000,2022-06-24 00:00:00,SPELL/USDT,0.00081513,0.00084023,0.00081335,0.00084023,713.13284723,864564.64113022,0,0,0,0.00082484
1655942400000,2022-06-23 00:00:00,SPELL/USDT,0.00076412,0.00081417,0.00076412,0.00081158,390.25950153,483604.48103387,0,0,0,0.00080698
1655856000000,2022-06-22 00:00:00,SPELL/USDT,0.0008,0.0008,0.00077515,0.0007839,230.09256889,294537.25801522,0,0,0,0.0007812
1655769600000,2022-06-21 00:00:00,SPELL/USDT,0.00079445,0.00083327,0.00078651,0.00080418,713.16308065,879116.25139769,0,0,0,0.00081122
1655683200000,2022-06-20 00:00:00,SPELL/USDT,0.00072216,0.000744,0.00072216,0.000744,4.21143807,5744.85468558,0,0,0,0.00073308
1655596800000,2022-06-19 00:00:00,SPELL/USDT,0.00068931,0.0007606,0.00067217,0.0007606,1488.5508381,2024911.88622948,0,0,0,0.00073511
1655510400000,2022-06-18 00:00:00,SPELL/USDT,0.00075155,0.0007882,0.00067756,0.00074304,2342.29940944,3193947.08146592,0,0,0,0.00073335
1655424000000,2022-06-17 00:00:00,SPELL/USDT,0.00079947,0.00080903,0.00076877,0.00076877,126.29562381,156286.71289531,0,0,0,0.0008081
1655337600000,2022-06-16 00:00:00,SPELL/USDT,0.00082807,0.00082885,0.00078499,0.00078499,130.06289606,159684.76768045,0,0,0,0.00081449
1655251200000,2022-06-15 00:00:00,SPELL/USDT,0.00092826,0.00092826,0.00075511,0.00082807,1817.41809102,2233625.21596726,0,0,0,0.00081366
1655164800000,2022-06-14 00:00:00,SPELL/USDT,0.00094983,0.00094983,0.00094983,0.00094983,2.42163223,2549.54279997,0,0,0,0.00094983
1655078400000,2022-06-13 00:00:00,SPELL/USDT,0.00081516,0.00105018,0.00081516,0.00093584,4175.18642942,4551421.45177212,0,0,0,0.00091733
1654992000000,2022-06-12 00:00:00,SPELL/USDT,0.00099191,0.00099191,0.00068496,0.00086554,4673.5184748,5611686.1704884,0,0,0,0.00083281
1654905600000,2022-06-11 00:00:00,SPELL/USDT,0.00110617,0.00110617,0.00101805,0.00101805,531.02621407,518875.71146399,0,0,0,0.00102341
1654819200000,2022-06-10 00:00:00,SPELL/USDT,0.00116645,0.0011777,0.00107919,0.00110585,1341.82972472,1216256.42607569,0,0,0,0.00110324
1654732800000,2022-06-09 00:00:00,SPELL/USDT,0.0012,0.00120732,0.00116645,0.00117998,1389.46585855,1160944.66212501,0,0,0,0.00119684
1654646400000,2022-06-08 00:00:00,SPELL/USDT,0.0012402,0.0012402,0.00121608,0.00121608,34.42158548,28058.84440235,0,0,0,0.00122676
1654560000000,2022-06-07 00:00:00,SPELL/USDT,0.00128028,0.00128028,0.00123154,0.00124581,127.52585407,102576.79112495,0,0,0,0.00124322
1654473600000,2022-06-06 00:00:00,SPELL/USDT,0.00131272,0.00131272,0.0012683,0.0012683,55.16451638,42353.56743038,0,0,0,0.00130247
1654387200000,2022-06-05 00:00:00,SPELL/USDT,0.00126284,0.00130798,0.0012377,0.00128083,1638.88666338,1277259.74496464,0,0,0,0.00128312
1654300800000,2022-06-04 00:00:00,SPELL/USDT,0.00122799,0.00128039,0.00122799,0.00126284,96.78741174,77590.46030511,0,0,0,0.00124741
1654214400000,2022-06-03 00:00:00,SPELL/USDT,0.00121725,0.00124035,0.00121725,0.00122799,17.00494443,13733.2855201,0,0,0,0.00123822
1654128000000,2022-06-02 00:00:00,SPELL/USDT,0.00124212,0.00124949,0.00124212,0.00124949,47.53876392,38163.39478835,0,0,0,0.00124566
1654041600000,2022-06-01 00:00:00,SPELL/USDT,0.00132492,0.00133466,0.00128754,0.00128754,205.87496112,155425.81047497,0,0,0,0.00132458
1653955200000,2022-05-31 00:00:00,SPELL/USDT,0.00136021,0.00136021,0.00132868,0.00133894,24.81681048,18527.95721969,0,0,0,0.00133942
1653868800000,2022-05-30 00:00:00,SPELL/USDT,0.00130153,0.00137677,0.00129092,0.00137292,216.24028419,163001.85108678,0,0,0,0.00132661
1653782400000,2022-05-29 00:00:00,SPELL/USDT,0.00123925,0.00127957,0.00123844,0.00127692,749.46652802,603364.83933633,0,0,0,0.00124214
1653696000000,2022-05-28 00:00:00,SPELL/USDT,0.00123565,0.00126978,0.00123565,0.00126978,66.19515337,53170.22959526,0,0,0,0.00124496
1653609600000,2022-05-27 00:00:00,SPELL/USDT,0.00123978,0.00125001,0.00119794,0.00123401,158.01973861,127514.9777391,0,0,0,0.00123922
1653523200000,2022-05-26 00:00:00,SPELL/USDT,0.00139461,0.00139461,0.00123443,0.0012633,604.56216923,467306.58590218,0,0,0,0.00129371
1653436800000,2022-05-25 00:00:00,SPELL/USDT,0.00141378,0.00141378,0.00138062,0.00138062,58.49375871,42330.18429109,0,0,0,0.00138184
1653350400000,2022-05-24 00:00:00,SPELL/USDT,0.001441,0.00144394,0.00133028,0.00139813,338.6444745,242465.32716058,0,0,0,0.00139667
1653264000000,2022-05-23 00:00:00,SPELL/USDT,0.00149282,0.00154672,0.00141833,0.00141833,165.11415015,109466.9779597,0,0,0,0.00150834
1653177600000,2022-05-22 00:00:00,SPELL/USDT,0.00147355,0.00148165,0.00140943,0.00146921,193.1914693,133350.35036591,0,0,0,0.00144875
1653091200000,2022-05-21 00:00:00,SPELL/USDT,0.00133827,0.0016261,0.00133827,0.00147355,4625.25574555,3030855.50116776,0,0,0,0.00152605
1653004800000,2022-05-20 00:00:00,SPELL/USDT,0.00134667,0.00137235,0.00128731,0.00128731,9.10745179,6813.09166592,0,0,0,0.00133675
1652918400000,2022-05-19 00:00:00,SPELL/USDT,0.00128603,0.00141021,0.0012559,0.00140903,711.02410015,541120.05557525,0,0,0,0.00131398
1652832000000,2022-05-18 00:00:00,SPELL/USDT,0.00144848,0.00144848,0.00127419,0.00133217,1845.74606226,1360500.32885705,0,0,0,0.00135666
1652745600000,2022-05-17 00:00:00,SPELL/USDT,0.00135246,0.00160692,0.00134895,0.00145138,2233.10505714,1532896.53966068,0,0,0,0.00145678
1652659200000,2022-05-16 00:00:00,SPELL/USDT,0.00137095,0.00138193,0.00125788,0.00136282,3524.48458102,2646259.57333523,0,0,0,0.00133187
1652572800000,2022-05-15 00:00:00,SPELL/USDT,0.00130126,0.00143497,0.001299,0.00139254,942.82152018,724042.0690926,0,0,0,0.00130216
1652486400000,2022-05-14 00:00:00,SPELL/USDT,0.00132351,0.00134623,0.0012285,0.00134623,565.27062105,445819.03973777,0,0,0,0.00126793
1652400000000,2022-05-13 00:00:00,SPELL/USDT,0.00131603,0.00150562,0.00131603,0.00132146,1069.38487656,739497.45478782,0,0,0,0.00144609
1652313600000,2022-05-12 00:00:00,SPELL/USDT,0.00140431,0.00140431,0.00119794,0.00126207,937.63818955,727192.71196714,0,0,0,0.00128939
1652227200000,2022-05-11 00:00:00,SPELL/USDT,0.00229581,0.00229581,0.00113,0.00118582,5659.11598279,3360573.7741742,0,0,0,0.00168397
1652140800000,2022-05-10 00:00:00,SPELL/USDT,0.00231196,0.00273928,0.00214159,0.00226796,5245.19254695,2216514.71462549,0,0,0,0.00236641
1652054400000,2022-05-09 00:00:00,SPELL/USDT,0.00288785,0.00289029,0.00230193,0.00232277,4246.26811272,1710189.93703031,0,0,0,0.00248292
1651968000000,2022-05-08 00:00:00,SPELL/USDT,0.00298284,0.00303527,0.00296987,0.00302029,975.24901963,327141.7326388,0,0,0,0.00298112
1651881600000,2022-05-07 00:00:00,SPELL/USDT,0.00314124,0.00314124,0.00300011,0.00300713,540.58296926,176923.89596877,0,0,0,0.00305545
1651795200000,2022-05-06 00:00:00,SPELL/USDT,0.003108,0.0031941,0.00299438,0.00312207,1075.58762834,353221.40757174,0,0,0,0.00304508
1651708800000,2022-05-05 00:00:00,SPELL/USDT,0.00350074,0.00350074,0.00307295,0.00307295,1802.51986492,562040.91841269,0,0,0,0.00320709
1651622400000,2022-05-04 00:00:00,SPELL/USDT,0.00301788,0.00353794,0.00301788,0.00350074,7441.53794379,2197623.49534141,0,0,0,0.00338617
1651536000000,2022-05-03 00:00:00,SPELL/USDT,0.00306159,0.00314009,0.00299943,0.00299943,331.47124935,107967.26649667,0,0,0,0.0030701
1651449600000,2022-05-02 00:00:00,SPELL/USDT,0.00323306,0.00323306,0.00304344,0.00312009,151.11463756,49057.88160918,0,0,0,0.00308033
1651363200000,2022-05-01 00:00:00,SPELL/USDT,0.00297502,0.00322453,0.00296431,0.00310987,996.30491828,328070.21331109,0,0,0,0.00303686
1651276800000,2022-04-30 00:00:00,SPELL/USDT,0.00342936,0.00343196,0.00296271,0.00299323,3351.21798612,1038330.10142078,0,0,0,0.0032275
1651190400000,2022-04-29 00:00:00,SPELL/USDT,0.00370872,0.00370872,0.00340495,0.00343841,783.4585899,220001.07745146,0,0,0,0.00356115
1651104000000,2022-04-28 00:00:00,SPELL/USDT,0.00375769,0.00379569,0.00368455,0.00374606,52.08630483,13912.85275866,0,0,0,0.00374375
1651017600000,2022-04-27 00:00:00,SPELL/USDT,0.00362205,0.0038061,0.00362205,0.00375473,502.05281741,135546.15625099,0,0,0,0.00370392
1650931200000,2022-04-26 00:00:00,SPELL/USDT,0.00390842,0.00398575,0.00360989,0.00362205,2723.22461981,715994.15336308,0,0,0,0.00380341
1650844800000,2022-04-25 00:00:00,SPELL/USDT,0.0039767,0.0039767,0.00385795,0.00394686,189.9024777,48265.79171015,0,0,0,0.00393451
1650758400000,2022-04-24 00:00:00,SPELL/USDT,0.00412026,0.00418287,0.0040409,0.0040409,384.385346,92315.26320326,0,0,0,0.00416383
1650672000000,2022-04-23 00:00:00,SPELL/USDT,0.00419218,0.00424374,0.00405537,0.0041113,450.54508169,108092.59532242,0,0,0,0.00416814
1650585600000,2022-04-22 00:00:00,SPELL/USDT,0.00414966,0.00436471,0.0039767,0.00432921,397.26486596,95077.83389673,0,0,0,0.00417831
1650499200000,2022-04-21 00:00:00,SPELL/USDT,0.00422082,0.00426199,0.00398221,0.00403365,510.8454559,121623.82871523,0,0,0,0.0042002
1650412800000,2022-04-20 00:00:00,SPELL/USDT,0.00417392,0.00426955,0.00409012,0.00414384,483.95862017,115761.7576938,0,0,0,0.00418064
1650326400000,2022-04-19 00:00:00,SPELL/USDT,0.00405002,0.00425167,0.00404161,0.00424928,1369.18958231,334203.48979442,0,0,0,0.00409687
1650240000000,2022-04-18 00:00:00,SPELL/USDT,0.00406116,0.00406116,0.00384232,0.0039767,524.14401251,132996.27094515,0,0,0,0.00394104
1650153600000,2022-04-17 00:00:00,SPELL/USDT,0.00415142,0.00425004,0.00403688,0.00403688,462.56662837,110677.28194808,0,0,0,0.00417941
1650067200000,2022-04-16 00:00:00,SPELL/USDT,0.004193,0.00434954,0.004131,0.00415142,2113.94677606,496840.5610742,0,0,0,0.00425477
1649980800000,2022-04-15 00:00:00,SPELL/USDT,0.00407561,0.00417515,0.00407561,0.00413406,21.96116204,5329.71250791,0,0,0,0.00412051
1649894400000,2022-04-14 00:00:00,SPELL/USDT,0.00422862,0.00426689,0.00405551,0.00405551,124.45419142,30243.43014778,0,0,0,0.00411508
1649808000000,2022-04-13 00:00:00,SPELL/USDT,0.00420417,0.00429463,0.00420417,0.00422862,32.48740565,7654.11961155,0,0,0,0.00424443
1649721600000,2022-04-12 00:00:00,SPELL/USDT,0.00418933,0.00429955,0.00404044,0.00404631,87.25795724,20785.96047002,0,0,0,0.00419792
1649635200000,2022-04-11 00:00:00,SPELL/USDT,0.00464416,0.00464416,0.00416309,0.0041925,2204.54517625,511094.81872591,0,0,0,0.00431337
1649548800000,2022-04-10 00:00:00,SPELL/USDT,0.00488028,0.00488028,0.00468319,0.00471087,1092.23861982,224819.17413914,0,0,0,0.00485829
1649462400000,2022-04-09 00:00:00,SPELL/USDT,0.00474716,0.005075,0.00472287,0.00486997,3269.64630507,662539.35019374,0,0,0,0.00493502
1649376000000,2022-04-08 00:00:00,SPELL/USDT,0.00512749,0.00516131,0.00459329,0.00459329,1257.86166332,261258.67844751,0,0,0,0.00481462
1649289600000,2022-04-07 00:00:00,SPELL/USDT,0.00487425,0.00534992,0.00482537,0.00521422,2119.12538788,411286.68183695,0,0,0,0.00515242
1649203200000,2022-04-06 00:00:00,SPELL/USDT,0.00505998,0.00537411,0.00479953,0.00479953,2064.76085536,407678.98118305,0,0,0,0.00506467
1649116800000,2022-04-05 00:00:00,SPELL/USDT,0.00546988,0.0057661,0.00517535,0.00519838,1006.7214939,188184.41285975,0,0,0,0.00534965
1649030400000,2022-04-04 00:00:00,SPELL/USDT,0.00586224,0.00645921,0.0051,0.00550602,4532.39829853,790885.24405143,0,0,0,0.00573079
1648944000000,2022-04-03 00:00:00,SPELL/USDT,0.00514,0.00633326,0.00490236,0.00588159,16199.37767806,2780519.46316837,0,0,0,0.00582602
1648857600000,2022-04-02 00:00:00,SPELL/USDT,0.00455667,0.00554823,0.00449136,0.00507178,7089.97822395,1403118.07391209,0,0,0,0.00505301
1648771200000,2022-04-01 00:00:00,SPELL/USDT,0.00429371,0.00445945,0.00422381,0.00445945,767.28896479,173095.22393215,0,0,0,0.00443275
1648684800000,2022-03-31 00:00:00,SPELL/USDT,0.00461967,0.00466586,0.00425807,0.00431622,251.98308751,55586.54318068,0,0,0,0.00453316
1648598400000,2022-03-30 00:00:00,SPELL/USDT,0.0043,0.00477377,0.0043,0.00458955,1923.55775494,420938.62284901,0,0,0,0.00456968
1648512000000,2022-03-29 00:00:00,SPELL/USDT,0.00430835,0.00436996,0.00424896,0.00427099,166.17631851,38446.48208345,0,0,0,0.00432227
1648425600000,2022-03-28 00:00:00,SPELL/USDT,0.00439208,0.00474697,0.0043042,0.0043042,1833.59826388,405451.22759553,0,0,0,0.00452236
1648339200000,2022-03-27 00:00:00,SPELL/USDT,0.00440816,0.00440816,0.00440816,0.00440816,0,0,0,0,0,0.00440816
1648252800000,2022-03-26 00:00:00,SPELL/USDT,0.00440816,0.00440816,0.00440816,0.00440816,29.99999999,6805.56059671,0,0,0,0.00440816
1648166400000,2022-03-25 00:00:00,SPELL/USDT,0.00453868,0.00453868,0.00416704,0.00416704,330.36508415,73335.48402706,0,0,0,0.00450484
1648080000000,2022-03-24 00:00:00,SPELL/USDT,0.004285,0.00456098,0.00419555,0.00453868,706.32811032,163117.20011288,0,0,0,0.00433018
1647993600000,2022-03-23 00:00:00,SPELL/USDT,0.0046301,0.0046301,0.00428415,0.00428415,1051.38128381,239677.41881702,0,0,0,0.00438665
1647907200000,2022-03-22 00:00:00,SPELL/USDT,0.00469525,0.00469525,0.004385,0.00463543,465.2628345,104812.61467651,0,0,0,0.00443899
1647820800000,2022-03-21 00:00:00,SPELL/USDT,0.00376,0.00504585,0.00376,0.00469525,3088.23890295,693351.17496193,0,0,0,0.00445407
1647734400000,2022-03-20 00:00:00,SPELL/USDT,0.00356841,0.0038,0.00356841,0.0038,0,0,0,0,0,0.00363664
1647648000000,2022-03-19 00:00:00,SPELL/USDT,0.00356841,0.0038,0.00356841,0.0038,64.49869781,17735.76419627,0,0,0,0.00363664
1647561600000,2022-03-18 00:00:00,SPELL/USDT,0.00346433,0.00375863,0.00338758,0.00372392,1047.15569751,287889.95648309,0,0,0,0.00363734
1647475200000,2022-03-17 00:00:00,SPELL/USDT,0.00347652,0.00353774,0.00341874,0.00349902,287.72296689,82662.1747511,0,0,0,0.0034807
1647388800000,2022-03-16 00:00:00,SPELL/USDT,0.0033747,0.00361638,0.00337144,0.00337144,1049.38481405,298189.03826741,0,0,0,0.00351919
1647302400000,2022-03-15 00:00:00,SPELL/USDT,0.00373168,0.00373168,0.00342481,0.00352026,268.53329846,76652.84123064,0,0,0,0.00350323
1647216000000,2022-03-14 00:00:00,SPELL/USDT,0.00338888,0.00396526,0.00328436,0.0036376,9415.54791351,2460229.9345972,0,0,0,0.0038271
1647129600000,2022-03-13 00:00:00,SPELL/USDT,0.00354678,0.00354678,0.0034,0.0034,72.58727141,20994.17529811,0,0,0,0.00345749
1647043200000,2022-03-12 00:00:00,SPELL/USDT,0.0035243,0.0035243,0.00350995,0.00352206,41.34474194,11747.95231497,0,0,0,0.00351931
1646956800000,2022-03-11 00:00:00,SPELL/USDT,0.00361673,0.00365076,0.003498,0.00356319,127.44881929,35565.42230025,0,0,0,0.0035835
1646870400000,2022-03-10 00:00:00,SPELL/USDT,0.00373887,0.00375478,0.00353044,0.00366233,1545.35244057,421973.13294951,0,0,0,0.0036622
1646784000000,2022-03-09 00:00:00,SPELL/USDT,0.00405506,0.00405506,0.00402763,0.00402763,43.85025326,10885.64757758,0,0,0,0.00402826
1646697600000,2022-03-08 00:00:00,SPELL/USDT,0.00394141,0.00394141,0.00394141,0.00394141,3.62054793,918.59206,0,0,0,0.00394141
1646611200000,2022-03-07 00:00:00,SPELL/USDT,0.00370342,0.00397894,0.00370341,0.00397745,723.96210774,195114.17800811,0,0,0,0.00371045
1646524800000,2022-03-06 00:00:00,SPELL/USDT,0.00399326,0.00402894,0.00378133,0.00378133,195.06947695,50713.41466425,0,0,0,0.0038465
1646438400000,2022-03-05 00:00:00,SPELL/USDT,0.00399158,0.0040884,0.00399158,0.00408724,33.11647218,8126.83962854,0,0,0,0.00407495
1646352000000,2022-03-04 00:00:00,SPELL/USDT,0.00435149,0.00439277,0.00398397,0.00398397,1370.60787401,322514.57144461,0,0,0,0.00424975
1646265600000,2022-03-03 00:00:00,SPELL/USDT,0.0047716,0.0047716,0.00444717,0.00455082,1252.26995008,277152.38687437,0,0,0,0.00451834
1646179200000,2022-03-02 00:00:00,SPELL/USDT,0.00471255,0.005,0.0044991,0.00493148,2322.09773076,476694.16708982,0,0,0,0.00487125
1646092800000,2022-03-01 00:00:00,SPELL/USDT,0.00450244,0.00487104,0.00446689,0.00477368,978.2261267,207146.2928464,0,0,0,0.00472239
1646006400000,2022-02-28 00:00:00,SPELL/USDT,0.00426743,0.00426743,0.00426743,0.00426743,1.07863795,252.76055075,0,0,0,0.00426743
1645920000000,2022-02-27 00:00:00,SPELL/USDT,0.0040958,0.00424353,0.00402831,0.00402831,1001.04188133,244255.04184234,0,0,0,0.00409834
1645833600000,2022-02-26 00:00:00,SPELL/USDT,0.0043831,0.0044707,0.00432498,0.00432623,286.61636053,65525.6097108,0,0,0,0.00437411
1645747200000,2022-02-25 00:00:00,SPELL/USDT,0.00418316,0.00432986,0.0041142,0.00432986,2068.20639347,487492.75075647,0,0,0,0.00424253
1645660800000,2022-02-24 00:00:00,SPELL/USDT,0.0044797,0.0044823,0.00352267,0.00434079,3557.7198742,902757.5077578,0,0,0,0.00394094
1645574400000,2022-02-23 00:00:00,SPELL/USDT,0.00460827,0.00476539,0.00447437,0.00453888,342.51411426,74193.82830234,0,0,0,0.00461647
1645488000000,2022-02-22 00:00:00,SPELL/USDT,0.00455325,0.00459939,0.00400368,0.00434046,3876.11321174,887610.46751968,0,0,0,0.0043669
1645401600000,2022-02-21 00:00:00,SPELL/USDT,0.00492303,0.00531089,0.00451704,0.00451837,1565.7697159,307613.78895114,0,0,0,0.00509005
1645315200000,2022-02-20 00:00:00,SPELL/USDT,0.00499841,0.00499841,0.00468226,0.00468436,942.89261346,195885.14129927,0,0,0,0.00481349
1645228800000,2022-02-19 00:00:00,SPELL/USDT,0.00520382,0.00520382,0.00499841,0.00501724,159.56730629,31348.33261845,0,0,0,0.00509013
1645142400000,2022-02-18 00:00:00,SPELL/USDT,0.00543269,0.00551914,0.00514314,0.00514314,2879.59993785,525704.68405103,0,0,0,0.00547759
1645056000000,2022-02-17 00:00:00,SPELL/USDT,0.00591347,0.00591347,0.00537572,0.00537572,330.26554162,57403.75389479,0,0,0,0.00575337
1644969600000,2022-02-16 00:00:00,SPELL/USDT,0.00602148,0.00607617,0.00592021,0.0060381,369.23821317,61807.99690985,0,0,0,0.00597395
1644883200000,2022-02-15 00:00:00,SPELL/USDT,0.00588389,0.00611382,0.00588389,0.00611382,176.40137301,29528.70814366,0,0,0,0.00597389
1644796800000,2022-02-14 00:00:00,SPELL/USDT,0.00575836,0.00575836,0.00519911,0.0057145,1791.47283598,325900.58470376,0,0,0,0.00549699
1644710400000,2022-02-13 00:00:00,SPELL/USDT,0.00603142,0.00603142,0.00603142,0.00603142,0,0,0,0,0,0.00603142
1644624000000,2022-02-12 00:00:00,SPELL/USDT,0.00603142,0.00603142,0.00603142,0.00603142,106.46738891,17652.12651744,0,0,0,0.00603142
1644537600000,2022-02-11 00:00:00,SPELL/USDT,0.00684922,0.00701961,0.00611874,0.00611874,2256.66995599,350426.4115956,0,0,0,0.00643978
1644451200000,2022-02-10 00:00:00,SPELL/USDT,0.00741562,0.0074347,0.00694751,0.0070015,1291.41412998,177162.59917143,0,0,0,0.00728942
1644364800000,2022-02-09 00:00:00,SPELL/USDT,0.00721359,0.00747252,0.00712223,0.00747252,47096.77787273,6469087.51689476,0,0,0,0.00728028
1644278400000,2022-02-08 00:00:00,SPELL/USDT,0.00705038,0.00807,0.00697989,0.00732889,5531.42595355,726796.22313568,0,0,0,0.00761069
1644192000000,2022-02-07 00:00:00,SPELL/USDT,0.00688154,0.00712661,0.00675255,0.00699656,1128.11771716,161855.76399914,0,0,0,0.00696989
1644105600000,2022-02-06 00:00:00,SPELL/USDT,0.00670139,0.00699565,0.00651306,0.00699565,2139.15528973,326519.61980567,0,0,0,0.00655138
1644019200000,2022-02-05 00:00:00,SPELL/USDT,0.00651178,0.00720899,0.00651178,0.00681692,959.77987974,141350.84333065,0,0,0,0.00679005
1643932800000,2022-02-04 00:00:00,SPELL/USDT,0.00608774,0.00676059,0.00608774,0.0065353,1429.39199601,217955.76581185,0,0,0,0.00655817
1643846400000,2022-02-03 00:00:00,SPELL/USDT,0.00598438,0.00620639,0.00587255,0.00603576,2084.16535364,348184.79547634,0,0,0,0.0059858
1643760000000,2022-02-02 00:00:00,SPELL/USDT,0.00682356,0.00682356,0.00613635,0.00613635,1417.24719086,214961.69747368,0,0,0,0.00659302
1643673600000,2022-02-01 00:00:00,SPELL/USDT,0.00725982,0.00751985,0.00705453,0.0071045,6058.33173089,823855.29654053,0,0,0,0.00735363
1643587200000,2022-01-31 00:00:00,SPELL/USDT,0.00740533,0.00768132,0.00652375,0.0071078,4673.43725236,661814.56177011,0,0,0,0.00706155
1643500800000,2022-01-30 00:00:00,SPELL/USDT,0.00710633,0.00835846,0.00688538,0.00754969,6830.3958461,871182.42235623,0,0,0,0.00784037
1643414400000,2022-01-29 00:00:00,SPELL/USDT,0.00563072,0.00714123,0.00560154,0.00698916,1528.07756036,239745.63579677,0,0,0,0.00637374
1643328000000,2022-01-28 00:00:00,SPELL/USDT,0.00537924,0.00570446,0.00507698,0.00546098,782.4582445,148653.2972773,0,0,0,0.00526364
1643241600000,2022-01-27 00:00:00,SPELL/USDT,0.00900001,0.01140589,0.00490614,0.0052,7972.01588329,1503204.86071716,0,0,0,0.00530334
1643155200000,2022-01-26 00:00:00,SPELL/USDT,0.00910002,0.00910002,0.00751511,0.00792448,604.53582351,75813.25097223,0,0,0,0.00797401
1643068800000,2022-01-25 00:00:00,SPELL/USDT,0.00811766,0.0099,0.007718,0.00910002,614.5680795,71885.87768029,0,0,0,0.00854921
1642982400000,2022-01-24 00:00:00,SPELL/USDT,0.0082999,0.00832349,0.00796906,0.00826039,12.03460149,1463.302416,0,0,0,0.00822427
1642896000000,2022-01-23 00:00:00,SPELL/USDT,0.0084791,0.0088,0.00828177,0.00831211,423.93107129,48870.57825907,0,0,0,0.00867456
1642809600000,2022-01-22 00:00:00,SPELL/USDT,0.00954547,0.01269997,0.00665547,0.01269997,1566.85181592,186947.67887116,0,0,0,0.00838123
1642723200000,2022-01-21 00:00:00,SPELL/USDT,0.01201741,0.01236525,0.00915546,0.00915547,2150.1047814,201274.49789653,0,0,0,0.01068245
1642636800000,2022-01-20 00:00:00,SPELL/USDT,0.0118678,0.01349573,0.0118678,0.01206292,3728.3358371,291546.0067137,0,0,0,0.01278815
1642550400000,2022-01-19 00:00:00,SPELL/USDT,0.01276244,0.01283275,0.01176789,0.01199922,309.83612391,25481.6350421,0,0,0,0.01215919
1642464000000,2022-01-18 00:00:00,SPELL/USDT,0.0136422,0.01381274,0.01243405,0.01305672,3504.00809121,268239.09114148,0,0,0,0.013063
1642377600000,2022-01-17 00:00:00,SPELL/USDT,0.01578,0.01582044,0.013451,0.0136422,382.32139919,26638.86900341,0,0,0,0.01435201
1642291200000,2022-01-16 00:00:00,SPELL/USDT,0.01467686,0.01626507,0.01467686,0.01598572,421.21766319,26781.56760715,0,0,0,0.01572789
1642204800000,2022-01-15 00:00:00,SPELL/USDT,0.01425615,0.01474586,0.01387954,0.014465,326.25967294,22653.06029782,0,0,0,0.01440245
1642118400000,2022-01-14 00:00:00,SPELL/USDT,0.0143029,0.01456761,0.01387954,0.01450056,945.47377922,66259.78828861,0,0,0,0.01426919
1642032000000,2022-01-13 00:00:00,SPELL/USDT,0.01547992,0.0156921,0.01449306,0.01451859,387.92288606,25523.47179882,0,0,0,0.01519867
1641945600000,2022-01-12 00:00:00,SPELL/USDT,0.01471304,0.01612461,0.01471304,0.01568861,2311.69182398,146596.51183688,0,0,0,0.01576907
1641859200000,2022-01-11 00:00:00,SPELL/USDT,0.01437003,0.0148059,0.01382494,0.01469775,184.96174072,12705.82990895,0,0,0,0.01455723
1641772800000,2022-01-10 00:00:00,SPELL/USDT,0.01497164,0.01536043,0.01325025,0.014,2702.7371866,192304.58541941,0,0,0,0.01405446
1641686400000,2022-01-09 00:00:00,SPELL/USDT,0.01457546,0.01568717,0.0143515,0.01499864,390.15569358,25938.05517898,0,0,0,0.01504182
1641600000000,2022-01-08 00:00:00,SPELL/USDT,0.01567545,0.01608212,0.01429504,0.01474902,1089.40890839,72560.83425761,0,0,0,0.01501373
1641513600000,2022-01-07 00:00:00,SPELL/USDT,0.01673854,0.01673854,0.0144287,0.01495566,1934.77047818,124891.84899157,0,0,0,0.01549156
1641427200000,2022-01-06 00:00:00,SPELL/USDT,0.01817735,0.01817735,0.01618247,0.01696081,5795.17007708,348381.40710408,0,0,0,0.01663455
1641340800000,2022-01-05 00:00:00,SPELL/USDT,0.02103914,0.02131171,0.01699999,0.01829114,5496.11421518,279567.27230646,0,0,0,0.01965936
1641254400000,2022-01-04 00:00:00,SPELL/USDT,0.02216184,0.02299371,0.0205,0.0210661,9141.87712403,419441.02175821,0,0,0,0.02179538
1641168000000,2022-01-03 00:00:00,SPELL/USDT,0.02394401,0.0252945,0.02233527,0.02233527,7370.16783511,311111.22004468,0,0,0,0.02368981
1641081600000,2022-01-02 00:00:00,SPELL/USDT,0.02295209,0.02507608,0.02253672,0.02394025,5439.49710098,231571.02154264,0,0,0,0.02348954
1640995200000,2022-01-01 00:00:00,SPELL/USDT,0.02376256,0.02376256,0.022786,0.02313606,1077.41866727,45929.74067364,0,0,0,0.02345797
1640908800000,2021-12-31 00:00:00,SPELL/USDT,0.02156322,0.02394176,0.02149798,0.02337787,2179.99366603,92689.37626041,0,0,0,0.02351934
1640822400000,2021-12-30 00:00:00,SPELL/USDT,0.02090001,0.02629989,0.02055893,0.02318566,1414.73702981,64221.1347266,0,0,0,0.02202915
1640736000000,2021-12-29 00:00:00,SPELL/USDT,0.02192882,0.02428422,0.02140953,0.02140953,1869.45718663,83572.39677614,0,0,0,0.02236931
1640649600000,2021-12-28 00:00:00,SPELL/USDT,0.02488215,0.0249598,0.02173659,0.02219124,2947.22889113,127579.25856115,0,0,0,0.02310116
1640563200000,2021-12-27 00:00:00,SPELL/USDT,0.02205265,0.027,0.02140542,0.027,5449.24270204,231251.43424984,0,0,0,0.02356414
1640476800000,2021-12-26 00:00:00,SPELL/USDT,0.02278169,0.02278169,0.02154726,0.02241672,4896.76923343,219703.82752663,0,0,0,0.02228804
1640390400000,2021-12-25 00:00:00,SPELL/USDT,0.0220934,0.02346,0.0220934,0.0229371,3925.20994798,171236.45056571,0,0,0,0.02292274
1640304000000,2021-12-24 00:00:00,SPELL/USDT,0.02324906,0.029,0.022,0.022,72666.3917875,2797619.83119711,0,0,0,0.02597436
1640217600000,2021-12-23 00:00:00,SPELL/USDT,0.02377856,0.0260756,0.0222,0.02347864,17207.40734937,728866.96398827,0,0,0,0.02360843
1640131200000,2021-12-22 00:00:00,SPELL/USDT,0.02276786,0.025,0.0207684,0.02361742,9791.8199811,419619.75010965,0,0,0,0.02333498
1640044800000,2021-12-21 00:00:00,SPELL/USDT,0.01828754,0.02226203,0.01802504,0.02217588,14832.15627409,767817.53262534,0,0,0,0.01931729
1639958400000,2021-12-20 00:00:00,SPELL/USDT,0.01692705,0.01870001,0.01562033,0.01772053,10813.85106193,636117.97427874,0,0,0,0.01699975
1639872000000,2021-12-19 00:00:00,SPELL/USDT,0.01654438,0.01856211,0.01614948,0.01715716,11018.54295722,635961.34520282,0,0,0,0.0173258
1639785600000,2021-12-18 00:00:00,SPELL/USDT,0.01339213,0.01692795,0.01297852,0.01674913,4914.36401803,301075.02626486,0,0,0,0.01632272
1639699200000,2021-12-17 00:00:00,SPELL/USDT,0.01406673,0.01424531,0.01272,0.01332911,1489.07878283,112383.27008834,0,0,0,0.01325
1639612800000,2021-12-16 00:00:00,SPELL/USDT,0.01450962,0.01639377,0.01389545,0.01389545,14252.85259372,946660.11888443,0,0,0,0.01505593
1639526400000,2021-12-15 00:00:00,SPELL/USDT,0.01144954,0.01550406,0.01122904,0.01439883,9973.78295375,779076.58560668,0,0,0,0.01280205
1639440000000,2021-12-14 00:00:00,SPELL/USDT,0.01135778,0.0117995,0.01054588,0.01136638,6507.80458315,584715.35294807,0,0,0,0.01112986
1639353600000,2021-12-13 00:00:00,SPELL/USDT,0.01296688,0.01336223,0.01102927,0.01149933,3427.72876696,281837.32143549,0,0,0,0.01216208
1639267200000,2021-12-12 00:00:00,SPELL/USDT,0.01380913,0.01390852,0.01278943,0.01333832,1021.31706275,75145.88256585,0,0,0,0.01359112
1639180800000,2021-12-11 00:00:00,SPELL/USDT,0.0132569,0.01503271,0.01284084,0.01366595,1515.07953267,106455.85131417,0,0,0,0.01423199
1639094400000,2021-12-10 00:00:00,SPELL/USDT,0.01485108,0.01524366,0.012,0.01324423,15217.33499928,1122262.96494692,0,0,0,0.0135595
1639008000000,2021-12-09 00:00:00,SPELL/USDT,0.01804806,0.01804806,0.01366617,0.01488674,7374.60775719,467367.73592832,0,0,0,0.01577902
1638921600000,2021-12-08 00:00:00,SPELL/USDT,0.01999999,0.022,0.01643717,0.01804806,16297.06376145,835463.16852391,0,0,0,0.01950662
1638835200000,2021-12-07 00:00:00,SPELL/USDT,0.01462354,0.02506,0.01462354,0.01773969,175833.16354325,8378500.41542598,0,0,0,0.02098623
1638748800000,2021-12-06 00:00:00,SPELL/USDT,0.00999173,0.01597421,0.00902915,0.01372313,9574.59600293,814689.23169122,0,0,0,0.01175245
1638662400000,2021-12-05 00:00:00,SPELL/USDT,0.00991331,0.01,0.00848127,0.01,2616.89030919,276588.85680325,0,0,0,0.0094613
1638576000000,2021-12-04 00:00:00,SPELL/USDT,0.01095002,0.01177297,0.00500303,0.00997331,2203.3582678,233306.13888678,0,0,0,0.00944406
1638489600000,2021-12-03 00:00:00,SPELL/USDT,0.01200246,0.01260599,0.01085024,0.0116492,6928.57760666,575131.30660448,0,0,0,0.01204694
1638403200000,2021-12-02 00:00:00,SPELL/USDT,0.01152839,0.01251009,0.01132825,0.01205815,5222.64571147,440395.08556449,0,0,0,0.011859
1638316800000,2021-12-01 00:00:00,SPELL/USDT,0.01375992,0.01461258,0.01153311,0.01153311,9647.36648962,720109.98416663,0,0,0,0.01339707
1638230400000,2021-11-30 00:00:00,SPELL/USDT,0.01364851,0.0143492,0.01260356,0.01375992,1958.78917334,143816.93942044,0,0,0,0.01362001
1638144000000,2021-11-29 00:00:00,SPELL/USDT,0.01319994,0.01451136,0.01305928,0.0136492,3799.7584815,273973.10268636,0,0,0,0.01386909
1638057600000,2021-11-28 00:00:00,SPELL/USDT,0.01173877,0.01262144,0.01047062,0.01262144,2272.00090759,194886.20842576,0,0,0,0.01165808
1637971200000,2021-11-27 00:00:00,SPELL/USDT,0.01221537,0.01272833,0.01080001,0.01207036,2154.2251822,182951.59736521,0,0,0,0.01177483
1637884800000,2021-11-26 00:00:00,SPELL/USDT,0.01524818,0.01543027,0.01056043,0.01306494,5835.26637022,443040.30179097,0,0,0,0.01317096
1637798400000,2021-11-25 00:00:00,SPELL/USDT,0.01747,0.01747,0.01567226,0.01597445,2549.31950713,157628.02982326,0,0,0,0.016173
1637712000000,2021-11-24 00:00:00,SPELL/USDT,0.01721224,0.01721224,0.01346442,0.01706768,5537.84415349,372346.26171927,0,0,0,0.01487283
1637625600000,2021-11-23 00:00:00,SPELL/USDT,0.0177528,0.01849815,0.01609122,0.01741116,6742.13233642,382219.14243239,0,0,0,0.01763944
1637539200000,2021-11-22 00:00:00,SPELL/USDT,0.01877662,0.02011838,0.01735008,0.01781211,6556.87414698,352909.69883689,0,0,0,0.01857946
1637452800000,2021-11-21 00:00:00,SPELL/USDT,0.01765376,0.0192814,0.01737592,0.01900352,1231.36380028,67135.7818509,0,0,0,0.01834139
1637366400000,2021-11-20 00:00:00,SPELL/USDT,0.01728229,0.01783154,0.01684508,0.01765376,4316.97482985,247040.16298831,0,0,0,0.01747478
1637280000000,2021-11-19 00:00:00,SPELL/USDT,0.01548042,0.01927413,0.01532117,0.0171524,4734.58961275,256035.77186,0,0,0,0.0184919
1637193600000,2021-11-18 00:00:00,SPELL/USDT,0.01920986,0.01964211,0.01442167,0.01549797,10499.40376634,618538.16642722,0,0,0,0.01697454
1637107200000,2021-11-17 00:00:00,SPELL/USDT,0.01923904,0.01923904,0.01749343,0.01897597,2256.18571745,121554.99856585,0,0,0,0.01856102
1637020800000,2021-11-16 00:00:00,SPELL/USDT,0.02233287,0.02233287,0.01798,0.019132,118658.60832335,6219211.68036305,0,0,0,0.01907936
1636934400000,2021-11-15 00:00:00,SPELL/USDT,0.02283287,0.02571903,0.02249999,0.02271844,11037.57745453,453483.31250725,0,0,0,0.02433954
1636848000000,2021-11-14 00:00:00,SPELL/USDT,0.02052317,0.02283287,0.01974342,0.02283287,5384.36639836,257199.67904536,0,0,0,0.02093457
1636761600000,2021-11-13 00:00:00,SPELL/USDT,0.02075472,0.02446755,0.0195,0.02044662,6250.47088514,302595.79661133,0,0,0,0.02065617
1636675200000,2021-11-12 00:00:00,SPELL/USDT,0.02281496,0.02312931,0.01925378,0.02080369,12107.3273697,581264.52662408,0,0,0,0.02082928
1636588800000,2021-11-11 00:00:00,SPELL/USDT,0.02230837,0.02420766,0.02133499,0.02270961,8096.194745,361176.62134214,0,0,0,0.02241616
1636502400000,2021-11-10 00:00:00,SPELL/USDT,0.02448014,0.02479141,0.02159714,0.02200001,4114.04686997,173362.46700899,0,0,0,0.02373089
1636416000000,2021-11-09 00:00:00,SPELL/USDT,0.02603006,0.02643723,0.023,0.02453124,14871.3995492,592845.66441981,0,0,0,0.02508477
1636329600000,2021-11-08 00:00:00,SPELL/USDT,0.02821562,0.03068978,0.02618888,0.02618888,4906.59905764,177160.25381296,0,0,0,0.02769582
1636243200000,2021-11-07 00:00:00,SPELL/USDT,0.0299681,0.03068979,0.02714022,0.02789417,9037.51881404,317414.02654911,0,0,0,0.02847233
1636156800000,2021-11-06 00:00:00,SPELL/USDT,0.02714022,0.03051185,0.02714022,0.02968481,10081.14381339,345468.63976125,0,0,0,0.02918106
1636070400000,2021-11-05 00:00:00,SPELL/USDT,0.0292929,0.0296,0.02675585,0.02701774,15441.58108363,546750.62410365,0,0,0,0.02824245
1635984000000,2021-11-04 00:00:00,SPELL/USDT,0.03090661,0.0318119,0.02710001,0.02947885,17665.57225355,591818.78926024,0,0,0,0.02984963
1635897600000,2021-11-03 00:00:00,SPELL/USDT,0.03454723,0.03468299,0.03050035,0.03090658,28853.77039247,881658.53280309,0,0,0,0.03272669
1635811200000,2021-11-02 00:00:00,SPELL/USDT,0.02993201,0.04532321,0.02981401,0.03291041,32964.5289697,940790.65280941,0,0,0,0.03503917
1635724800000,2021-11-01 00:00:00,SPELL/USDT,0.02927885,0.032,0.02750264,0.02993215,24335.61784373,796852.72205081,0,0,0,0.03053966
1635638400000,2021-10-31 00:00:00,SPELL/USDT,0.02573891,0.03026868,0.02549677,0.02927885,56363.73407851,2000134.68376627,0,0,0,0.02817996
1635552000000,2021-10-30 00:00:00,SPELL/USDT,0.02345903,0.02564615,0.02195511,0.02487141,8385.00224949,359364.44648008,0,0,0,0.02333286
1635465600000,2021-10-29 00:00:00,SPELL/USDT,0.02419223,0.026,0.02317127,0.02345903,21137.98181132,853862.23039785,0,0,0,0.02475572
1635379200000,2021-10-28 00:00:00,SPELL/USDT,0.01989552,0.02538012,0.01845741,0.02419223,27295.27328946,1188468.29836722,0,0,0,0.02296676
1635292800000,2021-10-27 00:00:00,SPELL/USDT,0.0218,0.0232,0.0175,0.01993813,9500.28562127,456485.89245909,0,0,0,0.02081178
1635206400000,2021-10-26 00:00:00,SPELL/USDT,0.0257305,0.02604144,0.02159002,0.02239617,47199.82019682,1940282.24295076,0,0,0,0.02432626
1635120000000,2021-10-25 00:00:00,SPELL/USDT,0.02563881,0.027,0.02377175,0.02594446,95667.18866274,3667488.02870071,0,0,0,0.0260852
1635033600000,2021-10-24 00:00:00,SPELL/USDT,0.02216974,0.0250001,0.02000691,0.02466899,61547.06435265,2646165.98613428,0,0,0,0.02325895
1634947200000,2021-10-23 00:00:00,SPELL/USDT,0.0178,0.022,0.0178,0.02183175,10645.17424548,511209.19788966,0,0,0,0.02082351
1634860800000,2021-10-22 00:00:00,SPELL/USDT,0.0188,0.01911923,0.01749999,0.0176,13199.97880067,731413.14597634,0,0,0,0.01804722
1634774400000,2021-10-21 00:00:00,SPELL/USDT,0.01914216,0.02159999,0.018,0.019,18397.07333222,965042.32854561,0,0,0,0.01906348
1634688000000,2021-10-20 00:00:00,SPELL/USDT,0.05,0.05,0.01513489,0.0203253,24766.29132195,1413098.87266877,0,0,0,0.01752622
