https://www.CryptoDataDownload.com
unix,date,symbol,open,high,low,close,Volume NCR,Volume USDT,buyTakerAmount,buyTakerQuantity,tradeCount,weightedAverage
1688860800000,2023-07-09 00:00:00,NCR/USDT,0.047,0.047,0.047,0.047,0,0,0,0,0,0.0491
1688774400000,2023-07-08 00:00:00,NCR/USDT,0.047,0.047,0.047,0.047,0,0,0,0,0,0.0491
1688688000000,2023-07-07 00:00:00,NCR/USDT,0.0501,0.0501,0.047,0.047,13.674,278.2891,0,0,4,0.0491
1688601600000,2023-07-06 00:00:00,NCR/USDT,0.078,0.078,0.078,0.078,18.9485,242.9301,0,0,3,0.078
1688515200000,2023-07-05 00:00:00,NCR/USDT,0.0884,0.0884,0.078,0.078,49.2518,611.7302,0,0,7,0.0807
1688428800000,2023-07-04 00:00:00,NCR/USDT,0.0781,0.0998,0.078,0.0998,39.8443,479.9951,10.9999,110.2204,3,0.084
1688342400000,2023-07-03 00:00:00,NCR/USDT,0.0782,0.0782,0.0781,0.0781,7.7965,99.8,0,0,2,0.0781
1688256000000,2023-07-02 00:00:00,NCR/USDT,0.0781,0.0781,0.0781,0.0781,0,0,0,0,0,0.0788
1688169600000,2023-07-01 00:00:00,NCR/USDT,0.0781,0.0781,0.0781,0.0781,0,0,0,0,0,0.0788
1688083200000,2023-06-30 00:00:00,NCR/USDT,0.0831,0.0831,0.0781,0.0781,25.9723,329.4966,3.7999,45.728,3,0.0788
1687996800000,2023-06-29 00:00:00,NCR/USDT,0.0799,0.0799,0.0799,0.0799,0,0,0,0,0,0.0799
1687910400000,2023-06-28 00:00:00,NCR/USDT,0.0799,0.0799,0.0799,0.0799,0,0,0,0,0,0.0799
1687824000000,2023-06-27 00:00:00,NCR/USDT,0.0799,0.0799,0.0799,0.0799,0,0,0,0,0,0.0799
1687737600000,2023-06-26 00:00:00,NCR/USDT,0.0799,0.0799,0.0799,0.0799,3.9999,50.0625,3.9999,50.0625,1,0.0799
1687651200000,2023-06-25 00:00:00,NCR/USDT,0.0715,0.0716,0.0715,0.0716,9.0595,126.6776,9.0595,126.6776,2,0.0715
1687564800000,2023-06-24 00:00:00,NCR/USDT,0.0555,0.0716,0.0472,0.0472,7.7065,115.8979,7.322,107.7516,4,0.0675
1687478400000,2023-06-23 00:00:00,NCR/USDT,0.0555,0.0555,0.0555,0.0555,0,0,0,0,0,0.0555
1687392000000,2023-06-22 00:00:00,NCR/USDT,0.0555,0.0555,0.0555,0.0555,1.0499,18.9189,1.0499,18.9189,1,0.0555
1687305600000,2023-06-21 00:00:00,NCR/USDT,0.0554,0.0555,0.0461,0.0555,34.1369,641.3877,27.7231,502.2597,7,0.0534
1687219200000,2023-06-20 00:00:00,NCR/USDT,0.0577,0.0577,0.0577,0.0577,0,0,0,0,0,0.0577
1687132800000,2023-06-19 00:00:00,NCR/USDT,0.0577,0.0577,0.0577,0.0577,1.9999,34.662,1.9999,34.662,1,0.0577
1687046400000,2023-06-18 00:00:00,NCR/USDT,0.0717,0.0717,0.0462,0.0462,33.6859,601.6494,2.7622,47.3387,14,0.0566
1686960000000,2023-06-17 00:00:00,NCR/USDT,0.0777,0.083,0.072,0.072,69.1475,882.1566,46.3699,585.1796,10,0.0786
1686873600000,2023-06-16 00:00:00,NCR/USDT,0.1898,0.2347,0.0833,0.0833,396.7757,3382.6289,109.1325,938.6874,81,0.1309
1686787200000,2023-06-15 00:00:00,NCR/USDT,0.0872,0.0872,0.0872,0.0872,0,0,0,0,0,0.1558
1686700800000,2023-06-14 00:00:00,NCR/USDT,0.1877,0.1877,0.0872,0.0872,8.2527,60.0201,5.6385,30.0401,2,0.1558
1686614400000,2023-06-13 00:00:00,NCR/USDT,0.1499,0.1499,0.1499,0.1499,0,0,0,0,0,0.149
1686528000000,2023-06-12 00:00:00,NCR/USDT,0.1499,0.1499,0.1499,0.1499,0,0,0,0,0,0.149
1686441600000,2023-06-11 00:00:00,NCR/USDT,0.1489,0.1499,0.1489,0.1499,16.0355,107.55,16.0355,107.55,5,0.149
1686355200000,2023-06-10 00:00:00,NCR/USDT,0.0725,0.485,0.0538,0.0833,168.0368,1020.7918,91.1958,442.4458,63,0.2007
1686268800000,2023-06-09 00:00:00,NCR/USDT,0.0501,0.0501,0.0501,0.0501,0,0,0,0,0,0.1251
1686182400000,2023-06-08 00:00:00,NCR/USDT,0.0491,0.2777,0.0402,0.0501,17.0132,203.5938,10.1726,94.3939,13,0.1251
1686096000000,2023-06-07 00:00:00,NCR/USDT,0.058,0.0581,0.0491,0.0531,9.9654,187.8157,5.816,104.881,7,0.0532
1686009600000,2023-06-06 00:00:00,NCR/USDT,0.0579,0.0579,0.0401,0.0401,2.9108,59.7441,1.0612,18.3294,5,0.0498
1685923200000,2023-06-05 00:00:00,NCR/USDT,0.058,0.058,0.058,0.058,1.0199,17.5862,1.0199,17.5862,1,0.058
1685836800000,2023-06-04 00:00:00,NCR/USDT,0.0576,0.0581,0.0398,0.0398,11.3169,206.6464,9.9426,172.117,5,0.0555
1685750400000,2023-06-03 00:00:00,NCR/USDT,0.0398,0.0576,0.0398,0.0398,1.9067,40.1427,0.9999,17.3611,4,0.0491
1685664000000,2023-06-02 00:00:00,NCR/USDT,0.0397,0.0397,0.0397,0.0397,0,0,0,0,0,0.0509
1685577600000,2023-06-01 00:00:00,NCR/USDT,0.0599,0.0599,0.0397,0.0397,15.434,312.7941,9.0673,156.2408,13,0.0509
1685491200000,2023-05-31 00:00:00,NCR/USDT,0.0619,2.9417,0.0202,0.0635,905.5721,3483.4514,590.8872,1745.4355,171,1.1388
1685404800000,2023-05-30 00:00:00,NCR/USDT,0.0573,0.0573,0.0573,0.0573,0,0,0,0,0,0.063
1685318400000,2023-05-29 00:00:00,NCR/USDT,0.0573,0.0573,0.0573,0.0573,0,0,0,0,0,0.063
1685232000000,2023-05-28 00:00:00,NCR/USDT,0.0573,0.0573,0.0573,0.0573,0,0,0,0,0,0.063
1685145600000,2023-05-27 00:00:00,NCR/USDT,0.0573,0.0573,0.0573,0.0573,0,0,0,0,0,0.063
1685059200000,2023-05-26 00:00:00,NCR/USDT,0.0573,0.0573,0.0573,0.0573,0,0,0,0,0,0.063
1684972800000,2023-05-25 00:00:00,NCR/USDT,0.0573,0.0573,0.0573,0.0573,0,0,0,0,0,0.063
1684886400000,2023-05-24 00:00:00,NCR/USDT,0.0573,0.0573,0.0573,0.0573,0,0,0,0,0,0.063
1684800000000,2023-05-23 00:00:00,NCR/USDT,0.0573,0.0573,0.0573,0.0573,0,0,0,0,0,0.063
1684713600000,2023-05-22 00:00:00,NCR/USDT,0.0646,0.0647,0.0573,0.0573,14.0146,222.6988,11.0109,170.2786,4,0.063
1684627200000,2023-05-21 00:00:00,NCR/USDT,0.0506,0.0506,0.0506,0.0506,0,0,0,0,0,0.0506
1684540800000,2023-05-20 00:00:00,NCR/USDT,0.0506,0.0506,0.0506,0.0506,1.9456,38.4506,0,0,1,0.0506
1684454400000,2023-05-19 00:00:00,NCR/USDT,0.0646,0.069,0.0501,0.0501,37.2281,639.5836,18.079,268.9231,9,0.0592
1684368000000,2023-05-18 00:00:00,NCR/USDT,0.0534,0.0534,0.0534,0.0534,0,0,0,0,0,0.0534
1684281600000,2023-05-17 00:00:00,NCR/USDT,0.0534,0.0534,0.0534,0.0534,0,0,0,0,0,0.0534
1684195200000,2023-05-16 00:00:00,NCR/USDT,0.0534,0.0534,0.0534,0.0534,0,0,0,0,0,0.0534
1684108800000,2023-05-15 00:00:00,NCR/USDT,0.0534,0.0534,0.0534,0.0534,0,0,0,0,0,0.0534
1684022400000,2023-05-14 00:00:00,NCR/USDT,0.0534,0.0534,0.0534,0.0534,0,0,0,0,0,0.0534
1683936000000,2023-05-13 00:00:00,NCR/USDT,0.0534,0.0534,0.0534,0.0534,1.464,27.4174,0,0,1,0.0534
1683849600000,2023-05-12 00:00:00,NCR/USDT,0.0647,0.0647,0.0647,0.0647,0,0,0,0,0,0.0647
1683763200000,2023-05-11 00:00:00,NCR/USDT,0.0647,0.0647,0.0647,0.0647,4.5334,70.0691,4.5334,70.0691,1,0.0647
1683676800000,2023-05-10 00:00:00,NCR/USDT,0.0647,0.0647,0.0647,0.0647,0,0,0,0,0,0.0646
1683590400000,2023-05-09 00:00:00,NCR/USDT,0.0647,0.0647,0.0647,0.0647,0,0,0,0,0,0.0646
1683504000000,2023-05-08 00:00:00,NCR/USDT,0.0646,0.0647,0.0646,0.0647,6.6248,102.4803,6.6248,102.4803,2,0.0646
1683417600000,2023-05-07 00:00:00,NCR/USDT,0.0551,0.0551,0.0551,0.0551,0.0309,0.5615,0,0,1,0.0551
1683331200000,2023-05-06 00:00:00,NCR/USDT,0.0551,0.0551,0.0551,0.0551,0,0,0,0,0,0.0579
1683244800000,2023-05-05 00:00:00,NCR/USDT,0.0551,0.0551,0.0551,0.0551,0,0,0,0,0,0.0579
1683158400000,2023-05-04 00:00:00,NCR/USDT,0.0551,0.0551,0.0551,0.0551,0,0,0,0,0,0.0579
1683072000000,2023-05-03 00:00:00,NCR/USDT,0.0551,0.0551,0.0551,0.0551,0,0,0,0,0,0.0579
1682985600000,2023-05-02 00:00:00,NCR/USDT,0.0551,0.0551,0.0551,0.0551,0,0,0,0,0,0.0579
1682899200000,2023-05-01 00:00:00,NCR/USDT,0.0646,0.0646,0.0551,0.0551,4.359,75.6634,1.292,20,2,0.0579
1682812800000,2023-04-30 00:00:00,NCR/USDT,0.0689,0.0689,0.0689,0.0689,0,0,0,0,0,0.0689
1682726400000,2023-04-29 00:00:00,NCR/USDT,0.0689,0.0689,0.0689,0.0689,0,0,0,0,0,0.0689
1682640000000,2023-04-28 00:00:00,NCR/USDT,0.0689,0.0689,0.0689,0.0689,0,0,0,0,0,0.0689
1682553600000,2023-04-27 00:00:00,NCR/USDT,0.0689,0.0689,0.0689,0.0689,0,0,0,0,0,0.0689
1682467200000,2023-04-26 00:00:00,NCR/USDT,0.0689,0.0689,0.0689,0.0689,0,0,0,0,0,0.0689
1682380800000,2023-04-25 00:00:00,NCR/USDT,0.0689,0.0689,0.0689,0.0689,0,0,0,0,0,0.0689
1682294400000,2023-04-24 00:00:00,NCR/USDT,0.0689,0.0689,0.0689,0.0689,0,0,0,0,0,0.0689
1682208000000,2023-04-23 00:00:00,NCR/USDT,0.0689,0.0689,0.0689,0.0689,0,0,0,0,0,0.0689
1682121600000,2023-04-22 00:00:00,NCR/USDT,0.0689,0.0689,0.0689,0.0689,0,0,0,0,0,0.0689
1682035200000,2023-04-21 00:00:00,NCR/USDT,0.0689,0.0689,0.0689,0.0689,0,0,0,0,0,0.0689
1681948800000,2023-04-20 00:00:00,NCR/USDT,0.0689,0.0689,0.0689,0.0689,10.5725,153.4476,10.5725,153.4476,1,0.0689
1681862400000,2023-04-19 00:00:00,NCR/USDT,0.0699,0.0699,0.0699,0.0699,0,0,0,0,0,0.0608
1681776000000,2023-04-18 00:00:00,NCR/USDT,0.0699,0.0699,0.0699,0.0699,0,0,0,0,0,0.0608
1681689600000,2023-04-17 00:00:00,NCR/USDT,0.0525,0.0699,0.0525,0.0699,3.3785,56.6302,1.6287,23.3018,2,0.0608
1681603200000,2023-04-16 00:00:00,NCR/USDT,0.0884,0.0884,0.0501,0.0501,7.1313,112.4873,0,0,3,0.0685
1681516800000,2023-04-15 00:00:00,NCR/USDT,0.0999,0.0999,0.0999,0.0999,0,0,0,0,0,0.094
1681430400000,2023-04-14 00:00:00,NCR/USDT,0.0999,0.0999,0.0999,0.0999,0,0,0,0,0,0.094
1681344000000,2023-04-13 00:00:00,NCR/USDT,0.0899,0.0999,0.0899,0.0999,4.9999,53.3165,4.9999,53.3165,3,0.094
1681257600000,2023-04-12 00:00:00,NCR/USDT,0.0899,0.0899,0.0899,0.0899,0,0,0,0,0,0.0899
1681171200000,2023-04-11 00:00:00,NCR/USDT,0.0899,0.0899,0.0899,0.0899,6.4728,72,6.4728,72,2,0.0899
1681084800000,2023-04-10 00:00:00,NCR/USDT,0.0505,0.0505,0.0505,0.0505,0,0,0,0,0,0.0505
1680998400000,2023-04-09 00:00:00,NCR/USDT,0.0505,0.0505,0.0505,0.0505,0,0,0,0,0,0.0505
1680912000000,2023-04-08 00:00:00,NCR/USDT,0.0505,0.0505,0.0505,0.0505,0,0,0,0,0,0.0505
1680825600000,2023-04-07 00:00:00,NCR/USDT,0.0505,0.0505,0.0505,0.0505,0,0,0,0,0,0.0505
1680739200000,2023-04-06 00:00:00,NCR/USDT,0.0505,0.0505,0.0505,0.0505,0,0,0,0,0,0.0505
1680652800000,2023-04-05 00:00:00,NCR/USDT,0.0505,0.0505,0.0505,0.0505,0,0,0,0,0,0.0505
1680566400000,2023-04-04 00:00:00,NCR/USDT,0.0505,0.0505,0.0505,0.0505,0,0,0,0,0,0.0505
1680480000000,2023-04-03 00:00:00,NCR/USDT,0.0505,0.0505,0.0505,0.0505,0,0,0,0,0,0.0505
1680393600000,2023-04-02 00:00:00,NCR/USDT,0.0505,0.0505,0.0505,0.0505,0,0,0,0,0,0.0505
1680307200000,2023-04-01 00:00:00,NCR/USDT,0.0505,0.0505,0.0505,0.0505,0,0,0,0,0,0.0505
1680220800000,2023-03-31 00:00:00,NCR/USDT,0.0505,0.0505,0.0505,0.0505,0,0,0,0,0,0.0505
1680134400000,2023-03-30 00:00:00,NCR/USDT,0.0505,0.0505,0.0505,0.0505,0,0,0,0,0,0.0505
1680048000000,2023-03-29 00:00:00,NCR/USDT,0.0505,0.0505,0.0505,0.0505,0,0,0,0,0,0.0505
1679961600000,2023-03-28 00:00:00,NCR/USDT,0.0505,0.0505,0.0505,0.0505,0,0,0,0,0,0.0505
1679875200000,2023-03-27 00:00:00,NCR/USDT,0.0505,0.0505,0.0505,0.0505,0,0,0,0,0,0.0505
1679788800000,2023-03-26 00:00:00,NCR/USDT,0.0505,0.0505,0.0505,0.0505,0,0,0,0,0,0.0505
1679702400000,2023-03-25 00:00:00,NCR/USDT,0.0505,0.0505,0.0505,0.0505,0,0,0,0,0,0.0505
1679616000000,2023-03-24 00:00:00,NCR/USDT,0.0505,0.0505,0.0505,0.0505,0,0,0,0,0,0.0505
1679529600000,2023-03-23 00:00:00,NCR/USDT,0.0505,0.0505,0.0505,0.0505,0,0,0,0,0,0.0505
1679443200000,2023-03-22 00:00:00,NCR/USDT,0.0505,0.0505,0.0505,0.0505,0,0,0,0,0,0.0505
1679356800000,2023-03-21 00:00:00,NCR/USDT,0.0505,0.0505,0.0505,0.0505,0,0,0,0,0,0.0505
1679270400000,2023-03-20 00:00:00,NCR/USDT,0.0505,0.0505,0.0505,0.0505,0,0,0,0,0,0.0505
1679184000000,2023-03-19 00:00:00,NCR/USDT,0.0505,0.0505,0.0505,0.0505,0,0,0,0,0,0.0505
1679097600000,2023-03-18 00:00:00,NCR/USDT,0.0505,0.0505,0.0505,0.0505,0,0,0,0,0,0.0505
1679011200000,2023-03-17 00:00:00,NCR/USDT,0.0505,0.0505,0.0505,0.0505,0,0,0,0,0,0.0505
1678924800000,2023-03-16 00:00:00,NCR/USDT,0.0505,0.0505,0.0505,0.0505,0,0,0,0,0,0.0505
1678838400000,2023-03-15 00:00:00,NCR/USDT,0.0505,0.0505,0.0505,0.0505,0,0,0,0,0,0.0505
1678752000000,2023-03-14 00:00:00,NCR/USDT,0.0505,0.0505,0.0505,0.0505,0,0,0,0,0,0.0505
1678665600000,2023-03-13 00:00:00,NCR/USDT,0.0505,0.0505,0.0505,0.0505,0,0,0,0,0,0.0505
1678579200000,2023-03-12 00:00:00,NCR/USDT,0.0505,0.0505,0.0505,0.0505,0,0,0,0,0,0.0505
1678492800000,2023-03-11 00:00:00,NCR/USDT,0.0505,0.0505,0.0505,0.0505,2.4541,48.598,0,0,1,0.0505
1678406400000,2023-03-10 00:00:00,NCR/USDT,0.0974,0.0974,0.0974,0.0974,0,0,0,0,0,0.0974
1678320000000,2023-03-09 00:00:00,NCR/USDT,0.0974,0.0974,0.0974,0.0974,0,0,0,0,0,0.0974
1678233600000,2023-03-08 00:00:00,NCR/USDT,0.0974,0.0974,0.0974,0.0974,0,0,0,0,0,0.0974
1678147200000,2023-03-07 00:00:00,NCR/USDT,0.0974,0.0974,0.0974,0.0974,0,0,0,0,0,0.0974
1678060800000,2023-03-06 00:00:00,NCR/USDT,0.0974,0.0974,0.0974,0.0974,0,0,0,0,0,0.0974
1677974400000,2023-03-05 00:00:00,NCR/USDT,0.0974,0.0974,0.0974,0.0974,0,0,0,0,0,0.0974
1677888000000,2023-03-04 00:00:00,NCR/USDT,0.0974,0.0974,0.0974,0.0974,0,0,0,0,0,0.0974
1677801600000,2023-03-03 00:00:00,NCR/USDT,0.0975,0.0975,0.0974,0.0974,8.7402,89.693,0,0,2,0.0974
1677715200000,2023-03-02 00:00:00,NCR/USDT,0.11,0.11,0.11,0.11,0,0,0,0,0,0.0998
1677628800000,2023-03-01 00:00:00,NCR/USDT,0.11,0.11,0.11,0.11,0,0,0,0,0,0.0998
1677542400000,2023-02-28 00:00:00,NCR/USDT,0.11,0.11,0.11,0.11,0,0,0,0,0,0.0998
1677456000000,2023-02-27 00:00:00,NCR/USDT,0.11,0.11,0.11,0.11,0,0,0,0,0,0.0998
1677369600000,2023-02-26 00:00:00,NCR/USDT,0.11,0.11,0.11,0.11,0,0,0,0,0,0.0998
1677283200000,2023-02-25 00:00:00,NCR/USDT,0.11,0.11,0.11,0.11,0,0,0,0,0,0.0998
1677196800000,2023-02-24 00:00:00,NCR/USDT,0.11,0.11,0.11,0.11,0,0,0,0,0,0.0998
1677110400000,2023-02-23 00:00:00,NCR/USDT,0.11,0.11,0.11,0.11,0,0,0,0,0,0.0998
1677024000000,2023-02-22 00:00:00,NCR/USDT,0.11,0.11,0.11,0.11,0,0,0,0,0,0.0998
1676937600000,2023-02-21 00:00:00,NCR/USDT,0.11,0.11,0.11,0.11,0,0,0,0,0,0.0998
1676851200000,2023-02-20 00:00:00,NCR/USDT,0.11,0.11,0.11,0.11,0,0,0,0,0,0.0998
1676764800000,2023-02-19 00:00:00,NCR/USDT,0.11,0.11,0.11,0.11,0,0,0,0,0,0.0998
1676678400000,2023-02-18 00:00:00,NCR/USDT,0.11,0.11,0.11,0.11,0,0,0,0,0,0.0998
1676592000000,2023-02-17 00:00:00,NCR/USDT,0.11,0.11,0.11,0.11,0,0,0,0,0,0.0998
1676505600000,2023-02-16 00:00:00,NCR/USDT,0.11,0.11,0.11,0.11,0,0,0,0,0,0.0998
1676419200000,2023-02-15 00:00:00,NCR/USDT,0.11,0.11,0.11,0.11,0,0,0,0,0,0.0998
1676332800000,2023-02-14 00:00:00,NCR/USDT,0.11,0.11,0.11,0.11,0,0,0,0,0,0.0998
1676246400000,2023-02-13 00:00:00,NCR/USDT,0.11,0.11,0.11,0.11,0,0,0,0,0,0.0998
1676160000000,2023-02-12 00:00:00,NCR/USDT,0.11,0.11,0.11,0.11,0,0,0,0,0,0.0998
1676073600000,2023-02-11 00:00:00,NCR/USDT,0.11,0.11,0.11,0.11,0,0,0,0,0,0.099872591598630909
1675987200000,2023-02-10 00:00:00,NCR/USDT,0.11,0.11,0.11,0.11,0,0,0,0,0,0.099872591598630909
1675900800000,2023-02-09 00:00:00,NCR/USDT,0.11,0.11,0.11,0.11,0,0,0,0,0,0.099872591598630909
1675814400000,2023-02-08 00:00:00,NCR/USDT,0.0763,0.11,0.0763,0.11,73.42734802,748.9392,42.42735702,467.1211,7,0.099872591598630909
1675728000000,2023-02-07 00:00:00,NCR/USDT,0.0702,0.0702,0.0702,0.0702,0,0,0,0,0,0.0702
1675641600000,2023-02-06 00:00:00,NCR/USDT,0.0702,0.0702,0.0702,0.0702,0,0,0,0,0,0.0702
1675555200000,2023-02-05 00:00:00,NCR/USDT,0.0702,0.0702,0.0702,0.0702,0,0,0,0,0,0.0702
1675468800000,2023-02-04 00:00:00,NCR/USDT,0.0702,0.0702,0.0702,0.0702,3.5102808,50.004,0,0,1,0.0702
1675382400000,2023-02-03 00:00:00,NCR/USDT,0.0858,0.0858,0.0858,0.0858,0,0,0,0,0,0.0858
1675296000000,2023-02-02 00:00:00,NCR/USDT,0.0858,0.0858,0.0858,0.0858,0,0,0,0,0,0.0858
1675209600000,2023-02-01 00:00:00,NCR/USDT,0.0858,0.0858,0.0858,0.0858,0,0,0,0,0,0.0858
1675123200000,2023-01-31 00:00:00,NCR/USDT,0.0858,0.0858,0.0858,0.0858,0,0,0,0,0,0.0858
1675036800000,2023-01-30 00:00:00,NCR/USDT,0.0858,0.0858,0.0858,0.0858,0,0,0,0,0,0.0858
1674950400000,2023-01-29 00:00:00,NCR/USDT,0.0858,0.0858,0.0858,0.0858,0,0,0,0,0,0.0858
1674864000000,2023-01-28 00:00:00,NCR/USDT,0.0858,0.0858,0.0858,0.0858,0,0,0,0,0,0.0858
1674777600000,2023-01-27 00:00:00,NCR/USDT,0.0858,0.0858,0.0858,0.0858,0,0,0,0,0,0.0858
1674691200000,2023-01-26 00:00:00,NCR/USDT,0.0858,0.0858,0.0858,0.0858,0,0,0,0,0,0.0858
1674604800000,2023-01-25 00:00:00,NCR/USDT,0.0858,0.0858,0.0858,0.0858,4.999995,58.275,4.999995,58.275,1,0.0858
1674518400000,2023-01-24 00:00:00,NCR/USDT,0.0701,0.0701,0.07,0.07,9.67740311,138.1241,0,0,2,0.070063136701453371
1674432000000,2023-01-23 00:00:00,NCR/USDT,0.0938,0.0938,0.0938,0.0938,0,0,0,0,0,0.0938
1674345600000,2023-01-22 00:00:00,NCR/USDT,0.0938,0.0938,0.0938,0.0938,0,0,0,0,0,0.0938
1674259200000,2023-01-21 00:00:00,NCR/USDT,0.0938,0.0938,0.0938,0.0938,0.0001876,0.002,0,0,1,0.0938
1674172800000,2023-01-20 00:00:00,NCR/USDT,0.0938,0.0938,0.0938,0.0938,0,0,0,0,0,0.0938
1674086400000,2023-01-19 00:00:00,NCR/USDT,0.0938,0.0938,0.0938,0.0938,0,0,0,0,0,0.0938
1674000000000,2023-01-18 00:00:00,NCR/USDT,0.0938,0.0938,0.0938,0.0938,0,0,0,0,0,0.0938
1673913600000,2023-01-17 00:00:00,NCR/USDT,0.0938,0.0938,0.0938,0.0938,0,0,0,0,0,0.0938
1673827200000,2023-01-16 00:00:00,NCR/USDT,0.0938,0.0938,0.0938,0.0938,0,0,0,0,0,0.0938
1673740800000,2023-01-15 00:00:00,NCR/USDT,0.0938,0.0938,0.0938,0.0938,0,0,0,0,0,0.0938
1673654400000,2023-01-14 00:00:00,NCR/USDT,0.0938,0.0938,0.0938,0.0938,0,0,0,0,0,0.0938
1673568000000,2023-01-13 00:00:00,NCR/USDT,0.0938,0.0938,0.0938,0.0938,0,0,0,0,0,0.0938
1673481600000,2023-01-12 00:00:00,NCR/USDT,0.0938,0.0938,0.0938,0.0938,4.69699748,50.0746,0,0,1,0.0938
1673395200000,2023-01-11 00:00:00,NCR/USDT,0.0885,0.106,0.0885,0.106,12.29838509,127.6295,9.58835579,97.0077,4,0.096748518478778581
1673308800000,2023-01-10 00:00:00,NCR/USDT,0.1,0.1,0.1,0.1,0,0,0,0,0,0.1
1673222400000,2023-01-09 00:00:00,NCR/USDT,0.1,0.1,0.1,0.1,0,0,0,0,0,0.1
1673136000000,2023-01-08 00:00:00,NCR/USDT,0.1,0.1,0.1,0.1,0,0,0,0,0,0.1
1673049600000,2023-01-07 00:00:00,NCR/USDT,0.1,0.1,0.1,0.1,0,0,0,0,0,0.1
1672963200000,2023-01-06 00:00:00,NCR/USDT,0.1,0.1,0.1,0.1,0,0,0,0,0,0.1
1672876800000,2023-01-05 00:00:00,NCR/USDT,0.1,0.1,0.1,0.1,0,0,0,0,0,0.1
1672790400000,2023-01-04 00:00:00,NCR/USDT,0.1,0.1,0.1,0.1,0,0,0,0,0,0.1
1672704000000,2023-01-03 00:00:00,NCR/USDT,0.1,0.1,0.1,0.1,0,0,0,0,0,0.1
1672617600000,2023-01-02 00:00:00,NCR/USDT,0.1,0.1,0.1,0.1,0,0,0,0,0,0.1
1672531200000,2023-01-01 00:00:00,NCR/USDT,0.1,0.1,0.1,0.1,0,0,0,0,0,0.1
1672444800000,2022-12-31 00:00:00,NCR/USDT,0.1,0.1,0.1,0.1,0,0,0,0,0,0.1
1672358400000,2022-12-30 00:00:00,NCR/USDT,0.1,0.1,0.1,0.1,0,0,0,0,0,0.1
1672272000000,2022-12-29 00:00:00,NCR/USDT,0.1,0.1,0.1,0.1,0,0,0,0,0,0.1
1672185600000,2022-12-28 00:00:00,NCR/USDT,0.1,0.1,0.1,0.1,0,0,0,0,0,0.1
1672099200000,2022-12-27 00:00:00,NCR/USDT,0.1,0.1,0.1,0.1,0,0,0,0,0,0.1
1672012800000,2022-12-26 00:00:00,NCR/USDT,0.1,0.1,0.1,0.1,10.365,103.65,0,0,1,0.1
1671926400000,2022-12-25 00:00:00,NCR/USDT,0.1005,0.1005,0.1,0.1,5.6349956,56.1012,0,0,2,0.100443655679163263
1671840000000,2022-12-24 00:00:00,NCR/USDT,0.101,0.101,0.101,0.101,0,0,0,0,0,0.101
1671753600000,2022-12-23 00:00:00,NCR/USDT,0.101,0.101,0.101,0.101,0,0,0,0,0,0.101
1671667200000,2022-12-22 00:00:00,NCR/USDT,0.101,0.101,0.101,0.101,0,0,0,0,0,0.101
1671580800000,2022-12-21 00:00:00,NCR/USDT,0.101,0.101,0.101,0.101,0,0,0,0,0,0.101
1671494400000,2022-12-20 00:00:00,NCR/USDT,0.101,0.101,0.101,0.101,0,0,0,0,0,0.101
1671408000000,2022-12-19 00:00:00,NCR/USDT,0.101,0.101,0.101,0.101,0,0,0,0,0,0.101
1671321600000,2022-12-18 00:00:00,NCR/USDT,0.101,0.101,0.101,0.101,0,0,0,0,0,0.101
1671235200000,2022-12-17 00:00:00,NCR/USDT,0.101,0.101,0.101,0.101,0,0,0,0,0,0.101
1671148800000,2022-12-16 00:00:00,NCR/USDT,0.101,0.101,0.101,0.101,0,0,0,0,0,0.101
1671062400000,2022-12-15 00:00:00,NCR/USDT,0.101,0.101,0.101,0.101,0,0,0,0,0,0.101
1670976000000,2022-12-14 00:00:00,NCR/USDT,0.101,0.101,0.101,0.101,0,0,0,0,0,0.101
1670889600000,2022-12-13 00:00:00,NCR/USDT,0.101,0.101,0.101,0.101,0,0,0,0,0,0.101
1670803200000,2022-12-12 00:00:00,NCR/USDT,0.101,0.101,0.101,0.101,0,0,0,0,0,0.101
1670716800000,2022-12-11 00:00:00,NCR/USDT,0.101,0.101,0.101,0.101,0,0,0,0,0,0.101
1670630400000,2022-12-10 00:00:00,NCR/USDT,0.101,0.101,0.101,0.101,0.9858509,9.7609,0,0,1,0.101
1670544000000,2022-12-09 00:00:00,NCR/USDT,0.1003,0.1003,0.1003,0.1003,0,0,0,0,0,0.100347966873969083
1670457600000,2022-12-08 00:00:00,NCR/USDT,0.1003,0.1003,0.1003,0.1003,0,0,0,0,0,0.100347966873969083
1670371200000,2022-12-07 00:00:00,NCR/USDT,0.1003,0.1003,0.1003,0.1003,0,0,0,0,0,0.100347966873969083
1670284800000,2022-12-06 00:00:00,NCR/USDT,0.1003,0.1003,0.1003,0.1003,0,0,0,0,0,0.100347966873969083
1670198400000,2022-12-05 00:00:00,NCR/USDT,0.1003,0.1003,0.1003,0.1003,0,0,0,0,0,0.100347966873969083
1670112000000,2022-12-04 00:00:00,NCR/USDT,0.1003,0.1003,0.1003,0.1003,0,0,0,0,0,0.100347966873969083
1670025600000,2022-12-03 00:00:00,NCR/USDT,0.1003,0.1003,0.1003,0.1003,0,0,0,0,0,0.100347966873969083
1669939200000,2022-12-02 00:00:00,NCR/USDT,0.1003,0.1003,0.1003,0.1003,0,0,0,0,0,0.100347966873969083
1669852800000,2022-12-01 00:00:00,NCR/USDT,0.1003,0.1003,0.1003,0.1003,0,0,0,0,0,0.100347966873969083
1669766400000,2022-11-30 00:00:00,NCR/USDT,0.1003,0.1003,0.1003,0.1003,0,0,0,0,0,0.100347966873969083
1669680000000,2022-11-29 00:00:00,NCR/USDT,0.1003,0.1003,0.1003,0.1003,0,0,0,0,0,0.100347966873969083
1669593600000,2022-11-28 00:00:00,NCR/USDT,0.1016,0.1016,0.1003,0.1003,1.10555714,11.0173,0,0,2,0.100347966873969083
1669507200000,2022-11-27 00:00:00,NCR/USDT,0.1016,0.1016,0.1016,0.1016,1.0734548,10.5655,1.0734548,10.5655,1,0.1016
1669420800000,2022-11-26 00:00:00,NCR/USDT,0.1094,0.1094,0.1094,0.1094,23.79355916,217.4914,23.79355916,217.4914,1,0.1094
1669334400000,2022-11-25 00:00:00,NCR/USDT,0.1003,0.1003,0.1003,0.1003,0.33822163,3.3721,0,0,1,0.1003
1669248000000,2022-11-24 00:00:00,NCR/USDT,0.11,0.11,0.11,0.11,0.741895,6.7445,0,0,1,0.11
1669161600000,2022-11-23 00:00:00,NCR/USDT,0.11,0.11,0.11,0.11,6.758686,61.4426,0,0,1,0.11
1669075200000,2022-11-22 00:00:00,NCR/USDT,0.1003,0.1003,0.1003,0.1003,0,0,0,0,0,0.100561052739713504
1668988800000,2022-11-21 00:00:00,NCR/USDT,0.1003,0.1003,0.1003,0.1003,0,0,0,0,0,0.100561052739713504
1668902400000,2022-11-20 00:00:00,NCR/USDT,0.1003,0.1003,0.1003,0.1003,0,0,0,0,0,0.100561052739713504
1668816000000,2022-11-19 00:00:00,NCR/USDT,0.1003,0.1003,0.1003,0.1003,0,0,0,0,0,0.100561052739713504
1668729600000,2022-11-18 00:00:00,NCR/USDT,0.1011,0.1011,0.1003,0.1003,47.79483813,475.2852,0,0,5,0.100561052739713504
1668643200000,2022-11-17 00:00:00,NCR/USDT,0.101,0.101,0.101,0.101,0,0,0,0,0,0.101782798879606206
1668556800000,2022-11-16 00:00:00,NCR/USDT,0.101,0.101,0.101,0.101,0,0,0,0,0,0.101782798879606206
1668470400000,2022-11-15 00:00:00,NCR/USDT,0.101,0.101,0.101,0.101,0,0,0,0,0,0.101782798879606206
1668384000000,2022-11-14 00:00:00,NCR/USDT,0.102,0.102,0.101,0.101,12.6743651,124.5257,0,0,3,0.101782798879606206
1668297600000,2022-11-13 00:00:00,NCR/USDT,0.1299,0.13,0.1299,0.13,9.99999342,76.9704,9.99999342,76.9704,2,0.129919999993159995
1668211200000,2022-11-12 00:00:00,NCR/USDT,0.109,0.13,0.102,0.13,24.97748153,202.7836,19.87079083,152.8611,4,0.124333052553237139
1668124800000,2022-11-11 00:00:00,NCR/USDT,0.13,0.13,0.13,0.13,0,0,0,0,0,0.126947386097263189
1668038400000,2022-11-10 00:00:00,NCR/USDT,0.13,0.13,0.13,0.13,0,0,0,0,0,0.126947386097263189
1667952000000,2022-11-09 00:00:00,NCR/USDT,0.13,0.13,0.13,0.13,0,0,0,0,0,0.126947386097263189
1667865600000,2022-11-08 00:00:00,NCR/USDT,0.13,0.13,0.13,0.13,0,0,0,0,0,0.126947386097263189
1667779200000,2022-11-07 00:00:00,NCR/USDT,0.1206,0.13,0.1206,0.13,16.87605104,133.097,15.37605904,121.5586,4,0.126947386097263189
1667692800000,2022-11-06 00:00:00,NCR/USDT,0.109,0.109,0.109,0.109,1.2727167,11.6763,0,0,1,0.109
1667606400000,2022-11-05 00:00:00,NCR/USDT,0.1207,0.1207,0.1207,0.1207,0,0,0,0,0,0.120654444662404409
1667520000000,2022-11-04 00:00:00,NCR/USDT,0.1206,0.1207,0.1206,0.1207,3.32446374,27.5536,0,0,2,0.120654444662404409
1667433600000,2022-11-03 00:00:00,NCR/USDT,0.1401,0.1401,0.1204,0.1204,136.34735997,1044.0242,0,0,10,0.130955253000759657
1667347200000,2022-11-02 00:00:00,NCR/USDT,0.1302,0.1302,0.1302,0.1302,0,0,0,0,0,0.167489441832513216
1667260800000,2022-11-01 00:00:00,NCR/USDT,0.1946,0.1946,0.1302,0.1302,31.03299549,192.6094,17.9152652,92.062,5,0.167489441832513216
1667174400000,2022-10-31 00:00:00,NCR/USDT,0.1946,0.1946,0.1945,0.1945,2.55271646,13.1216,2.55271646,13.1216,2,0.194543091192352792
1667088000000,2022-10-30 00:00:00,NCR/USDT,0.1696,0.1699,0.135,0.135,92.02842154,551.1807,83.88639432,494.4085,8,0.167358393104348356
1667001600000,2022-10-29 00:00:00,NCR/USDT,0.1697,0.1697,0.15,0.15,49.19972415,314.3464,2.59758036,15.3121,8,0.156591751393488248
1666915200000,2022-10-28 00:00:00,NCR/USDT,0.1091,0.1993,0.1091,0.1091,62.20064398,513.9872,54.50244979,443.4263,7,0.124378942670908339
1666828800000,2022-10-27 00:00:00,NCR/USDT,0.2001,0.55,0.1099,0.1298,77.4851698,499.4081,27.66868091,115.2913,33,0.209912012326751069
1666742400000,2022-10-26 00:00:00,NCR/USDT,0.1497,1.0999,0.1199,0.32,823.23385537,4043.1463,215.55424684,1221.8451,88,0.271761663844037569
1666656000000,2022-10-25 00:00:00,NCR/USDT,0.1496,0.1496,0.1496,0.1496,0.99998624,6.6844,0.99998624,6.6844,1,0.1496
1666569600000,2022-10-24 00:00:00,NCR/USDT,0.1533,0.1533,0.1533,0.1533,0,0,0,0,0,0.1533
1666483200000,2022-10-23 00:00:00,NCR/USDT,0.1533,0.1533,0.1533,0.1533,1.05497994,6.8818,1.05497994,6.8818,1,0.1533
1666396800000,2022-10-22 00:00:00,NCR/USDT,0.1321,0.1321,0.1321,0.1321,0,0,0,0,0,0.171136860684886191
1666310400000,2022-10-21 00:00:00,NCR/USDT,0.1321,0.1321,0.1321,0.1321,0,0,0,0,0,0.171136860684886191
1666224000000,2022-10-20 00:00:00,NCR/USDT,0.1321,0.1321,0.1321,0.1321,0,0,0,0,0,0.171136860684886191
1666137600000,2022-10-19 00:00:00,NCR/USDT,0.1321,0.1321,0.1321,0.1321,0,0,0,0,0,0.171136860684886191
1666051200000,2022-10-18 00:00:00,NCR/USDT,0.1321,0.1321,0.1321,0.1321,0,0,0,0,0,0.171136860684886191
1665964800000,2022-10-17 00:00:00,NCR/USDT,0.1321,0.1321,0.1321,0.1321,0,0,0,0,0,0.171136860684886191
1665878400000,2022-10-16 00:00:00,NCR/USDT,0.18,0.18,0.1321,0.1321,4.24057666,24.9738,0,0,4,0.171136860684886191
1665792000000,2022-10-15 00:00:00,NCR/USDT,0.21,0.21,0.18,0.18,226.6832263,1230,0,0,4,0.184888766140258521
1665705600000,2022-10-14 00:00:00,NCR/USDT,0.21,0.21,0.21,0.21,0.807639,3.8459,0,0,1,0.21
1665619200000,2022-10-13 00:00:00,NCR/USDT,0.21,0.21,0.21,0.21,32.073321,152.7301,0,0,1,0.21
1665532800000,2022-10-12 00:00:00,NCR/USDT,0.21,0.21,0.21,0.21,0,0,0,0,0,0.210035258526685502
1665446400000,2022-10-11 00:00:00,NCR/USDT,0.21,0.21,0.21,0.21,0,0,0,0,0,0.210035258526685502
1665360000000,2022-10-10 00:00:00,NCR/USDT,0.21,0.21,0.21,0.21,0,0,0,0,0,0.210035258526685502
1665273600000,2022-10-09 00:00:00,NCR/USDT,0.21,0.21,0.21,0.21,0,0,0,0,0,0.210035258526685502
1665187200000,2022-10-08 00:00:00,NCR/USDT,0.21,0.21,0.21,0.21,0,0,0,0,0,0.210035258526685502
1665100800000,2022-10-07 00:00:00,NCR/USDT,0.21,0.21,0.21,0.21,0,0,0,0,0,0.210035258526685502
1665014400000,2022-10-06 00:00:00,NCR/USDT,0.21,0.21,0.21,0.21,0,0,0,0,0,0.210035258526685502
1664928000000,2022-10-05 00:00:00,NCR/USDT,0.2107,0.2107,0.21,0.21,32.5905447,155.1671,0,0,3,0.210035258526685502
1664841600000,2022-10-04 00:00:00,NCR/USDT,0.2007,0.2107,0.2007,0.2107,8.35824486,39.8598,0,0,2,0.209734348641946821
1664755200000,2022-10-03 00:00:00,NCR/USDT,0.2,0.2,0.2,0.2,0,0,0,0,0,0.217081607640055635
1664668800000,2022-10-02 00:00:00,NCR/USDT,0.2,0.2,0.2,0.2,0,0,0,0,0,0.217081607640055635
1664582400000,2022-10-01 00:00:00,NCR/USDT,0.2,0.2,0.2,0.2,0,0,0,0,0,0.217081607640055635
1664496000000,2022-09-30 00:00:00,NCR/USDT,0.2978,0.2978,0.2,0.2,172.05242979,809.6355,0,0,8,0.217081607640055635
1664409600000,2022-09-29 00:00:00,NCR/USDT,0.2778,0.2778,0.2778,0.2778,1.49203602,5.3709,0,0,1,0.2778
1664323200000,2022-09-28 00:00:00,NCR/USDT,0.4999,0.4999,0.2,0.2,113.17487488,271.6857,1.1139,5.5695,5,0.459865885383093254
1664236800000,2022-09-27 00:00:00,NCR/USDT,0.4999,0.4999,0.1506,0.4999,58.8365771,143.6841,36.38564136,92.794,12,0.441148999211410616
1664150400000,2022-09-26 00:00:00,NCR/USDT,0.2697,1.9999,0.132,0.1506,808.22693091,922.1034,696.67725141,616.2238,110,1.579852890136210677
1664064000000,2022-09-25 00:00:00,NCR/USDT,0.1353,0.1353,0.1353,0.1353,0,0,0,0,0,0.198787783308227152
1663977600000,2022-09-24 00:00:00,NCR/USDT,0.1353,0.1353,0.1353,0.1353,0,0,0,0,0,0.198787783308227152
1663891200000,2022-09-23 00:00:00,NCR/USDT,0.1353,0.1353,0.1353,0.1353,0,0,0,0,0,0.198787783308227152
1663804800000,2022-09-22 00:00:00,NCR/USDT,0.1353,0.1353,0.1353,0.1353,0,0,0,0,0,0.198787783308227152
1663718400000,2022-09-21 00:00:00,NCR/USDT,0.1353,0.1353,0.1353,0.1353,0,0,0,0,0,0.198787783308227152
1663632000000,2022-09-20 00:00:00,NCR/USDT,0.1353,0.1353,0.1353,0.1353,0,0,0,0,0,0.198787783308227152
1663545600000,2022-09-19 00:00:00,NCR/USDT,0.1353,0.1353,0.1353,0.1353,0,0,0,0,0,0.198787783308227152
1663459200000,2022-09-18 00:00:00,NCR/USDT,0.1353,0.1353,0.1353,0.1353,0,0,0,0,0,0.198787783308227152
1663372800000,2022-09-17 00:00:00,NCR/USDT,0.1353,0.1353,0.1353,0.1353,0,0,0,0,0,0.198787783308227152
1663286400000,2022-09-16 00:00:00,NCR/USDT,0.1353,0.1353,0.1353,0.1353,0,0,0,0,0,0.198787783308227152
1663200000000,2022-09-15 00:00:00,NCR/USDT,0.1353,0.1353,0.1353,0.1353,0,0,0,0,0,0.198787783308227152
1663113600000,2022-09-14 00:00:00,NCR/USDT,0.2699,0.27,0.1353,0.1353,30.77382437,172.4116,14.05168493,52.057,4,0.198787783308227152
1663027200000,2022-09-13 00:00:00,NCR/USDT,0.3798,22.9499,0.2655,0.2655,668.35236024,1021.8718,419.61648281,432.4326,76,5.177321372547134952
1662940800000,2022-09-12 00:00:00,NCR/USDT,0.2654,0.2654,0.2654,0.2654,1.05512424,3.9756,0,0,1,0.2654
1662854400000,2022-09-11 00:00:00,NCR/USDT,0.3798,0.3798,0.3798,0.3798,0,0,0,0,0,0.319869328787656971
1662768000000,2022-09-10 00:00:00,NCR/USDT,0.3798,0.3798,0.3798,0.3798,0,0,0,0,0,0.319869328787656971
1662681600000,2022-09-09 00:00:00,NCR/USDT,0.26,0.3798,0.26,0.3798,2.00097542,6.4829,0.99997542,2.6329,2,0.319869328787656971
1662595200000,2022-09-08 00:00:00,NCR/USDT,0.3799,0.3799,0.3799,0.3799,0,0,0,0,0,0.3799
1662508800000,2022-09-07 00:00:00,NCR/USDT,0.3799,0.3799,0.3799,0.3799,0,0,0,0,0,0.3799
1662422400000,2022-09-06 00:00:00,NCR/USDT,0.3799,0.3799,0.3799,0.3799,1.09996246,2.8954,1.09996246,2.8954,1,0.3799
1662336000000,2022-09-05 00:00:00,NCR/USDT,0.399,0.399,0.399,0.399,0,0,0,0,0,0.399
1662249600000,2022-09-04 00:00:00,NCR/USDT,0.399,0.399,0.399,0.399,0,0,0,0,0,0.399
1662163200000,2022-09-03 00:00:00,NCR/USDT,0.399,0.399,0.399,0.399,0,0,0,0,0,0.399
1662076800000,2022-09-02 00:00:00,NCR/USDT,0.399,0.399,0.399,0.399,5.0183427,12.5773,5.0183427,12.5773,1,0.399
1661990400000,2022-09-01 00:00:00,NCR/USDT,0.2,0.2,0.2,0.2,0,0,0,0,0,0.2
1661904000000,2022-08-31 00:00:00,NCR/USDT,0.2,0.2,0.2,0.2,0,0,0,0,0,0.2
1661817600000,2022-08-30 00:00:00,NCR/USDT,0.2,0.2,0.2,0.2,0,0,0,0,0,0.2
1661731200000,2022-08-29 00:00:00,NCR/USDT,0.2,0.2,0.2,0.2,0,0,0,0,0,0.2
1661644800000,2022-08-28 00:00:00,NCR/USDT,0.2,0.2,0.2,0.2,0,0,0,0,0,0.2
1661558400000,2022-08-27 00:00:00,NCR/USDT,0.2,0.2,0.2,0.2,0,0,0,0,0,0.2
1661472000000,2022-08-26 00:00:00,NCR/USDT,0.2,0.2,0.2,0.2,0,0,0,0,0,0.2
1661385600000,2022-08-25 00:00:00,NCR/USDT,0.2,0.2,0.2,0.2,0,0,0,0,0,0.2
1661299200000,2022-08-24 00:00:00,NCR/USDT,0.2,0.2,0.2,0.2,0,0,0,0,0,0.2
1661212800000,2022-08-23 00:00:00,NCR/USDT,0.2,0.2,0.2,0.2,0,0,0,0,0,0.2
1661126400000,2022-08-22 00:00:00,NCR/USDT,0.2,0.2,0.2,0.2,0,0,0,0,0,0.2
1661040000000,2022-08-21 00:00:00,NCR/USDT,0.2,0.2,0.2,0.2,0,0,0,0,0,0.2
1660953600000,2022-08-20 00:00:00,NCR/USDT,0.2,0.2,0.2,0.2,0,0,0,0,0,0.2
1660867200000,2022-08-19 00:00:00,NCR/USDT,0.2,0.2,0.2,0.2,0,0,0,0,0,0.2
1660780800000,2022-08-18 00:00:00,NCR/USDT,0.2,0.2,0.2,0.2,0,0,0,0,0,0.2
1660694400000,2022-08-17 00:00:00,NCR/USDT,0.2,0.2,0.2,0.2,0,0,0,0,0,0.2
1660608000000,2022-08-16 00:00:00,NCR/USDT,0.2,0.2,0.2,0.2,0,0,0,0,0,0.2
1660521600000,2022-08-15 00:00:00,NCR/USDT,0.2,0.2,0.2,0.2,0,0,0,0,0,0.2
1660435200000,2022-08-14 00:00:00,NCR/USDT,0.2,0.2,0.2,0.2,0,0,0,0,0,0.2
1660348800000,2022-08-13 00:00:00,NCR/USDT,0.2,0.2,0.2,0.2,1.3236,6.618,0,0,1,0.2
1660262400000,2022-08-12 00:00:00,NCR/USDT,0.1501,0.1501,0.1501,0.1501,0,0,0,0,0,0.1501
1660176000000,2022-08-11 00:00:00,NCR/USDT,0.1501,0.1501,0.1501,0.1501,0,0,0,0,0,0.1501
1660089600000,2022-08-10 00:00:00,NCR/USDT,0.1501,0.1501,0.1501,0.1501,0,0,0,0,0,0.1501
1660003200000,2022-08-09 00:00:00,NCR/USDT,0.1501,0.1501,0.1501,0.1501,0,0,0,0,0,0.1501
1659916800000,2022-08-08 00:00:00,NCR/USDT,0.1501,0.1501,0.1501,0.1501,0,0,0,0,0,0.1501
1659830400000,2022-08-07 00:00:00,NCR/USDT,0.1501,0.1501,0.1501,0.1501,0,0,0,0,0,0.1501
1659744000000,2022-08-06 00:00:00,NCR/USDT,0.1501,0.1501,0.1501,0.1501,0,0,0,0,0,0.1501
1659657600000,2022-08-05 00:00:00,NCR/USDT,0.1501,0.1501,0.1501,0.1501,0.06395761,0.4261,0,0,1,0.1501
1658966400000,2022-07-28 00:00:00,NCR/USDT,0.32569488,0.32569488,0.32569488,0.32569488,1.09999999,3.3773942,0,0,0,0.32569488
1658880000000,2022-07-27 00:00:00,NCR/USDT,0.279,0.279,0.279,0.279,0,0,0,0,0,0.279
1658793600000,2022-07-26 00:00:00,NCR/USDT,0.279,0.279,0.279,0.279,0,0,0,0,0,0.279
1658707200000,2022-07-25 00:00:00,NCR/USDT,0.279,0.279,0.279,0.279,0,0,0,0,0,0.279
1658620800000,2022-07-24 00:00:00,NCR/USDT,0.279,0.279,0.279,0.279,0,0,0,0,0,0.279
1658534400000,2022-07-23 00:00:00,NCR/USDT,0.279,0.279,0.279,0.279,0,0,0,0,0,0.279
1658448000000,2022-07-22 00:00:00,NCR/USDT,0.279,0.279,0.279,0.279,0,0,0,0,0,0.279
1658361600000,2022-07-21 00:00:00,NCR/USDT,0.279,0.279,0.279,0.279,0,0,0,0,0,0.279
1658275200000,2022-07-20 00:00:00,NCR/USDT,0.279,0.279,0.279,0.279,4.45783877,15.97791675,0,0,0,0.279
1658188800000,2022-07-19 00:00:00,NCR/USDT,0.27,0.27,0.27,0.27,0,0,0,0,0,0.27
1658102400000,2022-07-18 00:00:00,NCR/USDT,0.27,0.27,0.27,0.27,0,0,0,0,0,0.27
1658016000000,2022-07-17 00:00:00,NCR/USDT,0.27,0.27,0.27,0.27,0,0,0,0,0,0.27
1657929600000,2022-07-16 00:00:00,NCR/USDT,0.27,0.27,0.27,0.27,0,0,0,0,0,0.27
1657843200000,2022-07-15 00:00:00,NCR/USDT,0.27,0.27,0.27,0.27,0,0,0,0,0,0.27
1657756800000,2022-07-14 00:00:00,NCR/USDT,0.27,0.27,0.27,0.27,0,0,0,0,0,0.27
1657670400000,2022-07-13 00:00:00,NCR/USDT,0.27,0.27,0.27,0.27,0,0,0,0,0,0.27
1657584000000,2022-07-12 00:00:00,NCR/USDT,0.27,0.27,0.27,0.27,0,0,0,0,0,0.27
1657497600000,2022-07-11 00:00:00,NCR/USDT,0.27,0.27,0.27,0.27,0,0,0,0,0,0.27
1657411200000,2022-07-10 00:00:00,NCR/USDT,0.27,0.27,0.27,0.27,0,0,0,0,0,0.27
1657324800000,2022-07-09 00:00:00,NCR/USDT,0.27,0.27,0.27,0.27,0,0,0,0,0,0.27
1657238400000,2022-07-08 00:00:00,NCR/USDT,0.27,0.27,0.27,0.27,0,0,0,0,0,0.27
1657152000000,2022-07-07 00:00:00,NCR/USDT,0.27,0.27,0.27,0.27,0,0,0,0,0,0.27
1657065600000,2022-07-06 00:00:00,NCR/USDT,0.27,0.27,0.27,0.27,0,0,0,0,0,0.27
1656979200000,2022-07-05 00:00:00,NCR/USDT,0.27,0.27,0.27,0.27,9.47614518,35.09683403,0,0,0,0.27
1656892800000,2022-07-04 00:00:00,NCR/USDT,0.32,0.32,0.32,0.32,0,0,0,0,0,0.32
1656806400000,2022-07-03 00:00:00,NCR/USDT,0.32,0.32,0.32,0.32,6.30438051,19.70118912,0,0,0,0.32
1656720000000,2022-07-02 00:00:00,NCR/USDT,0.42747072,0.42747072,0.42747072,0.42747072,0,0,0,0,0,0.42747072
1656633600000,2022-07-01 00:00:00,NCR/USDT,0.42747072,0.42747072,0.42747072,0.42747072,0,0,0,0,0,0.42747072
1656547200000,2022-06-30 00:00:00,NCR/USDT,0.42747072,0.42747072,0.42747072,0.42747072,0,0,0,0,0,0.42747072
1656460800000,2022-06-29 00:00:00,NCR/USDT,0.42747072,0.42747072,0.42747072,0.42747072,0,0,0,0,0,0.42747072
1656374400000,2022-06-28 00:00:00,NCR/USDT,0.42747072,0.42747072,0.42747072,0.42747072,0,0,0,0,0,0.42747072
1656288000000,2022-06-27 00:00:00,NCR/USDT,0.42747072,0.42747072,0.42747072,0.42747072,0,0,0,0,0,0.42747072
1656201600000,2022-06-26 00:00:00,NCR/USDT,0.42747072,0.42747072,0.42747072,0.42747072,0,0,0,0,0,0.42747072
1656115200000,2022-06-25 00:00:00,NCR/USDT,0.42747072,0.42747072,0.42747072,0.42747072,0,0,0,0,0,0.42747072
1656028800000,2022-06-24 00:00:00,NCR/USDT,0.42747072,0.42747072,0.42747072,0.42747072,0,0,0,0,0,0.42747072
1655942400000,2022-06-23 00:00:00,NCR/USDT,0.42747072,0.42747072,0.42747072,0.42747072,0,0,0,0,0,0.42747072
1655856000000,2022-06-22 00:00:00,NCR/USDT,0.42747072,0.42747072,0.42747072,0.42747072,0,0,0,0,0,0.42747072
1655769600000,2022-06-21 00:00:00,NCR/USDT,0.42747072,0.42747072,0.42747072,0.42747072,0,0,0,0,0,0.42747072
1655683200000,2022-06-20 00:00:00,NCR/USDT,0.42747072,0.42747072,0.42747072,0.42747072,0,0,0,0,0,0.42747072
1655596800000,2022-06-19 00:00:00,NCR/USDT,0.42747072,0.42747072,0.42747072,0.42747072,0,0,0,0,0,0.42747072
1655510400000,2022-06-18 00:00:00,NCR/USDT,0.42747072,0.42747072,0.42747072,0.42747072,3.94519128,9.22914975,0,0,0,0.42747072
1655424000000,2022-06-17 00:00:00,NCR/USDT,0.33124982,0.33124982,0.27,0.27,0,0,0,0,0,0.30050933
1655337600000,2022-06-16 00:00:00,NCR/USDT,0.33124982,0.33124982,0.27,0.27,2634.3278255,8766.20951867,0,0,0,0.30050933
1655251200000,2022-06-15 00:00:00,NCR/USDT,0.33124983,0.33124983,0.33124982,0.33124982,0,0,0,0,0,0.33124982
1655164800000,2022-06-14 00:00:00,NCR/USDT,0.33124983,0.33124983,0.33124982,0.33124982,0,0,0,0,0,0.33124982
1655078400000,2022-06-13 00:00:00,NCR/USDT,0.33124983,0.33124983,0.33124982,0.33124982,0,0,0,0,0,0.33124982
1654992000000,2022-06-12 00:00:00,NCR/USDT,0.33124983,0.33124983,0.33124982,0.33124982,9.02337837,27.24040215,0,0,0,0.33124982
1654905600000,2022-06-11 00:00:00,NCR/USDT,0.35,0.35,0.3,0.35,1900.52289457,5437.13822756,0,0,0,0.3495447
1654819200000,2022-06-10 00:00:00,NCR/USDT,0.49999999,0.49999999,0.49999999,0.49999999,1,2.00000005,0,0,0,0.49999999
1654732800000,2022-06-09 00:00:00,NCR/USDT,0.35000001,0.35000001,0.35000001,0.35000001,5.99999998,17.14285662,0,0,0,0.35000001
1654646400000,2022-06-08 00:00:00,NCR/USDT,0.65,0.65,0.65,0.65,1.09999999,1.69230769,0,0,0,0.65
1654560000000,2022-06-07 00:00:00,NCR/USDT,0.36,0.36,0.36,0.36,0,0,0,0,0,0.36
1654473600000,2022-06-06 00:00:00,NCR/USDT,0.36,0.36,0.36,0.36,19.16795478,53.24431886,0,0,0,0.36
1654387200000,2022-06-05 00:00:00,NCR/USDT,0.54,0.54,0.36,0.36,2.60240635,5.37705469,0,0,0,0.48398361
1654300800000,2022-06-04 00:00:00,NCR/USDT,0.35,0.54,0.35,0.54,36.3387676,73.27716776,0,0,0,0.49590846
1654214400000,2022-06-03 00:00:00,NCR/USDT,0.19999999,0.49,0.19999999,0.35,64.61579228,270.56107357,0,0,0,0.23882146
1654128000000,2022-06-02 00:00:00,NCR/USDT,0.19999999,0.19999999,0.19999999,0.19999999,0,0,0,0,0,0.19999999
1654041600000,2022-06-01 00:00:00,NCR/USDT,0.19999999,0.19999999,0.19999999,0.19999999,0,0,0,0,0,0.19999999
1653955200000,2022-05-31 00:00:00,NCR/USDT,0.19999999,0.19999999,0.19999999,0.19999999,2.2,11.00000056,0,0,0,0.19999999
1653868800000,2022-05-30 00:00:00,NCR/USDT,0.19999999,0.19999999,0.19999999,0.19999999,5.5,27.5000014,0,0,0,0.19999999
1653782400000,2022-05-29 00:00:00,NCR/USDT,0.49,0.49999999,0.49,0.49999999,0,0,0,0,0,0.49217144
1653696000000,2022-05-28 00:00:00,NCR/USDT,0.49,0.49999999,0.49,0.49999999,0,0,0,0,0,0.49217144
1653609600000,2022-05-27 00:00:00,NCR/USDT,0.49,0.49999999,0.49,0.49999999,0,0,0,0,0,0.49217144
1653523200000,2022-05-26 00:00:00,NCR/USDT,0.49,0.49999999,0.49,0.49999999,6.28687497,12.77375001,0,0,0,0.49217144
1653436800000,2022-05-25 00:00:00,NCR/USDT,0.29787644,0.37544519,0.29787644,0.37544519,0,0,0,0,0,0.34762599
1653350400000,2022-05-24 00:00:00,NCR/USDT,0.29787644,0.37544519,0.29787644,0.37544519,0,0,0,0,0,0.34762599
1653264000000,2022-05-23 00:00:00,NCR/USDT,0.29787644,0.37544519,0.29787644,0.37544519,0,0,0,0,0,0.34762599
1653177600000,2022-05-22 00:00:00,NCR/USDT,0.29787644,0.37544519,0.29787644,0.37544519,0,0,0,0,0,0.34762599
1653091200000,2022-05-21 00:00:00,NCR/USDT,0.29787644,0.37544519,0.29787644,0.37544519,9.06396778,26.07390657,0,0,0,0.34762599
1653004800000,2022-05-20 00:00:00,NCR/USDT,0.1,0.1,0.1,0.1,0,0,0,0,0,0.1
1652918400000,2022-05-19 00:00:00,NCR/USDT,0.1,0.1,0.1,0.1,0,0,0,0,0,0.1
1652832000000,2022-05-18 00:00:00,NCR/USDT,0.1,0.1,0.1,0.1,0,0,0,0,0,0.1
1652745600000,2022-05-17 00:00:00,NCR/USDT,0.1,0.1,0.1,0.1,0,0,0,0,0,0.1
1652659200000,2022-05-16 00:00:00,NCR/USDT,0.1,0.1,0.1,0.1,0,0,0,0,0,0.1
1652572800000,2022-05-15 00:00:00,NCR/USDT,0.1,0.1,0.1,0.1,1,10,0,0,0,0.1
1652486400000,2022-05-14 00:00:00,NCR/USDT,0.3,0.3,0.3,0.3,0,0,0,0,0,0.3
1652400000000,2022-05-13 00:00:00,NCR/USDT,0.3,0.3,0.3,0.3,0,0,0,0,0,0.3
1652313600000,2022-05-12 00:00:00,NCR/USDT,0.3,0.3,0.3,0.3,2.2,7.33333334,0,0,0,0.3
1652227200000,2022-05-11 00:00:00,NCR/USDT,0.2,0.31,0.2,0.31,6.5169387,23.33177973,0,0,0,0.27931597
1652140800000,2022-05-10 00:00:00,NCR/USDT,0.36000001,0.36000001,0.3094,0.3094,18.32238993,55.74221366,0,0,0,0.32869864
1652054400000,2022-05-09 00:00:00,NCR/USDT,0.45,0.61999997,0.3999,0.3999,0,0,0,0,0,0.44959289
1651968000000,2022-05-08 00:00:00,NCR/USDT,0.45,0.61999997,0.3999,0.3999,19.93022333,44.32948947,0,0,0,0.44959289
1651881600000,2022-05-07 00:00:00,NCR/USDT,0.39999999,0.94999999,0.34,0.39094,488.45269118,981.80461312,0,0,0,0.49750498
1651795200000,2022-05-06 00:00:00,NCR/USDT,0.59999999,1.42499998,0.33,0.34000001,20408.11134297,24904.65850056,0,0,0,0.81944955
1651708800000,2022-05-05 00:00:00,NCR/USDT,0.59999999,0.59999999,0.59999999,0.59999999,0,0,0,0,0,0.59999999
1651622400000,2022-05-04 00:00:00,NCR/USDT,0.59999999,0.59999999,0.59999999,0.59999999,1.99999999,3.33333338,0,0,0,0.59999999
1651536000000,2022-05-03 00:00:00,NCR/USDT,0.63499998,0.63499998,0.4,0.4,0,0,0,0,0,0.49176417
1651449600000,2022-05-02 00:00:00,NCR/USDT,0.63499998,0.63499998,0.4,0.4,0,0,0,0,0,0.49176417
1651363200000,2022-05-01 00:00:00,NCR/USDT,0.63499998,0.63499998,0.4,0.4,3.47553821,7.06748967,0,0,0,0.49176417
1651276800000,2022-04-30 00:00:00,NCR/USDT,0.52900011,0.52900011,0.35,0.35,809.1082633,1900.00000024,0,0,0,0.42584645
1651190400000,2022-04-29 00:00:00,NCR/USDT,0.52000001,0.52000001,0.52,0.52,0,0,0,0,0,0.52
1651104000000,2022-04-28 00:00:00,NCR/USDT,0.52000001,0.52000001,0.52,0.52,0,0,0,0,0,0.52
1651017600000,2022-04-27 00:00:00,NCR/USDT,0.52000001,0.52000001,0.52,0.52,0,0,0,0,0,0.52
1650931200000,2022-04-26 00:00:00,NCR/USDT,0.52000001,0.52000001,0.52,0.52,227.04685746,436.6285707,0,0,0,0.52
1650844800000,2022-04-25 00:00:00,NCR/USDT,0.49999989,0.4999999,0.49999989,0.4999999,68.21072633,136.42148013,0,0,0,0.49999989
1650758400000,2022-04-24 00:00:00,NCR/USDT,0.44390001,0.44390001,0.44390001,0.44390001,0,0,0,0,0,0.44390001
1650672000000,2022-04-23 00:00:00,NCR/USDT,0.44390001,0.44390001,0.44390001,0.44390001,0,0,0,0,0,0.44390001
1650585600000,2022-04-22 00:00:00,NCR/USDT,0.44390001,0.44390001,0.44390001,0.44390001,19.45301398,43.82296361,0,0,0,0.44390001
1650499200000,2022-04-21 00:00:00,NCR/USDT,0.37497583,0.3901757,0.37497583,0.3901757,0,0,0,0,0,0.38888252
1650412800000,2022-04-20 00:00:00,NCR/USDT,0.37497583,0.3901757,0.37497583,0.3901757,0,0,0,0,0,0.38888252
1650326400000,2022-04-19 00:00:00,NCR/USDT,0.37497583,0.3901757,0.37497583,0.3901757,0,0,0,0,0,0.38888252
1650240000000,2022-04-18 00:00:00,NCR/USDT,0.37497583,0.3901757,0.37497583,0.3901757,81.50073767,209.57675503,0,0,0,0.38888252
1650153600000,2022-04-17 00:00:00,NCR/USDT,0.37508789,0.3764802,0.37508789,0.3764802,2.19999999,5.8544464,0,0,0,0.37578275
1650067200000,2022-04-16 00:00:00,NCR/USDT,0.38214069,0.38214069,0.38214069,0.38214069,8.14642207,21.3178609,0,0,0,0.38214069
1649980800000,2022-04-15 00:00:00,NCR/USDT,0.43999998,0.43999998,0.43999998,0.43999998,0,0,0,0,0,0.43999998
1649894400000,2022-04-14 00:00:00,NCR/USDT,0.43999998,0.43999998,0.43999998,0.43999998,0,0,0,0,0,0.43999998
1649808000000,2022-04-13 00:00:00,NCR/USDT,0.43999998,0.43999998,0.43999998,0.43999998,1.09999999,2.50000011,0,0,0,0.43999998
1649721600000,2022-04-12 00:00:00,NCR/USDT,0.49999989,0.49999989,0.49999989,0.49999989,1.09999999,2.20000048,0,0,0,0.49999989
1649635200000,2022-04-11 00:00:00,NCR/USDT,0.69999999,0.69999999,0.367,0.367,519.96145318,1399.14285718,0,0,0,0.37162856
1649548800000,2022-04-10 00:00:00,NCR/USDT,0.55100001,0.55100001,0.406,0.406,0,0,0,0,0,0.48331107
1649462400000,2022-04-09 00:00:00,NCR/USDT,0.55100001,0.55100001,0.406,0.406,418.6517305,866.21588093,0,0,0,0.48331107
1649376000000,2022-04-08 00:00:00,NCR/USDT,0.45030001,0.59999999,0.45030001,0.59999999,0,0,0,0,0,0.49165653
1649289600000,2022-04-07 00:00:00,NCR/USDT,0.45030001,0.59999999,0.45030001,0.59999999,485.32985625,987.13192005,0,0,0,0.49165653
1649203200000,2022-04-06 00:00:00,NCR/USDT,0.4564814,0.4564814,0.4564814,0.4564814,0,0,0,0,0,0.4564814
1649116800000,2022-04-05 00:00:00,NCR/USDT,0.4564814,0.4564814,0.4564814,0.4564814,0,0,0,0,0,0.4564814
1649030400000,2022-04-04 00:00:00,NCR/USDT,0.4564814,0.4564814,0.4564814,0.4564814,0,0,0,0,0,0.4564814
1648944000000,2022-04-03 00:00:00,NCR/USDT,0.4564814,0.4564814,0.4564814,0.4564814,0,0,0,0,0,0.4564814
1648857600000,2022-04-02 00:00:00,NCR/USDT,0.4564814,0.4564814,0.4564814,0.4564814,1.5564814,3.40973674,0,0,0,0.4564814
1648771200000,2022-04-01 00:00:00,NCR/USDT,0.45082019,0.45082019,0.45082019,0.45082019,1.1,2.4399972,0,0,0,0.45082019
1648684800000,2022-03-31 00:00:00,NCR/USDT,0.4524,0.4524,0.45158862,0.45158862,16.1686347,35.74405637,0,0,0,0.4523447
1648598400000,2022-03-30 00:00:00,NCR/USDT,0.52499999,0.52499999,0.52499999,0.52499999,28.33269791,53.96704467,0,0,0,0.52499999
1648512000000,2022-03-29 00:00:00,NCR/USDT,0.52499999,0.52499999,0.52499999,0.52499999,46.66730208,88.89010091,0,0,0,0.52499999
1648425600000,2022-03-28 00:00:00,NCR/USDT,0.55,0.55,0.33,0.33,500.66807945,1489.81112499,0,0,0,0.33606144
1648339200000,2022-03-27 00:00:00,NCR/USDT,0.55069034,0.59999999,0.55069034,0.59999999,0,0,0,0,0,0.5647472
1648252800000,2022-03-26 00:00:00,NCR/USDT,0.55069034,0.59999999,0.55069034,0.59999999,0,0,0,0,0,0.5647472
1648166400000,2022-03-25 00:00:00,NCR/USDT,0.55069034,0.59999999,0.55069034,0.59999999,0,0,0,0,0,0.5647472
1648080000000,2022-03-24 00:00:00,NCR/USDT,0.55069034,0.59999999,0.55069034,0.59999999,0,0,0,0,0,0.5647472
1647993600000,2022-03-23 00:00:00,NCR/USDT,0.55069034,0.59999999,0.55069034,0.59999999,0,0,0,0,0,0.5647472
1647907200000,2022-03-22 00:00:00,NCR/USDT,0.55069034,0.59999999,0.55069034,0.59999999,0,0,0,0,0,0.5647472
1647820800000,2022-03-21 00:00:00,NCR/USDT,0.55069034,0.59999999,0.55069034,0.59999999,24.48805503,43.36109103,0,0,0,0.5647472
1647734400000,2022-03-20 00:00:00,NCR/USDT,0.59999999,0.59999999,0.55069034,0.55069034,2.65644971,4.60000005,0,0,0,0.57748906
1647648000000,2022-03-19 00:00:00,NCR/USDT,0.4366704,0.59999999,0.4,0.55069034,883.19008546,2203.29987949,0,0,0,0.40084878
1647561600000,2022-03-18 00:00:00,NCR/USDT,0.43459928,0.43459928,0.39994444,0.39994444,6.93477456,16.81342881,0,0,0,0.41245451
1647475200000,2022-03-17 00:00:00,NCR/USDT,0.45452266,0.4626559,0.45048712,0.45048712,3.29999999,7.23949952,0,0,0,0.45583261
1647388800000,2022-03-16 00:00:00,NCR/USDT,0.49000005,0.49000005,0.46666675,0.47185193,4.4,9.25178082,0,0,0,0.47558411
1647302400000,2022-03-15 00:00:00,NCR/USDT,0.4200001,0.4200001,0.4200001,0.4200001,1.32251057,3.14883396,0,0,0,0.4200001
1647216000000,2022-03-14 00:00:00,NCR/USDT,0.40000102,0.40000102,0.40000102,0.40000102,1.43685735,3.59213423,0,0,0,0.40000102
1647129600000,2022-03-13 00:00:00,NCR/USDT,0.699999,0.699999,0.699999,0.699999,0,0,0,0,0,0.699999
1647043200000,2022-03-12 00:00:00,NCR/USDT,0.699999,0.699999,0.699999,0.699999,1,1.42857347,0,0,0,0.699999
1646956800000,2022-03-11 00:00:00,NCR/USDT,0.4980765,0.699999,0.42680324,0.699999,0,0,0,0,0,0.63578466
1646870400000,2022-03-10 00:00:00,NCR/USDT,0.4980765,0.699999,0.42680324,0.699999,0,0,0,0,0,0.63578466
1646784000000,2022-03-09 00:00:00,NCR/USDT,0.4980765,0.699999,0.42680324,0.699999,0,0,0,0,0,0.63578466
1646697600000,2022-03-08 00:00:00,NCR/USDT,0.4980765,0.699999,0.42680324,0.699999,0,0,0,0,0,0.63578466
1646611200000,2022-03-07 00:00:00,NCR/USDT,0.4980765,0.699999,0.42680324,0.699999,34.18157472,53.76281706,0,0,0,0.63578466
1646524800000,2022-03-06 00:00:00,NCR/USDT,0.5,0.7,0.5,0.7,60.19838127,119.76448454,0,0,0,0.50263967
1646438400000,2022-03-05 00:00:00,NCR/USDT,0.7,0.7,0.5,0.5,15.31967106,26.21663151,0,0,0,0.58434933
1646352000000,2022-03-04 00:00:00,NCR/USDT,0.9988,0.9988,0.9988,0.9988,2.9964,3,0,0,0,0.9988
1646265600000,2022-03-03 00:00:00,NCR/USDT,1,1,1,1,3.24794461,3.24794461,0,0,0,1
1646179200000,2022-03-02 00:00:00,NCR/USDT,1,1,1,1,1.1,1.1,0,0,0,1
1646092800000,2022-03-01 00:00:00,NCR/USDT,1,1,1,1,4.4,4.4,0,0,0,1
1646006400000,2022-02-28 00:00:00,NCR/USDT,1,1,1,1,0,0,0,0,0,1
1645920000000,2022-02-27 00:00:00,NCR/USDT,1,1,1,1,0,0,0,0,0,1
1645833600000,2022-02-26 00:00:00,NCR/USDT,1,1,1,1,0,0,0,0,0,1
1645747200000,2022-02-25 00:00:00,NCR/USDT,1,1,1,1,3.84057693,3.84057693,0,0,0,1
1645660800000,2022-02-24 00:00:00,NCR/USDT,1.1500004,1.1500004,1.1500004,1.1500004,0,0,0,0,0,1.1500004
1645574400000,2022-02-23 00:00:00,NCR/USDT,1.1500004,1.1500004,1.1500004,1.1500004,2.37601983,2.06610349,0,0,0,1.1500004
1645488000000,2022-02-22 00:00:00,NCR/USDT,1.1500004,1.1500004,1.100004,1.1500004,25.63305112,23.13636121,0,0,0,1.10791195
1645401600000,2022-02-21 00:00:00,NCR/USDT,2.015,2.015,1.15,1.1500004,50.46209461,41.13868408,0,0,0,1.22663365
1645315200000,2022-02-20 00:00:00,NCR/USDT,2.015,2.015,2.015,2.015,0.71706487,0.35586346,0,0,0,2.015
1645228800000,2022-02-19 00:00:00,NCR/USDT,1.79352435,2.987643,1.79352435,2.987643,0,0,0,0,0,2.03806952
1645142400000,2022-02-18 00:00:00,NCR/USDT,1.79352435,2.987643,1.79352435,2.987643,0,0,0,0,0,2.03806952
1645056000000,2022-02-17 00:00:00,NCR/USDT,1.79352435,2.987643,1.79352435,2.987643,18.81693958,9.23272701,0,0,0,2.03806952
1644969600000,2022-02-16 00:00:00,NCR/USDT,1.55,1.55,1.28479418,1.28479418,0,0,0,0,0,1.36272671
1644883200000,2022-02-15 00:00:00,NCR/USDT,1.55,1.55,1.28479418,1.28479418,1.65224751,1.21245698,0,0,0,1.36272671
1644796800000,2022-02-14 00:00:00,NCR/USDT,1.37499968,1.55,1.34987464,1.55,862.63479824,638.96058323,0,0,0,1.35005948
1644710400000,2022-02-13 00:00:00,NCR/USDT,1.8,1.8,0.45,1.54999999,141.46700788,307.61553083,0,0,0,0.45988252
1644624000000,2022-02-12 00:00:00,NCR/USDT,2.98764298,2.98764298,1.1,2,0,0,0,0,0,1.79647207
1644537600000,2022-02-11 00:00:00,NCR/USDT,2.98764298,2.98764298,1.1,2,104.63537804,58.24492326,0,0,0,1.79647207
1644451200000,2022-02-10 00:00:00,NCR/USDT,1.7,1.7,0.7,1.00000001,1139.8955583,1206.42214308,0,0,0,0.94485629
1644364800000,2022-02-09 00:00:00,NCR/USDT,2.98764299,2.98764299,2.98764299,2.98764299,0,0,0,0,0,2.98764299
1644278400000,2022-02-08 00:00:00,NCR/USDT,2.98764299,2.98764299,2.98764299,2.98764299,1.59122552,0.5326023,0,0,0,2.98764299
1644192000000,2022-02-07 00:00:00,NCR/USDT,1.70000001,2.69203495,1.70000001,2.69203495,6.56027668,2.44269575,0,0,0,2.68567081
1644105600000,2022-02-06 00:00:00,NCR/USDT,1.70000001,1.70000001,1.70000001,1.70000001,1.1,0.64705882,0,0,0,1.70000001
1644019200000,2022-02-05 00:00:00,NCR/USDT,1.70000001,1.70000001,1.70000001,1.70000001,0,0,0,0,0,1.70000001
1643932800000,2022-02-04 00:00:00,NCR/USDT,1.70000001,1.70000001,1.70000001,1.70000001,0,0,0,0,0,1.70000001
1643846400000,2022-02-03 00:00:00,NCR/USDT,1.70000001,1.70000001,1.70000001,1.70000001,15.86598427,9.33293187,0,0,0,1.70000001
1643760000000,2022-02-02 00:00:00,NCR/USDT,1.67128262,1.80117093,1.67128262,1.70000001,0,0,0,0,0,1.67907318
1643673600000,2022-02-01 00:00:00,NCR/USDT,1.67128262,1.80117093,1.67128262,1.70000001,210.03216017,125.088151,0,0,0,1.67907318
1643587200000,2022-01-31 00:00:00,NCR/USDT,1.4030609,1.46640409,1.23975899,1.25621438,0,0,0,0,0,1.32866715
1643500800000,2022-01-30 00:00:00,NCR/USDT,1.4030609,1.46640409,1.23975899,1.25621438,0,0,0,0,0,1.32866715
1643414400000,2022-01-29 00:00:00,NCR/USDT,1.4030609,1.46640409,1.23975899,1.25621438,27.65315932,20.81270641,0,0,0,1.32866715
1643328000000,2022-01-28 00:00:00,NCR/USDT,1.42,1.42,1.42,1.42,12.354,8.7,0,0,0,1.42
1643241600000,2022-01-27 00:00:00,NCR/USDT,1.61890063,1.61890063,1.51000002,1.55,72.02876309,47.21808311,0,0,0,1.52544869
1643155200000,2022-01-26 00:00:00,NCR/USDT,2.24999999,3.17999998,2.20000001,3.17999998,0,0,0,0,0,2.24131272
1643068800000,2022-01-25 00:00:00,NCR/USDT,2.24999999,3.17999998,2.20000001,3.17999998,268.92865335,119.98711749,0,0,0,2.24131272
1642982400000,2022-01-24 00:00:00,NCR/USDT,2.00000001,2.5,2.00000001,2.24999999,721.22356528,296.16298029,0,0,0,2.43522524
1642896000000,2022-01-23 00:00:00,NCR/USDT,2.35499999,3.18,1.5283,2.5,115.88451753,48.354221,0,0,0,2.396575
1642809600000,2022-01-22 00:00:00,NCR/USDT,1.51000002,3.1957216,1.51000002,2.85840907,24.33302157,14.42378561,0,0,0,1.6870066
1642723200000,2022-01-21 00:00:00,NCR/USDT,3.00000001,3.36870966,2,2,481.71134027,207.44697505,0,0,0,2.32209382
1642636800000,2022-01-20 00:00:00,NCR/USDT,3.1,3.49137085,2.91,3.49137085,5711.24029033,1898.53072584,0,0,0,3.00824222
1642550400000,2022-01-19 00:00:00,NCR/USDT,3.1,3.79999995,3.1,3.79999995,186.12641545,50.52645593,0,0,0,3.68374175
1642464000000,2022-01-18 00:00:00,NCR/USDT,3.8,3.8,3.50999995,3.50999995,6.40314327,1.70929424,0,0,0,3.74607433
1642377600000,2022-01-17 00:00:00,NCR/USDT,3.50499995,5.3742682,3.00000002,3.80999994,4182.48929929,1124.37833935,0,0,0,3.71982379
1642291200000,2022-01-16 00:00:00,NCR/USDT,3.33333333,3.33333333,3.33333333,3.33333333,2.27404176,0.68221253,0,0,0,3.33333333
1642204800000,2022-01-15 00:00:00,NCR/USDT,3.30500001,3.67499997,3.30500001,3.33333333,213.83455608,64.52392004,0,0,0,3.31403541
1642118400000,2022-01-14 00:00:00,NCR/USDT,3.15000012,3.9999998,3.15000012,3.30500001,1668.03438519,476.22640848,0,0,0,3.5026079
1642032000000,2022-01-13 00:00:00,NCR/USDT,3.30000001,3.99999903,3.19500001,3.99999903,209.08730194,64.14364675,0,0,0,3.25967282
1641945600000,2022-01-12 00:00:00,NCR/USDT,3.14999999,4.186493,3.0000011,4.186493,97.26159718,30.65965786,0,0,0,3.17229884
1641859200000,2022-01-11 00:00:00,NCR/USDT,3.5,3.84,3.00000011,3.84,40.4406689,12.00165765,0,0,0,3.36959027
1641772800000,2022-01-10 00:00:00,NCR/USDT,3.14999999,5.19999999,2.6030001,3.79999995,4107.13284795,1269.35319921,0,0,0,3.23561074
1641686400000,2022-01-09 00:00:00,NCR/USDT,3.5,4.49999969,2.7,3.49999999,665.79888723,224.18803119,0,0,0,2.96982351
1641600000000,2022-01-08 00:00:00,NCR/USDT,4.19999991,4.19999991,3.18949308,3.5,156.7428235,41.26835784,0,0,0,3.7981357
1641513600000,2022-01-07 00:00:00,NCR/USDT,2.80000001,4.55131995,2.8,4.19999998,1068.75284733,310.4277462,0,0,0,3.4428393
1641427200000,2022-01-06 00:00:00,NCR/USDT,4,4,2,3.97999999,4325.39247115,1555.07277848,0,0,0,2.78147269
1641340800000,2022-01-05 00:00:00,NCR/USDT,4.04786693,4.55131994,3.31567304,4.5,7691.83774349,1916.72303057,0,0,0,4.01301472
1641254400000,2022-01-04 00:00:00,NCR/USDT,4.30000002,5.06499994,4,4,563.69911453,138.11152538,0,0,0,4.08147772
1641168000000,2022-01-03 00:00:00,NCR/USDT,4.99999999,5.19999999,4.99999999,5.19999999,603.65491182,120.5883038,0,0,0,5.00591593
1641081600000,2022-01-02 00:00:00,NCR/USDT,5.19999999,5.19999999,4.00000001,4.00000001,205.17571045,45.74978853,0,0,0,4.48473571
1640995200000,2022-01-01 00:00:00,NCR/USDT,5.28148841,5.28148841,4.95,5.2,16.19310849,3.23771389,0,0,0,5.00140192
1640908800000,2021-12-31 00:00:00,NCR/USDT,5.5,5.5,5.26238084,5.3742683,797.89714707,145.69081262,0,0,0,5.47664696
1640822400000,2021-12-30 00:00:00,NCR/USDT,28.00278299,28.00278299,4.8,6.23110088,778.77906492,126.56777599,0,0,0,6.15305956
