https://www.CryptoDataDownload.com
unix,date,symbol,open,high,low,close,Volume WLKN,Volume USDT,buyTakerAmount,buyTakerQuantity,tradeCount,weightedAverage
1694995200000,2023-09-18 00:00:00,WLKN/USDT,0.00739,0.00739,0.00739,0.00739,7.7595,1050,7.7595,1050,1,0.00739
1694908800000,2023-09-17 00:00:00,WLKN/USDT,0.00628,0.00739,0.00628,0.00739,3.5212,490,3.45911,481.599,3,0.00721
1694822400000,2023-09-16 00:00:00,WLKN/USDT,0.0074,0.0074,0.00707,0.00707,9.35184,1280.348,0,0,4,0.0073
1694736000000,2023-09-15 00:00:00,WLKN/USDT,0.0074,0.0074,0.0074,0.0074,0.04058,5.484,0,0,1,0.0074
1694649600000,2023-09-14 00:00:00,WLKN/USDT,0.00764,0.00764,0.00764,0.00764,0,0,0,0,0,0.00763
1694563200000,2023-09-13 00:00:00,WLKN/USDT,0.00764,0.00764,0.00764,0.00764,0,0,0,0,0,0.00763
1694476800000,2023-09-12 00:00:00,WLKN/USDT,0.0074,0.00767,0.0074,0.00764,75.22388,9853.919,72.9487,9546.463,4,0.00763
1694390400000,2023-09-11 00:00:00,WLKN/USDT,0.0074,0.0074,0.0074,0.0074,0,0,0,0,0,0.0074
1694304000000,2023-09-10 00:00:00,WLKN/USDT,0.0074,0.0074,0.0074,0.0074,2.45782,332.138,0,0,2,0.0074
1694217600000,2023-09-09 00:00:00,WLKN/USDT,0.0074,0.0074,0.0074,0.0074,0,0,0,0,0,0.0074
1694131200000,2023-09-08 00:00:00,WLKN/USDT,0.0074,0.0074,0.0074,0.0074,0,0,0,0,0,0.0074
1694044800000,2023-09-07 00:00:00,WLKN/USDT,0.0074,0.0074,0.0074,0.0074,0,0,0,0,0,0.0074
1693958400000,2023-09-06 00:00:00,WLKN/USDT,0.0074,0.0074,0.0074,0.0074,0,0,0,0,0,0.0074
1693872000000,2023-09-05 00:00:00,WLKN/USDT,0.0074,0.0074,0.0074,0.0074,0,0,0,0,0,0.0074
1693785600000,2023-09-04 00:00:00,WLKN/USDT,0.0074,0.0074,0.0074,0.0074,0.0181,2.446,0,0,1,0.0074
1693699200000,2023-09-03 00:00:00,WLKN/USDT,0.00724,0.0083,0.00724,0.0083,2.10289,258.495,1.82419,220,3,0.00815
1693612800000,2023-09-02 00:00:00,WLKN/USDT,0.00832,0.00832,0.00724,0.00724,1.4582,196.935,0.2496,30,2,0.00742
1693526400000,2023-09-01 00:00:00,WLKN/USDT,0.008,0.008,0.008,0.008,0,0,0,0,0,0.008
1693440000000,2023-08-31 00:00:00,WLKN/USDT,0.008,0.008,0.008,0.008,21.32047,2665.059,0,0,1,0.008
1693353600000,2023-08-30 00:00:00,WLKN/USDT,0.00869,0.00969,0.00708,0.0076,27.77219,3524.119,3.41821,355.491,8,0.00793
1693267200000,2023-08-29 00:00:00,WLKN/USDT,0.00839,0.00869,0.00823,0.00869,13.82197,1600.379,13.82197,1600.379,4,0.00863
1693180800000,2023-08-28 00:00:00,WLKN/USDT,0.00868,0.00868,0.00868,0.00868,0,0,0,0,0,0.00793
1693094400000,2023-08-27 00:00:00,WLKN/USDT,0.00701,0.00868,0.00701,0.00868,1.8075,230.401,0.99999,115.207,2,0.00793
1693008000000,2023-08-26 00:00:00,WLKN/USDT,0.00689,0.00689,0.00689,0.00689,4.43433,643.59,0,0,1,0.00689
1692921600000,2023-08-25 00:00:00,WLKN/USDT,0.00799,0.00799,0.0078,0.0078,22.76044,2902.763,0,0,2,0.00784
1692835200000,2023-08-24 00:00:00,WLKN/USDT,0.00764,0.00799,0.00764,0.00799,57.99722,7278.674,56.36785,7074.748,9,0.00796
1692748800000,2023-08-23 00:00:00,WLKN/USDT,0.00773,0.00773,0.0075,0.0075,3.52414,461.136,2.22265,287.604,4,0.00764
1692662400000,2023-08-22 00:00:00,WLKN/USDT,0.007,0.00798,0.00655,0.00655,7.84495,1108.276,1.49618,187.492,5,0.0071
1692576000000,2023-08-21 00:00:00,WLKN/USDT,0.00631,0.00631,0.0063,0.0063,83.49863,13236.969,0,0,2,0.0063
1692489600000,2023-08-20 00:00:00,WLKN/USDT,0.00673,0.00673,0.00673,0.00673,0.1071,15.915,0,0,1,0.00673
1692403200000,2023-08-19 00:00:00,WLKN/USDT,0.00779,0.0078,0.00657,0.00657,116.98892,15019.517,116.98892,15019.517,3,0.00778
1692316800000,2023-08-18 00:00:00,WLKN/USDT,0.007,0.007,0.00645,0.00645,0.79647,116.139,0.1935,30,2,0.00686
1692230400000,2023-08-17 00:00:00,WLKN/USDT,0.00581,0.007,0.00581,0.007,12.02637,2058.326,0.39704,56.72,2,0.00584
1692144000000,2023-08-16 00:00:00,WLKN/USDT,0.0064,0.00779,0.00519,0.00779,60.5551,8776.016,30.1649,3987.076,9,0.00697
1692057600000,2023-08-15 00:00:00,WLKN/USDT,0.008,0.008,0.006,0.006,17.74777,2843.079,0,0,5,0.00629
1691971200000,2023-08-14 00:00:00,WLKN/USDT,0.00801,0.00801,0.00801,0.00801,1.49592,186.757,0,0,1,0.00801
1691884800000,2023-08-13 00:00:00,WLKN/USDT,0.00802,0.00893,0.00747,0.00747,8.39561,961.479,7.63907,860.202,4,0.00875
1691798400000,2023-08-12 00:00:00,WLKN/USDT,0.00763,0.00763,0.00763,0.00763,4.578,600,0,0,1,0.00763
1691712000000,2023-08-11 00:00:00,WLKN/USDT,0.00719,0.00893,0.00657,0.00752,272.89845,36179.164,212.2114,27488.649,20,0.0076
1691625600000,2023-08-10 00:00:00,WLKN/USDT,0.00821,0.00897,0.0075,0.0085,1857.58447,219232.84,787.16137,95065.177,56,0.00849
1691539200000,2023-08-09 00:00:00,WLKN/USDT,0.0075,0.05576,0.0075,0.00758,14427.52232,624117.525,6638.81041,217819.692,561,0.03588
1691452800000,2023-08-08 00:00:00,WLKN/USDT,0.00831,0.0084,0.0075,0.0075,10.19294,1226.187,10.00945,1201.721,3,0.00831
1691366400000,2023-08-07 00:00:00,WLKN/USDT,0.00831,0.00831,0.00831,0.00831,1.59999,192.539,1.59999,192.539,1,0.00831
1691280000000,2023-08-06 00:00:00,WLKN/USDT,0.00706,0.00949,0.00706,0.0084,8.59659,950.67,5.61643,591.827,4,0.00908
1691193600000,2023-08-05 00:00:00,WLKN/USDT,0.00702,0.00702,0.00702,0.00702,0,0,0,0,0,0.00691
1691107200000,2023-08-04 00:00:00,WLKN/USDT,0.00702,0.00702,0.00702,0.00702,0,0,0,0,0,0.00691
1691020800000,2023-08-03 00:00:00,WLKN/USDT,0.00702,0.00702,0.00702,0.00702,0,0,0,0,0,0.00691
1690934400000,2023-08-02 00:00:00,WLKN/USDT,0.00775,0.00775,0.00607,0.00702,7.09469,1026.266,4.15727,597.445,7,0.00691
1690848000000,2023-08-01 00:00:00,WLKN/USDT,0.00847,0.00847,0.006,0.00775,37.6678,5424.888,12.96462,1680.875,11,0.00705
1690761600000,2023-07-31 00:00:00,WLKN/USDT,0.00957,0.00957,0.00847,0.00847,2.65266,299.613,0.99999,104.493,2,0.00888
1690675200000,2023-07-30 00:00:00,WLKN/USDT,0.0083,0.00957,0.0083,0.00957,1.49549,165.538,1.49549,165.538,7,0.00906
1690588800000,2023-07-29 00:00:00,WLKN/USDT,0.00849,0.0085,0.00775,0.00775,54.60313,6435.448,28.62825,3371.969,4,0.00848
1690502400000,2023-07-28 00:00:00,WLKN/USDT,0.00789,0.00789,0.00775,0.00775,0.64961,83.28,0,0,2,0.0078
1690416000000,2023-07-27 00:00:00,WLKN/USDT,0.00835,0.00835,0.00803,0.00803,5.55079,683.86,0,0,2,0.00811
1690329600000,2023-07-26 00:00:00,WLKN/USDT,0.00823,0.00953,0.00821,0.00953,2.48522,283.483,1.09999,115.424,4,0.00881
1690243200000,2023-07-25 00:00:00,WLKN/USDT,0.00785,0.00785,0.00785,0.00785,1.92604,245.356,0,0,1,0.00785
1690156800000,2023-07-24 00:00:00,WLKN/USDT,0.00833,0.00833,0.00775,0.00818,0.7469,92.429,0.2454,30,3,0.00808
1690070400000,2023-07-23 00:00:00,WLKN/USDT,0.00739,0.00993,0.00739,0.00775,21.23484,2740.436,2.12042,213.537,3,0.0078
1689984000000,2023-07-22 00:00:00,WLKN/USDT,0.0085,0.00994,0.008,0.00916,166.8176,18995.22,121.52926,13345.29,10,0.00881
1689897600000,2023-07-21 00:00:00,WLKN/USDT,0.0085,0.0085,0.0085,0.0085,0.62925,74.03,0,0,2,0.0085
1689811200000,2023-07-20 00:00:00,WLKN/USDT,0.01,0.01,0.00993,0.00993,22.54343,2266.456,17.18297,1730.41,6,0.00994
1689724800000,2023-07-19 00:00:00,WLKN/USDT,0.01267,0.02198,0.01,0.01,132.38867,10705.116,25.86387,1960.317,37,0.0125
1689638400000,2023-07-18 00:00:00,WLKN/USDT,0.0176,0.0332,0.01006,0.01051,57.0756,2814.892,38.13152,1757.943,31,0.02196
1689552000000,2023-07-17 00:00:00,WLKN/USDT,0.0147,0.01989,0.012,0.0176,95.83175,7156.475,87.50886,6563.81,12,0.01348
1689465600000,2023-07-16 00:00:00,WLKN/USDT,0.01259,0.01259,0.01259,0.01259,0,0,0,0,0,0.015
1689379200000,2023-07-15 00:00:00,WLKN/USDT,0.01796,0.02499,0.01004,0.01259,673.26293,46898.37,315.49431,20658.369,74,0.015
1689292800000,2023-07-14 00:00:00,WLKN/USDT,0.01198,0.01198,0.01198,0.01198,0,0,0,0,0,0.01455
1689206400000,2023-07-13 00:00:00,WLKN/USDT,0.01964,0.01964,0.01148,0.01198,103.10497,7371.894,43.66125,2431.879,7,0.01455
1689120000000,2023-07-12 00:00:00,WLKN/USDT,0.01964,0.01964,0.01964,0.01964,1.6694,85,0,0,1,0.01964
1689033600000,2023-07-11 00:00:00,WLKN/USDT,0.01965,0.0203,0.01965,0.0203,8.32184,416.888,8.32184,416.888,3,0.01996
1688947200000,2023-07-10 00:00:00,WLKN/USDT,0.01964,0.01964,0.01964,0.01964,0.79738,40.6,0,0,1,0.01964
1688860800000,2023-07-09 00:00:00,WLKN/USDT,0.01997,0.0203,0.01964,0.01964,5.4059,267.477,4.99009,246.305,3,0.02021
1688774400000,2023-07-08 00:00:00,WLKN/USDT,0.0203,0.0203,0.0203,0.0203,0,0,0,0,0,0.02049
1688688000000,2023-07-07 00:00:00,WLKN/USDT,0.0203,0.0203,0.0203,0.0203,0,0,0,0,0,0.02049
1688601600000,2023-07-06 00:00:00,WLKN/USDT,0.0203,0.0203,0.0203,0.0203,0,0,0,0,0,0.02049
1688515200000,2023-07-05 00:00:00,WLKN/USDT,0.0203,0.0203,0.0203,0.0203,0,0,0,0,0,0.02049
1688428800000,2023-07-04 00:00:00,WLKN/USDT,0.0203,0.0203,0.0203,0.0203,0,0,0,0,0,0.02049
1688342400000,2023-07-03 00:00:00,WLKN/USDT,0.0203,0.0203,0.0203,0.0203,0,0,0,0,0,0.02049
1688256000000,2023-07-02 00:00:00,WLKN/USDT,0.02128,0.02128,0.0203,0.0203,2.69519,131.582,0,0,2,0.02049
1688169600000,2023-07-01 00:00:00,WLKN/USDT,0.02219,0.02219,0.02219,0.02219,0,0,0,0,0,0.02219
1688083200000,2023-06-30 00:00:00,WLKN/USDT,0.02219,0.02219,0.02219,0.02219,0.42999,19.378,0.42999,19.378,1,0.02219
1687996800000,2023-06-29 00:00:00,WLKN/USDT,0.02128,0.02128,0.02128,0.02128,0.29919,14.06,0,0,1,0.02128
1687910400000,2023-06-28 00:00:00,WLKN/USDT,0.02321,0.02321,0.02054,0.02128,32.60954,1532.104,5.60608,259.842,22,0.02128
1687824000000,2023-06-27 00:00:00,WLKN/USDT,0.021,0.021,0.021,0.021,1.93893,92.33,0.33421,15.915,3,0.021
1687737600000,2023-06-26 00:00:00,WLKN/USDT,0.022,0.022,0.022,0.022,5.29113,240.506,2.79114,126.87,3,0.022
1687651200000,2023-06-25 00:00:00,WLKN/USDT,0.02302,0.02302,0.022,0.022,28.65683,1268.636,0.00832,0.376,8,0.02259
1687564800000,2023-06-24 00:00:00,WLKN/USDT,0.02559,0.02574,0.02302,0.02302,8.56986,339.254,0.01072,0.419,4,0.02529
1687478400000,2023-06-23 00:00:00,WLKN/USDT,0.02575,0.02575,0.02574,0.02574,5.2302,203.141,0,0,2,0.02574
1687392000000,2023-06-22 00:00:00,WLKN/USDT,0.02909,0.02909,0.02909,0.02909,0,0,0,0,0,0.02903
1687305600000,2023-06-21 00:00:00,WLKN/USDT,0.02631,0.02909,0.02631,0.02909,1.77255,61.054,1.77255,61.054,2,0.02903
1687219200000,2023-06-20 00:00:00,WLKN/USDT,0.02351,0.02351,0.02351,0.02351,0.50546,21.5,0,0,1,0.02351
1687132800000,2023-06-19 00:00:00,WLKN/USDT,0.02699,0.02699,0.0235,0.0235,17.7062,661.485,0,0,2,0.02679
1687046400000,2023-06-18 00:00:00,WLKN/USDT,0.02692,0.02699,0.02692,0.02699,5.94805,220.801,5.94805,220.801,4,0.02693
1686960000000,2023-06-17 00:00:00,WLKN/USDT,0.02303,0.02303,0.02303,0.02303,0,0,0,0,0,0.02303
1686873600000,2023-06-16 00:00:00,WLKN/USDT,0.02303,0.02303,0.02303,0.02303,0,0,0,0,0,0.02303
1686787200000,2023-06-15 00:00:00,WLKN/USDT,0.02303,0.02303,0.02303,0.02303,2.25601,97.96,0,0,1,0.02303
1686700800000,2023-06-14 00:00:00,WLKN/USDT,0.02693,0.02693,0.02693,0.02693,0,0,0,0,0,0.02536
1686614400000,2023-06-13 00:00:00,WLKN/USDT,0.02693,0.02693,0.02693,0.02693,0,0,0,0,0,0.02536
1686528000000,2023-06-12 00:00:00,WLKN/USDT,0.02351,0.02693,0.02351,0.02693,7.89991,312.84,7.89991,312.84,3,0.02536
1686441600000,2023-06-11 00:00:00,WLKN/USDT,0.023,0.023,0.023,0.023,0,0,0,0,0,0.02487
1686355200000,2023-06-10 00:00:00,WLKN/USDT,0.02514,0.02514,0.023,0.023,18.07334,727.24,0,0,5,0.02487
1686268800000,2023-06-09 00:00:00,WLKN/USDT,0.0279,0.0279,0.0279,0.0279,1.09811,39.359,1.09811,39.359,1,0.0279
1686182400000,2023-06-08 00:00:00,WLKN/USDT,0.03007,0.03008,0.028,0.028,10.90777,376.412,5.0799,168.888,6,0.02901
1686096000000,2023-06-07 00:00:00,WLKN/USDT,0.02816,0.03009,0.02816,0.03009,1.36323,45.677,1.19998,39.88,2,0.02985
1686009600000,2023-06-06 00:00:00,WLKN/USDT,0.03592,0.03592,0.03179,0.03179,8.47642,242.869,6.57185,182.958,2,0.03499
1685923200000,2023-06-05 00:00:00,WLKN/USDT,0.03042,0.03042,0.03042,0.03042,0,0,0,0,0,0.02905
1685836800000,2023-06-04 00:00:00,WLKN/USDT,0.0305,0.03182,0.02816,0.03042,17.78005,612.774,4.48757,147.274,7,0.02905
1685750400000,2023-06-03 00:00:00,WLKN/USDT,0.02551,0.03928,0.02302,0.03182,18.83495,599.627,14.47004,444.103,8,0.03185
1685664000000,2023-06-02 00:00:00,WLKN/USDT,0.02315,0.02766,0.02315,0.02766,3.56209,140.195,1.94159,70.195,4,0.0256
1685577600000,2023-06-01 00:00:00,WLKN/USDT,0.0235,0.02765,0.0235,0.02765,5.18899,213.783,1.09999,39.783,3,0.02437
1685491200000,2023-05-31 00:00:00,WLKN/USDT,0.02765,0.02765,0.0239,0.0239,2.01408,72.922,1.99997,72.332,2,0.02762
1685404800000,2023-05-30 00:00:00,WLKN/USDT,0.023,0.023,0.023,0.023,0,0,0,0,0,0.023
1685318400000,2023-05-29 00:00:00,WLKN/USDT,0.023,0.023,0.023,0.023,4.06775,176.859,0,0,1,0.023
1685232000000,2023-05-28 00:00:00,WLKN/USDT,0.02765,0.02765,0.02765,0.02765,0,0,0,0,0,0.0248
1685145600000,2023-05-27 00:00:00,WLKN/USDT,0.02765,0.02766,0.0203,0.02765,43.12901,1761.001,21.03004,760.61,9,0.0248
1685059200000,2023-05-26 00:00:00,WLKN/USDT,0.022,0.022,0.022,0.022,0,0,0,0,0,0.03354
1684972800000,2023-05-25 00:00:00,WLKN/USDT,0.022,0.022,0.022,0.022,0,0,0,0,0,0.03354
1684886400000,2023-05-24 00:00:00,WLKN/USDT,0.02396,0.04475,0.022,0.022,52.08024,1698.948,31.568,847.887,18,0.03354
1684800000000,2023-05-23 00:00:00,WLKN/USDT,0.02899,0.029,0.02001,0.02396,535.60451,22468.442,242.66168,9195.966,30,0.0242
1684713600000,2023-05-22 00:00:00,WLKN/USDT,0.02503,0.02503,0.02503,0.02503,2.00002,79.905,0,0,1,0.02503
1684627200000,2023-05-21 00:00:00,WLKN/USDT,0.02467,0.02467,0.02467,0.02467,0,0,0,0,0,0.02777
1684540800000,2023-05-20 00:00:00,WLKN/USDT,0.03,0.03,0.02467,0.02467,12.81968,465.564,1.13484,43.749,5,0.02777
1684454400000,2023-05-19 00:00:00,WLKN/USDT,0.03189,0.04473,0.03,0.03,149.56703,4000.844,14.63507,378.293,8,0.0379
1684368000000,2023-05-18 00:00:00,WLKN/USDT,0.03188,0.03188,0.0239,0.0239,31.46741,1001.144,0.36993,11.604,4,0.03153
1684281600000,2023-05-17 00:00:00,WLKN/USDT,0.02502,0.03187,0.02375,0.0239,7.18566,270.291,2.39378,75.221,6,0.02699
1684195200000,2023-05-16 00:00:00,WLKN/USDT,0.025,0.025,0.025,0.025,2.5003,100.012,0,0,1,0.025
1684108800000,2023-05-15 00:00:00,WLKN/USDT,0.03041,0.0394,0.025,0.025,48.01012,1542.493,27.44098,826.791,18,0.03152
1684022400000,2023-05-14 00:00:00,WLKN/USDT,0.02952,0.03041,0.02952,0.03,5.2849,175.74,1.8127,60,3,0.03007
1683936000000,2023-05-13 00:00:00,WLKN/USDT,0.03226,0.03226,0.02501,0.02952,6.78732,233.639,2.952,100,4,0.02925
1683849600000,2023-05-12 00:00:00,WLKN/USDT,0.03645,0.03645,0.03226,0.03305,60.3208,1711.164,8.73547,253.914,8,0.03531
1683763200000,2023-05-11 00:00:00,WLKN/USDT,0.03039,0.03039,0.03003,0.03003,6.05071,201.02,0,0,2,0.0301
1683676800000,2023-05-10 00:00:00,WLKN/USDT,0.0373,0.0373,0.0373,0.0373,0,0,0,0,0,0.03508
1683590400000,2023-05-09 00:00:00,WLKN/USDT,0.03193,0.0373,0.03193,0.0373,0.0348,0.998,0.0348,0.998,2,0.03508
1683504000000,2023-05-08 00:00:00,WLKN/USDT,0.0325,0.0325,0.03215,0.03215,46.53824,1434.36,0,0,3,0.03244
1683417600000,2023-05-07 00:00:00,WLKN/USDT,0.03215,0.03215,0.03215,0.03215,0,0,0,0,0,0.03558
1683331200000,2023-05-06 00:00:00,WLKN/USDT,0.037,0.037,0.03215,0.03215,36.2127,1019.113,0,0,8,0.03558
1683244800000,2023-05-05 00:00:00,WLKN/USDT,0.037,0.037,0.03677,0.03677,10.02021,270.82,0.02022,0.55,2,0.03699
1683158400000,2023-05-04 00:00:00,WLKN/USDT,0.0375,0.0375,0.0375,0.0375,19.99995,533.332,0,0,3,0.0375
1683072000000,2023-05-03 00:00:00,WLKN/USDT,0.038,0.038,0.03775,0.03775,10.02008,263.69,0.02012,0.533,2,0.03799
1682985600000,2023-05-02 00:00:00,WLKN/USDT,0.03701,0.03701,0.037,0.037,11.89641,321.51,0,0,2,0.037
1682899200000,2023-05-01 00:00:00,WLKN/USDT,0.03999,0.03999,0.039,0.039,1.2113,30.399,1.03974,26,3,0.03984
1682812800000,2023-04-30 00:00:00,WLKN/USDT,0.03999,0.03999,0.03611,0.03611,9.73625,262.7,1.03974,26,6,0.03711
1682726400000,2023-04-29 00:00:00,WLKN/USDT,0.03611,0.03611,0.03611,0.03611,0,0,0,0,0,0.03747
1682640000000,2023-04-28 00:00:00,WLKN/USDT,0.03982,0.03982,0.03611,0.03611,11.73181,313.708,0,0,8,0.03747
1682553600000,2023-04-27 00:00:00,WLKN/USDT,0.04103,0.04103,0.041,0.041,63.42127,1546.67,0,0,3,0.041
1682467200000,2023-04-26 00:00:00,WLKN/USDT,0.045,0.045,0.042,0.042,72.95892,1694.966,22.92207,545.743,7,0.04309
1682380800000,2023-04-25 00:00:00,WLKN/USDT,0.0405,0.0449,0.04001,0.0449,34.56846,790.65,30.08753,682.865,7,0.0438
1682294400000,2023-04-24 00:00:00,WLKN/USDT,0.03982,0.04182,0.03982,0.0405,115.69893,2842.486,23.6162,583.419,15,0.04071
1682208000000,2023-04-23 00:00:00,WLKN/USDT,0.041,0.041,0.041,0.041,19.99324,487.64,0,0,1,0.041
1682121600000,2023-04-22 00:00:00,WLKN/USDT,0.041,0.041,0.0404,0.04087,20.00659,487.969,0.0145,0.357,4,0.04099
1682035200000,2023-04-21 00:00:00,WLKN/USDT,0.042,0.042,0.042,0.042,7.05402,167.953,0,0,1,0.042
1681948800000,2023-04-20 00:00:00,WLKN/USDT,0.043,0.043,0.042,0.042,12.94595,302.7,0,0,2,0.04277
1681862400000,2023-04-19 00:00:00,WLKN/USDT,0.045,0.045,0.045,0.045,0,0,0,0,0,0.045
1681776000000,2023-04-18 00:00:00,WLKN/USDT,0.045,0.045,0.045,0.045,8.55,190,8.55,190,1,0.045
1681689600000,2023-04-17 00:00:00,WLKN/USDT,0.04436,0.045,0.04436,0.045,11.06434,246.222,1.08473,24.453,5,0.04493
1681603200000,2023-04-16 00:00:00,WLKN/USDT,0.045,0.04654,0.0351,0.04499,79.44442,1838.311,16.03603,362.559,15,0.04351
1681516800000,2023-04-15 00:00:00,WLKN/USDT,0.0462,0.04654,0.0462,0.04654,62.27764,1348,62.27764,1348,3,0.0462
1681430400000,2023-04-14 00:00:00,WLKN/USDT,0.04504,0.0462,0.04445,0.0462,167.32459,3706.07,121.12659,2701.671,8,0.04516
1681344000000,2023-04-13 00:00:00,WLKN/USDT,0.04046,0.048,0.03604,0.03607,105.53454,2764.638,9.55664,244.216,14,0.03852
1681257600000,2023-04-12 00:00:00,WLKN/USDT,0.04627,0.08,0.04045,0.04045,48.98227,863.56,34.55321,584.387,17,0.05919
1681171200000,2023-04-11 00:00:00,WLKN/USDT,0.058,0.06,0.048,0.048,25.60657,476.442,12.08593,202.948,6,0.05427
1681084800000,2023-04-10 00:00:00,WLKN/USDT,0.042,0.04999,0.042,0.04999,33.56049,748.866,33.56049,748.866,6,0.04506
1680998400000,2023-04-09 00:00:00,WLKN/USDT,0.04499,0.04499,0.04499,0.04499,0,0,0,0,0,0.04418
1680912000000,2023-04-08 00:00:00,WLKN/USDT,0.04199,0.04499,0.04199,0.04499,18.6541,422.568,12.76433,291.655,3,0.04418
1680825600000,2023-04-07 00:00:00,WLKN/USDT,0.03948,0.04499,0.03902,0.04499,34.439,811.179,31.57125,738.541,7,0.04258
1680739200000,2023-04-06 00:00:00,WLKN/USDT,0.04498,0.04498,0.03507,0.04461,87.05634,2064.95,75.34613,1743.44,11,0.04234
1680652800000,2023-04-05 00:00:00,WLKN/USDT,0.03998,0.04498,0.03998,0.04498,46.45396,1093.241,46.45396,1093.241,10,0.04257
1680566400000,2023-04-04 00:00:00,WLKN/USDT,0.03505,0.03505,0.03505,0.03505,0,0,0,0,0,0.03505
1680480000000,2023-04-03 00:00:00,WLKN/USDT,0.03505,0.03505,0.03505,0.03505,0,0,0,0,0,0.03505
1680393600000,2023-04-02 00:00:00,WLKN/USDT,0.03505,0.03505,0.03505,0.03505,0,0,0,0,0,0.03505
1680307200000,2023-04-01 00:00:00,WLKN/USDT,0.03505,0.03505,0.03505,0.03505,0,0,0,0,0,0.03505
1680220800000,2023-03-31 00:00:00,WLKN/USDT,0.03505,0.03505,0.03505,0.03505,0,0,0,0,0,0.03505
1680134400000,2023-03-30 00:00:00,WLKN/USDT,0.03506,0.03506,0.03505,0.03505,4.37471,124.781,0,0,2,0.03505
1680048000000,2023-03-29 00:00:00,WLKN/USDT,0.03503,0.03503,0.03503,0.03503,0,0,0,0,0,0.03767
1679961600000,2023-03-28 00:00:00,WLKN/USDT,0.03503,0.03503,0.03503,0.03503,0,0,0,0,0,0.03767
1679875200000,2023-03-27 00:00:00,WLKN/USDT,0.03998,0.03999,0.03503,0.03503,10.2711,273.793,5.47939,137.034,4,0.03767
1679788800000,2023-03-26 00:00:00,WLKN/USDT,0.03504,0.03504,0.03504,0.03504,0,0,0,0,0,0.03504
1679702400000,2023-03-25 00:00:00,WLKN/USDT,0.03504,0.03504,0.03504,0.03504,0,0,0,0,0,0.03504
1679616000000,2023-03-24 00:00:00,WLKN/USDT,0.03505,0.03505,0.03504,0.03504,8.53136,243.458,0,0,2,0.03504
1679529600000,2023-03-23 00:00:00,WLKN/USDT,0.03998,0.04031,0.03998,0.03999,12.80931,319.849,12.80931,319.849,5,0.04004
1679443200000,2023-03-22 00:00:00,WLKN/USDT,0.03601,0.03601,0.03601,0.03601,1.92178,53.368,0,0,1,0.03601
1679356800000,2023-03-21 00:00:00,WLKN/USDT,0.03998,0.03999,0.03998,0.03999,4.99993,125.032,4.99993,125.032,2,0.03998
1679270400000,2023-03-20 00:00:00,WLKN/USDT,0.036,0.036,0.03504,0.03504,13.88117,394.04,0,0,3,0.03523
1679184000000,2023-03-19 00:00:00,WLKN/USDT,0.03999,0.03999,0.03999,0.03999,5.04277,126.101,5.04277,126.101,1,0.03999
1679097600000,2023-03-18 00:00:00,WLKN/USDT,0.036,0.036,0.036,0.036,0,0,0,0,0,0.03922
1679011200000,2023-03-17 00:00:00,WLKN/USDT,0.036,0.036,0.036,0.036,0,0,0,0,0,0.03922
1678924800000,2023-03-16 00:00:00,WLKN/USDT,0.04198,0.04451,0.03512,0.036,135.98253,3490.689,59.33132,1396.942,13,0.03922
1678838400000,2023-03-15 00:00:00,WLKN/USDT,0.0401,0.0401,0.0401,0.0401,0,0,0,0,0,0.0429
1678752000000,2023-03-14 00:00:00,WLKN/USDT,0.0401,0.0401,0.0401,0.0401,0,0,0,0,0,0.0429
1678665600000,2023-03-13 00:00:00,WLKN/USDT,0.0401,0.0401,0.0401,0.0401,0,0,0,0,0,0.0429
1678579200000,2023-03-12 00:00:00,WLKN/USDT,0.0401,0.0401,0.0401,0.0401,0,0,0,0,0,0.0429
1678492800000,2023-03-11 00:00:00,WLKN/USDT,0.0435,0.0435,0.0401,0.0401,12.56861,293.204,0,0,3,0.0429
1678406400000,2023-03-10 00:00:00,WLKN/USDT,0.04498,0.04498,0.04498,0.04498,8.996,200,2.16812,48.202,2,0.04498
1678320000000,2023-03-09 00:00:00,WLKN/USDT,0.04556,0.04556,0.0435,0.0435,81.83533,1839.92,19.99997,438.981,3,0.04449
1678233600000,2023-03-08 00:00:00,WLKN/USDT,0.046,0.046,0.046,0.046,7.16744,155.814,0,0,1,0.046
1678147200000,2023-03-07 00:00:00,WLKN/USDT,0.046,0.046,0.046,0.046,0,0,0,0,0,0.04666
1678060800000,2023-03-06 00:00:00,WLKN/USDT,0.047,0.047,0.046,0.046,8.52687,182.733,0,0,2,0.04666
1677974400000,2023-03-05 00:00:00,WLKN/USDT,0.05296,0.05296,0.047,0.047,1.88603,37.734,0.99999,18.882,2,0.05016
1677888000000,2023-03-04 00:00:00,WLKN/USDT,0.05497,0.05497,0.047,0.047,2.72831,54.656,1.09994,20.01,2,0.05021
1677801600000,2023-03-03 00:00:00,WLKN/USDT,0.047,0.047,0.047,0.047,0,0,0,0,0,0.05146
1677715200000,2023-03-02 00:00:00,WLKN/USDT,0.047,0.047,0.047,0.047,0,0,0,0,0,0.05146
1677628800000,2023-03-01 00:00:00,WLKN/USDT,0.05896,0.05896,0.047,0.047,8.96183,175.881,2.99994,50.881,3,0.05146
1677542400000,2023-02-28 00:00:00,WLKN/USDT,0.04801,0.05898,0.048,0.05896,13.10917,257.585,3.99993,67.83,8,0.05135
1677456000000,2023-02-27 00:00:00,WLKN/USDT,0.05394,0.1,0.04384,0.05,461.28154,6574.039,224.00211,2799.299,38,0.07334
1677369600000,2023-02-26 00:00:00,WLKN/USDT,0.05399,0.05399,0.05399,0.05399,0,0,0,0,0,0.05399
1677283200000,2023-02-25 00:00:00,WLKN/USDT,0.05399,0.05399,0.05399,0.05399,0,0,0,0,0,0.05399
1677196800000,2023-02-24 00:00:00,WLKN/USDT,0.05399,0.05399,0.05399,0.05399,29.99992,555.657,29.99992,555.657,3,0.05399
1677110400000,2023-02-23 00:00:00,WLKN/USDT,0.05162,0.05175,0.05117,0.0512,31.75797,616.519,31.75797,616.519,5,0.05151
1677024000000,2023-02-22 00:00:00,WLKN/USDT,0.048,0.04893,0.04301,0.04301,29.28404,603.768,19.97141,408.163,3,0.04852
1676937600000,2023-02-21 00:00:00,WLKN/USDT,0.05499,0.15,0.048,0.06,773.35613,11918.658,327.47713,5355.201,149,0.06876
1676851200000,2023-02-20 00:00:00,WLKN/USDT,0.05175,0.05175,0.05175,0.05175,0,0,0,0,0,0.05174
1676764800000,2023-02-19 00:00:00,WLKN/USDT,0.05175,0.05175,0.05175,0.05175,0,0,0,0,0,0.05174
1676678400000,2023-02-18 00:00:00,WLKN/USDT,0.05175,0.05175,0.05175,0.05175,0,0,0,0,0,0.05174
1676592000000,2023-02-17 00:00:00,WLKN/USDT,0.05174,0.05175,0.05174,0.05175,3.06101,59.16,3.06101,59.16,2,0.05174
1676505600000,2023-02-16 00:00:00,WLKN/USDT,0.04285,0.05205,0.04285,0.05205,240.17411,4670.156,30.77389,605.97,12,0.05149
1676419200000,2023-02-15 00:00:00,WLKN/USDT,0.04565,0.04777,0.042,0.04777,49.32382,1116.609,10.0671,216.609,9,0.04426
1676332800000,2023-02-14 00:00:00,WLKN/USDT,0.04484,0.06748,0.04484,0.06748,5.76357,120.571,1.06456,15.776,3,0.04902
1676246400000,2023-02-13 00:00:00,WLKN/USDT,0.05077,0.08333,0.05077,0.07375,15.4304,252.338,9.99997,178.705,7,0.06375
1676160000000,2023-02-12 00:00:00,WLKN/USDT,0.05077,0.05078,0.05077,0.05078,4.99963,98.463,4.99963,98.463,2,0.05077
1676073600000,2023-02-11 00:00:00,WLKN/USDT,0.05275,0.05275,0.047,0.047,27.68907575,548.734,3.2705,62,5,0.050616555634310039
1675987200000,2023-02-10 00:00:00,WLKN/USDT,0.04705,0.04705,0.04705,0.04705,0,0,0,0,0,0.04705
1675900800000,2023-02-09 00:00:00,WLKN/USDT,0.04705,0.04705,0.04705,0.04705,0,0,0,0,0,0.04705
1675814400000,2023-02-08 00:00:00,WLKN/USDT,0.04705,0.04705,0.04705,0.04705,0,0,0,0,0,0.04705
1675728000000,2023-02-07 00:00:00,WLKN/USDT,0.04705,0.04705,0.04705,0.04705,0,0,0,0,0,0.04705
1675641600000,2023-02-06 00:00:00,WLKN/USDT,0.04705,0.04705,0.04705,0.04705,2.04888635,43.547,0,0,1,0.04705
1675555200000,2023-02-05 00:00:00,WLKN/USDT,0.04999,0.05312,0.04999,0.05311,73.88576123,1426.26,34.44917293,683.73,11,0.051849406947299848
1675468800000,2023-02-04 00:00:00,WLKN/USDT,0.041,0.05555,0.041,0.05311,272.90593193,5052.682,63.37757222,1246.651,24,0.054177822467224151
1675382400000,2023-02-03 00:00:00,WLKN/USDT,0.04019,0.04019,0.04017,0.04017,5.70134035,141.865,0.89081135,22.165,4,0.040188492217711577
1675296000000,2023-02-02 00:00:00,WLKN/USDT,0.04781,0.04781,0.04781,0.04781,0,0,0,0,0,0.04576914168457739
1675209600000,2023-02-01 00:00:00,WLKN/USDT,0.04781,0.04781,0.04781,0.04781,0,0,0,0,0,0.04576914168457739
1675123200000,2023-01-31 00:00:00,WLKN/USDT,0.04781,0.04781,0.04781,0.04781,0,0,0,0,0,0.04576914168457739
1675036800000,2023-01-30 00:00:00,WLKN/USDT,0.04501,0.04781,0.045,0.04781,4.57361,100,1.24306,26,3,0.04576914168457739
1674950400000,2023-01-29 00:00:00,WLKN/USDT,0.04905,0.04905,0.04905,0.04905,0,0,0,0,0,0.049327890354805673
1674864000000,2023-01-28 00:00:00,WLKN/USDT,0.04905,0.04905,0.04905,0.04905,0,0,0,0,0,0.049327890354805673
1674777600000,2023-01-27 00:00:00,WLKN/USDT,0.04905,0.04905,0.04905,0.04905,0,0,0,0,0,0.049327890354805673
1674691200000,2023-01-26 00:00:00,WLKN/USDT,0.04905,0.04905,0.04905,0.04905,0,0,0,0,0,0.049327890354805673
1674604800000,2023-01-25 00:00:00,WLKN/USDT,0.05,0.05,0.04905,0.04905,17.42621655,353.3,0.01034955,0.211,3,0.049327890354805673
1674518400000,2023-01-24 00:00:00,WLKN/USDT,0.0478,0.0478,0.04739,0.04739,105.77273911,2213.065,0.09610692,2.028,7,0.047794686202930647
1674432000000,2023-01-23 00:00:00,WLKN/USDT,0.054,0.054,0.054,0.054,0,0,0,0,0,0.047728439529650534
1674345600000,2023-01-22 00:00:00,WLKN/USDT,0.04383,0.054,0.04383,0.054,40.93354457,866.467,40.93354457,866.467,5,0.047728439529650534
1674259200000,2023-01-21 00:00:00,WLKN/USDT,0.0435,0.04351,0.0435,0.04351,5.26461,121,0.435,10,3,0.043509173727968453
1674172800000,2023-01-20 00:00:00,WLKN/USDT,0.0435,0.04382,0.04005,0.04382,99.00607038,2297.879,71.27782616,1627.764,8,0.043135719156633796
1674086400000,2023-01-19 00:00:00,WLKN/USDT,0.042,0.04382,0.04,0.04005,177.24940672,4248.237,61.76862969,1412.831,16,0.041785751807246441
1674000000000,2023-01-18 00:00:00,WLKN/USDT,0.04135,0.04135,0.04,0.04,9.35565745,226.882,8.58785745,207.687,3,0.041239208213795813
1673913600000,2023-01-17 00:00:00,WLKN/USDT,0.03999,0.04135,0.03503,0.04135,11.4838567,298.258,7.88715145,195.583,5,0.038672786244450437
1673827200000,2023-01-16 00:00:00,WLKN/USDT,0.04382,0.04382,0.04382,0.04382,28.08498294,640.917,28.08498294,640.917,2,0.04382
1673740800000,2023-01-15 00:00:00,WLKN/USDT,0.03502,0.0447,0.03501,0.03501,42.1379594,1169.507,5.47128,122.4,8,0.036274374710190639
1673654400000,2023-01-14 00:00:00,WLKN/USDT,0.04308,0.05555,0.035,0.0449,86.31621556,2035.918,65.78299601,1487.904,27,0.042984190345017478
1673568000000,2023-01-13 00:00:00,WLKN/USDT,0.04101,0.04101,0.04,0.04,15.49922485,382.597,0,0,4,0.040516030211672165
1673481600000,2023-01-12 00:00:00,WLKN/USDT,0.041,0.041,0.041,0.041,0,0,0,0,0,0.041219292117024788
1673395200000,2023-01-11 00:00:00,WLKN/USDT,0.04532,0.04532,0.041,0.041,39.3989416,956.3,1.9999716,44.13,2,0.041219292117024788
1673308800000,2023-01-10 00:00:00,WLKN/USDT,0.04237,0.04533,0.04013,0.04013,10.08023957,238.009,9.99997957,236.009,4,0.042353416090496744
1673222400000,2023-01-09 00:00:00,WLKN/USDT,0.04237,0.04237,0.04237,0.04237,1.99999111,47.203,1.99999111,47.203,1,0.04237
1673136000000,2023-01-08 00:00:00,WLKN/USDT,0.03501,0.04237,0.03501,0.04237,3.64885286,94.311,1.99998689,47.214,3,0.039038658482545661
1673049600000,2023-01-07 00:00:00,WLKN/USDT,0.03838,0.03838,0.03838,0.03838,0,0,0,0,0,0.03838
1672963200000,2023-01-06 00:00:00,WLKN/USDT,0.03838,0.03838,0.03838,0.03838,0,0,0,0,0,0.03838
1672876800000,2023-01-05 00:00:00,WLKN/USDT,0.03838,0.03838,0.03838,0.03838,1.81042298,47.171,1.81042298,47.171,1,0.03838
1672790400000,2023-01-04 00:00:00,WLKN/USDT,0.0375,0.03838,0.03343,0.03838,9.9495696,272.341,2.77644758,72.341,3,0.036647273968413668
1672704000000,2023-01-03 00:00:00,WLKN/USDT,0.03784,0.04237,0.03784,0.04201,94.93263712,2302.399,22.99285307,580.338,8,0.041265168815072309
1672617600000,2023-01-02 00:00:00,WLKN/USDT,0.03955,0.03955,0.03955,0.03955,0,0,0,0,0,0.03955
1672531200000,2023-01-01 00:00:00,WLKN/USDT,0.03955,0.03955,0.03955,0.03955,1.0000613,25.286,1.0000613,25.286,1,0.03955
1672444800000,2022-12-31 00:00:00,WLKN/USDT,0.03344,0.03344,0.03344,0.03344,0.96009584,28.711,0,0,1,0.03344
1672358400000,2022-12-30 00:00:00,WLKN/USDT,0.038,0.038,0.038,0.038,0.014554,0.383,0.014554,0.383,1,0.038
1672272000000,2022-12-29 00:00:00,WLKN/USDT,0.03982,0.03982,0.038,0.038,2.00008548,51.431,1.00003948,25.114,2,0.038909997033526787
1672185600000,2022-12-28 00:00:00,WLKN/USDT,0.0344,0.04077,0.0344,0.04077,2.42389773,65.92,1.00004733,24.529,2,0.03702812304878061
1672099200000,2022-12-27 00:00:00,WLKN/USDT,0.0423,0.0423,0.0423,0.0423,0,0,0,0,0,0.042294844490205673
1672012800000,2022-12-26 00:00:00,WLKN/USDT,0.0423,0.0423,0.0423,0.0423,0,0,0,0,0,0.042294844490205673
1671926400000,2022-12-25 00:00:00,WLKN/USDT,0.0423,0.0423,0.0423,0.0423,0,0,0,0,0,0.042294844490205673
1671840000000,2022-12-24 00:00:00,WLKN/USDT,0.0423,0.0423,0.0423,0.0423,0,0,0,0,0,0.042294844490205673
1671753600000,2022-12-23 00:00:00,WLKN/USDT,0.0423,0.0423,0.0423,0.0423,0,0,0,0,0,0.042294844490205673
1671667200000,2022-12-22 00:00:00,WLKN/USDT,0.04229,0.0423,0.04229,0.0423,90.76710352,2146.056,90.76710352,2146.056,3,0.042294844490205673
1671580800000,2022-12-21 00:00:00,WLKN/USDT,0.03222,0.04348,0.03222,0.03227,34.25812494,982.25,9.99999188,230.177,6,0.035521363679164629
1671494400000,2022-12-20 00:00:00,WLKN/USDT,0.03219,0.03219,0.03219,0.03219,0,0,0,0,0,0.03219
1671408000000,2022-12-19 00:00:00,WLKN/USDT,0.03219,0.03219,0.03219,0.03219,0,0,0,0,0,0.03219
1671321600000,2022-12-18 00:00:00,WLKN/USDT,0.03219,0.03219,0.03219,0.03219,0,0,0,0,0,0.03219
1671235200000,2022-12-17 00:00:00,WLKN/USDT,0.03219,0.03219,0.03219,0.03219,0.69845862,21.698,0,0,1,0.03219
1671148800000,2022-12-16 00:00:00,WLKN/USDT,0.03215,0.03215,0.03215,0.03215,0.02453045,0.763,0,0,1,0.03215
1671062400000,2022-12-15 00:00:00,WLKN/USDT,0.03574,0.03574,0.03574,0.03574,5.99563518,167.757,0,0,1,0.03574
1670976000000,2022-12-14 00:00:00,WLKN/USDT,0.03215,0.04331,0.03215,0.04331,43.71772974,1041.686,39.71502259,917.185,3,0.04228003207463444
1670889600000,2022-12-13 00:00:00,WLKN/USDT,0.03789,0.09992,0.03039,0.03215,219.96559442,5245.764,61.29200146,1204.597,51,0.049546038391954429
1670803200000,2022-12-12 00:00:00,WLKN/USDT,0.04075,0.04076,0.03777,0.03777,17.39517074,443.034,9.03497009,221.689,3,0.039320477072615384
1670716800000,2022-12-11 00:00:00,WLKN/USDT,0.04447,0.045,0.0353,0.0353,37.44960995,898.333,19.99999455,449.515,7,0.041923556823664593
1670630400000,2022-12-10 00:00:00,WLKN/USDT,0.04278,0.04278,0.04278,0.04278,3.02749782,70.769,3.02749782,70.769,1,0.04278
1670544000000,2022-12-09 00:00:00,WLKN/USDT,0.0367,0.0367,0.0367,0.0367,1.125222,30.66,0,0,1,0.0367
1670457600000,2022-12-08 00:00:00,WLKN/USDT,0.03695,0.03695,0.03694,0.03694,50.41786651,1364.57,0,0,2,0.036947805640375955
1670371200000,2022-12-07 00:00:00,WLKN/USDT,0.05491,0.05491,0.0486,0.0486,6.0394672,121.802,1.04329,19,2,0.049690023288809317
1670284800000,2022-12-06 00:00:00,WLKN/USDT,0.03022,0.03022,0.03022,0.03022,0,0,0,0,0,0.03022
1670198400000,2022-12-05 00:00:00,WLKN/USDT,0.03022,0.03022,0.03022,0.03022,0,0,0,0,0,0.03022
1670112000000,2022-12-04 00:00:00,WLKN/USDT,0.03022,0.03022,0.03022,0.03022,0,0,0,0,0,0.03022
1670025600000,2022-12-03 00:00:00,WLKN/USDT,0.03022,0.03022,0.03022,0.03022,2.71565986,89.863,0,0,1,0.03022
1669939200000,2022-12-02 00:00:00,WLKN/USDT,0.03,0.03,0.03,0.03,0,0,0,0,0,0.030080536830683636
1669852800000,2022-12-01 00:00:00,WLKN/USDT,0.03,0.03,0.03,0.03,0,0,0,0,0,0.030080536830683636
1669766400000,2022-11-30 00:00:00,WLKN/USDT,0.03,0.03,0.03,0.03,0,0,0,0,0,0.030080536830683636
1669680000000,2022-11-29 00:00:00,WLKN/USDT,0.03,0.03,0.03,0.03,0,0,0,0,0,0.030080536830683636
1669593600000,2022-11-28 00:00:00,WLKN/USDT,0.03188,0.03188,0.03,0.03,10.44633284,347.291,0,0,4,0.030080536830683636
1669507200000,2022-11-27 00:00:00,WLKN/USDT,0.04499,0.04499,0.03188,0.04074,35.97019887,882.263,5.63481967,135.708,9,0.041177664581405188
1669420800000,2022-11-26 00:00:00,WLKN/USDT,0.03549,0.03551,0.03549,0.03551,58.21535108,1640.102,58.21535108,1640.102,3,0.035494959725564537
1669334400000,2022-11-25 00:00:00,WLKN/USDT,0.03064,0.03064,0.03064,0.03064,0.36176648,11.807,0,0,1,0.03064
1669248000000,2022-11-24 00:00:00,WLKN/USDT,0.03067,0.03067,0.03067,0.03067,37.38203749,1218.847,0,0,1,0.03067
1669161600000,2022-11-23 00:00:00,WLKN/USDT,0.03063,0.03063,0.03063,0.03063,0,0,0,0,0,0.035017955454796906
1669075200000,2022-11-22 00:00:00,WLKN/USDT,0.0392,0.0392,0.03063,0.03063,20.06148851,575.259,2.4124072,61.541,7,0.035017955454796906
1668988800000,2022-11-21 00:00:00,WLKN/USDT,0.03339,0.039,0.03339,0.039,8.1450702,211.161,5.199987,133.333,3,0.038630196946368859
1668902400000,2022-11-20 00:00:00,WLKN/USDT,0.0392,0.0392,0.03339,0.03339,2.3085888,63.92,1.176,30,2,0.036349626244396576
1668816000000,2022-11-19 00:00:00,WLKN/USDT,0.03999,0.041,0.03333,0.0392,38.52129147,1001.605,25.06291289,628.643,6,0.038557544646238724
1668729600000,2022-11-18 00:00:00,WLKN/USDT,0.03333,0.03333,0.03333,0.03333,0,0,0,0,0,0.036795279264524299
1668643200000,2022-11-17 00:00:00,WLKN/USDT,0.03898,0.03898,0.03333,0.03333,1.74116208,47.596,0,0,2,0.036795279264524299
1668556800000,2022-11-16 00:00:00,WLKN/USDT,0.03898,0.03898,0.03898,0.03898,0.7866164,20.18,0,0,1,0.03898
1668470400000,2022-11-15 00:00:00,WLKN/USDT,0.03898,0.03898,0.03898,0.03898,5.14547694,132.003,3.57762338,91.781,2,0.03898
1668384000000,2022-11-14 00:00:00,WLKN/USDT,0.03898,0.03898,0.02854,0.0289,3.60137316,114.852,1.09997662,28.219,4,0.031961218823100241
1668297600000,2022-11-13 00:00:00,WLKN/USDT,0.04,0.0497,0.01934,0.04398,88.52884188,2349.798,46.6679946,1261.724,27,0.039044858983461937
1668211200000,2022-11-12 00:00:00,WLKN/USDT,0.04602,0.04602,0.04,0.04,2.3416958,53.457,0,0,3,0.043997613659297676
1668124800000,2022-11-11 00:00:00,WLKN/USDT,0.052,0.052,0.04602,0.04972,33.50300384,697.272,15.09500384,297.272,3,0.0481754125281681
1668038400000,2022-11-10 00:00:00,WLKN/USDT,0.04293,0.04293,0.04,0.04,16.24047787,380.773,16.24047787,380.773,2,0.042668660350146457
1667952000000,2022-11-09 00:00:00,WLKN/USDT,0.035,0.04293,0.035,0.04293,5.20013797,121.131,5.20006797,121.129,2,0.042929893252832289
1667865600000,2022-11-08 00:00:00,WLKN/USDT,0.04991,0.04991,0.04991,0.04991,0,0,0,0,0,0.049777352818592954
1667779200000,2022-11-07 00:00:00,WLKN/USDT,0.04991,0.04991,0.04991,0.04991,0,0,0,0,0,0.049777352818592954
1667692800000,2022-11-06 00:00:00,WLKN/USDT,0.04634,0.04991,0.04634,0.04991,29.84716642,599.681,3.61526898,74.097,5,0.049777352818592954
1667606400000,2022-11-05 00:00:00,WLKN/USDT,0.04691,0.04691,0.04634,0.04634,30.40905877,648.767,8.53192353,182.403,5,0.046872510526332873
1667520000000,2022-11-04 00:00:00,WLKN/USDT,0.047,0.047,0.047,0.047,3.814097,81.151,0,0,2,0.047
1667433600000,2022-11-03 00:00:00,WLKN/USDT,0.05098,0.05098,0.05098,0.05098,0.49802362,9.769,0.49802362,9.769,1,0.05098
1667347200000,2022-11-02 00:00:00,WLKN/USDT,0.05098,0.05098,0.05098,0.05098,0.04236438,0.831,0,0,1,0.05098
1667260800000,2022-11-01 00:00:00,WLKN/USDT,0.04703,0.05098,0.047,0.05098,25.5745117,532.952,4.32957846,84.927,5,0.048047337182613734
1667174400000,2022-10-31 00:00:00,WLKN/USDT,0.04999,0.053,0.04999,0.053,100.00002165,1924.398,100.00002165,1924.398,7,0.051978935935345369
1667088000000,2022-10-30 00:00:00,WLKN/USDT,0.04793,0.04793,0.04793,0.04793,0,0,0,0,0,0.048981986050563328
1667001600000,2022-10-29 00:00:00,WLKN/USDT,0.05,0.05,0.04793,0.04793,2.16447737,44.209,1.06447737,22.209,2,0.048981986050563328
1666915200000,2022-10-28 00:00:00,WLKN/USDT,0.04738,0.051,0.0455,0.046,175.58981187,3657.368,164.72597361,3424.968,15,0.048027508105305534
1666828800000,2022-10-27 00:00:00,WLKN/USDT,0.04002,0.04499,0.04,0.04499,81.81020065,1865.029,65.05606878,1446.311,5,0.043963329520508882
1666742400000,2022-10-26 00:00:00,WLKN/USDT,0.04743,0.04748,0.04743,0.04748,57.70135711,1216.367,57.70135711,1216.367,3,0.047437460445742711
1666656000000,2022-10-25 00:00:00,WLKN/USDT,0.05255,0.05255,0.04401,0.04401,220.49448211,4770.563,5.0929358,96.916,17,0.046273171128655503
1666569600000,2022-10-24 00:00:00,WLKN/USDT,0.05255,0.05255,0.05255,0.05255,11.01894675,209.685,11.01894675,209.685,2,0.05255
1666483200000,2022-10-23 00:00:00,WLKN/USDT,0.05495,0.05496,0.04864,0.04864,31.83438507,614.571,16.89961899,307.524,3,0.051991758924655741
1666396800000,2022-10-22 00:00:00,WLKN/USDT,0.05494,0.05494,0.05494,0.05494,0,0,0,0,0,0.04899270038524487
1666310400000,2022-10-21 00:00:00,WLKN/USDT,0.05049,0.05494,0.04702,0.05494,91.56603128,1873.333,35.76054852,705.148,7,0.04899270038524487
1666224000000,2022-10-20 00:00:00,WLKN/USDT,0.04999,0.05998,0.04899,0.04899,3229.00491825,62699.67,1641.04950397,33126.424,57,0.051613627889201698
1666137600000,2022-10-19 00:00:00,WLKN/USDT,0.052,0.052,0.05005,0.05006,85.31426193,1685.716,0,0,6,0.050614539931006115
1666051200000,2022-10-18 00:00:00,WLKN/USDT,0.052,0.052,0.052,0.052,0,0,0,0,0,0.053393641961729916
1665964800000,2022-10-17 00:00:00,WLKN/USDT,0.05999,0.06499,0.052,0.052,71.17384383,1337.051,9.79989706,160.794,6,0.053393641961729916
1665878400000,2022-10-16 00:00:00,WLKN/USDT,0.04752,0.06798,0.04752,0.05499,206.96634258,4098.689,29.94435421,463.202,14,0.051041099388155401
1665792000000,2022-10-15 00:00:00,WLKN/USDT,0.04732,0.07174,0.04731,0.04752,1684.23011159,33722.033,84.21274664,1210.477,73,0.05086797057578017
1665705600000,2022-10-14 00:00:00,WLKN/USDT,0.0472,0.07,0.03862,0.04733,932.60799371,18865.943,112.61503237,1946.597,45,0.050302628369097864
1665619200000,2022-10-13 00:00:00,WLKN/USDT,0.0471,0.06,0.0469,0.0472,13.6296332,284.522,0.99996,16.666,6,0.048093731411642096
1665532800000,2022-10-12 00:00:00,WLKN/USDT,0.0471,0.0471,0.0471,0.0471,2.6861601,57.031,0,0,1,0.0471
1665446400000,2022-10-11 00:00:00,WLKN/USDT,0.04622,0.04622,0.04622,0.04622,10.51592818,227.519,0,0,1,0.04622
1665360000000,2022-10-10 00:00:00,WLKN/USDT,0.05552,0.05922,0.05552,0.05922,13.28538998,227.859,5.08278998,87.859,4,0.058322220347467737
1665273600000,2022-10-09 00:00:00,WLKN/USDT,0.0555,0.0555,0.0555,0.0555,0,0,0,0,0,0.0555
1665187200000,2022-10-08 00:00:00,WLKN/USDT,0.0555,0.0555,0.0555,0.0555,0.142635,2.57,0.142635,2.57,1,0.0555
1665100800000,2022-10-07 00:00:00,WLKN/USDT,0.05095,0.0555,0.03355,0.03512,97.85289543,2040.095,47.48890184,855.778,17,0.049510591731714684
1665014400000,2022-10-06 00:00:00,WLKN/USDT,0.05549,0.05549,0.05001,0.05001,25.05455034,471.266,15.05255034,271.266,2,0.053302335114532332
1664928000000,2022-10-05 00:00:00,WLKN/USDT,0.0585,0.0585,0.0515,0.0515,81.96584584,1574.233,6.6736215,114.079,10,0.05212926929872819
1664841600000,2022-10-04 00:00:00,WLKN/USDT,0.05599,0.056,0.0515,0.0515,44.80759158,838.42,12.46285218,222.57,7,0.053496131196842157
1664755200000,2022-10-03 00:00:00,WLKN/USDT,0.056,0.056,0.0495,0.0515,26.9109135,502.189,16.8,300,4,0.053752713383363964
1664668800000,2022-10-02 00:00:00,WLKN/USDT,0.05104,0.05681,0.05,0.05,41.57538933,811.709,2.84919193,50.153,12,0.051314929803850374
1664582400000,2022-10-01 00:00:00,WLKN/USDT,0.05003,0.05456,0.05003,0.05456,21.2146512,408.653,5.20803925,96.588,6,0.051952285232764043
1664496000000,2022-09-30 00:00:00,WLKN/USDT,0.04999,0.05367,0.048,0.05367,173.37809277,3310.512,168.38609277,3206.512,14,0.0524378549645393
1664409600000,2022-09-29 00:00:00,WLKN/USDT,0.05693,0.05694,0.03501,0.03521,39.70158887,989.897,2.99890638,52.739,12,0.041141844312789085
1664323200000,2022-09-28 00:00:00,WLKN/USDT,0.04586,0.06674,0.0455,0.0455,423.66265493,8844.321,34.87139796,556.939,16,0.048281628344610199
1664236800000,2022-09-27 00:00:00,WLKN/USDT,0.048,0.098,0.01606,0.04586,2666.3959885,66351.121,621.6069202,8792.948,167,0.050632715098968544
1664150400000,2022-09-26 00:00:00,WLKN/USDT,0.04999,0.0534,0.04709,0.04709,20.50449481,393.859,12.956648,242.955,9,0.05213754829958183
1664064000000,2022-09-25 00:00:00,WLKN/USDT,0.04404,0.04404,0.04404,0.04404,7.1496738,162.345,0,0,2,0.04404
1663977600000,2022-09-24 00:00:00,WLKN/USDT,0.04389,0.0471,0.04389,0.04402,8.97867091,202.515,1.7823042,38.78,4,0.044360184110044411
1663891200000,2022-09-23 00:00:00,WLKN/USDT,0.0441,0.0441,0.0438,0.0438,7.594863,172.514,0,0,2,0.044025002897353118
1663804800000,2022-09-22 00:00:00,WLKN/USDT,0.04263,0.04649,0.035,0.035,44.97537947,1055.146,43.22537947,1005.146,6,0.042721102520798807
1663718400000,2022-09-21 00:00:00,WLKN/USDT,0.04263,0.04263,0.04263,0.04263,0.99997191,23.457,0.99997191,23.457,1,0.04263
1663632000000,2022-09-20 00:00:00,WLKN/USDT,0.03994,0.03994,0.03372,0.03554,7.03932546,191.329,0,0,3,0.036979251884228122
1663545600000,2022-09-19 00:00:00,WLKN/USDT,0.0425,0.0425,0.04113,0.04113,50.72269193,1220.5,0,0,4,0.041567784854140725
1663459200000,2022-09-18 00:00:00,WLKN/USDT,0.04699,0.047,0.043,0.043,17.620834,391.858,9.069295,192.985,3,0.045056099614808243
1663372800000,2022-09-17 00:00:00,WLKN/USDT,0.04104,0.04104,0.04104,0.04104,4.02360264,98.041,0,0,1,0.04104
1663286400000,2022-09-16 00:00:00,WLKN/USDT,0.04999,0.04999,0.04001,0.04001,1.73305534,38.081,1.01224751,20.249,3,0.046010896258050247
1663200000000,2022-09-15 00:00:00,WLKN/USDT,0.04201,0.05,0.0405,0.04051,82.9511364,1834.677,65.71504077,1426.681,23,0.045327400305775673
1663113600000,2022-09-14 00:00:00,WLKN/USDT,0.043,0.043,0.04251,0.04251,7.4433785,174.561,0,0,2,0.042641658865661607
1663027200000,2022-09-13 00:00:00,WLKN/USDT,0.04648,0.0511,0.04648,0.0511,13.36221572,269.75,13.36221572,269.75,2,0.049632055480511281
1662940800000,2022-09-12 00:00:00,WLKN/USDT,0.05136,0.05136,0.04648,0.04648,36.1082757,739.483,16.58173008,322.853,7,0.048930961448275413
1662854400000,2022-09-11 00:00:00,WLKN/USDT,0.04608,0.05074,0.04607,0.05074,220.18434304,4516.649,130.77722526,2577.399,5,0.04885770335976928
1662768000000,2022-09-10 00:00:00,WLKN/USDT,0.056,0.059,0.04656,0.059,17.62724845,346.707,8.06736061,151.658,8,0.051265148103945851
1662681600000,2022-09-09 00:00:00,WLKN/USDT,0.05599,0.056,0.04672,0.056,423.57906281,7903.221,317.94189239,5680.212,11,0.053902661780060184
1662595200000,2022-09-08 00:00:00,WLKN/USDT,0.05599,0.05599,0.05599,0.05599,0.9999814,17.86,0.9999814,17.86,1,0.05599
1662508800000,2022-09-07 00:00:00,WLKN/USDT,0.05359,0.056,0.03501,0.04122,519.1083212,11014.343,343.77038114,6521.51,28,0.048307726798234564
1662422400000,2022-09-06 00:00:00,WLKN/USDT,0.0466,0.0466,0.0466,0.0466,1.099993,23.605,0,0,1,0.0466
1662336000000,2022-09-05 00:00:00,WLKN/USDT,0.046,0.05174,0.046,0.05174,175.35515274,3452.95,149.04043641,2881.007,5,0.050873280664536004
1662249600000,2022-09-04 00:00:00,WLKN/USDT,0.05897,0.05897,0.05897,0.05897,0,0,0,0,0,0.051425881509594769
1662163200000,2022-09-03 00:00:00,WLKN/USDT,0.05897,0.05897,0.05897,0.05897,0,0,0,0,0,0.051425881509594769
1662076800000,2022-09-02 00:00:00,WLKN/USDT,0.04544,0.05897,0.04544,0.05897,9.09151216,179.768,4.02222576,68.208,3,0.051425881509594769
1661990400000,2022-09-01 00:00:00,WLKN/USDT,0.06,0.06997,0.04,0.05253,131.08143991,2594.608,21.13485902,420.381,21,0.051273957643342609
1661904000000,2022-08-31 00:00:00,WLKN/USDT,0.06203,0.07484,0.05,0.061,205.85354966,3370.388,17.81703939,238.23,15,0.061507485890711839
1661817600000,2022-08-30 00:00:00,WLKN/USDT,0.07,0.15,0.062,0.062,508.20692832,6540.384,101.71243375,862.74,38,0.081893320633188089
1661731200000,2022-08-29 00:00:00,WLKN/USDT,0.0685,0.161,0.062,0.16,973.01557729,12323.47,940.75296509,11841.917,53,0.090680131042464131
1661644800000,2022-08-28 00:00:00,WLKN/USDT,0.0685,0.069,0.0685,0.0685,10.137447,147.463,0,0,3,0.068746607799774439
1661558400000,2022-08-27 00:00:00,WLKN/USDT,0.0655,0.072,0.0652,0.066,93.860877,1380.318,81.2174305,1187.715,7,0.068086708519674282
1661472000000,2022-08-26 00:00:00,WLKN/USDT,0.0712,0.0712,0.0655,0.0655,38.41409606,564.531,0,0,10,0.068063025383672139
1661385600000,2022-08-25 00:00:00,WLKN/USDT,0.05005,0.074,0.05005,0.068,32.09071009,478.574,20.96053454,297.38,21,0.067960780807250121
1661299200000,2022-08-24 00:00:00,WLKN/USDT,0.08899,0.0897,0.01001,0.01001,142.76804971,2237.488,102.51301245,1158.911,18,0.079903050853051392
1661212800000,2022-08-23 00:00:00,WLKN/USDT,0.0851,0.08899,0.071,0.071,19.09278685,238.493,10.59296545,119.339,5,0.081013270729490178
1661126400000,2022-08-22 00:00:00,WLKN/USDT,0.0802,0.0851,0.0734,0.0734,14.72678494,187.507,6.9058891,83.833,7,0.078720167536499652
1661040000000,2022-08-21 00:00:00,WLKN/USDT,0.0772,0.0772,0.0772,0.0772,32.0018704,414.532,0,0,1,0.0772
1660953600000,2022-08-20 00:00:00,WLKN/USDT,0.0778,0.0778,0.0772,0.0772,6.6617256,86.046,0,0,2,0.077421595485710188
1660867200000,2022-08-19 00:00:00,WLKN/USDT,0.08261,0.08261,0.08,0.08,45.01332806,548.624,0,0,4,0.082061371074516368
1660780800000,2022-08-18 00:00:00,WLKN/USDT,0.08985,0.08985,0.08985,0.08985,59.301,660,59.301,660,2,0.08985
1660694400000,2022-08-17 00:00:00,WLKN/USDT,0.07611,0.08989,0.07611,0.08986,123.96826557,1557.998,27.01577456,312.255,12,0.079892352664915159
1660608000000,2022-08-16 00:00:00,WLKN/USDT,0.08261,0.09002,0.075,0.08993,250.03641331,3214.851,55.0929816,644.348,18,0.078079204589484913
1660521600000,2022-08-15 00:00:00,WLKN/USDT,0.08761,0.08761,0.08261,0.08261,73.70149228,844.372,55.71080331,635.981,8,0.087299974498082168
1660435200000,2022-08-14 00:00:00,WLKN/USDT,0.08761,0.08761,0.08761,0.08761,49.84176705,568.905,39.94945912,455.992,7,0.08761
1660348800000,2022-08-13 00:00:00,WLKN/USDT,0.09002,0.09297,0.0875,0.09297,172.38182202,1931.155,86.14253956,962.704,10,0.089283681059811087
1660262400000,2022-08-12 00:00:00,WLKN/USDT,0.08751,0.09002,0.08751,0.09,8.6808477,97.076,0,0,4,0.089435816431683278
1660176000000,2022-08-11 00:00:00,WLKN/USDT,0.08505,0.11,0.07203,0.07505,78.06011604,892.374,33.74262353,315.657,9,0.09018175517773929
1660089600000,2022-08-10 00:00:00,WLKN/USDT,0.09,0.10991,0.08504,0.10991,5.42269153,54.473,2.99999345,27.295,3,0.100649061115357228
1660003200000,2022-08-09 00:00:00,WLKN/USDT,0.09,0.09,0.09,0.09,17.9721,199.69,5.82219,64.691,3,0.09
1659916800000,2022-08-08 00:00:00,WLKN/USDT,0.08385,0.10001,0.071,0.09001,67.4806265,733.602,41.5422505,442.366,18,0.092750951177416821
1659830400000,2022-08-07 00:00:00,WLKN/USDT,0.09,0.145,0.065,0.08001,209.7865585,2355.707,133.70992,1237.629,21,0.095033184665880291
1659744000000,2022-08-06 00:00:00,WLKN/USDT,0.071,0.125,0.067,0.067,38.0915254,453.961,20.2923534,197.233,17,0.088612775140425325
1659657600000,2022-08-05 00:00:00,WLKN/USDT,0.071,0.071,0.071,0.071,0,0,0,0,0,0.080064960507402905
1659571200000,2022-08-04 00:00:00,WLKN/USDT,0.08256,0.145,0.067,0.071,16.97817944,218.238,4.81369096,51.362,9,0.080064960507402905
1659484800000,2022-08-03 00:00:00,WLKN/USDT,0.078,0.078,0.078,0.078,5.110092,65.514,1.110096,14.232,2,0.078
1659398400000,2022-08-02 00:00:00,WLKN/USDT,0.081,0.081,0.07782,0.07782,3.4149714,43.27,0,0,2,0.078951400397672437
1659312000000,2022-08-01 00:00:00,WLKN/USDT,0.08484426,0.08484426,0.08155474,0.08356696,11.04400911,132.49695572,0,0,0,0.08335292
1659225600000,2022-07-31 00:00:00,WLKN/USDT,0.08590729,0.08694372,0.079,0.08410935,4322.38816674,51240.56526507,0,0,0,0.08435481
1659139200000,2022-07-30 00:00:00,WLKN/USDT,0.0892976,0.09392414,0.08504504,0.0859073,5006.70821431,57191.28475025,0,0,0,0.0875432
1659052800000,2022-07-29 00:00:00,WLKN/USDT,0.09127184,0.09872245,0.0850454,0.08929761,4380.18526898,48366.47258386,0,0,0,0.09056242
1658966400000,2022-07-28 00:00:00,WLKN/USDT,0.08909162,0.09580517,0.082568,0.09127183,3923.62376846,44181.73639089,0,0,0,0.08880646
1658880000000,2022-07-27 00:00:00,WLKN/USDT,0.08540565,0.09301473,0.08177548,0.0890916,4649.23246256,54027.42849894,0,0,0,0.08605318
1658793600000,2022-07-26 00:00:00,WLKN/USDT,0.08631376,0.09301474,0.07820999,0.08540564,4569.13801921,55289.36277038,0,0,0,0.08264045
1658707200000,2022-07-25 00:00:00,WLKN/USDT,0.08353155,0.0869,0.07820999,0.08631375,4404.59522245,51985.65324148,0,0,0,0.08472713
1658620800000,2022-07-24 00:00:00,WLKN/USDT,0.08047381,0.11106445,0.0788473,0.08353158,4485.86282336,53303.32499635,0,0,0,0.08415727
1658534400000,2022-07-23 00:00:00,WLKN/USDT,0.08639848,0.0876753,0.07782826,0.0804738,4813.93897404,57731.54246292,0,0,0,0.0833849
1658448000000,2022-07-22 00:00:00,WLKN/USDT,0.07875,0.08576004,0.07618482,0.08512165,4393.73243813,54807.24510828,0,0,0,0.080167
1658361600000,2022-07-21 00:00:00,WLKN/USDT,0.08174456,0.0845196,0.07410407,0.07875002,4646.43800023,58437.08520481,0,0,0,0.0795118
1658275200000,2022-07-20 00:00:00,WLKN/USDT,0.08624998,0.08756249,0.07619945,0.08174455,4729.40399481,57355.33875458,0,0,0,0.08245795
1658188800000,2022-07-19 00:00:00,WLKN/USDT,0.08016414,0.09311839,0.07560077,0.08624999,5252.63118051,63034.73411279,0,0,0,0.08332915
1658102400000,2022-07-18 00:00:00,WLKN/USDT,0.08209538,0.08733766,0.07782826,0.08016413,4853.07283065,59024.78846964,0,0,0,0.08222092
1658016000000,2022-07-17 00:00:00,WLKN/USDT,0.08122775,0.08512165,0.07782826,0.08209539,4808.41646443,58951.97336064,0,0,0,0.08156497
1657929600000,2022-07-16 00:00:00,WLKN/USDT,0.09030605,0.09030606,0.074,0.08122769,4308.22961157,53205.26945534,0,0,0,0.08097373
1657843200000,2022-07-15 00:00:00,WLKN/USDT,0.06925753,0.0981219,0.06786183,0.09062116,5712.6683279,69568.10307411,0,0,0,0.0821162
1657756800000,2022-07-14 00:00:00,WLKN/USDT,0.06561554,0.075,0.064,0.07111119,4795.50033165,69950.53832933,0,0,0,0.06855558
1657670400000,2022-07-13 00:00:00,WLKN/USDT,0.06921,0.07342669,0.06,0.06561554,5501.8996467,81100.2172295,0,0,0,0.06784075
1657584000000,2022-07-12 00:00:00,WLKN/USDT,0.06934318,0.12,0.069,0.06920999,5539.71425697,76379.8445914,0,0,0,0.07252848
1657497600000,2022-07-11 00:00:00,WLKN/USDT,0.06789545,0.06979091,0.06697492,0.06934319,4651.10001424,67663.23996724,0,0,0,0.06873894
1657411200000,2022-07-10 00:00:00,WLKN/USDT,0.06949999,0.07124053,0.066,0.06789546,5005.19372952,73114.23978969,0,0,0,0.06845716
1657324800000,2022-07-09 00:00:00,WLKN/USDT,0.07012028,0.07124053,0.067,0.0695,4837.97506743,69619.42760823,0,0,0,0.06949173
1657238400000,2022-07-08 00:00:00,WLKN/USDT,0.06696973,0.16,0.061,0.07012027,7269.9879142,102492.59014981,0,0,0,0.07093183
1657152000000,2022-07-07 00:00:00,WLKN/USDT,0.06676971,0.07156068,0.06245171,0.06696972,5166.27572539,75380.52705624,0,0,0,0.06853594
1657065600000,2022-07-06 00:00:00,WLKN/USDT,0.105,5.5,0.06001001,0.06676968,11795.75501492,146679.62783752,0,0,0,0.08041849
