https://www.CryptoDataDownload.com
unix,date,symbol,open,high,low,close,Volume AGLD,Volume USDT,buyTakerAmount,buyTakerQuantity,tradeCount,weightedAverage
1694995200000,2023-09-18 00:00:00,AGLD/USDT,0.5407,0.5407,0.5407,0.5407,0,0,0,0,0,0.5407
1694908800000,2023-09-17 00:00:00,AGLD/USDT,0.5407,0.5407,0.5407,0.5407,0,0,0,0,0,0.5407
1694822400000,2023-09-16 00:00:00,AGLD/USDT,0.5407,0.5407,0.5407,0.5407,0,0,0,0,0,0.5407
1694736000000,2023-09-15 00:00:00,AGLD/USDT,0.5407,0.5407,0.5407,0.5407,0,0,0,0,0,0.5407
1694649600000,2023-09-14 00:00:00,AGLD/USDT,0.5407,0.5407,0.5407,0.5407,1.1003,2.035,0,0,1,0.5407
1694563200000,2023-09-13 00:00:00,AGLD/USDT,0.5839,0.5839,0.5839,0.5839,0,0,0,0,0,0.5839
1694476800000,2023-09-12 00:00:00,AGLD/USDT,0.5839,0.5839,0.5839,0.5839,0,0,0,0,0,0.5839
1694390400000,2023-09-11 00:00:00,AGLD/USDT,0.5839,0.5839,0.5839,0.5839,0,0,0,0,0,0.5839
1694304000000,2023-09-10 00:00:00,AGLD/USDT,0.5839,0.5839,0.5839,0.5839,0,0,0,0,0,0.5839
1694217600000,2023-09-09 00:00:00,AGLD/USDT,0.5839,0.5839,0.5839,0.5839,4,6.8505,0,0,1,0.5839
1694131200000,2023-09-08 00:00:00,AGLD/USDT,0.6168,0.6168,0.5899,0.5899,141.7398,239.9784,141.7398,239.9784,2,0.5906
1694044800000,2023-09-07 00:00:00,AGLD/USDT,0.5332,0.5332,0.5332,0.5332,0,0,0,0,0,0.5332
1693958400000,2023-09-06 00:00:00,AGLD/USDT,0.5332,0.5332,0.5332,0.5332,2.8088,5.2679,2.8088,5.2679,1,0.5332
1693872000000,2023-09-05 00:00:00,AGLD/USDT,0.5845,0.5845,0.5845,0.5845,0,0,0,0,0,0.5648
1693785600000,2023-09-04 00:00:00,AGLD/USDT,0.608,0.608,0.5208,0.5845,305.9949,543.3391,205.9998,352.4377,6,0.5648
1693699200000,2023-09-03 00:00:00,AGLD/USDT,0.5465,0.7946,0.5465,0.7926,306.0736,399.9555,62.1925,79.5313,6,0.7727
1693612800000,2023-09-02 00:00:00,AGLD/USDT,0.5143,0.5143,0.5143,0.5143,21.1065,41.0394,21.1065,41.0394,1,0.5143
1693526400000,2023-09-01 00:00:00,AGLD/USDT,0.4546,0.4546,0.4546,0.4546,8.6203,18.9624,0,0,1,0.4546
1693440000000,2023-08-31 00:00:00,AGLD/USDT,0.5262,0.5262,0.5262,0.5262,0,0,0,0,0,0.4901
1693353600000,2023-08-30 00:00:00,AGLD/USDT,0.5262,0.5262,0.5262,0.5262,0,0,0,0,0,0.4901
1693267200000,2023-08-29 00:00:00,AGLD/USDT,0.5262,0.5262,0.5262,0.5262,0,0,0,0,0,0.4901
1693180800000,2023-08-28 00:00:00,AGLD/USDT,0.4546,0.5262,0.4546,0.5262,20.107,41.2387,9.9975,19.0005,3,0.4901
1693094400000,2023-08-27 00:00:00,AGLD/USDT,0.4862,0.4862,0.4862,0.4862,0,0,0,0,0,0.4862
1693008000000,2023-08-26 00:00:00,AGLD/USDT,0.4862,0.4862,0.4862,0.4862,0,0,0,0,0,0.4862
1692921600000,2023-08-25 00:00:00,AGLD/USDT,0.4862,0.4862,0.4862,0.4862,0,0,0,0,0,0.4862
1692835200000,2023-08-24 00:00:00,AGLD/USDT,0.4862,0.4862,0.4862,0.4862,0.8769,1.8036,0,0,1,0.4862
1692748800000,2023-08-23 00:00:00,AGLD/USDT,0.5,0.5,0.5,0.5,0,0,0,0,0,0.5
1692662400000,2023-08-22 00:00:00,AGLD/USDT,0.5,0.5,0.5,0.5,0,0,0,0,0,0.5
1692576000000,2023-08-21 00:00:00,AGLD/USDT,0.5,0.5,0.5,0.5,0,0,0,0,0,0.5
1692489600000,2023-08-20 00:00:00,AGLD/USDT,0.5,0.5,0.5,0.5,0,0,0,0,0,0.5
1692403200000,2023-08-19 00:00:00,AGLD/USDT,0.5,0.5,0.5,0.5,0,0,0,0,0,0.5
1692316800000,2023-08-18 00:00:00,AGLD/USDT,0.5,0.5,0.5,0.5,5,10,0,0,1,0.5
1692230400000,2023-08-17 00:00:00,AGLD/USDT,0.6156,0.6156,0.6156,0.6156,0,0,0,0,0,0.6156
1692144000000,2023-08-16 00:00:00,AGLD/USDT,0.6156,0.6156,0.6156,0.6156,0,0,0,0,0,0.6156
1692057600000,2023-08-15 00:00:00,AGLD/USDT,0.6156,0.6156,0.6156,0.6156,0,0,0,0,0,0.6156
1691971200000,2023-08-14 00:00:00,AGLD/USDT,0.6156,0.6156,0.6156,0.6156,1.8189,2.9547,0,0,1,0.6156
1691884800000,2023-08-13 00:00:00,AGLD/USDT,0.6137,0.6137,0.6137,0.6137,6.1247,9.98,0,0,1,0.6137
1691798400000,2023-08-12 00:00:00,AGLD/USDT,0.5161,0.6707,0.5161,0.5871,102.9591,154.1824,102.7704,153.8168,3,0.6681
1691712000000,2023-08-11 00:00:00,AGLD/USDT,0.6755,0.6755,0.6755,0.6755,0,0,0,0,0,0.6755
1691625600000,2023-08-10 00:00:00,AGLD/USDT,0.6755,0.6755,0.6755,0.6755,0,0,0,0,0,0.6755
1691539200000,2023-08-09 00:00:00,AGLD/USDT,0.6755,0.6755,0.6755,0.6755,0,0,0,0,0,0.6755
1691452800000,2023-08-08 00:00:00,AGLD/USDT,0.6755,0.6755,0.6755,0.6755,0,0,0,0,0,0.6755
1691366400000,2023-08-07 00:00:00,AGLD/USDT,0.6755,0.6755,0.6755,0.6755,0,0,0,0,0,0.6755
1691280000000,2023-08-06 00:00:00,AGLD/USDT,0.6755,0.6755,0.6755,0.6755,0,0,0,0,0,0.6755
1691193600000,2023-08-05 00:00:00,AGLD/USDT,0.6755,0.6755,0.6755,0.6755,0,0,0,0,0,0.6755
1691107200000,2023-08-04 00:00:00,AGLD/USDT,0.6755,0.6755,0.6755,0.6755,0,0,0,0,0,0.6755
1691020800000,2023-08-03 00:00:00,AGLD/USDT,0.6755,0.6755,0.6755,0.6755,0,0,0,0,0,0.6755
1690934400000,2023-08-02 00:00:00,AGLD/USDT,0.6755,0.6755,0.6755,0.6755,0,0,0,0,0,0.6755
1690848000000,2023-08-01 00:00:00,AGLD/USDT,0.6755,0.6755,0.6755,0.6755,1.9999,2.9607,1.9999,2.9607,1,0.6755
1690761600000,2023-07-31 00:00:00,AGLD/USDT,0.7506,0.7506,0.7506,0.7506,0,0,0,0,0,0.6721
1690675200000,2023-07-30 00:00:00,AGLD/USDT,0.7506,0.7506,0.7506,0.7506,0,0,0,0,0,0.6721
1690588800000,2023-07-29 00:00:00,AGLD/USDT,0.6624,0.7506,0.6624,0.7506,10.5829,15.7698,10.5829,15.7698,2,0.6721
1690502400000,2023-07-28 00:00:00,AGLD/USDT,0.6303,0.6624,0.6303,0.6624,354.4918,562.2224,2.5395,3.8339,2,0.6305
1690416000000,2023-07-27 00:00:00,AGLD/USDT,0.5799,0.58,0.5525,0.58,438.0379,755.5857,438.0379,755.5857,6,0.5797
1690329600000,2023-07-26 00:00:00,AGLD/USDT,0.6076,0.6076,0.6076,0.6076,0,0,0,0,0,0.6076
1690243200000,2023-07-25 00:00:00,AGLD/USDT,0.6076,0.6076,0.6076,0.6076,115.3696,189.8776,75.3696,124.0448,2,0.6076
1690156800000,2023-07-24 00:00:00,AGLD/USDT,0.5749,0.5749,0.5384,0.5557,164.3533,296.2496,8.8888,16.5097,3,0.5548
1690070400000,2023-07-23 00:00:00,AGLD/USDT,0.72,0.72,0.72,0.72,0,0,0,0,0,0.7212
1689984000000,2023-07-22 00:00:00,AGLD/USDT,0.7422,0.7422,0.72,0.72,133.2269,184.7372,0,0,2,0.7212
1689897600000,2023-07-21 00:00:00,AGLD/USDT,1.0777,1.0777,0.7422,0.7422,1900.7085,2099.118,589.7558,663.8088,19,0.9095
1689811200000,2023-07-20 00:00:00,AGLD/USDT,1.05,1.3779,1.05,1.0788,45.5425,36.2305,40.0814,31.1683,3,1.2759
1689724800000,2023-07-19 00:00:00,AGLD/USDT,0.9081,0.9081,0.8742,0.8742,21.8863,24.6199,21.8863,24.6199,3,0.8891
1689638400000,2023-07-18 00:00:00,AGLD/USDT,0.978,0.978,0.6857,0.8334,1069.8259,1236.2165,807.6471,853.8644,8,0.8826
1689552000000,2023-07-17 00:00:00,AGLD/USDT,0.7904,0.7904,0.7904,0.7904,10.9999,13.917,0,0,1,0.7904
1689465600000,2023-07-16 00:00:00,AGLD/USDT,0.83,0.83,0.6695,0.6695,479.7513,586.0324,144.6484,174.2752,3,0.8196
1689379200000,2023-07-15 00:00:00,AGLD/USDT,0.7396,0.7396,0.7396,0.7396,3.0373,4.1067,3.0373,4.1067,1,0.7396
1689292800000,2023-07-14 00:00:00,AGLD/USDT,0.6674,0.6692,0.6674,0.6692,227.2967,340.4287,227.2967,340.4287,4,0.6676
1689206400000,2023-07-13 00:00:00,AGLD/USDT,0.6148,0.6501,0.4895,0.65,274.4844,426.5996,19.9967,32.5256,4,0.6444
1689120000000,2023-07-12 00:00:00,AGLD/USDT,0.6148,0.6148,0.6148,0.6148,0,0,0,0,0,0.5971
1689033600000,2023-07-11 00:00:00,AGLD/USDT,0.6148,0.6148,0.6148,0.6148,0,0,0,0,0,0.5971
1688947200000,2023-07-10 00:00:00,AGLD/USDT,0.6148,0.6148,0.6148,0.6148,0,0,0,0,0,0.5971
1688860800000,2023-07-09 00:00:00,AGLD/USDT,0.5984,0.6169,0.584,0.6148,257.6192,431.4287,256.2192,429.1515,4,0.5971
1688774400000,2023-07-08 00:00:00,AGLD/USDT,0.6581,0.6581,0.5398,0.5959,87.9303,146.85,51.0176,78.4678,3,0.6042
1688688000000,2023-07-07 00:00:00,AGLD/USDT,0.7015,0.7015,0.7015,0.7015,4.8397,6.8992,4.8397,6.8992,1,0.7015
1688601600000,2023-07-06 00:00:00,AGLD/USDT,0.7564,0.7564,0.7564,0.7564,0,0,0,0,0,0.6885
1688515200000,2023-07-05 00:00:00,AGLD/USDT,0.6675,0.7564,0.6675,0.7564,30.4138,44.2907,30.4138,44.2907,3,0.6885
1688428800000,2023-07-04 00:00:00,AGLD/USDT,0.636,0.636,0.636,0.636,0,0,0,0,0,0.636
1688342400000,2023-07-03 00:00:00,AGLD/USDT,0.636,0.636,0.636,0.636,7.2855,11.4552,7.2855,11.4552,1,0.636
1688256000000,2023-07-02 00:00:00,AGLD/USDT,0.6541,0.6541,0.6541,0.6541,0,0,0,0,0,0.6541
1688169600000,2023-07-01 00:00:00,AGLD/USDT,0.6541,0.6541,0.6541,0.6541,7.5078,11.4782,7.5078,11.4782,1,0.6541
1688083200000,2023-06-30 00:00:00,AGLD/USDT,0.4798,0.4798,0.4798,0.4798,0,0,0,0,0,0.4861
1687996800000,2023-06-29 00:00:00,AGLD/USDT,0.4798,0.4798,0.4798,0.4798,0,0,0,0,0,0.4861
1687910400000,2023-06-28 00:00:00,AGLD/USDT,0.5644,0.5644,0.4798,0.4798,46.1845,95.1783,3.456,6.1234,2,0.4861
1687824000000,2023-06-27 00:00:00,AGLD/USDT,0.4273,0.4273,0.4273,0.4273,0,0,0,0,0,0.4538
1687737600000,2023-06-26 00:00:00,AGLD/USDT,0.4591,0.4591,0.4273,0.4273,2.7866,6.1445,2.3258,5.0661,2,0.4538
1687651200000,2023-06-25 00:00:00,AGLD/USDT,0.5239,0.5239,0.46,0.48,614.1773,1292.8727,614.1773,1292.8727,16,0.4754
1687564800000,2023-06-24 00:00:00,AGLD/USDT,0.4951,0.4951,0.4951,0.4951,0,0,0,0,0,0.544
1687478400000,2023-06-23 00:00:00,AGLD/USDT,0.5511,0.5566,0.4951,0.4951,62.8552,115.6969,53.9779,97.7666,3,0.544
1687392000000,2023-06-22 00:00:00,AGLD/USDT,0.5514,0.5878,0.508,0.5118,300.9642,589.8052,11.0579,19.374,5,0.5105
1687305600000,2023-06-21 00:00:00,AGLD/USDT,0.4989,0.5078,0.4989,0.5078,26.3296,52.3774,26.3296,52.3774,2,0.5027
1687219200000,2023-06-20 00:00:00,AGLD/USDT,0.4412,0.4412,0.4412,0.4412,0,0,0,0,0,0.4412
1687132800000,2023-06-19 00:00:00,AGLD/USDT,0.4412,0.4412,0.4412,0.4412,0,0,0,0,0,0.4412
1687046400000,2023-06-18 00:00:00,AGLD/USDT,0.4412,0.4412,0.4412,0.4412,0,0,0,0,0,0.4412
1686960000000,2023-06-17 00:00:00,AGLD/USDT,0.4412,0.4412,0.4412,0.4412,0,0,0,0,0,0.4412
1686873600000,2023-06-16 00:00:00,AGLD/USDT,0.4412,0.4412,0.4412,0.4412,43.9628,99.6439,0,0,1,0.4412
1686787200000,2023-06-15 00:00:00,AGLD/USDT,0.5533,0.5533,0.5533,0.5533,0,0,0,0,0,0.5533
1686700800000,2023-06-14 00:00:00,AGLD/USDT,0.5533,0.5533,0.5533,0.5533,0,0,0,0,0,0.5533
1686614400000,2023-06-13 00:00:00,AGLD/USDT,0.5533,0.5533,0.5533,0.5533,0.9999,1.8073,0.9999,1.8073,1,0.5533
1686528000000,2023-06-12 00:00:00,AGLD/USDT,0.4931,0.4931,0.4931,0.4931,0,0,0,0,0,0.4917
1686441600000,2023-06-11 00:00:00,AGLD/USDT,0.4931,0.4931,0.4931,0.4931,0,0,0,0,0,0.4917
1686355200000,2023-06-10 00:00:00,AGLD/USDT,0.4904,0.4931,0.4904,0.4931,2.0743,4.218,2.0743,4.218,2,0.4917
1686268800000,2023-06-09 00:00:00,AGLD/USDT,0.463,0.4782,0.463,0.4782,321.3906,691.0137,321.3906,691.0137,8,0.4651
1686182400000,2023-06-08 00:00:00,AGLD/USDT,0.4631,0.4631,0.4631,0.4631,1.0999,2.3752,1.0999,2.3752,1,0.4631
1686096000000,2023-06-07 00:00:00,AGLD/USDT,0.4105,0.4105,0.4105,0.4105,0,0,0,0,0,0.4105
1686009600000,2023-06-06 00:00:00,AGLD/USDT,0.4105,0.4105,0.4105,0.4105,1.1999,2.9232,1.1999,2.9232,1,0.4105
1685923200000,2023-06-05 00:00:00,AGLD/USDT,0.4179,0.4179,0.4179,0.4179,1.4999,3.5893,1.4999,3.5893,1,0.4179
1685836800000,2023-06-04 00:00:00,AGLD/USDT,0.366,0.366,0.366,0.366,0,0,0,0,0,0.366
1685750400000,2023-06-03 00:00:00,AGLD/USDT,0.366,0.366,0.366,0.366,0,0,0,0,0,0.366
1685664000000,2023-06-02 00:00:00,AGLD/USDT,0.366,0.366,0.366,0.366,0,0,0,0,0,0.366
1685577600000,2023-06-01 00:00:00,AGLD/USDT,0.366,0.366,0.366,0.366,0,0,0,0,0,0.366
1685491200000,2023-05-31 00:00:00,AGLD/USDT,0.366,0.366,0.366,0.366,0,0,0,0,0,0.366
1685404800000,2023-05-30 00:00:00,AGLD/USDT,0.366,0.366,0.366,0.366,0,0,0,0,0,0.366
1685318400000,2023-05-29 00:00:00,AGLD/USDT,0.366,0.366,0.366,0.366,0,0,0,0,0,0.366
1685232000000,2023-05-28 00:00:00,AGLD/USDT,0.366,0.366,0.366,0.366,0,0,0,0,0,0.366
1685145600000,2023-05-27 00:00:00,AGLD/USDT,0.366,0.366,0.366,0.366,0,0,0,0,0,0.366
1685059200000,2023-05-26 00:00:00,AGLD/USDT,0.366,0.366,0.366,0.366,0,0,0,0,0,0.366
1684972800000,2023-05-25 00:00:00,AGLD/USDT,0.366,0.366,0.366,0.366,0,0,0,0,0,0.366
1684886400000,2023-05-24 00:00:00,AGLD/USDT,0.366,0.366,0.366,0.366,6.9126,18.887,6.9126,18.887,1,0.366
1684800000000,2023-05-23 00:00:00,AGLD/USDT,0.368,0.3749,0.368,0.3686,13.2814,36.0406,1.0038,2.6776,3,0.3685
1684713600000,2023-05-22 00:00:00,AGLD/USDT,0.4103,0.4103,0.4103,0.4103,0,0,0,0,0,0.3898
1684627200000,2023-05-21 00:00:00,AGLD/USDT,0.4103,0.4103,0.4103,0.4103,0,0,0,0,0,0.3898
1684540800000,2023-05-20 00:00:00,AGLD/USDT,0.4103,0.4103,0.4103,0.4103,0,0,0,0,0,0.3898
1684454400000,2023-05-19 00:00:00,AGLD/USDT,0.4103,0.4103,0.4103,0.4103,0,0,0,0,0,0.3898
1684368000000,2023-05-18 00:00:00,AGLD/USDT,0.4103,0.4103,0.4103,0.4103,0,0,0,0,0,0.3898
1684281600000,2023-05-17 00:00:00,AGLD/USDT,0.4103,0.4103,0.4103,0.4103,0,0,0,0,0,0.3898
1684195200000,2023-05-16 00:00:00,AGLD/USDT,0.3891,0.4103,0.3891,0.4103,98.5278,252.7755,98.5278,252.7755,2,0.3898
1684108800000,2023-05-15 00:00:00,AGLD/USDT,0.3486,0.3486,0.3486,0.3486,0,0,0,0,0,0.349
1684022400000,2023-05-14 00:00:00,AGLD/USDT,0.3486,0.3486,0.3486,0.3486,0,0,0,0,0,0.349
1683936000000,2023-05-13 00:00:00,AGLD/USDT,0.3486,0.3486,0.3486,0.3486,0,0,0,0,0,0.349
1683849600000,2023-05-12 00:00:00,AGLD/USDT,0.3529,0.3529,0.3486,0.3486,7.5386,21.6009,0,0,2,0.349
1683763200000,2023-05-11 00:00:00,AGLD/USDT,0.3401,0.3401,0.3375,0.3375,12.768,37.7944,1,2.9623,3,0.3378
1683676800000,2023-05-10 00:00:00,AGLD/USDT,0.341,0.3579,0.341,0.3505,134.2725,383.8677,5.0193,14.0245,3,0.3498
1683590400000,2023-05-09 00:00:00,AGLD/USDT,0.3849,0.3849,0.3849,0.3849,0,0,0,0,0,0.3849
1683504000000,2023-05-08 00:00:00,AGLD/USDT,0.3849,0.3849,0.3849,0.3849,1.0924,2.8383,1.0924,2.8383,1,0.3849
1683417600000,2023-05-07 00:00:00,AGLD/USDT,0.4087,0.4087,0.4087,0.4087,0,0,0,0,0,0.4087
1683331200000,2023-05-06 00:00:00,AGLD/USDT,0.41,0.41,0.4087,0.4087,230.2829,563.3903,0,0,4,0.4087
1683244800000,2023-05-05 00:00:00,AGLD/USDT,0.41,0.41,0.41,0.41,0,0,0,0,0,0.41
1683158400000,2023-05-04 00:00:00,AGLD/USDT,0.41,0.41,0.41,0.41,0,0,0,0,0,0.41
1683072000000,2023-05-03 00:00:00,AGLD/USDT,0.41,0.41,0.41,0.41,0.8169,1.9926,0,0,1,0.41
1682985600000,2023-05-02 00:00:00,AGLD/USDT,0.4483,0.4483,0.4483,0.4483,1.4308,3.1918,1.4308,3.1918,1,0.4483
1682899200000,2023-05-01 00:00:00,AGLD/USDT,0.4483,0.4483,0.4483,0.4483,3.6641,8.1735,0,0,1,0.4483
1682812800000,2023-04-30 00:00:00,AGLD/USDT,0.5066,0.5066,0.5066,0.5066,0,0,0,0,0,0.5066
1682726400000,2023-04-29 00:00:00,AGLD/USDT,0.5066,0.5066,0.5066,0.5066,0,0,0,0,0,0.5066
1682640000000,2023-04-28 00:00:00,AGLD/USDT,0.5066,0.5066,0.5066,0.5066,0,0,0,0,0,0.5066
1682553600000,2023-04-27 00:00:00,AGLD/USDT,0.5066,0.5066,0.5066,0.5066,3.6715,7.2474,3.6715,7.2474,1,0.5066
1682467200000,2023-04-26 00:00:00,AGLD/USDT,0.469,0.469,0.469,0.469,0,0,0,0,0,0.485
1682380800000,2023-04-25 00:00:00,AGLD/USDT,0.469,0.469,0.469,0.469,0,0,0,0,0,0.485
1682294400000,2023-04-24 00:00:00,AGLD/USDT,0.469,0.469,0.469,0.469,0,0,0,0,0,0.485
1682208000000,2023-04-23 00:00:00,AGLD/USDT,0.469,0.469,0.469,0.469,0,0,0,0,0,0.485
1682121600000,2023-04-22 00:00:00,AGLD/USDT,0.469,0.469,0.469,0.469,0,0,0,0,0,0.485
1682035200000,2023-04-21 00:00:00,AGLD/USDT,0.469,0.469,0.469,0.469,0,0,0,0,0,0.485
1681948800000,2023-04-20 00:00:00,AGLD/USDT,0.4869,0.4869,0.469,0.469,32.8712,67.7782,29.4653,60.5163,2,0.485
1681862400000,2023-04-19 00:00:00,AGLD/USDT,0.5299,0.5299,0.5299,0.5299,0,0,0,0,0,0.5299
1681776000000,2023-04-18 00:00:00,AGLD/USDT,0.5299,0.5299,0.5299,0.5299,0,0,0,0,0,0.5299
1681689600000,2023-04-17 00:00:00,AGLD/USDT,0.5299,0.5299,0.5299,0.5299,1.0579,1.9966,1.0579,1.9966,1,0.5299
1681603200000,2023-04-16 00:00:00,AGLD/USDT,0.5179,0.5179,0.5179,0.5179,0,0,0,0,0,0.5179
1681516800000,2023-04-15 00:00:00,AGLD/USDT,0.5179,0.5179,0.5179,0.5179,0,0,0,0,0,0.5179
1681430400000,2023-04-14 00:00:00,AGLD/USDT,0.5179,0.5179,0.5179,0.5179,3.4483,6.6583,0,0,1,0.5179
1681344000000,2023-04-13 00:00:00,AGLD/USDT,0.65,0.65,0.5974,0.5974,13.6561,21.5494,0,0,2,0.6346
1681257600000,2023-04-12 00:00:00,AGLD/USDT,0.5899,0.675,0.5899,0.6074,736.9244,1159.6653,736.9244,1159.6653,10,0.6364
1681171200000,2023-04-11 00:00:00,AGLD/USDT,0.5647,0.5647,0.5647,0.5647,0,0,0,0,0,0.5717
1681084800000,2023-04-10 00:00:00,AGLD/USDT,0.5743,0.5743,0.5647,0.5647,14.2158,24.8663,14.2158,24.8663,2,0.5717
1680998400000,2023-04-09 00:00:00,AGLD/USDT,0.5305,0.536,0.5064,0.5064,107.643,202.1868,107.643,202.1868,4,0.5324
1680912000000,2023-04-08 00:00:00,AGLD/USDT,0.4697,0.5454,0.4023,0.5112,174.1975,333.8452,170.2874,325.5206,8,0.5234
1680825600000,2023-04-07 00:00:00,AGLD/USDT,0.4694,0.5307,0.4694,0.478,523.6108,1079.8737,523.6108,1079.8737,8,0.4854
1680739200000,2023-04-06 00:00:00,AGLD/USDT,0.4648,0.4648,0.412,0.412,45.1338,102.9451,22.7832,49.0174,3,0.44
1680652800000,2023-04-05 00:00:00,AGLD/USDT,0.3816,0.3816,0.3816,0.3816,18.7334,49.0918,0,0,1,0.3816
1680566400000,2023-04-04 00:00:00,AGLD/USDT,0.4018,0.4018,0.4018,0.4018,0,0,0,0,0,0.4018
1680480000000,2023-04-03 00:00:00,AGLD/USDT,0.4018,0.4018,0.4018,0.4018,0,0,0,0,0,0.4018
1680393600000,2023-04-02 00:00:00,AGLD/USDT,0.4018,0.4018,0.4018,0.4018,39.5466,98.4237,39.5466,98.4237,1,0.4018
1680307200000,2023-04-01 00:00:00,AGLD/USDT,0.3603,0.4074,0.3603,0.3979,319.0635,836.3585,149.5286,367.2449,5,0.3828
1680220800000,2023-03-31 00:00:00,AGLD/USDT,0.4071,0.4071,0.4071,0.4071,3.6595,8.9894,3.6595,8.9894,1,0.4071
1680134400000,2023-03-30 00:00:00,AGLD/USDT,0.3973,0.3973,0.3641,0.3641,50.9635,139.7419,0.9999,2.5169,2,0.3647
1680048000000,2023-03-29 00:00:00,AGLD/USDT,0.3978,0.3978,0.3978,0.3978,0,0,0,0,0,0.4248
1679961600000,2023-03-28 00:00:00,AGLD/USDT,0.3978,0.3978,0.3978,0.3978,0,0,0,0,0,0.4248
1679875200000,2023-03-27 00:00:00,AGLD/USDT,0.3978,0.3978,0.3978,0.3978,0,0,0,0,0,0.4248
1679788800000,2023-03-26 00:00:00,AGLD/USDT,0.3978,0.3978,0.3978,0.3978,0,0,0,0,0,0.4248
1679702400000,2023-03-25 00:00:00,AGLD/USDT,0.3978,0.3978,0.3978,0.3978,0,0,0,0,0,0.4248
1679616000000,2023-03-24 00:00:00,AGLD/USDT,0.3978,0.3978,0.3978,0.3978,0,0,0,0,0,0.4248
1679529600000,2023-03-23 00:00:00,AGLD/USDT,0.3978,0.3978,0.3978,0.3978,0,0,0,0,0,0.4248
1679443200000,2023-03-22 00:00:00,AGLD/USDT,0.4299,0.4299,0.3978,0.3978,24.8712,58.5808,19.9999,46.5224,3,0.4248
1679356800000,2023-03-21 00:00:00,AGLD/USDT,0.4371,0.4371,0.4371,0.4371,0,0,0,0,0,0.4371
1679270400000,2023-03-20 00:00:00,AGLD/USDT,0.4371,0.4371,0.4371,0.4371,3.8853,8.889,3.8853,8.889,1,0.4371
1679184000000,2023-03-19 00:00:00,AGLD/USDT,0.4495,0.4495,0.4015,0.4015,52.576,117.9167,52.576,117.9167,2,0.4462
1679097600000,2023-03-18 00:00:00,AGLD/USDT,0.305,0.305,0.305,0.305,0,0,0,0,0,0.305
1679011200000,2023-03-17 00:00:00,AGLD/USDT,0.305,0.305,0.305,0.305,0,0,0,0,0,0.305
1678924800000,2023-03-16 00:00:00,AGLD/USDT,0.305,0.305,0.305,0.305,0,0,0,0,0,0.305
1678838400000,2023-03-15 00:00:00,AGLD/USDT,0.305,0.305,0.305,0.305,0,0,0,0,0,0.305
1678752000000,2023-03-14 00:00:00,AGLD/USDT,0.305,0.305,0.305,0.305,0,0,0,0,0,0.305
1678665600000,2023-03-13 00:00:00,AGLD/USDT,0.305,0.305,0.305,0.305,0,0,0,0,0,0.305
1678579200000,2023-03-12 00:00:00,AGLD/USDT,0.305,0.305,0.305,0.305,0,0,0,0,0,0.305
1678492800000,2023-03-11 00:00:00,AGLD/USDT,0.305,0.305,0.305,0.305,2.3876,7.8282,0,0,1,0.305
1678406400000,2023-03-10 00:00:00,AGLD/USDT,0.3653,0.3653,0.3375,0.346,32.3765,92.7942,9.4337,27.2652,4,0.3492
1678320000000,2023-03-09 00:00:00,AGLD/USDT,0.4483,0.4483,0.4483,0.4483,0,0,0,0,0,0.4555
1678233600000,2023-03-08 00:00:00,AGLD/USDT,0.4483,0.4483,0.4483,0.4483,0,0,0,0,0,0.4555
1678147200000,2023-03-07 00:00:00,AGLD/USDT,0.4483,0.4483,0.4483,0.4483,0,0,0,0,0,0.4555
1678060800000,2023-03-06 00:00:00,AGLD/USDT,0.47,0.47,0.4483,0.4483,31.2313,68.5946,0,0,3,0.4555
1677974400000,2023-03-05 00:00:00,AGLD/USDT,0.5263,0.5263,0.5263,0.5263,0,0,0,0,0,0.5287
1677888000000,2023-03-04 00:00:00,AGLD/USDT,0.5263,0.5263,0.5263,0.5263,0,0,0,0,0,0.5287
1677801600000,2023-03-03 00:00:00,AGLD/USDT,0.53,0.53,0.5263,0.5263,12.1259,22.9338,0,0,2,0.5287
1677715200000,2023-03-02 00:00:00,AGLD/USDT,0.5827,0.5827,0.5827,0.5827,0,0,0,0,0,0.5832
1677628800000,2023-03-01 00:00:00,AGLD/USDT,0.5837,0.5837,0.5827,0.5827,14.6205,25.0691,7.4468,12.758,2,0.5832
1677542400000,2023-02-28 00:00:00,AGLD/USDT,0.5947,0.5947,0.5947,0.5947,0,0,0,0,0,0.5383
1677456000000,2023-02-27 00:00:00,AGLD/USDT,0.5337,0.5947,0.5337,0.5947,93.4854,173.7515,89.6554,166.5751,5,0.5383
1677369600000,2023-02-26 00:00:00,AGLD/USDT,0.6009,0.6009,0.6009,0.6009,0,0,0,0,0,0.6027
1677283200000,2023-02-25 00:00:00,AGLD/USDT,0.6009,0.6009,0.6009,0.6009,0,0,0,0,0,0.6027
1677196800000,2023-02-24 00:00:00,AGLD/USDT,0.6009,0.6009,0.6009,0.6009,0,0,0,0,0,0.6027
1677110400000,2023-02-23 00:00:00,AGLD/USDT,0.6009,0.6009,0.6009,0.6009,0,0,0,0,0,0.6027
1677024000000,2023-02-22 00:00:00,AGLD/USDT,0.6009,0.6009,0.6009,0.6009,0,0,0,0,0,0.6027
1676937600000,2023-02-21 00:00:00,AGLD/USDT,0.6009,0.6009,0.6009,0.6009,0,0,0,0,0,0.6027
1676851200000,2023-02-20 00:00:00,AGLD/USDT,0.6031,0.6031,0.6009,0.6009,154.3766,256.1344,154.3766,256.1344,2,0.6027
1676764800000,2023-02-19 00:00:00,AGLD/USDT,0.539,0.7218,0.2319,0.4461,75.0348,137.2164,61.1725,92.5476,8,0.6218
1676678400000,2023-02-18 00:00:00,AGLD/USDT,0.4842,0.5235,0.4842,0.5235,175.4583,350.1783,78.6183,150.1783,2,0.5018
1676592000000,2023-02-17 00:00:00,AGLD/USDT,0.5061,0.5379,0.4545,0.4775,28.8118,57.3124,16.7517,31.7899,8,0.5044
1676505600000,2023-02-16 00:00:00,AGLD/USDT,0.5294,0.5294,0.4685,0.4685,10.2206,20.5599,5.114,9.66,2,0.4989
1676419200000,2023-02-15 00:00:00,AGLD/USDT,0.49,0.49,0.49,0.49,0,0,0,0,0,0.5437
1676332800000,2023-02-14 00:00:00,AGLD/USDT,0.49,0.49,0.49,0.49,0,0,0,0,0,0.5437
1676246400000,2023-02-13 00:00:00,AGLD/USDT,0.49,0.49,0.49,0.49,0,0,0,0,0,0.5437
1676160000000,2023-02-12 00:00:00,AGLD/USDT,0.49,0.49,0.49,0.49,0,0,0,0,0,0.5437
1676073600000,2023-02-11 00:00:00,AGLD/USDT,0.49,0.49,0.49,0.49,0,0,0,0,0,0.543724528871248766
1675987200000,2023-02-10 00:00:00,AGLD/USDT,0.49,0.49,0.49,0.49,0,0,0,0,0,0.543724528871248766
1675900800000,2023-02-09 00:00:00,AGLD/USDT,0.49,0.49,0.49,0.49,0,0,0,0,0,0.543724528871248766
1675814400000,2023-02-08 00:00:00,AGLD/USDT,0.5463,0.5464,0.49,0.49,100.24945278,184.4741,95.50914378,174.8,5,0.543724528871248766
1675728000000,2023-02-07 00:00:00,AGLD/USDT,0.49,0.5537,0.49,0.5537,498.09516091,1010.5827,486.8172332,990.2144,8,0.493081709447091684
1675641600000,2023-02-06 00:00:00,AGLD/USDT,0.3725,0.3725,0.3725,0.3725,102.58988975,275.4091,0,0,1,0.3725
1675555200000,2023-02-05 00:00:00,AGLD/USDT,0.396,0.3961,0.3549,0.3549,37.89279699,100.9113,19.99998114,50.4948,3,0.376634991052398425
1675468800000,2023-02-04 00:00:00,AGLD/USDT,0.3844,0.3844,0.297,0.297,7.9510071,23.3351,0,0,2,0.346336320497060051
1675382400000,2023-02-03 00:00:00,AGLD/USDT,0.4343,0.4343,0.3958,0.3958,133.07013254,307.2973,129.07013816,297.1912,2,0.433142717139522584
1675296000000,2023-02-02 00:00:00,AGLD/USDT,0.3772,0.3772,0.3772,0.3772,0,0,0,0,0,0.375210660980810234
1675209600000,2023-02-01 00:00:00,AGLD/USDT,0.3772,0.3772,0.3772,0.3772,0,0,0,0,0,0.375210660980810234
1675123200000,2023-01-31 00:00:00,AGLD/USDT,0.3772,0.3772,0.3772,0.3772,0,0,0,0,0,0.375210660980810234
1675036800000,2023-01-30 00:00:00,AGLD/USDT,0.3732,0.3772,0.3732,0.3772,5.04741552,13.4526,2.51025516,6.7263,2,0.375210660980810234
1674950400000,2023-01-29 00:00:00,AGLD/USDT,0.3748,0.3748,0.3748,0.3748,30.1022494,80.3155,30.1022494,80.3155,2,0.3748
1674864000000,2023-01-28 00:00:00,AGLD/USDT,0.3638,0.3638,0.3638,0.3638,0,0,0,0,0,0.3638
1674777600000,2023-01-27 00:00:00,AGLD/USDT,0.3638,0.3638,0.3638,0.3638,0,0,0,0,0,0.3638
1674691200000,2023-01-26 00:00:00,AGLD/USDT,0.3638,0.3638,0.3638,0.3638,0,0,0,0,0,0.3638
1674604800000,2023-01-25 00:00:00,AGLD/USDT,0.3638,0.3638,0.3638,0.3638,0,0,0,0,0,0.3638
1674518400000,2023-01-24 00:00:00,AGLD/USDT,0.3638,0.3638,0.3638,0.3638,0,0,0,0,0,0.3638
1674432000000,2023-01-23 00:00:00,AGLD/USDT,0.3638,0.3638,0.3638,0.3638,0,0,0,0,0,0.3638
1674345600000,2023-01-22 00:00:00,AGLD/USDT,0.3638,0.3638,0.3638,0.3638,0,0,0,0,0,0.3638
1674259200000,2023-01-21 00:00:00,AGLD/USDT,0.3638,0.3638,0.3638,0.3638,0,0,0,0,0,0.3638
1674172800000,2023-01-20 00:00:00,AGLD/USDT,0.3638,0.3638,0.3638,0.3638,49.99998078,137.4381,49.99998078,137.4381,1,0.3638
1674086400000,2023-01-19 00:00:00,AGLD/USDT,0.2892,0.2892,0.2892,0.2892,0,0,0,0,0,0.2892
1674000000000,2023-01-18 00:00:00,AGLD/USDT,0.2892,0.2892,0.2892,0.2892,0,0,0,0,0,0.2892
1673913600000,2023-01-17 00:00:00,AGLD/USDT,0.2892,0.2892,0.2892,0.2892,0,0,0,0,0,0.2892
1673827200000,2023-01-16 00:00:00,AGLD/USDT,0.2892,0.2892,0.2892,0.2892,0,0,0,0,0,0.2892
1673740800000,2023-01-15 00:00:00,AGLD/USDT,0.2892,0.2892,0.2892,0.2892,0,0,0,0,0,0.2892
1673654400000,2023-01-14 00:00:00,AGLD/USDT,0.2892,0.2892,0.2892,0.2892,0,0,0,0,0,0.2892
1673568000000,2023-01-13 00:00:00,AGLD/USDT,0.2892,0.2892,0.2892,0.2892,0,0,0,0,0,0.2892
1673481600000,2023-01-12 00:00:00,AGLD/USDT,0.2892,0.2892,0.2892,0.2892,0,0,0,0,0,0.2892
1673395200000,2023-01-11 00:00:00,AGLD/USDT,0.2892,0.2892,0.2892,0.2892,1.99999152,6.9156,1.99999152,6.9156,1,0.2892
1673308800000,2023-01-10 00:00:00,AGLD/USDT,0.3006,0.3007,0.3006,0.3007,5.99399909,19.9351,5.99399909,19.9351,2,0.300675653101408795
1673222400000,2023-01-09 00:00:00,AGLD/USDT,0.298,0.298,0.298,0.298,0,0,0,0,0,0.298
1673136000000,2023-01-08 00:00:00,AGLD/USDT,0.298,0.298,0.298,0.298,1.9999972,6.7114,1.9999972,6.7114,1,0.298
1673049600000,2023-01-07 00:00:00,AGLD/USDT,0.2708,0.2708,0.2708,0.2708,0,0,0,0,0,0.2708
1672963200000,2023-01-06 00:00:00,AGLD/USDT,0.2708,0.2708,0.2708,0.2708,0,0,0,0,0,0.2708
1672876800000,2023-01-05 00:00:00,AGLD/USDT,0.2708,0.2708,0.2708,0.2708,0,0,0,0,0,0.2708
1672790400000,2023-01-04 00:00:00,AGLD/USDT,0.2708,0.2708,0.2708,0.2708,0,0,0,0,0,0.2708
1672704000000,2023-01-03 00:00:00,AGLD/USDT,0.2708,0.2708,0.2708,0.2708,0,0,0,0,0,0.2708
1672617600000,2023-01-02 00:00:00,AGLD/USDT,0.2708,0.2708,0.2708,0.2708,0,0,0,0,0,0.2708
1672531200000,2023-01-01 00:00:00,AGLD/USDT,0.2708,0.2708,0.2708,0.2708,74.11178576,273.6772,74.11178576,273.6772,1,0.2708
1672444800000,2022-12-31 00:00:00,AGLD/USDT,0.2695,0.2791,0.2695,0.2748,130.72272022,476.0587,8.78084458,32.2438,4,0.274599932531101057
1672358400000,2022-12-30 00:00:00,AGLD/USDT,0.2481,0.2481,0.2481,0.2481,0,0,0,0,0,0.248196831744178
1672272000000,2022-12-29 00:00:00,AGLD/USDT,0.2481,0.2481,0.2481,0.2481,0,0,0,0,0,0.248196831744178
1672185600000,2022-12-28 00:00:00,AGLD/USDT,0.2482,0.2482,0.2481,0.2481,306.81806761,1236.1885,107.13262606,431.6383,3,0.248196831744178
1672099200000,2022-12-27 00:00:00,AGLD/USDT,0.2471,0.2471,0.2471,0.2471,0,0,0,0,0,0.257889161746661392
1672012800000,2022-12-26 00:00:00,AGLD/USDT,0.2471,0.2471,0.2471,0.2471,0,0,0,0,0,0.257889161746661392
1671926400000,2022-12-25 00:00:00,AGLD/USDT,0.2471,0.2471,0.2471,0.2471,0,0,0,0,0,0.257889161746661392
1671840000000,2022-12-24 00:00:00,AGLD/USDT,0.2471,0.2471,0.2471,0.2471,0,0,0,0,0,0.257889161746661392
1671753600000,2022-12-23 00:00:00,AGLD/USDT,0.2471,0.2471,0.2471,0.2471,0,0,0,0,0,0.257889161746661392
1671667200000,2022-12-22 00:00:00,AGLD/USDT,0.2471,0.2471,0.2471,0.2471,0,0,0,0,0,0.257889161746661392
1671580800000,2022-12-21 00:00:00,AGLD/USDT,0.2471,0.2471,0.2471,0.2471,0,0,0,0,0,0.257889161746661392
1671494400000,2022-12-20 00:00:00,AGLD/USDT,0.2471,0.2471,0.2471,0.2471,0,0,0,0,0,0.257889161746661392
1671408000000,2022-12-19 00:00:00,AGLD/USDT,0.2471,0.2471,0.2471,0.2471,0,0,0,0,0,0.257889161746661392
1671321600000,2022-12-18 00:00:00,AGLD/USDT,0.2471,0.2471,0.2471,0.2471,0,0,0,0,0,0.257889161746661392
1671235200000,2022-12-17 00:00:00,AGLD/USDT,0.2592,0.2592,0.2471,0.2471,11.43924248,44.367,0,0,3,0.257889161746661392
1671148800000,2022-12-16 00:00:00,AGLD/USDT,0.2701,0.2701,0.2701,0.2701,1.09998225,4.0725,0,0,1,0.2701
1671062400000,2022-12-15 00:00:00,AGLD/USDT,0.2973,0.2973,0.2973,0.2973,0,0,0,0,0,0.2973
1670976000000,2022-12-14 00:00:00,AGLD/USDT,0.2973,0.2973,0.2973,0.2973,0,0,0,0,0,0.2973
1670889600000,2022-12-13 00:00:00,AGLD/USDT,0.2973,0.2973,0.2973,0.2973,0,0,0,0,0,0.2973
1670803200000,2022-12-12 00:00:00,AGLD/USDT,0.2973,0.2973,0.2973,0.2973,4.99618596,16.8052,0,0,1,0.2973
1670716800000,2022-12-11 00:00:00,AGLD/USDT,0.3117,0.3117,0.3086,0.3086,19.88515835,64.1144,9.99999057,32.0821,2,0.310158950158775074
1670630400000,2022-12-10 00:00:00,AGLD/USDT,0.3198,0.3198,0.3198,0.3198,9.6960162,30.319,0,0,1,0.3198
1670544000000,2022-12-09 00:00:00,AGLD/USDT,0.3359,0.3359,0.3359,0.3359,0,0,0,0,0,0.3359
1670457600000,2022-12-08 00:00:00,AGLD/USDT,0.3359,0.3359,0.3359,0.3359,10.19997299,30.3661,10.19997299,30.3661,1,0.3359
1670371200000,2022-12-07 00:00:00,AGLD/USDT,0.3292,0.3292,0.3292,0.3292,0,0,0,0,0,0.325813155257591711
1670284800000,2022-12-06 00:00:00,AGLD/USDT,0.3292,0.3292,0.3292,0.3292,0,0,0,0,0,0.325813155257591711
1670198400000,2022-12-05 00:00:00,AGLD/USDT,0.3257,0.3292,0.3257,0.3292,34.55484135,106.0576,34.55484135,106.0576,4,0.325813155257591711
1670112000000,2022-12-04 00:00:00,AGLD/USDT,0.2592,0.2592,0.2592,0.2592,0,0,0,0,0,0.2592
1670025600000,2022-12-03 00:00:00,AGLD/USDT,0.2592,0.2592,0.2592,0.2592,0,0,0,0,0,0.2592
1669939200000,2022-12-02 00:00:00,AGLD/USDT,0.2592,0.2592,0.2592,0.2592,0,0,0,0,0,0.2592
1669852800000,2022-12-01 00:00:00,AGLD/USDT,0.2592,0.2592,0.2592,0.2592,0,0,0,0,0,0.2592
1669766400000,2022-11-30 00:00:00,AGLD/USDT,0.2592,0.2592,0.2592,0.2592,0.43867008,1.6924,0,0,1,0.2592
1669680000000,2022-11-29 00:00:00,AGLD/USDT,0.2612,0.2612,0.2612,0.2612,64.44571928,246.7294,0,0,1,0.2612
1669593600000,2022-11-28 00:00:00,AGLD/USDT,0.2569,0.2569,0.2569,0.2569,0,0,0,0,0,0.2569
1669507200000,2022-11-27 00:00:00,AGLD/USDT,0.2569,0.2569,0.2569,0.2569,0,0,0,0,0,0.2569
1669420800000,2022-11-26 00:00:00,AGLD/USDT,0.2569,0.2569,0.2569,0.2569,7.14169155,27.7995,7.14169155,27.7995,1,0.2569
1669334400000,2022-11-25 00:00:00,AGLD/USDT,0.2417,0.256,0.2417,0.256,70.22057906,275.6812,64.1323008,250.5168,4,0.254781009574830469
1669248000000,2022-11-24 00:00:00,AGLD/USDT,0.2567,0.2567,0.2567,0.2567,0,0,0,0,0,0.2567
1669161600000,2022-11-23 00:00:00,AGLD/USDT,0.2567,0.2567,0.2567,0.2567,0,0,0,0,0,0.2567
1669075200000,2022-11-22 00:00:00,AGLD/USDT,0.2567,0.2567,0.2567,0.2567,0,0,0,0,0,0.2567
1668988800000,2022-11-21 00:00:00,AGLD/USDT,0.2567,0.2567,0.2567,0.2567,69.99998506,272.6918,0,0,2,0.2567
1668902400000,2022-11-20 00:00:00,AGLD/USDT,0.2557,0.2587,0.2557,0.2587,124.24099749,482.5108,34.06277824,132.7823,4,0.257496714967874973
1668816000000,2022-11-19 00:00:00,AGLD/USDT,0.2509,0.2509,0.2509,0.2509,0,0,0,0,0,0.24720019975420909
1668729600000,2022-11-18 00:00:00,AGLD/USDT,0.2509,0.2509,0.2509,0.2509,0,0,0,0,0,0.24720019975420909
1668643200000,2022-11-17 00:00:00,AGLD/USDT,0.2509,0.2509,0.2509,0.2509,0,0,0,0,0,0.24720019975420909
1668556800000,2022-11-16 00:00:00,AGLD/USDT,0.245,0.2509,0.245,0.2509,84.65895701,342.5068,84.65895701,342.5068,4,0.24720019975420909
1668470400000,2022-11-15 00:00:00,AGLD/USDT,0.2421,0.245,0.2348,0.2348,996.30463827,4068.3272,992.17767039,4051.3228,9,0.244894593243219908
1668384000000,2022-11-14 00:00:00,AGLD/USDT,0.2223,0.2312,0.2223,0.2312,80.0320892,353.6884,4.0605108,17.9272,3,0.226360633955410975
1668297600000,2022-11-13 00:00:00,AGLD/USDT,0.2381,0.2381,0.2381,0.2381,0,0,0,0,0,0.221668312511406906
1668211200000,2022-11-12 00:00:00,AGLD/USDT,0.2381,0.2381,0.2381,0.2381,0,0,0,0,0,0.221668312511406906
1668124800000,2022-11-11 00:00:00,AGLD/USDT,0.2325,0.2381,0.0305,0.2381,515.51830736,2533.984,0,0,8,0.221668312511406906
1668038400000,2022-11-10 00:00:00,AGLD/USDT,0.2333,0.2333,0.2333,0.2333,2.42368371,10.3887,0,0,1,0.2333
1667952000000,2022-11-09 00:00:00,AGLD/USDT,0.354,0.354,0.354,0.354,0,0,0,0,0,0.354
1667865600000,2022-11-08 00:00:00,AGLD/USDT,0.354,0.354,0.354,0.354,0,0,0,0,0,0.354
1667779200000,2022-11-07 00:00:00,AGLD/USDT,0.354,0.354,0.354,0.354,0,0,0,0,0,0.354
1667692800000,2022-11-06 00:00:00,AGLD/USDT,0.354,0.354,0.354,0.354,20.2845186,57.3009,0,0,1,0.354
1667606400000,2022-11-05 00:00:00,AGLD/USDT,0.3877,0.3877,0.3877,0.3877,1.99998922,5.1586,1.99998922,5.1586,1,0.3877
1667520000000,2022-11-04 00:00:00,AGLD/USDT,0.3937,0.4,0.3547,0.3703,339.44253024,902.4064,266.11018164,698.9804,20,0.376555722237831025
1667433600000,2022-11-03 00:00:00,AGLD/USDT,0.344,0.374,0.3413,0.3413,67.9316421,186.3114,37.1834964,101.0196,4,0.364888449180444586
1667347200000,2022-11-02 00:00:00,AGLD/USDT,0.3321,0.3322,0.3321,0.3322,448.82535728,1351.4197,448.82535728,1351.4197,5,0.33211397034503576
1667260800000,2022-11-01 00:00:00,AGLD/USDT,0.3354,0.3354,0.3354,0.3354,0,0,0,0,0,0.334869949318793433
1667174400000,2022-10-31 00:00:00,AGLD/USDT,0.3346,0.3354,0.3346,0.3354,304.40128492,909.0146,185.67339354,554.1793,4,0.334869949318793433
1667088000000,2022-10-30 00:00:00,AGLD/USDT,0.3519,0.3519,0.34,0.34,593.39116705,1744.7967,0,0,5,0.340092795060699579
1667001600000,2022-10-29 00:00:00,AGLD/USDT,0.3586,0.3586,0.3322,0.3322,11.69185952,32.9348,11.69185952,32.9348,2,0.355231369697469645
1666915200000,2022-10-28 00:00:00,AGLD/USDT,0.3189,0.3189,0.3189,0.3189,0,0,0,0,0,0.3189
1666828800000,2022-10-27 00:00:00,AGLD/USDT,0.3189,0.3189,0.3189,0.3189,1.05501687,3.3083,0,0,1,0.3189
1666742400000,2022-10-26 00:00:00,AGLD/USDT,0.3091,0.3442,0.3091,0.33,58.42659847,172.1891,51.5080366,150.0302,4,0.339708476621041942
1666656000000,2022-10-25 00:00:00,AGLD/USDT,0.3451,0.3451,0.3451,0.3451,6.88778188,19.9588,6.88778188,19.9588,1,0.3451
1666569600000,2022-10-24 00:00:00,AGLD/USDT,0.316,0.316,0.316,0.316,1.0342996,3.2731,1.0342996,3.2731,1,0.316
1666483200000,2022-10-23 00:00:00,AGLD/USDT,0.2938,0.2938,0.2938,0.2938,0,0,0,0,0,0.301684215350515343
1666396800000,2022-10-22 00:00:00,AGLD/USDT,0.2938,0.2938,0.2938,0.2938,0,0,0,0,0,0.301684215350515343
1666310400000,2022-10-21 00:00:00,AGLD/USDT,0.2731,0.3351,0.2731,0.2938,7.11294439,23.7709,4.38194439,13.7709,3,0.301684215350515343
1666224000000,2022-10-20 00:00:00,AGLD/USDT,0.3114,0.3114,0.3114,0.3114,0,0,0,0,0,0.3114
1666137600000,2022-10-19 00:00:00,AGLD/USDT,0.3114,0.3114,0.3114,0.3114,1.37050254,4.4011,1.37050254,4.4011,1,0.3114
1666051200000,2022-10-18 00:00:00,AGLD/USDT,0.3218,0.3218,0.3126,0.3126,15.50082008,48.2518,14.5966871,45.3595,2,0.321263381719607702
1665964800000,2022-10-17 00:00:00,AGLD/USDT,0.3044,0.3044,0.3044,0.3044,0,0,0,0,0,0.3044
1665878400000,2022-10-16 00:00:00,AGLD/USDT,0.3044,0.3044,0.3044,0.3044,0,0,0,0,0,0.3044
1665792000000,2022-10-15 00:00:00,AGLD/USDT,0.3044,0.3044,0.3044,0.3044,0,0,0,0,0,0.3044
1665705600000,2022-10-14 00:00:00,AGLD/USDT,0.3044,0.3044,0.3044,0.3044,1.69925212,5.5823,0,0,1,0.3044
1665619200000,2022-10-13 00:00:00,AGLD/USDT,0.2659,0.2659,0.2659,0.2659,5.514766,20.74,0,0,1,0.2659
1665532800000,2022-10-12 00:00:00,AGLD/USDT,0.3155,0.3155,0.3155,0.3155,0,0,0,0,0,0.31500079365079365
1665446400000,2022-10-11 00:00:00,AGLD/USDT,0.3145,0.3155,0.3145,0.3155,99.482355,315.817,49.82013175,157.9085,2,0.31500079365079365
1665360000000,2022-10-10 00:00:00,AGLD/USDT,0.3263,0.3263,0.3263,0.3263,0,0,0,0,0,0.325890608102976018
1665273600000,2022-10-09 00:00:00,AGLD/USDT,0.3263,0.3263,0.3263,0.3263,0,0,0,0,0,0.325890608102976018
1665187200000,2022-10-08 00:00:00,AGLD/USDT,0.3263,0.3263,0.3263,0.3263,0,0,0,0,0,0.325890608102976018
1665100800000,2022-10-07 00:00:00,AGLD/USDT,0.3257,0.3263,0.3257,0.3263,64.93482972,199.2536,44.49327677,136.6071,3,0.325890608102976018
1665014400000,2022-10-06 00:00:00,AGLD/USDT,0.3295,0.338,0.3295,0.338,141.27379605,426.9563,141.27379605,426.9563,3,0.330915640997777237
1664928000000,2022-10-05 00:00:00,AGLD/USDT,0.32,0.3382,0.32,0.3209,104.71468463,319.0236,63.06074148,189.2201,5,0.328349821587568485
1664841600000,2022-10-04 00:00:00,AGLD/USDT,0.3255,0.3255,0.3234,0.3254,129.08400535,396.7034,129.08400535,396.7034,5,0.325391829917020775
1664755200000,2022-10-03 00:00:00,AGLD/USDT,0.3123,0.3219,0.3123,0.3183,156.30101396,493.3959,66.47412576,210.928,10,0.316821664685059984
1664668800000,2022-10-02 00:00:00,AGLD/USDT,0.3214,0.3214,0.3142,0.3143,656.98595531,2081.8062,647.03595769,2050.8479,16,0.315587693480602356
1664582400000,2022-10-01 00:00:00,AGLD/USDT,0.3202,0.3253,0.3178,0.3206,24545.29698425,76479.1863,11945.90775049,37127.3097,338,0.320948951428781686
1664496000000,2022-09-30 00:00:00,AGLD/USDT,0.3262,0.3309,0.3187,0.321,21557.35597847,66945.1161,11187.24327847,34665.9806,227,0.322031669112205848
1664409600000,2022-09-29 00:00:00,AGLD/USDT,0.316,0.3254,0.3138,0.3243,19138.40459902,59709.8673,9554.26639284,29746.9923,259,0.320550853366799681
1664323200000,2022-09-28 00:00:00,AGLD/USDT,0.3174,0.321,0.3063,0.3165,16478.1813689,52303.5138,8262.06773263,26175.7949,225,0.315102757002732036
1664236800000,2022-09-27 00:00:00,AGLD/USDT,0.3318,0.3337,0.3171,0.3179,3697.54639023,11451.1438,1910.99385412,5855.7937,37,0.323036048439716446
1664150400000,2022-09-26 00:00:00,AGLD/USDT,0.3317,0.3317,0.3246,0.3246,872.58182219,2640.6148,1.52347764,4.6934,12,0.33044836338854399
1664064000000,2022-09-25 00:00:00,AGLD/USDT,0.3377,0.3377,0.3377,0.3377,99.99999416,296.1208,99.99999416,296.1208,1,0.3377
1663977600000,2022-09-24 00:00:00,AGLD/USDT,0.3287,0.3295,0.3286,0.3295,494.41330476,1503.6522,72.83712825,221.0535,7,0.328808540739772465
1663891200000,2022-09-23 00:00:00,AGLD/USDT,0.32,0.3279,0.32,0.3269,613.07252044,1885.172,613.07252044,1885.172,12,0.325247089923168108
1663804800000,2022-09-22 00:00:00,AGLD/USDT,0.3143,0.3143,0.3133,0.3133,287.20627376,914.3072,287.20627376,914.3072,6,0.314124940685655027
1663718400000,2022-09-21 00:00:00,AGLD/USDT,0.3055,0.3146,0.3055,0.3119,53.225885,170.6944,53.225885,170.6944,3,0.311823080157107768
1663632000000,2022-09-20 00:00:00,AGLD/USDT,0.3133,0.3432,0.0302,0.3055,248.52621478,1126.3558,73.77655844,241.1349,8,0.295299153701229519
1663545600000,2022-09-19 00:00:00,AGLD/USDT,0.3484,0.3484,0.3484,0.3484,0,0,0,0,0,0.3484
1663459200000,2022-09-18 00:00:00,AGLD/USDT,0.3484,0.3484,0.3484,0.3484,0,0,0,0,0,0.3484
1663372800000,2022-09-17 00:00:00,AGLD/USDT,0.3484,0.3484,0.3484,0.3484,0,0,0,0,0,0.3484
1663286400000,2022-09-16 00:00:00,AGLD/USDT,0.3484,0.3484,0.3484,0.3484,0.76114948,2.1847,0,0,1,0.3484
1663200000000,2022-09-15 00:00:00,AGLD/USDT,0.3601,0.3601,0.3437,0.3437,624.25878777,1753.7624,0,0,3,0.356095188894787161
1663113600000,2022-09-14 00:00:00,AGLD/USDT,0.4029,0.4029,0.3922,0.3922,178.94943207,445.9359,14.4361206,36.6399,5,0.401322781922126498
1663027200000,2022-09-13 00:00:00,AGLD/USDT,0.4018,0.4018,0.4018,0.4018,0,0,0,0,0,0.4018
1662940800000,2022-09-12 00:00:00,AGLD/USDT,0.4018,0.4018,0.4018,0.4018,153.61107314,382.3073,0,0,1,0.4018
1662854400000,2022-09-11 00:00:00,AGLD/USDT,0.4133,0.4241,0.4133,0.4241,502.66918556,1186.3522,447.18961873,1055.0401,7,0.423713297900217521
1662768000000,2022-09-10 00:00:00,AGLD/USDT,0.4184,0.4184,0.4108,0.4108,82.66775483,199.7297,33.85688616,80.9199,5,0.413931510202440561
1662681600000,2022-09-09 00:00:00,AGLD/USDT,0.368,0.4124,0.368,0.4124,24.48970036,61.9766,15.62579476,37.8899,2,0.396329676441333151
1662595200000,2022-09-08 00:00:00,AGLD/USDT,0.457,0.4999,0.1016,0.4008,246.06882949,627.0171,23.09743247,54.2104,12,0.408237127923345409
1662508800000,2022-09-07 00:00:00,AGLD/USDT,0.3901,0.3901,0.3901,0.3901,0,0,0,0,0,0.394535594074102279
1662422400000,2022-09-06 00:00:00,AGLD/USDT,0.396,0.396,0.3871,0.3901,23.66535344,59.9864,21.2729206,53.806,3,0.394535594074102279
1662336000000,2022-09-05 00:00:00,AGLD/USDT,0.3516,0.3516,0.3516,0.3516,0,0,0,0,0,0.3516
1662249600000,2022-09-04 00:00:00,AGLD/USDT,0.3516,0.3516,0.3516,0.3516,143.56081152,408.3072,0,0,3,0.3516
1662163200000,2022-09-03 00:00:00,AGLD/USDT,0.3678,0.3678,0.3663,0.3663,27.16444773,74.1286,2.73190806,7.4277,2,0.366450853870865719
1662076800000,2022-09-02 00:00:00,AGLD/USDT,0.3531,0.3579,0.349,0.3578,424.03472189,1187.042,39.16085818,111.553,9,0.357231803523958818
1661990400000,2022-09-01 00:00:00,AGLD/USDT,0.3511,0.3511,0.3451,0.3451,44.19845888,127.9808,0,0,2,0.345356461278678864
1661904000000,2022-08-31 00:00:00,AGLD/USDT,0.3508,0.3649,0.34,0.3511,134.2885453,386.6682,30.7310863,84.8073,7,0.347535468745434386
1661817600000,2022-08-30 00:00:00,AGLD/USDT,0.3468,0.3496,0.3468,0.3496,268.12673264,766.9783,268.12673264,766.9783,6,0.349588513101093371
1661731200000,2022-08-29 00:00:00,AGLD/USDT,0.3333,0.3452,0.3333,0.3452,5.60481483,16.7127,0.99997536,2.8968,2,0.335423122198490186
1661644800000,2022-08-28 00:00:00,AGLD/USDT,0.3435,0.3435,0.3435,0.3435,0,0,0,0,0,0.3435
1661558400000,2022-08-27 00:00:00,AGLD/USDT,0.3435,0.3435,0.3435,0.3435,99.5363385,289.771,99.5363385,289.771,1,0.3435
1661472000000,2022-08-26 00:00:00,AGLD/USDT,0.3385,0.4014,0.0113,0.3451,1353.30320026,4627.1813,778.94952,2108.1218,16,0.3575689566271949
1661385600000,2022-08-25 00:00:00,AGLD/USDT,0.385,0.385,0.385,0.385,0,0,0,0,0,0.384971063301876058
1661299200000,2022-08-24 00:00:00,AGLD/USDT,0.385,0.385,0.385,0.385,0,0,0,0,0,0.384971063301876058
1661212800000,2022-08-23 00:00:00,AGLD/USDT,0.385,0.385,0.385,0.385,0,0,0,0,0,0.384971063301876058
1661126400000,2022-08-22 00:00:00,AGLD/USDT,0.385,0.385,0.3849,0.385,167.47241946,435.026,167.47241946,435.026,4,0.384971063301876058
1661040000000,2022-08-21 00:00:00,AGLD/USDT,0.3973,0.3973,0.3866,0.3873,397.97704338,1018.1561,4.16050214,10.7463,11,0.390950330317803967
1660953600000,2022-08-20 00:00:00,AGLD/USDT,0.35,0.35,0.35,0.35,0,0,0,0,0,0.400240722992191357
1660867200000,2022-08-19 00:00:00,AGLD/USDT,0.3624,0.4385,0.35,0.35,241.02359539,607.6998,119.98899135,273.6351,3,0.400240722992191357
1660780800000,2022-08-18 00:00:00,AGLD/USDT,0.45,0.45,0.45,0.45,0,0,0,0,0,0.45
1660694400000,2022-08-17 00:00:00,AGLD/USDT,0.45,0.45,0.45,0.45,685.44774,1523.2172,685.44774,1523.2172,5,0.45
1660608000000,2022-08-16 00:00:00,AGLD/USDT,0.4523,0.4523,0.4523,0.4523,50.02220896,110.5952,50.02220896,110.5952,1,0.4523
1660521600000,2022-08-15 00:00:00,AGLD/USDT,0.4451,0.4451,0.4451,0.4451,42.2982981,95.031,0,0,1,0.4451
1660435200000,2022-08-14 00:00:00,AGLD/USDT,0.48,0.4828,0.48,0.4828,456.2669066,945.6847,0,0,4,0.482474225882592204
1660348800000,2022-08-13 00:00:00,AGLD/USDT,0.47,0.47,0.47,0.47,0,0,0,0,0,0.466282052029536319
1660262400000,2022-08-12 00:00:00,AGLD/USDT,0.457,0.497,0.457,0.47,128.1768217,274.9577,86.9290528,184.7,4,0.466282052029536319
1660176000000,2022-08-11 00:00:00,AGLD/USDT,0.4613,0.48,0.4613,0.48,9.21127201,19.2746,9.21127201,19.2746,2,0.477969959831096118
1660089600000,2022-08-10 00:00:00,AGLD/USDT,0.4119,0.4119,0.4119,0.4119,0,0,0,0,0,0.449816543346356776
1660003200000,2022-08-09 00:00:00,AGLD/USDT,0.4642,0.4642,0.4119,0.4119,10.96929074,24.4557,3.0167556,7.324,2,0.449816543346356776
1659916800000,2022-08-08 00:00:00,AGLD/USDT,0.4643,0.4643,0.4643,0.4643,0,0,0,0,0,0.4643
1659830400000,2022-08-07 00:00:00,AGLD/USDT,0.4643,0.4643,0.4643,0.4643,6.9645,15,0,0,1,0.4643
1659744000000,2022-08-06 00:00:00,AGLD/USDT,0.4642,0.4642,0.4642,0.4642,2.06703618,4.4529,0,0,1,0.4642
1659657600000,2022-08-05 00:00:00,AGLD/USDT,0.44,0.5157,0.44,0.5157,3.41669043,6.9979,3.41669043,6.9979,2,0.490958014815231592
1659225600000,2022-07-31 00:00:00,AGLD/USDT,0.47536733,0.50718576,0.47536733,0.48058884,114.5153503082752514,235.16924342,0,0,0,0.48694867
1659139200000,2022-07-30 00:00:00,AGLD/USDT,0.491982,0.5,0.46540824,0.46540824,86.6944126950958238,184.83102274,0,0,0,0.46904687
1659052800000,2022-07-29 00:00:00,AGLD/USDT,0.47446095,0.48967999,0.45962509,0.48050521,989.6975546755283712,2032.16373608,0,0,0,0.48701664
1658966400000,2022-07-28 00:00:00,AGLD/USDT,0.445659,0.46792845,0.445659,0.46792845,24.3940508748602608,52.23585296,0,0,0,0.46699823
1658880000000,2022-07-27 00:00:00,AGLD/USDT,0.4113401,0.451694,0.41130113,0.451694,383.7303268069705975,918.69266075,0,0,0,0.41769173
1658793600000,2022-07-26 00:00:00,AGLD/USDT,0.413755,0.41470919,0.39788086,0.40954058,621.3680032005751305,1530.13182245,0,0,0,0.40608789
1658707200000,2022-07-25 00:00:00,AGLD/USDT,0.44933643,0.48591072,0.43817717,0.43817717,243.89399619159611,535.9226105,0,0,0,0.45509182
1658620800000,2022-07-24 00:00:00,AGLD/USDT,0.425696,0.43024997,0.424865,0.42750122,45.2064578458538448,105.12711179,0,0,0,0.43001712
1658534400000,2022-07-23 00:00:00,AGLD/USDT,0.40567716,0.44933643,0.40567716,0.44933643,133.1907636126346276,319.69496588,0,0,0,0.41661827
1658448000000,2022-07-22 00:00:00,AGLD/USDT,0.423846,0.43240715,0.4039737,0.4039737,85.690733500972495,198.9397235,0,0,0,0.43073717
1658361600000,2022-07-21 00:00:00,AGLD/USDT,0.39950916,0.41304071,0.398202,0.41304071,92.1963814951454726,226.22402366,0,0,0,0.40754461
1658275200000,2022-07-20 00:00:00,AGLD/USDT,0.43,0.43,0.407835,0.407835,1.7383227590450456,4.15447256,0,0,0,0.41842201
1658188800000,2022-07-19 00:00:00,AGLD/USDT,0.424722,0.45092266,0.42097357,0.442884,160.8944348558545616,369.05890064,0,0,0,0.43595869
1658102400000,2022-07-18 00:00:00,AGLD/USDT,0.41896255,0.43617,0.41504631,0.43617,78.1613553380909106,187.58664353,0,0,0,0.41666802
1658016000000,2022-07-17 00:00:00,AGLD/USDT,0.40994,0.40994,0.39597,0.398,2.5298414537206206,6.30540258,0,0,0,0.40121807
1657929600000,2022-07-16 00:00:00,AGLD/USDT,0.390609,0.412233,0.390609,0.412233,1.6740683614814481,4.17171223,0,0,0,0.40129047
1657843200000,2022-07-15 00:00:00,AGLD/USDT,0.41996255,0.41996255,0.397397,0.397397,52.0258734051028644,124.00076996,0,0,0,0.41956089
1657756800000,2022-07-14 00:00:00,AGLD/USDT,0.38,0.400582,0.375115,0.400582,12.3653254353177496,32.61472772,0,0,0,0.37913318
1657670400000,2022-07-13 00:00:00,AGLD/USDT,0.38174529,0.387544,0.37271289,0.38557426,0,0,0,0,0,0.37682368
1657584000000,2022-07-12 00:00:00,AGLD/USDT,0.38174529,0.387544,0.37271289,0.38557426,142.3373644910330176,377.72935207,0,0,0,0.37682368
1657497600000,2022-07-11 00:00:00,AGLD/USDT,0.42071895,0.42071896,0.40321027,0.40321027,139.2083777459787897,331.02840399,0,0,0,0.42053303
1657411200000,2022-07-10 00:00:00,AGLD/USDT,0.43219952,0.43219952,0.33920442,0.393815,4.9571981316312772,13.19970451,0,0,0,0.37555372
1657324800000,2022-07-09 00:00:00,AGLD/USDT,0.41928835,0.45811335,0.41412039,0.45811334,215.018214166859829,497.50329838,0,0,0,0.43219455
1657238400000,2022-07-08 00:00:00,AGLD/USDT,0.42810134,0.43982328,0.409767,0.42290422,133.2893902362447585,307.25913395,0,0,0,0.43380123
1657152000000,2022-07-07 00:00:00,AGLD/USDT,0.43272499,0.43873153,0.42138724,0.43873153,215.460746293372013,499.95089215,0,0,0,0.43096382
1657065600000,2022-07-06 00:00:00,AGLD/USDT,0.67923249,0.67923249,0.335856,0.43272499,1178.7263456494451552,2440.52493872,0,0,0,0.48298066
1656979200000,2022-07-05 00:00:00,AGLD/USDT,0.39897472,0.39897472,0.39897472,0.39897472,5.1285032636108032,12.85420606,0,0,0,0.39897472
1656892800000,2022-07-04 00:00:00,AGLD/USDT,0.366786,0.40455468,0.366786,0.38768876,17.6519642182311418,44.80327919,0,0,0,0.39398822
1656806400000,2022-07-03 00:00:00,AGLD/USDT,0.37239869,0.3838,0.35232967,0.3838,61.525926095489167,163.29136858,0,0,0,0.37678615
1656720000000,2022-07-02 00:00:00,AGLD/USDT,0.38372765,0.38804305,0.375968,0.38363659,40.9210133608034206,105.56127869,0,0,0,0.38765174
1656633600000,2022-07-01 00:00:00,AGLD/USDT,0.43893638,0.43893638,0.40246137,0.40246137,113.864689151206776,276.78046824,0,0,0,0.4113899
1656547200000,2022-06-30 00:00:00,AGLD/USDT,0.4012,0.4012,0.4012,0.4012,0.707928790068,1.76452839,0,0,0,0.4012
1656460800000,2022-06-29 00:00:00,AGLD/USDT,0.50294571,0.50417513,0.47998878,0.47998878,57.2465797011518613,113.98344141,0,0,0,0.50223593
1656374400000,2022-06-28 00:00:00,AGLD/USDT,0.431862,0.4608078,0.431862,0.45822296,86.0068360956123464,191.50020872,0,0,0,0.44912137
1656288000000,2022-06-27 00:00:00,AGLD/USDT,0.47331809,0.483032,0.40482793,0.40482793,231.7152248477681472,515.52206784,0,0,0,0.44947683
1656201600000,2022-06-26 00:00:00,AGLD/USDT,0.44350646,0.44350646,0.428856,0.428856,25.6669002323371248,57.94412016,0,0,0,0.44295953
1656115200000,2022-06-25 00:00:00,AGLD/USDT,0.51112198,0.51112198,0.44046664,0.45111116,334.7018311438911229,742.52735527,0,0,0,0.45076027
1656028800000,2022-06-24 00:00:00,AGLD/USDT,0.95816141,0.95816141,0.42601679,0.5,374.7684859666030544,716.07145826,0,0,0,0.52336744
1655942400000,2022-06-23 00:00:00,AGLD/USDT,0.3164282,1.04656474,0.3164282,1.04656474,397.669120942632571,942.1491851,0,0,0,0.42208721
1655856000000,2022-06-22 00:00:00,AGLD/USDT,0.29007243,0.30578648,0.28954739,0.29134598,688.2437393761829328,2290.91072652,0,0,0,0.30042364
1655769600000,2022-06-21 00:00:00,AGLD/USDT,0.298596,0.30688772,0.298596,0.298596,11.6310545607178475,37.98909443,0,0,0,0.30616825
1655683200000,2022-06-20 00:00:00,AGLD/USDT,0.29523608,0.30178523,0.287555,0.29002847,27.7868586410587168,94.99630037,0,0,0,0.29250464
1655596800000,2022-06-19 00:00:00,AGLD/USDT,0.266266,0.30042478,0.263526,0.30042478,72.9292776157309389,243.70637871,0,0,0,0.29925059
1655510400000,2022-06-18 00:00:00,AGLD/USDT,0.287555,0.287555,0.287555,0.287555,0.6268966943749,2.18009318,0,0,0,0.287555
1655424000000,2022-06-17 00:00:00,AGLD/USDT,0.27868533,0.27868533,0.27868533,0.27868533,17.7130320127530693,63.55925521,0,0,0,0.27868533
1655337600000,2022-06-16 00:00:00,AGLD/USDT,0.307747,0.307747,0.28342967,0.28884477,72.1842999194538392,252.20450897,0,0,0,0.28621336
1655251200000,2022-06-15 00:00:00,AGLD/USDT,0.29038376,0.29038376,0.26528388,0.26528388,1.0959985868395758,3.93991842,0,0,0,0.27817799
1655164800000,2022-06-14 00:00:00,AGLD/USDT,0.290418,0.30549488,0.28628075,0.286858,52.1161094463807823,174.13864003,0,0,0,0.29927941
1655078400000,2022-06-13 00:00:00,AGLD/USDT,0.31233011,0.31612093,0.30340195,0.31062,20.1177638442216513,64.38273867,0,0,0,0.31247139
1654992000000,2022-06-12 00:00:00,AGLD/USDT,0.38498905,0.38498905,0.35489059,0.367632,50.3815136601744128,138.02174284,0,0,0,0.36502592
1654905600000,2022-06-11 00:00:00,AGLD/USDT,0.36575966,0.36575966,0.36575966,0.36575966,0,0,0,0,0,0.36575966
1654819200000,2022-06-10 00:00:00,AGLD/USDT,0.36575966,0.36575966,0.36575966,0.36575966,0,0,0,0,0,0.36575966
1654732800000,2022-06-09 00:00:00,AGLD/USDT,0.36575966,0.36575966,0.36575966,0.36575966,0,0,0,0,0,0.36575966
1654646400000,2022-06-08 00:00:00,AGLD/USDT,0.36575966,0.36575966,0.36575966,0.36575966,0,0,0,0,0,0.36575966
1654560000000,2022-06-07 00:00:00,AGLD/USDT,0.36575966,0.36575966,0.36575966,0.36575966,0,0,0,0,0,0.36575966
1654473600000,2022-06-06 00:00:00,AGLD/USDT,0.36575966,0.36575966,0.36575966,0.36575966,0,0,0,0,0,0.36575966
1654387200000,2022-06-05 00:00:00,AGLD/USDT,0.36575966,0.36575966,0.36575966,0.36575966,0,0,0,0,0,0.36575966
1654300800000,2022-06-04 00:00:00,AGLD/USDT,0.36575966,0.36575966,0.36575966,0.36575966,0,0,0,0,0,0.36575966
1654214400000,2022-06-03 00:00:00,AGLD/USDT,0.36575966,0.36575966,0.36575966,0.36575966,2.2742621910163652,6.21791422,0,0,0,0.36575966
1654128000000,2022-06-02 00:00:00,AGLD/USDT,0.53454451,0.53454451,0.53454451,0.53454451,0,0,0,0,0,0.53454451
1654041600000,2022-06-01 00:00:00,AGLD/USDT,0.53454451,0.53454451,0.53454451,0.53454451,5.1012489604424568,9.54316968,0,0,0,0.53454451
1653955200000,2022-05-31 00:00:00,AGLD/USDT,0.56450438,0.58344065,0.56450438,0.58344065,11.4354706585318308,19.92995412,0,0,0,0.57378309
1653868800000,2022-05-30 00:00:00,AGLD/USDT,0.53879599,0.5590496,0.49797373,0.5590496,577.3085756281675066,1081.42454302,0,0,0,0.53384083
1653782400000,2022-05-29 00:00:00,AGLD/USDT,0.51244619,0.52629653,0.51244619,0.51318185,124.1085091655647638,241.60601574,0,0,0,0.51368137
1653696000000,2022-05-28 00:00:00,AGLD/USDT,0.49525378,0.50687968,0.49525377,0.50687968,356.1708959596693056,703.07006944,0,0,0,0.50659374
1653609600000,2022-05-27 00:00:00,AGLD/USDT,0.4875314,0.4875314,0.48561738,0.48561738,92.861250543924934,190.4930021,0,0,0,0.48747854
1653523200000,2022-05-26 00:00:00,AGLD/USDT,0.55899324,0.55899324,0.53257568,0.54597561,840.662868377169466,1527.8168978,0,0,0,0.55023797
1653436800000,2022-05-25 00:00:00,AGLD/USDT,0.45177849,0.45177849,0.45177849,0.45177849,0,0,0,0,0,0.45177849
1653350400000,2022-05-24 00:00:00,AGLD/USDT,0.45177849,0.45177849,0.45177849,0.45177849,4.2592544557971795,9.42774955,0,0,0,0.45177849
1653264000000,2022-05-23 00:00:00,AGLD/USDT,0.60294396,0.60866578,0.5980869,0.5980869,570.533349657602555,945.97624075,0,0,0,0.60311594
1653177600000,2022-05-22 00:00:00,AGLD/USDT,0.66102695,0.69411016,0.58998203,0.58998203,441.068911547887221,690.5696893,0,0,0,0.63870297
1653091200000,2022-05-21 00:00:00,AGLD/USDT,0.53624259,0.72544012,0.53624259,0.61648125,2791.1505779598956812,4343.29151476,0,0,0,0.64263487
1653004800000,2022-05-20 00:00:00,AGLD/USDT,0.54078026,0.5534859,0.49605216,0.49605216,407.5505261217116805,792.22484679,0,0,0,0.51443795
1652918400000,2022-05-19 00:00:00,AGLD/USDT,0.51537335,0.51537335,0.49590496,0.51406754,370.408795833432319,719.29527017,0,0,0,0.5149607
1652832000000,2022-05-18 00:00:00,AGLD/USDT,0.58177544,0.61349394,0.58177544,0.61349394,543.1597923782280384,916.93867488,0,0,0,0.59236218
1652745600000,2022-05-17 00:00:00,AGLD/USDT,0.5526706,0.64229875,0.5526706,0.59111131,715.2988713901603008,1132.20218784,0,0,0,0.63177662
1652659200000,2022-05-16 00:00:00,AGLD/USDT,0.49126686,0.49869152,0.44489059,0.44489059,0,0,0,0,0,0.45812549
1652572800000,2022-05-15 00:00:00,AGLD/USDT,0.49126686,0.49869152,0.44489059,0.44489059,0,0,0,0,0,0.45812549
1652486400000,2022-05-14 00:00:00,AGLD/USDT,0.49126686,0.49869152,0.44489059,0.44489059,58.2034554896341627,127.04697023,0,0,0,0.45812549
1652400000000,2022-05-13 00:00:00,AGLD/USDT,0.80438949,0.80438949,0.50606439,0.50606439,1.4501696560535755,2.42784385,0,0,0,0.59730763
1652313600000,2022-05-12 00:00:00,AGLD/USDT,0.6,0.6,0.39486182,0.39486182,13.6377789815382535,34.40839915,0,0,0,0.39635029
1652227200000,2022-05-11 00:00:00,AGLD/USDT,0.6,0.6,0.6,0.6,899.773232172,1499.62205362,0,0,0,0.6
1652140800000,2022-05-10 00:00:00,AGLD/USDT,0.72850235,0.72850235,0.724362,0.724362,79.3348893291170832,108.94226332,0,0,0,0.72822876
1652054400000,2022-05-09 00:00:00,AGLD/USDT,0.7988135,0.80601454,0.78538365,0.80601454,518.0854520511143264,651.54619366,0,0,0,0.79516304
1651968000000,2022-05-08 00:00:00,AGLD/USDT,0.90683199,0.90683199,0.71471783,0.71471783,14.45264858731371,17.83928526,0,0,0,0.8101585
1651881600000,2022-05-07 00:00:00,AGLD/USDT,0.912736,0.912736,0.912736,0.912736,0,0,0,0,0,0.912736
1651795200000,2022-05-06 00:00:00,AGLD/USDT,0.912736,0.912736,0.912736,0.912736,8.95109911403488,9.80688733,0,0,0,0.912736
1651708800000,2022-05-05 00:00:00,AGLD/USDT,0.97957142,1.0961438,0.8947425,0.912736,267.0505871967728442,281.93252523,0,0,0,0.94721454
1651622400000,2022-05-04 00:00:00,AGLD/USDT,0.94878268,0.94878268,0.94878268,0.94878268,13.975990420544724,14.7304443,0,0,0,0.94878268
1651536000000,2022-05-03 00:00:00,AGLD/USDT,0.91817465,0.91817465,0.91817465,0.91817465,0,0,0,0,0,0.91817465
1651449600000,2022-05-02 00:00:00,AGLD/USDT,0.91817465,0.91817465,0.91817465,0.91817465,0,0,0,0,0,0.91817465
1651363200000,2022-05-01 00:00:00,AGLD/USDT,0.91817465,0.91817465,0.91817465,0.91817465,42.56396566893033,46.3571562,0,0,0,0.91817465
1651276800000,2022-04-30 00:00:00,AGLD/USDT,0.99384192,1.00506741,0.85,0.85,63.6450345171812838,64.63975174,0,0,0,0.98461137
1651190400000,2022-04-29 00:00:00,AGLD/USDT,1.00325442,1.0497659,1.00325442,1.04648259,0,0,0,0,0,1.04393124
1651104000000,2022-04-28 00:00:00,AGLD/USDT,1.00325442,1.0497659,1.00325442,1.04648259,254.2393247487045876,243.54029749,0,0,0,1.04393124
1651017600000,2022-04-27 00:00:00,AGLD/USDT,1.0543623,1.0543623,0.98634575,0.98634575,0,0,0,0,0,1.00076597
1650931200000,2022-04-26 00:00:00,AGLD/USDT,1.0543623,1.0543623,0.98634575,0.98634575,17.5205570794871661,17.50714713,0,0,0,1.00076597
1650844800000,2022-04-25 00:00:00,AGLD/USDT,0.993,1.02082026,0.993,1.02082026,69.7888863667555296,68.48344736,0,0,0,1.01906211
1650758400000,2022-04-24 00:00:00,AGLD/USDT,1.12566254,1.15206008,1.09278037,1.09278037,4526.3564599043468,4050.68457076,0,0,0,1.11743
1650672000000,2022-04-23 00:00:00,AGLD/USDT,1.19478594,1.21511278,1.1539437,1.16954446,0,0,0,0,0,1.20279518
1650585600000,2022-04-22 00:00:00,AGLD/USDT,1.19478594,1.21511278,1.1539437,1.16954446,2864.9611783758963344,2381.91940408,0,0,0,1.20279518
1650499200000,2022-04-21 00:00:00,AGLD/USDT,1.44508023,1.64877749,1.19468141,1.20340561,32211.3622725012942432,21491.08149664,0,0,0,1.49882463
1650412800000,2022-04-20 00:00:00,AGLD/USDT,1.31963704,1.41062,1.29892674,1.37073681,5554.9542000406392144,4129.29978224,0,0,0,1.34525331
1650326400000,2022-04-19 00:00:00,AGLD/USDT,1.2179902,1.27606825,1.2179902,1.27606825,588.832682648428631,466.26102782,0,0,0,1.26288205
1650240000000,2022-04-18 00:00:00,AGLD/USDT,1.2376112,1.2376112,1.2376112,1.2376112,0,0,0,0,0,1.2376112
1650153600000,2022-04-17 00:00:00,AGLD/USDT,1.2376112,1.2376112,1.2376112,1.2376112,1.871844192909152,1.51246546,0,0,0,1.2376112
1650067200000,2022-04-16 00:00:00,AGLD/USDT,1.23601776,1.25760966,1.23601776,1.25760966,751.0986574868800428,607.65909871,0,0,0,1.23605268
1649980800000,2022-04-15 00:00:00,AGLD/USDT,1.32713072,1.32713072,1.28342513,1.28342513,148.2179782047120056,115.29285641,0,0,0,1.28557816
1649894400000,2022-04-14 00:00:00,AGLD/USDT,1.25956726,1.26982733,1.25956726,1.26982733,13.8654170939299834,10.99999418,0,0,0,1.26049313
1649808000000,2022-04-13 00:00:00,AGLD/USDT,1.24643303,1.29784185,1.23879205,1.27968557,1338.000888615350841,1039.21219055,0,0,0,1.28751462
1649721600000,2022-04-12 00:00:00,AGLD/USDT,1.18177874,1.18177874,1.09248687,1.09248687,720.8361884672448276,610.06517778,0,0,0,1.18157242
1649635200000,2022-04-11 00:00:00,AGLD/USDT,1.3169605,1.3169605,1.153258,1.153258,2493.935459433405165,2055.05255775,0,0,0,1.21356286
1649548800000,2022-04-10 00:00:00,AGLD/USDT,1.332845,1.37211613,1.2879495,1.36107486,29.8022748548076855,22.55753889,0,0,0,1.32116695
1649462400000,2022-04-09 00:00:00,AGLD/USDT,1.24163358,1.32586942,1.24163358,1.32222687,20.1923873422416466,15.90118609,0,0,0,1.26986674
1649376000000,2022-04-08 00:00:00,AGLD/USDT,1.26324,1.34158506,1.26324,1.30222237,1313.2894607587290645,1020.96347273,0,0,0,1.28632365
1649289600000,2022-04-07 00:00:00,AGLD/USDT,1.3145813,1.38,1.3145813,1.38,2386.555073456357511,1786.55685465,0,0,0,1.33584054
1649203200000,2022-04-06 00:00:00,AGLD/USDT,1.39788062,1.39788062,1.24937894,1.28619619,661.813686367026025,522.44444662,0,0,0,1.26676375
1649116800000,2022-04-05 00:00:00,AGLD/USDT,1.52331108,1.52331108,1.52331108,1.52331108,2.3204766464507664,1.52331108,0,0,0,1.52331108
1649030400000,2022-04-04 00:00:00,AGLD/USDT,1.62932217,1.62932217,1.50673428,1.52331108,1519.9775073838157686,1004.06651462,0,0,0,1.51382153
1648944000000,2022-04-03 00:00:00,AGLD/USDT,1.711996,1.711996,1.67479258,1.67758969,16.50311178916608,9.762968,0,0,0,1.69037856
1648857600000,2022-04-02 00:00:00,AGLD/USDT,1.90562692,1.90562692,1.73096202,1.73096202,1473.9703497809339236,789.23425436,0,0,0,1.86759551
1648771200000,2022-04-01 00:00:00,AGLD/USDT,1.85526,1.87144238,1.69570599,1.8266468,3659.9018539481185556,2096.02295206,0,0,0,1.74611726
1648684800000,2022-03-31 00:00:00,AGLD/USDT,2.13102222,2.17481712,1.97570831,2.15995001,7433.6625069273195972,3609.58508428,0,0,0,2.05942299
1648598400000,2022-03-30 00:00:00,AGLD/USDT,1.9191343,2.3,1.875123,2.03338808,4696.2781178697853656,2205.80933304,0,0,0,2.12904989
1648512000000,2022-03-29 00:00:00,AGLD/USDT,1.78407461,1.78407461,1.78407461,1.78407461,70.9081735245292363,39.74507183,0,0,0,1.78407461
1648425600000,2022-03-28 00:00:00,AGLD/USDT,1.81469964,1.81469964,1.78407461,1.78407461,1342.0964472823362083,744.20437307,0,0,0,1.80339769
1648339200000,2022-03-27 00:00:00,AGLD/USDT,1.70191101,1.79538485,1.68393449,1.79538485,3765.5607312064234229,2186.28429811,0,0,0,1.72235639
1648252800000,2022-03-26 00:00:00,AGLD/USDT,1.65487,1.68912526,1.65487,1.68912526,89.420942654799378,52.97988738,0,0,0,1.6878281
1648166400000,2022-03-25 00:00:00,AGLD/USDT,1.73907251,1.73907251,1.65488056,1.65488056,3282.355635025537836,1947.2878332,0,0,0,1.68560373
1648080000000,2022-03-24 00:00:00,AGLD/USDT,1.62433256,1.69057444,1.62433256,1.68118709,8017.4611606946888952,4826.32261396,0,0,0,1.66119462
1647993600000,2022-03-23 00:00:00,AGLD/USDT,1.65546758,1.65546758,1.65546758,1.65546758,33.1093515834453242,19.99999999,0,0,0,1.65546758
1647907200000,2022-03-22 00:00:00,AGLD/USDT,1.54123147,1.74366311,1.54123147,1.69468691,4454.1260764559804679,2704.57184391,0,0,0,1.64688769
1647820800000,2022-03-21 00:00:00,AGLD/USDT,1.49376814,1.56457627,1.4694011,1.55171945,932.990342450435497,623.6505721,0,0,0,1.49601457
1647734400000,2022-03-20 00:00:00,AGLD/USDT,1.43600194,1.51832686,1.3770853,1.45,8461.1686756439988951,5704.57055337,0,0,0,1.48322623
1647648000000,2022-03-19 00:00:00,AGLD/USDT,1.53098689,1.71766427,1.46180154,1.59327514,7849.9049115413098908,4965.73934349,0,0,0,1.58081292
1647561600000,2022-03-18 00:00:00,AGLD/USDT,1.38531063,1.7,1.38531063,1.44896133,5648.816925531619229,3707.2007963,0,0,0,1.52374183
1647475200000,2022-03-17 00:00:00,AGLD/USDT,1.24453312,1.24453312,1.22525219,1.22525219,274.440947227581171,222.23870814,0,0,0,1.23489265
1647388800000,2022-03-16 00:00:00,AGLD/USDT,0.9442347,1.23948923,0.9442347,1.23948923,1328.798571493809908,1267.8979948,0,0,0,1.04803271
1647302400000,2022-03-15 00:00:00,AGLD/USDT,0.92248662,0.9611799,0.92248662,0.9611799,0,0,0,0,0,0.9482828
1647216000000,2022-03-14 00:00:00,AGLD/USDT,0.92248662,0.9611799,0.92248662,0.9611799,28.066043263151868,29.59670181,0,0,0,0.9482828
1647129600000,2022-03-13 00:00:00,AGLD/USDT,0.90351326,0.98634575,0.90351326,0.98634575,17.0165395927779684,18.74938948,0,0,0,0.90757833
1647043200000,2022-03-12 00:00:00,AGLD/USDT,0.980294,1.00948202,0.95676901,1.00948202,1800.5093946405359509,1824.66335759,0,0,0,0.98676251
1646956800000,2022-03-11 00:00:00,AGLD/USDT,1.00480883,1.00480884,1.00480883,1.00480884,128.4444258961232999,127.82971453,0,0,0,1.00480883
1646870400000,2022-03-10 00:00:00,AGLD/USDT,0.97270407,0.97270407,0.97270407,0.97270407,9.8778027203832483,10.15499269,0,0,0,0.97270407
1646784000000,2022-03-09 00:00:00,AGLD/USDT,1.02033183,1.045,1.02033183,1.04166081,373.3790292577088625,360.79530095,0,0,0,1.03487775
1646697600000,2022-03-08 00:00:00,AGLD/USDT,0.98804514,1.03703325,0.98804514,1.00989205,4036.4753934893317074,4002.24951639,0,0,0,1.00855166
1646611200000,2022-03-07 00:00:00,AGLD/USDT,0.95687544,1.01127414,0.94326,0.9570475,3032.319920442515523,3091.5708969,0,0,0,0.98083467
1646524800000,2022-03-06 00:00:00,AGLD/USDT,1.03356,1.051188,1.03356,1.051188,0,0,0,0,0,1.042374
1646438400000,2022-03-05 00:00:00,AGLD/USDT,1.03356,1.051188,1.03356,1.051188,43.10483120930208,41.35255792,0,0,0,1.042374
1646352000000,2022-03-04 00:00:00,AGLD/USDT,1.13866351,1.14124761,1.06853999,1.06853999,801.111831739489872,704.48737296,0,0,0,1.1371557
1646265600000,2022-03-03 00:00:00,AGLD/USDT,1.13499045,1.15149493,1.13499045,1.15149493,388.837177648789632,337.7540641,0,0,0,1.15124352
1646179200000,2022-03-02 00:00:00,AGLD/USDT,1.22781698,1.22781698,1.16189372,1.16189372,1743.9241440214540166,1456.36356974,0,0,0,1.19745109
1646092800000,2022-03-01 00:00:00,AGLD/USDT,1.22866111,1.25702443,1.22864908,1.25702443,2333.79396274410952,1877.528104,0,0,0,1.24301413
1646006400000,2022-02-28 00:00:00,AGLD/USDT,1.17292822,1.23285427,1.12189591,1.23285427,2132.7727532927773335,1872.26979585,0,0,0,1.13913751
1645920000000,2022-02-27 00:00:00,AGLD/USDT,1.09557199,1.21953861,1.09557199,1.17308337,3075.3548725298416875,2655.76991625,0,0,0,1.15798995
1645833600000,2022-02-26 00:00:00,AGLD/USDT,1.22354839,1.22354839,1.21596256,1.21596256,736.0769301234206364,603.66989502,0,0,0,1.21933682
1645747200000,2022-02-25 00:00:00,AGLD/USDT,1.18701,1.36037867,1.16502608,1.16502608,3363.1525483608863415,2654.04189315,0,0,0,1.26718141
1645660800000,2022-02-24 00:00:00,AGLD/USDT,0.85086547,1.15796034,0.81854883,1.15796034,804.9020619642874785,791.79745773,0,0,0,1.01655045
1645574400000,2022-02-23 00:00:00,AGLD/USDT,0.93782652,1.03506702,0.90418264,0.90418264,1481.4459601141746652,1496.45837063,0,0,0,0.98996804
1645488000000,2022-02-22 00:00:00,AGLD/USDT,0.90793997,1.10733381,0.90793997,0.93586594,2579.0698359745963671,2690.02197109,0,0,0,0.95875419
1645401600000,2022-02-21 00:00:00,AGLD/USDT,0.88965402,1.04444897,0.88324189,0.94643998,3008.827758885539329,3143.47357718,0,0,0,0.95716655
1645315200000,2022-02-20 00:00:00,AGLD/USDT,0.89251224,0.91544452,0.86133674,0.89427894,234.1223635452850226,261.52672082,0,0,0,0.89521393
1645228800000,2022-02-19 00:00:00,AGLD/USDT,0.988011,0.99791002,0.94476002,0.98675362,428.852609996953687,440.82309955,0,0,0,0.97284514
1645142400000,2022-02-18 00:00:00,AGLD/USDT,1.05891273,1.0705832,0.97934997,0.98482001,3808.906719803877183,3704.44543347,0,0,0,1.0281989
1645056000000,2022-02-17 00:00:00,AGLD/USDT,1.1199299,1.18487686,1.07648502,1.07648502,2819.2286349184378477,2461.98821197,0,0,0,1.14510241
1644969600000,2022-02-16 00:00:00,AGLD/USDT,1.15094603,1.15094603,1.10448125,1.14493502,3084.5400951799142925,2726.83461243,0,0,0,1.13117975
1644883200000,2022-02-15 00:00:00,AGLD/USDT,1.18358079,1.20538717,1.18358079,1.20538717,22.1430325284468,18.53937248,0,0,0,1.19437875
1644796800000,2022-02-14 00:00:00,AGLD/USDT,1.09785119,1.19045134,1.09785119,1.1397931,800.9349730527154089,694.35933493,0,0,0,1.15348773
1644710400000,2022-02-13 00:00:00,AGLD/USDT,1.12738167,1.14730611,1.12557186,1.13141567,622.1589999820350654,549.63360379,0,0,0,1.13195226
1644624000000,2022-02-12 00:00:00,AGLD/USDT,1.12480564,1.12480564,1.12480564,1.12480564,208.5778923559382436,185.43460749,0,0,0,1.12480564
1644537600000,2022-02-11 00:00:00,AGLD/USDT,1.18575915,1.18575915,1.07091432,1.07091432,97.2655419042381541,82.58626379,0,0,0,1.17774479
1644451200000,2022-02-10 00:00:00,AGLD/USDT,1.35735722,1.37259562,1.229852,1.23202792,3718.1432964571471185,2850.61428367,0,0,0,1.30433055
1644364800000,2022-02-09 00:00:00,AGLD/USDT,1.20312651,1.5065707,1.17583787,1.48020166,3426.0040678178655782,2547.85423282,0,0,0,1.34466251
1644278400000,2022-02-08 00:00:00,AGLD/USDT,1.2651548,1.27976733,1.18808087,1.2,101.2629049377202962,83.00557477,0,0,0,1.21995306
1644192000000,2022-02-07 00:00:00,AGLD/USDT,1.24742181,1.330983,1.24742181,1.25015223,445.068781355560712,350.17755535,0,0,0,1.27098032
1644105600000,2022-02-06 00:00:00,AGLD/USDT,1.20157647,1.2331786,1.20157647,1.2331786,755.9770822803753579,628.99072897,0,0,0,1.20188907
1644019200000,2022-02-05 00:00:00,AGLD/USDT,1.28476186,1.30726741,1.215,1.2187456,236.5701108177765672,189.10948493,0,0,0,1.25096904
1643932800000,2022-02-04 00:00:00,AGLD/USDT,1.21215579,1.30729708,1.19867961,1.24424388,440.3527260306063872,343.21782016,0,0,0,1.28301242
1643846400000,2022-02-03 00:00:00,AGLD/USDT,1.35051907,1.38928477,1.2,1.2174471,978.4846759026764464,765.33630953,0,0,0,1.27850288
1643760000000,2022-02-02 00:00:00,AGLD/USDT,1.19257334,1.82023402,1.19257334,1.37,25681.1554252407294912,17439.78155812,0,0,0,1.47256176
1643673600000,2022-02-01 00:00:00,AGLD/USDT,0.83387992,1.31525573,0.83387992,1.19644498,15169.656140214993339,14081.75534518,0,0,0,1.07725605
1643587200000,2022-01-31 00:00:00,AGLD/USDT,0.79134641,0.81428149,0.79134641,0.81428149,549.058212024940604,676.26951154,0,0,0,0.8118926
1643500800000,2022-01-30 00:00:00,AGLD/USDT,0.84506168,0.85482214,0.79324713,0.79324713,268.0802723295479316,333.66403353,0,0,0,0.80344372
1643414400000,2022-01-29 00:00:00,AGLD/USDT,0.848879,0.85330575,0.83312216,0.84160695,53.3717547988914926,63.36594433,0,0,0,0.84227822
1643328000000,2022-01-28 00:00:00,AGLD/USDT,0.80105348,0.84945179,0.79414098,0.84945179,2611.005849290958168,3194.04312816,0,0,0,0.81746105
1643241600000,2022-01-27 00:00:00,AGLD/USDT,0.78416167,0.83626002,0.77854044,0.78285132,2142.2847185382329688,2653.73122566,0,0,0,0.80727268
1643155200000,2022-01-26 00:00:00,AGLD/USDT,0.82621416,0.87283999,0.8,0.8271406,2076.5090626029574398,2438.40112206,0,0,0,0.85158633
1643068800000,2022-01-25 00:00:00,AGLD/USDT,0.79985618,0.8365347,0.77522999,0.8237907,1684.2780120101449496,2110.26369082,0,0,0,0.79813628
1642982400000,2022-01-24 00:00:00,AGLD/USDT,0.72071567,0.81473021,0.72071567,0.7971033,817.346231732302575,1028.9811601,0,0,0,0.79432575
1642896000000,2022-01-23 00:00:00,AGLD/USDT,0.90581236,0.90581236,0.859315,0.86116169,744.3115051664790357,861.28694133,0,0,0,0.86418529
1642809600000,2022-01-22 00:00:00,AGLD/USDT,0.92276623,0.94627385,0.86747613,0.93677101,5044.085645077786067,5548.0010977,0,0,0,0.90917171
1642723200000,2022-01-21 00:00:00,AGLD/USDT,1.11526288,1.11526288,0.94961981,0.94975487,3057.697467662745061,3109.1132149,0,0,0,0.98346289
1642636800000,2022-01-20 00:00:00,AGLD/USDT,1.1660183,1.1660183,1.1317356,1.1317356,2001.268966074221797,1740.84310294,0,0,0,1.14959755
1642550400000,2022-01-19 00:00:00,AGLD/USDT,1.27927878,1.27927878,1.17097092,1.17097092,1996.153114638668262,1616.17481868,0,0,0,1.23510965
1642464000000,2022-01-18 00:00:00,AGLD/USDT,1.33534119,1.33803758,1.2806836,1.28760844,2145.2761862755694036,1644.26263604,0,0,0,1.30470409
1642377600000,2022-01-17 00:00:00,AGLD/USDT,1.36768802,1.399588,1.33770366,1.33770366,3766.3275285496539174,2719.50958621,0,0,0,1.38492894
1642291200000,2022-01-16 00:00:00,AGLD/USDT,1.37842133,1.38041135,1.36918687,1.38,1516.2948388148446353,1104.97696481,0,0,0,1.37224113
1642204800000,2022-01-15 00:00:00,AGLD/USDT,1.38739989,1.41132576,1.38739989,1.41132576,55.9980698319082497,39.79690699,0,0,0,1.40709603
1642118400000,2022-01-14 00:00:00,AGLD/USDT,1.348,1.399,1.34,1.39198988,3930.9829980611194394,2857.31728399,0,0,0,1.37576006
1642032000000,2022-01-13 00:00:00,AGLD/USDT,1.45089553,1.5,1.39000194,1.39000194,1302.8411727724701289,922.60879829,0,0,0,1.41212741
1641945600000,2022-01-12 00:00:00,AGLD/USDT,1.36530521,1.44272187,1.35466549,1.44272187,4988.2431355100012438,3577.82637538,0,0,0,1.39421051
1641859200000,2022-01-11 00:00:00,AGLD/USDT,1.33537358,1.36438777,1.33537358,1.36438777,4273.4425985883740372,3179.32938884,0,0,0,1.34413333
1641772800000,2022-01-10 00:00:00,AGLD/USDT,1.4273834,1.4273834,1.31904796,1.34099989,3862.5427442257849632,2893.50072784,0,0,0,1.33490298
1641686400000,2022-01-09 00:00:00,AGLD/USDT,1.50309368,1.50309368,1.49205494,1.49205494,22.6124999861056683,15.08087379,0,0,0,1.49941577
1641600000000,2022-01-08 00:00:00,AGLD/USDT,1.57606689,1.6028529,1.49628852,1.55455766,0,0,0,0,0,1.57385409
1641513600000,2022-01-07 00:00:00,AGLD/USDT,1.57606689,1.6028529,1.49628852,1.55455766,526.7740592913549159,334.70323751,0,0,0,1.57385409
1641427200000,2022-01-06 00:00:00,AGLD/USDT,1.5277284,1.599,1.5277284,1.599,124.149693249293325,78.66855125,0,0,0,1.57813626
1641340800000,2022-01-05 00:00:00,AGLD/USDT,1.67,1.678,1.56113965,1.56113965,1096.9514957546530673,659.16258251,0,0,0,1.66415923
1641254400000,2022-01-04 00:00:00,AGLD/USDT,1.73593968,1.73593968,1.73593968,1.73593968,3.0134865725985024,1.73593968,0,0,0,1.73593968
1641168000000,2022-01-03 00:00:00,AGLD/USDT,1.29000252,1.80397696,1.29000151,1.29000151,121.9829650360102748,73.44643406,0,0,0,1.66084258
1641081600000,2022-01-02 00:00:00,AGLD/USDT,1.788,1.9263678,1.788,1.8507152,326.5463934668679912,177.61479288,0,0,0,1.83850899
1640995200000,2022-01-01 00:00:00,AGLD/USDT,1.618,1.618,1.61317191,1.61317191,0,0,0,0,0,1.61794606
1640908800000,2021-12-31 00:00:00,AGLD/USDT,1.618,1.618,1.61317191,1.61317191,145.6027886443765014,89.99236269,0,0,0,1.61794606
1640822400000,2021-12-30 00:00:00,AGLD/USDT,1.72607266,1.72607266,1.72607266,1.72607266,27.728905310773979,16.06473815,0,0,0,1.72607266
1640736000000,2021-12-29 00:00:00,AGLD/USDT,1.773,1.773,1.687,1.711,118.405021118715162,68.3561519,0,0,0,1.73217798
1640649600000,2021-12-28 00:00:00,AGLD/USDT,1.93546014,1.96927425,1.73299999,1.754,2331.14288100181286,1231.0046299,0,0,0,1.8936914
1640563200000,2021-12-27 00:00:00,AGLD/USDT,2.40082501,2.40082501,2.05,2.06,2752.2175887791955216,1196.58251608,0,0,0,2.30006502
1640476800000,2021-12-26 00:00:00,AGLD/USDT,1.91862549,2.3,1.895,2.19672812,2117.3047277194740072,982.75596803,0,0,0,2.15445624
1640390400000,2021-12-25 00:00:00,AGLD/USDT,1.75396706,1.96564321,1.75396706,1.96564321,781.8200164671525249,419.42686827,0,0,0,1.86401987
1640304000000,2021-12-24 00:00:00,AGLD/USDT,1.694,1.81778744,1.6782478,1.77274752,556.0312737360303324,318.56277153,0,0,0,1.74543708
1640217600000,2021-12-23 00:00:00,AGLD/USDT,1.6143209,1.71390678,1.6143209,1.71390678,409.0785081710674193,241.49508089,0,0,0,1.69394137
1640131200000,2021-12-22 00:00:00,AGLD/USDT,1.638,1.63800001,1.638,1.63800001,43.2419632281,26.39924495,0,0,0,1.638
1640044800000,2021-12-21 00:00:00,AGLD/USDT,1.53390984,1.6324046,1.53390984,1.587612,506.7265257495578181,319.32342277,0,0,0,1.58687553
1639958400000,2021-12-20 00:00:00,AGLD/USDT,1.528,1.528,1.40602994,1.502,197.1744761863882668,133.66738338,0,0,0,1.47511286
1639872000000,2021-12-19 00:00:00,AGLD/USDT,1.58379432,1.58379432,1.5605,1.561,1004.5170549117710644,636.85573193,0,0,0,1.57730708
1639785600000,2021-12-18 00:00:00,AGLD/USDT,1.62597519,1.64127824,1.58537969,1.58537969,160.8171005028840336,100.17026418,0,0,0,1.60543752
1639699200000,2021-12-17 00:00:00,AGLD/USDT,1.54850605,1.716016,1.54850605,1.60224227,454.1087213724811178,275.40515977,0,0,0,1.64887514
1639612800000,2021-12-16 00:00:00,AGLD/USDT,1.54,1.54,1.54,1.54,27.2734,17.71,0,0,0,1.54
1639526400000,2021-12-15 00:00:00,AGLD/USDT,1.495,1.53499999,1.388,1.53499999,186.1056323861382588,126.05832012,0,0,0,1.47634549
1639440000000,2021-12-14 00:00:00,AGLD/USDT,1.38171176,1.537,1.38171176,1.499,343.3262414657903776,230.01826912,0,0,0,1.49260423
1639353600000,2021-12-13 00:00:00,AGLD/USDT,1.62872006,1.62872006,1.38926167,1.38926167,113.8876638770168648,76.95370739,0,0,0,1.47995032
1639267200000,2021-12-12 00:00:00,AGLD/USDT,1.60827497,1.72864064,1.60827497,1.65029075,220.3132909758039519,131.56986541,0,0,0,1.67449659
1639180800000,2021-12-11 00:00:00,AGLD/USDT,1.52377125,1.7030352,1.52377125,1.63224533,160.2005836441137104,95.77467563,0,0,0,1.67268208
1639094400000,2021-12-10 00:00:00,AGLD/USDT,1.49017025,1.562,1.43,1.5360867,445.289100698933523,291.99985134,0,0,0,1.52496345
1639008000000,2021-12-09 00:00:00,AGLD/USDT,1.69045424,1.69045424,1.49948774,1.51012909,210.8911761600494967,132.73032109,0,0,0,1.58886963
1638921600000,2021-12-08 00:00:00,AGLD/USDT,1.67847817,1.67847817,1.57550484,1.66461983,47.9147759912696598,29.05438706,0,0,0,1.64914083
1638835200000,2021-12-07 00:00:00,AGLD/USDT,1.63860534,1.64521826,1.61279981,1.644,424.1714486995962148,258.26301131,0,0,0,1.64240108
1638748800000,2021-12-06 00:00:00,AGLD/USDT,1.53571922,1.62806218,1.41149485,1.62143987,385.4749481461821084,248.91923811,0,0,0,1.54859444
1638662400000,2021-12-05 00:00:00,AGLD/USDT,1.64167866,1.64167866,1.50000046,1.58219175,32.1081387670424519,20.95043177,0,0,0,1.53257647
1638576000000,2021-12-04 00:00:00,AGLD/USDT,2.01,2.05615302,1.72005486,2.05615302,636.2421763280753696,354.58369547,0,0,0,1.79433568
1638489600000,2021-12-03 00:00:00,AGLD/USDT,2.38898416,2.38898416,2.31043021,2.31043021,5.0805585031456152,2.16218118,0,0,0,2.34973764
1638403200000,2021-12-02 00:00:00,AGLD/USDT,2.37266351,2.37266351,2.34033222,2.34033222,45.886319786925045,19.47175077,0,0,0,2.3565585
1638316800000,2021-12-01 00:00:00,AGLD/USDT,2.37289263,2.55338658,2.35907722,2.35907722,1164.0170406377168352,478.63552608,0,0,0,2.43194869
1638230400000,2021-11-30 00:00:00,AGLD/USDT,2.33000001,2.3561172,2.2515147,2.2515147,87.42038943951008,37.48010221,0,0,0,2.332448
1638144000000,2021-11-29 00:00:00,AGLD/USDT,2.33698291,2.50621058,2.33698291,2.50621058,3236.7028399165022448,1302.65858064,0,0,0,2.48469007
1638057600000,2021-11-28 00:00:00,AGLD/USDT,2.27665781,2.27665782,2.11545304,2.11545304,393.7900610978587584,174.17305632,0,0,0,2.26091262
1637971200000,2021-11-27 00:00:00,AGLD/USDT,2.36918201,2.36918201,2.27,2.27156635,2349.1470068429588336,1033.92651056,0,0,0,2.27206381
1637884800000,2021-11-26 00:00:00,AGLD/USDT,2.84126363,2.92,2.26309077,2.36918201,1538.595695519556674,570.11956519,0,0,0,2.6987246
1637798400000,2021-11-25 00:00:00,AGLD/USDT,2.73099999,2.97164175,2.73099999,2.97164175,1252.8124200772640185,454.62017051,0,0,0,2.75573435
1637712000000,2021-11-24 00:00:00,AGLD/USDT,2.788,2.80187018,2.7313957,2.7313957,4225.6221650292899522,1519.65389914,0,0,0,2.78064773
1637625600000,2021-11-23 00:00:00,AGLD/USDT,2.60729549,2.67422578,2.51270246,2.63371548,1438.0702434839714792,544.65697832,0,0,0,2.64032281
1637539200000,2021-11-22 00:00:00,AGLD/USDT,2.5272305,2.77592561,2.42772719,2.42772719,3484.2856430615386175,1366.83128287,0,0,0,2.54917025
1637452800000,2021-11-21 00:00:00,AGLD/USDT,2.92539999,3.14463551,2.60738035,2.62760719,6636.0133658268501086,2325.19381274,0,0,0,2.85396139
1637366400000,2021-11-20 00:00:00,AGLD/USDT,2.32129131,3.2,2.32129131,2.87572564,15592.10933412015552,5479.4796942,0,0,0,2.8455456
1637280000000,2021-11-19 00:00:00,AGLD/USDT,2.213789,2.31103679,2.213789,2.31103679,13.6472451909137995,6.11801435,0,0,0,2.23066577
1637193600000,2021-11-18 00:00:00,AGLD/USDT,2.28600255,2.28600262,2.18,2.18,292.0905359006679198,128.79770799,0,0,0,2.26782402
1637107200000,2021-11-17 00:00:00,AGLD/USDT,2.31628904,2.32743614,2.31628904,2.32743614,8.763538901329395,3.77832471,0,0,0,2.3194245
1637020800000,2021-11-16 00:00:00,AGLD/USDT,2.62250935,2.62250935,2.24875134,2.31666863,3444.4156030566345006,1367.89538773,0,0,0,2.51804022
1636934400000,2021-11-15 00:00:00,AGLD/USDT,2.77542341,2.77878473,2.68723801,2.68723801,1160.4391344682824031,418.59627437,0,0,0,2.77221563
1636848000000,2021-11-14 00:00:00,AGLD/USDT,2.78990487,2.78990487,2.68223433,2.75199131,1271.2495615728678,467.414955,0,0,0,2.71974516
1636761600000,2021-11-13 00:00:00,AGLD/USDT,2.96905023,2.96905023,2.71390749,2.71390749,1037.4154522451809603,376.35954541,0,0,0,2.75644783
1636675200000,2021-11-12 00:00:00,AGLD/USDT,2.84282453,3,2.78715084,3,1111.9989192791566791,384.59978353,0,0,0,2.89131447
1636588800000,2021-11-11 00:00:00,AGLD/USDT,2.68292194,2.68419438,2.62968161,2.65389646,2156.23862565061981,811.8851599,0,0,0,2.6558419
1636502400000,2021-11-10 00:00:00,AGLD/USDT,2.83685435,2.83685435,2.57204628,2.62968161,2369.5251513834481854,899.45429322,0,0,0,2.63440307
1636416000000,2021-11-09 00:00:00,AGLD/USDT,2.8253622,2.8253622,2.64472421,2.76638456,612.0271204102533654,228.10316199,0,0,0,2.68311546
1636329600000,2021-11-08 00:00:00,AGLD/USDT,2.76414082,2.8387251,2.64472308,2.72809535,2892.8234747219997924,1054.72016283,0,0,0,2.74274028
1636243200000,2021-11-07 00:00:00,AGLD/USDT,2.81767069,2.98454249,2.725,2.85756084,0,0,0,0,0,2.88318025
1636156800000,2021-11-06 00:00:00,AGLD/USDT,2.81767069,2.98454249,2.725,2.85756084,326.1158515150580025,113.10976881,0,0,0,2.88318025
1636070400000,2021-11-05 00:00:00,AGLD/USDT,2.79235939,2.85054526,2.79235939,2.81066612,935.2733393421233287,332.99670121,0,0,0,2.80865647
1635984000000,2021-11-04 00:00:00,AGLD/USDT,2.9,2.9,2.59000005,2.75370489,12926.6691127758476319,4603.58039971,0,0,0,2.80795989
1635897600000,2021-11-03 00:00:00,AGLD/USDT,3.00645725,3.01567586,2.87420837,2.9612745,534.769178476439724,179.13745352,0,0,0,2.98524495
1635811200000,2021-11-02 00:00:00,AGLD/USDT,3.13366486,3.13366486,3.05193236,3.05193236,149.7783202572196341,48.58115733,0,0,0,3.08305377
1635724800000,2021-11-01 00:00:00,AGLD/USDT,2.9380349,3.05213266,2.93291616,3.05213266,732.4582478564533886,245.77811354,0,0,0,2.98016059
1635638400000,2021-10-31 00:00:00,AGLD/USDT,3.33265726,3.33265726,2.99218218,3.06943,811.6978835148254677,262.30346413,0,0,0,3.09449929
1635552000000,2021-10-30 00:00:00,AGLD/USDT,3.46393618,3.46393618,3.02131525,3.15,10619.286525406032552,3271.1743272,0,0,0,3.24632241
1635465600000,2021-10-29 00:00:00,AGLD/USDT,2.85421382,3.77000002,2.61665017,3.40263953,15107.087770047037932,4245.06239198,0,0,0,3.5587434
1635379200000,2021-10-28 00:00:00,AGLD/USDT,2.62208924,2.72382645,2.5,2.62722716,11239.3340820627927054,4200.55522374,0,0,0,2.67567821
1635292800000,2021-10-27 00:00:00,AGLD/USDT,3.01138768,3.01138768,2.583511,2.66,4062.5781509144900736,1462.14561832,0,0,0,2.77850448
1635206400000,2021-10-26 00:00:00,AGLD/USDT,3.10388802,3.1438589,3.04282679,3.09,3156.3774662126450943,1021.53663289,0,0,0,3.08983287
1635120000000,2021-10-25 00:00:00,AGLD/USDT,3.0163785,3.1574771,2.99993439,3.1574771,922.6365915658898038,296.88437501,0,0,0,3.10773038
1635033600000,2021-10-24 00:00:00,AGLD/USDT,3.12059214,3.12721954,2.80010001,3.01959622,1229.9680410100739955,408.92159139,0,0,0,3.00783345
1634947200000,2021-10-23 00:00:00,AGLD/USDT,3.00000109,3.756687,3.00000109,3.17500176,3150.100297031220168,1001.8446257,0,0,0,3.14430024
1634860800000,2021-10-22 00:00:00,AGLD/USDT,3.39842521,3.41437136,3.20918988,3.27259036,525.9439333122253568,158.39382112,0,0,0,3.32048264
1634774400000,2021-10-21 00:00:00,AGLD/USDT,3.64064655,3.70924321,3,3.36664024,15587.0561011904038281,4795.85755247,0,0,0,3.25010823
1634688000000,2021-10-20 00:00:00,AGLD/USDT,3.67444653,3.67444654,3.49398141,3.55909318,7094.793149612473602,1944.9765071,0,0,0,3.64775262
1634601600000,2021-10-19 00:00:00,AGLD/USDT,3.63862017,4.1023232,3.52664555,3.66944813,3714.7564843840243584,1015.74301011,0,0,0,3.65718144
1634515200000,2021-10-18 00:00:00,AGLD/USDT,3.87790085,3.8805042,3.6067988,3.65897321,1311.6948054438802922,349.17725026,0,0,0,3.75652997
1634428800000,2021-10-17 00:00:00,AGLD/USDT,3.95,3.95,3.70485796,3.70485796,651.5265728772450552,168.99618108,0,0,0,3.85527394
1634342400000,2021-10-16 00:00:00,AGLD/USDT,3.55705424,3.62535435,3.55235028,3.62535435,196.996457194370344,54.8551948,0,0,0,3.59120878
1634256000000,2021-10-15 00:00:00,AGLD/USDT,3.76323542,3.76323542,3.76020164,3.76020164,245.5181718474333927,65.27073293,0,0,0,3.76153539
1634169600000,2021-10-14 00:00:00,AGLD/USDT,3.5142636,3.9011118,3.40353813,3.68317249,5048.0452757884467091,1359.52034263,0,0,0,3.71310757
1634083200000,2021-10-13 00:00:00,AGLD/USDT,3.62299292,3.67414658,3.28957905,3.48837512,5935.841454394611606,1715.86130045,0,0,0,3.45939468
1633996800000,2021-10-12 00:00:00,AGLD/USDT,3.68679115,3.69717537,3.4854187,3.53522982,681.5240158318084356,191.93650082,0,0,0,3.55077858
1633910400000,2021-10-11 00:00:00,AGLD/USDT,3.43183835,4.10232321,3.43183835,3.7443496,16601.1529785918305298,4344.19920001,0,0,0,3.82145298
1633824000000,2021-10-10 00:00:00,AGLD/USDT,3.68005566,3.69245996,3.45550269,3.51728105,25792.031649851016011,7285.01270903,0,0,0,3.5404237
1633737600000,2021-10-09 00:00:00,AGLD/USDT,3.72910414,4.03577275,3.67268103,3.68005552,7373.118499748403016,1911.26048461,0,0,0,3.8577256
1633651200000,2021-10-08 00:00:00,AGLD/USDT,3.90747029,3.90747029,3.6,3.66010719,8294.4001335444466364,2244.40216942,0,0,0,3.69559442
1633564800000,2021-10-07 00:00:00,AGLD/USDT,4.02202563,4.26701247,3.73227356,3.8,17728.7877568882370472,4531.21895852,0,0,0,3.91258686
1633478400000,2021-10-06 00:00:00,AGLD/USDT,4.69,5.0124168,4.10280409,4.32885797,35454.6519188582790048,7863.35700052,0,0,0,4.50884424
1633392000000,2021-10-05 00:00:00,AGLD/USDT,2.98352718,5.12,2.98352718,4.86179696,359920.8054726241986757,92707.65095677,0,0,0,3.88232041
1633305600000,2021-10-04 00:00:00,AGLD/USDT,3.06,3.11443435,2.77,2.89301572,2645.7182748693137821,914.34115231,0,0,0,2.89357891
1633219200000,2021-10-03 00:00:00,AGLD/USDT,3.20484616,3.3101609,3.04933341,3.04933341,5186.790411323162935,1591.86853198,0,0,0,3.25830325
1633132800000,2021-10-02 00:00:00,AGLD/USDT,3.05972626,3.4297958,3.05972626,3.28487683,2836.2425932409123235,858.15351285,0,0,0,3.30505271
1633046400000,2021-10-01 00:00:00,AGLD/USDT,2.74537355,3.05972626,2.74537354,3.05972626,640.7810215627656096,230.20580346,0,0,0,2.78351376
1632960000000,2021-09-30 00:00:00,AGLD/USDT,2.73097577,2.730976,2.65346991,2.65346991,1512.3974483278968066,561.47679886,0,0,0,2.69360631
1632873600000,2021-09-29 00:00:00,AGLD/USDT,2.70174591,2.71683512,2.68610369,2.68610369,298.7236007341365027,110.56130409,0,0,0,2.70188203
1632787200000,2021-09-28 00:00:00,AGLD/USDT,2.92825265,2.92825265,2.92825264,2.92825264,525.9249215925344864,179.60367026,0,0,0,2.92825264
1632700800000,2021-09-27 00:00:00,AGLD/USDT,2.91111233,3.01872981,2.75018842,2.91018577,2658.9720824928683625,924.10329543,0,0,0,2.87735375
1632614400000,2021-09-26 00:00:00,AGLD/USDT,2.55306776,2.81180862,2.4343616,2.71997038,4489.0951639635846625,1666.58891915,0,0,0,2.69358275
1632528000000,2021-09-25 00:00:00,AGLD/USDT,3.1828626,3.1828626,2.83370884,2.99,461.139077180796912,152.9473164,0,0,0,3.01501908
1632441600000,2021-09-24 00:00:00,AGLD/USDT,3.17064338,3.3825635,2.8,2.99685887,5087.730970857927042,1708.1487482,0,0,0,2.97850581
1632355200000,2021-09-23 00:00:00,AGLD/USDT,3.38256349,3.3825635,3.17064338,3.17064338,672.509705122638726,202.98049086,0,0,0,3.3131741
1632268800000,2021-09-22 00:00:00,AGLD/USDT,3.1014064,3.38256349,2.97437683,3.20751216,1081.231604542696057,337.55449285,0,0,0,3.20313202
1632182400000,2021-09-21 00:00:00,AGLD/USDT,3.47654771,4.50000001,2.9494415,3.62278564,72928.0991131296353844,17286.67524084,0,0,0,4.21874641
1632096000000,2021-09-20 00:00:00,AGLD/USDT,3.4502542,4.04,2.65,3.68960757,86639.8359343353110302,24056.55028586,0,0,0,3.60150707
1632009600000,2021-09-19 00:00:00,AGLD/USDT,3.04672298,3.25536277,3.04672298,3.25536277,1578.650116331063358,506.16877095,0,0,0,3.11882164
1631923200000,2021-09-18 00:00:00,AGLD/USDT,3.11118719,3.1136094,3.02008124,3.02008124,758.8668544536656522,244.50305858,0,0,0,3.10371109
1631836800000,2021-09-17 00:00:00,AGLD/USDT,3,3.321387,2.86,2.86,2720.6612418623990616,873.32643252,0,0,0,3.11528558
1631750400000,2021-09-16 00:00:00,AGLD/USDT,3.19999999,3.57653607,3,3,12356.943225291324662,3752.7679411,0,0,0,3.29275442
1631664000000,2021-09-15 00:00:00,AGLD/USDT,2.3132,3.23237535,2.3132,3.15159826,6807.6868592017094412,2363.24537671,0,0,0,2.88065172
1631577600000,2021-09-14 00:00:00,AGLD/USDT,2.34999996,2.34999996,2.04585065,2.3132,341.5302189073452678,154.90880174,0,0,0,2.20471797
1631491200000,2021-09-13 00:00:00,AGLD/USDT,2.24711681,2.38784104,2.0000008,2.38784104,1310.881226221076792,624.1299068,0,0,0,2.10033394
1631404800000,2021-09-12 00:00:00,AGLD/USDT,2.3853952,2.59699579,2.3,2.3,309.4287922518185717,126.67291907,0,0,0,2.44273831
1631318400000,2021-09-11 00:00:00,AGLD/USDT,2.24521447,2.2779781,2.24521447,2.2779781,160.2168552454389248,70.41923644,0,0,0,2.27518592
1631232000000,2021-09-10 00:00:00,AGLD/USDT,2.31742663,2.53899012,2,2.05372235,1016.637071771409192,452.83620616,0,0,0,2.2450437
1631145600000,2021-09-09 00:00:00,AGLD/USDT,2.631,2.92618147,2.20829971,2.51,12446.0190099099370032,4935.58434204,0,0,0,2.52169108
1631059200000,2021-09-08 00:00:00,AGLD/USDT,2.64000021,4.06488785,2.631,2.7025214,1993.8552739908298875,706.81360665,0,0,0,2.82090675
1630972800000,2021-09-07 00:00:00,AGLD/USDT,4.08000001,4.08906185,2.46491398,2.63100024,13550.0329391618111949,4371.02192259,0,0,0,3.09996911
1630886400000,2021-09-06 00:00:00,AGLD/USDT,4.93630539,4.93630539,3.22000003,4.07127921,33669.034538061976297,8269.81547419,0,0,0,4.0713163
1630800000000,2021-09-05 00:00:00,AGLD/USDT,4.36302848,5.84101364,4.01710334,4.95873037,62475.822947038699062,12049.76804903,0,0,0,5.1848154
1630713600000,2021-09-04 00:00:00,AGLD/USDT,5.10000001,6.53738129,3.9,3.9,60724.9786298552231926,10333.85836951,0,0,0,5.87631226
1630627200000,2021-09-03 00:00:00,AGLD/USDT,12,18.8,4.12882256,6.69999862,28730.898920039172732,4942.7004489,0,0,0,5.81279388
