https://www.CryptoDataDownload.com
unix,date,symbol,open,high,low,close,Volume MLN,Volume USDT,buyTakerAmount,buyTakerQuantity,tradeCount,weightedAverage
1694995200000,2023-09-18 00:00:00,MLN/USDT,13.48,13.48,13.48,13.48,0,0,0,0,0,13.48
1694908800000,2023-09-17 00:00:00,MLN/USDT,13.48,13.48,13.48,13.48,0,0,0,0,0,13.48
1694822400000,2023-09-16 00:00:00,MLN/USDT,13.48,13.48,13.48,13.48,0,0,0,0,0,13.48
1694736000000,2023-09-15 00:00:00,MLN/USDT,13.48,13.48,13.48,13.48,1.75,0.130032,1.75,0.130032,1,13.48
1694649600000,2023-09-14 00:00:00,MLN/USDT,13.2,13.2,13.2,13.2,0,0,0,0,0,13.2
1694563200000,2023-09-13 00:00:00,MLN/USDT,13.2,13.2,13.2,13.2,0,0,0,0,0,13.2
1694476800000,2023-09-12 00:00:00,MLN/USDT,13.2,13.2,13.2,13.2,0,0,0,0,0,13.2
1694390400000,2023-09-11 00:00:00,MLN/USDT,13.22,13.22,13.2,13.2,905.56,68.602854,0,0,9,13.2
1694304000000,2023-09-10 00:00:00,MLN/USDT,13.95,13.95,13.95,13.95,0,0,0,0,0,13.95
1694217600000,2023-09-09 00:00:00,MLN/USDT,13.95,13.95,13.95,13.95,0,0,0,0,0,13.95
1694131200000,2023-09-08 00:00:00,MLN/USDT,13.95,13.95,13.95,13.95,0,0,0,0,0,13.95
1694044800000,2023-09-07 00:00:00,MLN/USDT,13.95,13.95,13.95,13.95,0,0,0,0,0,13.95
1693958400000,2023-09-06 00:00:00,MLN/USDT,13.95,13.95,13.95,13.95,0,0,0,0,0,13.95
1693872000000,2023-09-05 00:00:00,MLN/USDT,13.95,13.95,13.95,13.95,1,0.071972,0,0,1,13.95
1693785600000,2023-09-04 00:00:00,MLN/USDT,13.54,13.54,13.54,13.54,2.13,0.157702,0,0,1,13.54
1693699200000,2023-09-03 00:00:00,MLN/USDT,14.65,14.65,14.65,14.65,0,0,0,0,0,14.65
1693612800000,2023-09-02 00:00:00,MLN/USDT,14.65,14.65,14.65,14.65,2.74,0.187084,0,0,1,14.65
1693526400000,2023-09-01 00:00:00,MLN/USDT,15.02,15.02,14.33,14.62,64.51,4.373683,21.43,1.427263,3,14.75
1693440000000,2023-08-31 00:00:00,MLN/USDT,15.4,15.4,15.4,15.4,112.23,7.288176,0,0,3,15.4
1693353600000,2023-08-30 00:00:00,MLN/USDT,17.95,17.95,17.95,17.95,0,0,0,0,0,17.95
1693267200000,2023-08-29 00:00:00,MLN/USDT,17.95,17.95,17.95,17.95,0,0,0,0,0,17.95
1693180800000,2023-08-28 00:00:00,MLN/USDT,17.96,17.96,17.95,17.95,1.28,0.071708,1.09,0.061247,2,17.95
1693094400000,2023-08-27 00:00:00,MLN/USDT,17.95,17.95,17.95,17.95,0,0,0,0,0,17.95
1693008000000,2023-08-26 00:00:00,MLN/USDT,17.95,17.95,17.95,17.95,0,0,0,0,0,17.95
1692921600000,2023-08-25 00:00:00,MLN/USDT,17.95,17.95,17.95,17.95,3.17,0.176998,0,0,1,17.95
1692835200000,2023-08-24 00:00:00,MLN/USDT,16.8,20.28,16.8,20.28,4017.59,238.990723,4017.59,238.990723,12,16.81
1692748800000,2023-08-23 00:00:00,MLN/USDT,14.78,14.78,14.78,14.78,0,0,0,0,0,14.78
1692662400000,2023-08-22 00:00:00,MLN/USDT,14.78,14.78,14.78,14.78,0,0,0,0,0,14.78
1692576000000,2023-08-21 00:00:00,MLN/USDT,14.78,14.78,14.78,14.78,0,0,0,0,0,14.78
1692489600000,2023-08-20 00:00:00,MLN/USDT,14.78,14.78,14.78,14.78,0,0,0,0,0,14.78
1692403200000,2023-08-19 00:00:00,MLN/USDT,14.78,14.78,14.78,14.78,0,0,0,0,0,14.78
1692316800000,2023-08-18 00:00:00,MLN/USDT,14.78,14.78,14.78,14.78,22.65,1.532717,0,0,1,14.78
1692230400000,2023-08-17 00:00:00,MLN/USDT,15.92,15.92,15.46,15.46,77.29,4.994,0,0,2,15.47
1692144000000,2023-08-16 00:00:00,MLN/USDT,16.13,16.13,16.13,16.13,0,0,0,0,0,16.78
1692057600000,2023-08-15 00:00:00,MLN/USDT,16.13,16.13,16.13,16.13,0,0,0,0,0,16.78
1691971200000,2023-08-14 00:00:00,MLN/USDT,16.13,16.13,16.13,16.13,0,0,0,0,0,16.78
1691884800000,2023-08-13 00:00:00,MLN/USDT,16.13,16.13,16.13,16.13,0,0,0,0,0,16.78
1691798400000,2023-08-12 00:00:00,MLN/USDT,16.13,16.13,16.13,16.13,0,0,0,0,0,16.78
1691712000000,2023-08-11 00:00:00,MLN/USDT,16.13,16.13,16.13,16.13,0,0,0,0,0,16.78
1691625600000,2023-08-10 00:00:00,MLN/USDT,16.13,16.13,16.13,16.13,0,0,0,0,0,16.78
1691539200000,2023-08-09 00:00:00,MLN/USDT,17.72,17.99,16.13,16.13,47.03,2.809673,6.24,0.352341,4,16.78
1691452800000,2023-08-08 00:00:00,MLN/USDT,16.68,17.98,14.5,17.07,90.68,5.423293,49.42,2.826335,8,16.8
1691366400000,2023-08-07 00:00:00,MLN/USDT,17.96,17.96,17.96,17.96,0,0,0,0,0,17.95
1691280000000,2023-08-06 00:00:00,MLN/USDT,17.95,17.96,17.95,17.96,40,2.228241,40,2.228241,2,17.95
1691193600000,2023-08-05 00:00:00,MLN/USDT,16.68,16.68,16.68,16.68,0,0,0,0,0,16.68
1691107200000,2023-08-04 00:00:00,MLN/USDT,16.68,16.68,16.68,16.68,0,0,0,0,0,16.68
1691020800000,2023-08-03 00:00:00,MLN/USDT,16.68,16.68,16.68,16.68,0,0,0,0,0,16.68
1690934400000,2023-08-02 00:00:00,MLN/USDT,16.68,16.68,16.68,16.68,0.15,0.009023,0,0,1,16.68
1690848000000,2023-08-01 00:00:00,MLN/USDT,20.81,20.81,16.23,18.85,58.7,3.1872,14.58,0.847504,9,18.56
1690761600000,2023-07-31 00:00:00,MLN/USDT,18.8,20.55,18.8,20.55,2.14,0.109126,2.14,0.109126,2,19.73
1690675200000,2023-07-30 00:00:00,MLN/USDT,16,16,16,16,0,0,0,0,0,16.19
1690588800000,2023-07-29 00:00:00,MLN/USDT,16.74,16.74,16,16,3.75,0.23187,0,0,2,16.19
1690502400000,2023-07-28 00:00:00,MLN/USDT,17.39,17.39,17.39,17.39,0,0,0,0,0,17.52
1690416000000,2023-07-27 00:00:00,MLN/USDT,17.39,17.39,17.39,17.39,0,0,0,0,0,17.52
1690329600000,2023-07-26 00:00:00,MLN/USDT,17.39,17.39,17.39,17.39,0,0,0,0,0,17.52
1690243200000,2023-07-25 00:00:00,MLN/USDT,17.39,17.39,17.39,17.39,0,0,0,0,0,17.52
1690156800000,2023-07-24 00:00:00,MLN/USDT,17.39,17.39,17.39,17.39,0,0,0,0,0,17.52
1690070400000,2023-07-23 00:00:00,MLN/USDT,17.39,17.39,17.39,17.39,0,0,0,0,0,17.52
1689984000000,2023-07-22 00:00:00,MLN/USDT,17.39,17.39,17.39,17.39,0,0,0,0,0,17.52
1689897600000,2023-07-21 00:00:00,MLN/USDT,17.39,17.39,17.39,17.39,0,0,0,0,0,17.52
1689811200000,2023-07-20 00:00:00,MLN/USDT,17.39,17.39,17.39,17.39,0,0,0,0,0,17.52
1689724800000,2023-07-19 00:00:00,MLN/USDT,17.39,17.39,17.39,17.39,0,0,0,0,0,17.52
1689638400000,2023-07-18 00:00:00,MLN/USDT,17.39,17.39,17.39,17.39,0,0,0,0,0,17.52
1689552000000,2023-07-17 00:00:00,MLN/USDT,17.63,17.63,17.39,17.39,7.43,0.424285,3.34,0.192148,2,17.52
1689465600000,2023-07-16 00:00:00,MLN/USDT,19.71,19.92,18,18,599.82,32.620374,119.95,6.024096,11,18.41
1689379200000,2023-07-15 00:00:00,MLN/USDT,17.99,17.99,17.99,17.99,2.7,0.150589,2.7,0.150589,1,17.99
1689292800000,2023-07-14 00:00:00,MLN/USDT,20.62,20.62,18.25,18.25,108.79,5.450601,104.99,5.242483,3,19.96
1689206400000,2023-07-13 00:00:00,MLN/USDT,16.93,16.93,16.93,16.93,21.53,1.272222,0,0,1,16.93
1689120000000,2023-07-12 00:00:00,MLN/USDT,17.73,17.73,17.73,17.73,0,0,0,0,0,17.09
1689033600000,2023-07-11 00:00:00,MLN/USDT,17.73,17.73,17.73,17.73,0,0,0,0,0,17.09
1688947200000,2023-07-10 00:00:00,MLN/USDT,17.73,17.73,17.73,17.73,0,0,0,0,0,17.09
1688860800000,2023-07-09 00:00:00,MLN/USDT,17.73,17.73,17.73,17.73,0,0,0,0,0,17.09
1688774400000,2023-07-08 00:00:00,MLN/USDT,16.41,17.73,16.41,17.73,5.05,0.295894,2.62,0.147862,2,17.09
1688688000000,2023-07-07 00:00:00,MLN/USDT,18.54,18.54,18.54,18.54,0,0,0,0,0,18.54
1688601600000,2023-07-06 00:00:00,MLN/USDT,18.54,18.54,18.54,18.54,0,0,0,0,0,18.54
1688515200000,2023-07-05 00:00:00,MLN/USDT,18.54,18.54,18.54,18.54,3.61,0.194873,3.61,0.194873,1,18.54
1688428800000,2023-07-04 00:00:00,MLN/USDT,17.16,17.16,17.16,17.16,3.99,0.2331,0.64,0.037836,2,17.16
1688342400000,2023-07-03 00:00:00,MLN/USDT,16.2,19.39,16.2,19.39,20.41,1.10918,9.09,0.50898,5,18.47
1688256000000,2023-07-02 00:00:00,MLN/USDT,17.51,17.51,17.51,17.51,1.65,0.094241,1.65,0.094241,1,17.51
1688169600000,2023-07-01 00:00:00,MLN/USDT,18.3,18.3,18.3,18.3,0,0,0,0,0,18.3
1688083200000,2023-06-30 00:00:00,MLN/USDT,18.3,18.3,18.3,18.3,13.99,0.765027,13.99,0.765027,1,18.3
1687996800000,2023-06-29 00:00:00,MLN/USDT,16.73,16.73,16.73,16.73,3.23,0.193286,3.23,0.193286,1,16.73
1687910400000,2023-06-28 00:00:00,MLN/USDT,16.67,16.67,15.49,15.49,8.16,0.503673,0,0,2,16.23
1687824000000,2023-06-27 00:00:00,MLN/USDT,17.5,17.5,17.5,17.5,0,0,0,0,0,17.29
1687737600000,2023-06-26 00:00:00,MLN/USDT,17.5,17.5,17.5,17.5,0,0,0,0,0,17.29
1687651200000,2023-06-25 00:00:00,MLN/USDT,17.5,17.5,17.5,17.5,0,0,0,0,0,17.29
1687564800000,2023-06-24 00:00:00,MLN/USDT,17.5,17.5,17.5,17.5,0,0,0,0,0,17.29
1687478400000,2023-06-23 00:00:00,MLN/USDT,17.5,17.5,17.5,17.5,0,0,0,0,0,17.29
1687392000000,2023-06-22 00:00:00,MLN/USDT,17.5,17.5,17.5,17.5,0,0,0,0,0,17.29
1687305600000,2023-06-21 00:00:00,MLN/USDT,17.5,17.5,17.5,17.5,0,0,0,0,0,17.29
1687219200000,2023-06-20 00:00:00,MLN/USDT,17.5,17.5,17.5,17.5,0,0,0,0,0,17.29
1687132800000,2023-06-19 00:00:00,MLN/USDT,17.5,17.5,17.5,17.5,0,0,0,0,0,17.29
1687046400000,2023-06-18 00:00:00,MLN/USDT,17.5,17.5,17.5,17.5,0,0,0,0,0,17.29
1686960000000,2023-06-17 00:00:00,MLN/USDT,17.5,17.5,17.5,17.5,0,0,0,0,0,17.29
1686873600000,2023-06-16 00:00:00,MLN/USDT,17.5,17.5,17.5,17.5,0,0,0,0,0,17.29
1686787200000,2023-06-15 00:00:00,MLN/USDT,17.5,17.5,17.5,17.5,0,0,0,0,0,17.29
1686700800000,2023-06-14 00:00:00,MLN/USDT,17.35,18.3,15.61,17.5,57.46,3.328134,46.29,2.63431,9,17.29
1686614400000,2023-06-13 00:00:00,MLN/USDT,15.96,15.96,15.96,15.96,4.99,0.313283,4.99,0.313283,1,15.96
1686528000000,2023-06-12 00:00:00,MLN/USDT,15.93,15.93,15.93,15.93,0,0,0,0,0,15.93
1686441600000,2023-06-11 00:00:00,MLN/USDT,15.93,15.93,15.93,15.93,2.99,0.188323,2.99,0.188323,1,15.93
1686355200000,2023-06-10 00:00:00,MLN/USDT,17,17,15.5,15.87,142.76,8.776056,0.99,0.063011,8,16.27
1686268800000,2023-06-09 00:00:00,MLN/USDT,18.16,18.16,18.16,18.16,3.23,0.178326,3.23,0.178326,1,18.16
1686182400000,2023-06-08 00:00:00,MLN/USDT,16.81,16.81,16.81,16.81,0,0,0,0,0,16.81
1686096000000,2023-06-07 00:00:00,MLN/USDT,16.82,16.82,16.81,16.81,4.1,0.244081,0,0,2,16.81
1686009600000,2023-06-06 00:00:00,MLN/USDT,17.58,18.84,17.58,18.84,47.83,2.632277,47.83,2.632277,3,18.19
1685923200000,2023-06-05 00:00:00,MLN/USDT,18.33,18.62,17.14,17.14,23.17,1.33301,1.01,0.054779,6,17.39
1685836800000,2023-06-04 00:00:00,MLN/USDT,18.56,18.56,18.56,18.56,9.99,0.538793,9.99,0.538793,1,18.56
1685750400000,2023-06-03 00:00:00,MLN/USDT,18.99,18.99,18.99,18.99,1.12,0.05934,1.12,0.05934,1,18.99
1685664000000,2023-06-02 00:00:00,MLN/USDT,18.57,18.57,18.57,18.57,0,0,0,0,0,18.57
1685577600000,2023-06-01 00:00:00,MLN/USDT,18.57,18.57,18.57,18.57,11.68,0.628991,11.68,0.628991,1,18.57
1685491200000,2023-05-31 00:00:00,MLN/USDT,18.57,18.57,18.57,18.57,0,0,0,0,0,18.57
1685404800000,2023-05-30 00:00:00,MLN/USDT,18.57,18.57,18.57,18.57,0,0,0,0,0,18.57
1685318400000,2023-05-29 00:00:00,MLN/USDT,18.57,18.57,18.57,18.57,0,0,0,0,0,18.57
1685232000000,2023-05-28 00:00:00,MLN/USDT,18.57,18.57,18.57,18.57,4.07,0.21956,4.07,0.21956,1,18.57
1685145600000,2023-05-27 00:00:00,MLN/USDT,18.48,18.48,17.27,17.27,2.12,0.119058,1,0.054653,2,17.84
1685059200000,2023-05-26 00:00:00,MLN/USDT,17.43,17.43,17.43,17.43,0,0,0,0,0,17.43
1684972800000,2023-05-25 00:00:00,MLN/USDT,17.43,17.43,17.43,17.43,0,0,0,0,0,17.43
1684886400000,2023-05-24 00:00:00,MLN/USDT,17.43,17.43,17.43,17.43,0,0,0,0,0,17.43
1684800000000,2023-05-23 00:00:00,MLN/USDT,17.43,17.43,17.43,17.43,0,0,0,0,0,17.43
1684713600000,2023-05-22 00:00:00,MLN/USDT,17.43,17.43,17.43,17.43,0,0,0,0,0,17.43
1684627200000,2023-05-21 00:00:00,MLN/USDT,17.43,17.43,17.43,17.43,0,0,0,0,0,17.43
1684540800000,2023-05-20 00:00:00,MLN/USDT,17.43,17.43,17.43,17.43,2.86,0.164541,0,0,1,17.43
1684454400000,2023-05-19 00:00:00,MLN/USDT,17.77,17.77,17.77,17.77,0,0,0,0,0,17.77
1684368000000,2023-05-18 00:00:00,MLN/USDT,17.77,17.77,17.77,17.77,23.79,1.3392,0,0,1,17.77
1684281600000,2023-05-17 00:00:00,MLN/USDT,17.35,17.35,17.35,17.35,0,0,0,0,0,17.35
1684195200000,2023-05-16 00:00:00,MLN/USDT,17.35,17.35,17.35,17.35,0,0,0,0,0,17.35
1684108800000,2023-05-15 00:00:00,MLN/USDT,17.35,17.35,17.35,17.35,0,0,0,0,0,17.35
1684022400000,2023-05-14 00:00:00,MLN/USDT,17.35,17.35,17.35,17.35,0,0,0,0,0,17.35
1683936000000,2023-05-13 00:00:00,MLN/USDT,17.35,17.35,17.35,17.35,0,0,0,0,0,17.35
1683849600000,2023-05-12 00:00:00,MLN/USDT,17.35,17.35,17.35,17.35,12.66,0.729733,0,0,1,17.35
1683763200000,2023-05-11 00:00:00,MLN/USDT,18.51,18.51,18.03,18.03,19.42,1.061367,6.44,0.349066,4,18.3
1683676800000,2023-05-10 00:00:00,MLN/USDT,20.98,20.98,20.98,20.98,0,0,0,0,0,21.05
1683590400000,2023-05-09 00:00:00,MLN/USDT,20.98,20.98,20.98,20.98,0,0,0,0,0,21.05
1683504000000,2023-05-08 00:00:00,MLN/USDT,21.06,21.57,20.87,20.98,98.24,4.665651,54.95,2.621427,13,21.05
1683417600000,2023-05-07 00:00:00,MLN/USDT,21.68,23.8,21.68,23.8,46.33,2.070015,1.33,0.056,3,22.42
1683331200000,2023-05-06 00:00:00,MLN/USDT,20.41,20.41,20.41,20.41,0,0,0,0,0,20.41
1683244800000,2023-05-05 00:00:00,MLN/USDT,20.41,20.41,20.41,20.41,0,0,0,0,0,20.41
1683158400000,2023-05-04 00:00:00,MLN/USDT,20.41,20.41,20.41,20.41,0,0,0,0,0,20.41
1683072000000,2023-05-03 00:00:00,MLN/USDT,20.41,20.41,20.41,20.41,0,0,0,0,0,20.41
1682985600000,2023-05-02 00:00:00,MLN/USDT,20.41,20.41,20.41,20.41,3.47,0.170463,3.47,0.170463,1,20.41
1682899200000,2023-05-01 00:00:00,MLN/USDT,19.94,20.17,18.03,18.03,100.23,5.534112,1.21,0.06,4,18.12
1682812800000,2023-04-30 00:00:00,MLN/USDT,20.88,20.88,20.88,20.88,0,0,0,0,0,20.88
1682726400000,2023-04-29 00:00:00,MLN/USDT,20.88,20.88,20.88,20.88,0,0,0,0,0,20.88
1682640000000,2023-04-28 00:00:00,MLN/USDT,20.88,20.88,20.88,20.88,0,0,0,0,0,20.88
1682553600000,2023-04-27 00:00:00,MLN/USDT,20.88,20.88,20.88,20.88,2.29,0.11,2.29,0.11,1,20.88
1682467200000,2023-04-26 00:00:00,MLN/USDT,20.58,21.01,20.58,21.01,7.07,0.342,7.07,0.342,2,20.7
1682380800000,2023-04-25 00:00:00,MLN/USDT,22.53,22.53,22.53,22.53,0,0,0,0,0,22.53
1682294400000,2023-04-24 00:00:00,MLN/USDT,22.53,22.53,22.53,22.53,0,0,0,0,0,22.53
1682208000000,2023-04-23 00:00:00,MLN/USDT,22.53,22.53,22.53,22.53,0,0,0,0,0,22.53
1682121600000,2023-04-22 00:00:00,MLN/USDT,22.53,22.53,22.53,22.53,0,0,0,0,0,22.53
1682035200000,2023-04-21 00:00:00,MLN/USDT,22.53,22.53,22.53,22.53,0,0,0,0,0,22.53
1681948800000,2023-04-20 00:00:00,MLN/USDT,22.53,22.53,22.53,22.53,0,0,0,0,0,22.53
1681862400000,2023-04-19 00:00:00,MLN/USDT,22.53,22.53,22.53,22.53,3.02,0.134431,0,0,2,22.53
1681776000000,2023-04-18 00:00:00,MLN/USDT,22.53,22.53,22.53,22.53,0,0,0,0,0,22.53
1681689600000,2023-04-17 00:00:00,MLN/USDT,22.53,22.53,22.53,22.53,0,0,0,0,0,22.53
1681603200000,2023-04-16 00:00:00,MLN/USDT,22.53,22.53,22.53,22.53,0,0,0,0,0,22.53
1681516800000,2023-04-15 00:00:00,MLN/USDT,22.53,22.53,22.53,22.53,0,0,0,0,0,22.53
1681430400000,2023-04-14 00:00:00,MLN/USDT,22.53,22.53,22.53,22.53,0,0,0,0,0,22.53
1681344000000,2023-04-13 00:00:00,MLN/USDT,22.53,22.53,22.53,22.53,0,0,0,0,0,22.53
1681257600000,2023-04-12 00:00:00,MLN/USDT,22.53,22.53,22.53,22.53,1.31,0.058162,1.31,0.058162,1,22.53
1681171200000,2023-04-11 00:00:00,MLN/USDT,23.09,23.09,23.09,23.09,0,0,0,0,0,23.09
1681084800000,2023-04-10 00:00:00,MLN/USDT,23.09,23.09,23.09,23.09,4.15,0.180075,4.15,0.180075,1,23.09
1680998400000,2023-04-09 00:00:00,MLN/USDT,22.6,22.6,20.17,20.17,111.39,5.037796,82.89,3.730263,5,22.12
1680912000000,2023-04-08 00:00:00,MLN/USDT,22.74,22.74,22.08,22.08,19.65,0.876868,9.68,0.438434,2,22.41
1680825600000,2023-04-07 00:00:00,MLN/USDT,21.43,21.43,21.37,21.37,8.64,0.403884,0,0,2,21.4
1680739200000,2023-04-06 00:00:00,MLN/USDT,21.37,21.37,21.37,21.37,0,0,0,0,0,22.57
1680652800000,2023-04-05 00:00:00,MLN/USDT,22.43,24.15,20.46,21.37,6.66,0.295741,4.89,0.21478,6,22.57
1680566400000,2023-04-04 00:00:00,MLN/USDT,20.86,20.86,20.86,20.86,0,0,0,0,0,20.86
1680480000000,2023-04-03 00:00:00,MLN/USDT,20.86,20.86,20.86,20.86,0,0,0,0,0,20.86
1680393600000,2023-04-02 00:00:00,MLN/USDT,20.86,20.86,20.86,20.86,105.03,5.035339,0,0,1,20.86
1680307200000,2023-04-01 00:00:00,MLN/USDT,20.75,20.75,20.75,20.75,0,0,0,0,0,20.75
1680220800000,2023-03-31 00:00:00,MLN/USDT,20.75,20.75,20.75,20.75,0,0,0,0,0,20.75
1680134400000,2023-03-30 00:00:00,MLN/USDT,20.75,20.75,20.75,20.75,0,0,0,0,0,20.75
1680048000000,2023-03-29 00:00:00,MLN/USDT,20.75,20.75,20.75,20.75,11.1,0.53528,11.1,0.53528,1,20.75
1679961600000,2023-03-28 00:00:00,MLN/USDT,20.49,20.49,20.49,20.49,0,0,0,0,0,20.55
1679875200000,2023-03-27 00:00:00,MLN/USDT,20.49,20.49,20.49,20.49,0,0,0,0,0,20.55
1679788800000,2023-03-26 00:00:00,MLN/USDT,20.49,20.49,20.49,20.49,0,0,0,0,0,20.55
1679702400000,2023-03-25 00:00:00,MLN/USDT,20.6,20.6,20.49,20.49,2.77,0.134924,1.65,0.080548,2,20.55
1679616000000,2023-03-24 00:00:00,MLN/USDT,20.66,22.42,20.66,22.42,4.39,0.204907,4.39,0.204907,2,21.46
1679529600000,2023-03-23 00:00:00,MLN/USDT,20.76,20.76,20.76,20.76,0,0,0,0,0,20.76
1679443200000,2023-03-22 00:00:00,MLN/USDT,20.76,20.76,20.76,20.76,3.58,0.1726,0,0,1,20.76
1679356800000,2023-03-21 00:00:00,MLN/USDT,20.79,20.79,20.79,20.79,0,0,0,0,0,20.79
1679270400000,2023-03-20 00:00:00,MLN/USDT,20.79,20.79,20.79,20.79,5.74,0.276562,5.74,0.276562,1,20.79
1679184000000,2023-03-19 00:00:00,MLN/USDT,21,21,21,21,15.35,0.731007,0,0,1,21
1679097600000,2023-03-18 00:00:00,MLN/USDT,23.24,23.46,23.24,23.46,23.44,1.006,0,0,2,23.3
1679011200000,2023-03-17 00:00:00,MLN/USDT,17.14,17.14,17.14,17.14,0,0,0,0,0,17.98
1678924800000,2023-03-16 00:00:00,MLN/USDT,17.14,17.14,17.14,17.14,0,0,0,0,0,17.98
1678838400000,2023-03-15 00:00:00,MLN/USDT,17.14,17.14,17.14,17.14,0,0,0,0,0,17.98
1678752000000,2023-03-14 00:00:00,MLN/USDT,17.14,17.14,17.14,17.14,0,0,0,0,0,17.98
1678665600000,2023-03-13 00:00:00,MLN/USDT,17.14,17.14,17.14,17.14,0,0,0,0,0,17.98
1678579200000,2023-03-12 00:00:00,MLN/USDT,17.14,17.14,17.14,17.14,0,0,0,0,0,17.98
1678492800000,2023-03-11 00:00:00,MLN/USDT,18.8,18.8,17.14,17.14,13.07,0.727426,0,0,4,17.98
1678406400000,2023-03-10 00:00:00,MLN/USDT,20.2,20.2,19.75,19.75,11.08,0.560277,0,0,2,19.79
1678320000000,2023-03-09 00:00:00,MLN/USDT,22.11,22.11,22.11,22.11,0,0,0,0,0,22.11
1678233600000,2023-03-08 00:00:00,MLN/USDT,22.11,22.11,22.11,22.11,0,0,0,0,0,22.11
1678147200000,2023-03-07 00:00:00,MLN/USDT,22.11,22.11,22.11,22.11,0.02,0.001103,0,0,1,22.11
1678060800000,2023-03-06 00:00:00,MLN/USDT,23.01,23.01,23.01,23.01,5.1,0.221925,0,0,2,23.01
1677974400000,2023-03-05 00:00:00,MLN/USDT,25.77,25.77,25.77,25.77,0,0,0,0,0,25.77
1677888000000,2023-03-04 00:00:00,MLN/USDT,25.77,25.77,25.77,25.77,0,0,0,0,0,25.77
1677801600000,2023-03-03 00:00:00,MLN/USDT,25.77,25.77,25.77,25.77,0,0,0,0,0,25.77
1677715200000,2023-03-02 00:00:00,MLN/USDT,25.77,25.77,25.77,25.77,0,0,0,0,0,25.77
1677628800000,2023-03-01 00:00:00,MLN/USDT,25.77,25.77,25.77,25.77,0,0,0,0,0,25.77
1677542400000,2023-02-28 00:00:00,MLN/USDT,25.77,25.77,25.77,25.77,0,0,0,0,0,25.77
1677456000000,2023-02-27 00:00:00,MLN/USDT,25.77,25.77,25.77,25.77,0,0,0,0,0,25.77
1677369600000,2023-02-26 00:00:00,MLN/USDT,25.77,25.77,25.77,25.77,0,0,0,0,0,25.77
1677283200000,2023-02-25 00:00:00,MLN/USDT,25.77,25.77,25.77,25.77,0,0,0,0,0,25.77
1677196800000,2023-02-24 00:00:00,MLN/USDT,25.77,25.77,25.77,25.77,0,0,0,0,0,25.77
1677110400000,2023-02-23 00:00:00,MLN/USDT,25.77,25.77,25.77,25.77,0,0,0,0,0,25.77
1677024000000,2023-02-22 00:00:00,MLN/USDT,25.77,25.77,25.77,25.77,4.38,0.17,0,0,1,25.77
1676937600000,2023-02-21 00:00:00,MLN/USDT,26,26,26,26,0,0,0,0,0,26
1676851200000,2023-02-20 00:00:00,MLN/USDT,26,26,26,26,0,0,0,0,0,26
1676764800000,2023-02-19 00:00:00,MLN/USDT,26,26,26,26,5.26,0.202381,5.26,0.202381,1,26
1676678400000,2023-02-18 00:00:00,MLN/USDT,25.02,25.02,25.02,25.02,2.65,0.106,2.65,0.106,2,25.02
1676592000000,2023-02-17 00:00:00,MLN/USDT,24,24,24,24,0,0,0,0,0,24.92
1676505600000,2023-02-16 00:00:00,MLN/USDT,24.95,25,24,24,259.64,10.419204,176.54,7.076923,11,24.92
1676419200000,2023-02-15 00:00:00,MLN/USDT,22.12,22.12,22.12,22.12,0,0,0,0,0,22.11
1676332800000,2023-02-14 00:00:00,MLN/USDT,22.12,22.12,22.12,22.12,0,0,0,0,0,22.11
1676246400000,2023-02-13 00:00:00,MLN/USDT,22.11,22.12,22.11,22.12,7.96,0.3602,0,0,4,22.11
1676160000000,2023-02-12 00:00:00,MLN/USDT,23,23.03,23,23.03,0.01,0.0008,0.01,0.0008,2,23.01
1676073600000,2023-02-11 00:00:00,MLN/USDT,23,23,23,23,0,0,0,0,0,23.036819345212775989
1675987200000,2023-02-10 00:00:00,MLN/USDT,23.15,23.15,23,23,47.57438456,2.065154,40.102363,1.7423,8,23.036819345212775989
1675900800000,2023-02-09 00:00:00,MLN/USDT,25.39,25.4,25.32,25.32,17.3199246,0.683,0,0,4,25.358637007923233106
1675814400000,2023-02-08 00:00:00,MLN/USDT,25.88,25.88,25.36,25.38,13.09847371,0.512747,4.57123616,0.176632,5,25.547986694710860322
1675728000000,2023-02-07 00:00:00,MLN/USDT,25.95,25.95,25.34,25.34,5.44085345,0.213119,5.44085345,0.213119,3,25.532772485077685744
1675641600000,2023-02-06 00:00:00,MLN/USDT,23.97,26.15,23.97,26.15,10.05266425,0.409175,10.05266425,0.409175,3,24.602200356736275161
1675555200000,2023-02-05 00:00:00,MLN/USDT,25.15,25.17,25.15,25.17,4.44156309,0.176577,4.44156309,0.176577,2,25.153692227593687068
1675468800000,2023-02-04 00:00:00,MLN/USDT,25.46,25.46,25.46,25.46,0,0,0,0,0,25.46
1675382400000,2023-02-03 00:00:00,MLN/USDT,25.46,25.46,25.46,25.46,0,0,0,0,0,25.46
1675296000000,2023-02-02 00:00:00,MLN/USDT,25.46,25.46,25.46,25.46,0,0,0,0,0,25.46
1675209600000,2023-02-01 00:00:00,MLN/USDT,25.46,25.46,25.46,25.46,1.0099982,0.03967,1.0099982,0.03967,1,25.46
1675123200000,2023-01-31 00:00:00,MLN/USDT,23.94,25.92,22.6,25.92,23.2597718,0.966956,14.5943883,0.584181,7,24.165701073533318154
1675036800000,2023-01-30 00:00:00,MLN/USDT,24.19,24.19,23.94,23.94,41.93122174,1.746127,0,0,4,24.014360522365261279
1674950400000,2023-01-29 00:00:00,MLN/USDT,23.94,23.94,23.94,23.94,0,0,0,0,0,23.970669108250885952
1674864000000,2023-01-28 00:00:00,MLN/USDT,23.94,23.94,23.94,23.94,0,0,0,0,0,23.970669108250885952
1674777600000,2023-01-27 00:00:00,MLN/USDT,24,24,23.94,23.94,4.55442,0.19,4.55442,0.19,2,23.970669108250885952
1674691200000,2023-01-26 00:00:00,MLN/USDT,25.35,25.51,25.35,25.51,6.18749386,0.243062,6.18749386,0.243062,2,25.456666578833582874
1674604800000,2023-01-25 00:00:00,MLN/USDT,22.12,22.12,22.12,22.12,18.2189168,0.82364,0,0,1,22.12
1674518400000,2023-01-24 00:00:00,MLN/USDT,22.11,22.11,22.11,22.11,0,0,0,0,0,21.666834450441226272
1674432000000,2023-01-23 00:00:00,MLN/USDT,21.03,22.11,21.03,22.11,22.07938328,1.019613,10.81630607,0.510202,4,21.666834450441226272
1674345600000,2023-01-22 00:00:00,MLN/USDT,19.75,19.75,19.75,19.75,0,0,0,0,0,18.521552326553339137
1674259200000,2023-01-21 00:00:00,MLN/USDT,19.75,19.75,19.75,19.75,0,0,0,0,0,18.521552326553339137
1674172800000,2023-01-20 00:00:00,MLN/USDT,19.75,19.75,19.75,19.75,0,0,0,0,0,18.521552326553339137
1674086400000,2023-01-19 00:00:00,MLN/USDT,19.75,19.75,19.75,19.75,0,0,0,0,0,18.521552326553339137
1674000000000,2023-01-18 00:00:00,MLN/USDT,19.75,19.75,19.75,19.75,0,0,0,0,0,18.521552326553339137
1673913600000,2023-01-17 00:00:00,MLN/USDT,19.75,19.75,19.75,19.75,0,0,0,0,0,18.521552326553339137
1673827200000,2023-01-16 00:00:00,MLN/USDT,19.75,19.75,19.75,19.75,0,0,0,0,0,18.521552326553339137
1673740800000,2023-01-15 00:00:00,MLN/USDT,19.75,19.75,19.75,19.75,0,0,0,0,0,18.521552326553339137
1673654400000,2023-01-14 00:00:00,MLN/USDT,19.75,19.75,19.75,19.75,0,0,0,0,0,18.521552326553339137
1673568000000,2023-01-13 00:00:00,MLN/USDT,19.75,19.75,19.75,19.75,0,0,0,0,0,18.521552326553339137
1673481600000,2023-01-12 00:00:00,MLN/USDT,19.75,19.75,19.75,19.75,0,0,0,0,0,18.521552326553339137
1673395200000,2023-01-11 00:00:00,MLN/USDT,20.65,20.66,18,19.75,4432.46883254,239.703677,3620.66481325,195.142281,30,18.521552326553339137
1673308800000,2023-01-10 00:00:00,MLN/USDT,19.12,19.12,18.47,18.47,7.163886,0.379605,0,0,2,18.877231654440062279
1673222400000,2023-01-09 00:00:00,MLN/USDT,21.61,21.61,21.61,21.61,0,0,0,0,0,21.61
1673136000000,2023-01-08 00:00:00,MLN/USDT,21.61,21.61,21.61,21.61,1.99998389,0.092549,1.99998389,0.092549,1,21.61
1673049600000,2023-01-07 00:00:00,MLN/USDT,18.36,18.36,18.36,18.36,0,0,0,0,0,18.369571225124110232
1672963200000,2023-01-06 00:00:00,MLN/USDT,18.37,18.37,18.36,18.36,4.22244796,0.229861,0,0,2,18.369571225124110232
1672876800000,2023-01-05 00:00:00,MLN/USDT,18.16,18.16,18.16,18.16,0,0,0,0,0,18.16
1672790400000,2023-01-04 00:00:00,MLN/USDT,18.16,18.16,18.16,18.16,0,0,0,0,0,18.16
1672704000000,2023-01-03 00:00:00,MLN/USDT,18.16,18.16,18.16,18.16,0,0,0,0,0,18.16
1672617600000,2023-01-02 00:00:00,MLN/USDT,18.16,18.16,18.16,18.16,0,0,0,0,0,18.16
1672531200000,2023-01-01 00:00:00,MLN/USDT,18.16,18.16,18.16,18.16,0,0,0,0,0,18.16
1672444800000,2022-12-31 00:00:00,MLN/USDT,18.16,18.16,18.16,18.16,1.40478496,0.077356,0,0,1,18.16
1672358400000,2022-12-30 00:00:00,MLN/USDT,19.15,19.15,19.15,19.15,0,0,0,0,0,19.15
1672272000000,2022-12-29 00:00:00,MLN/USDT,19.15,19.15,19.15,19.15,0,0,0,0,0,19.15
1672185600000,2022-12-28 00:00:00,MLN/USDT,19.15,19.15,19.15,19.15,0,0,0,0,0,19.15
1672099200000,2022-12-27 00:00:00,MLN/USDT,19.15,19.15,19.15,19.15,0,0,0,0,0,19.15
1672012800000,2022-12-26 00:00:00,MLN/USDT,19.15,19.15,19.15,19.15,0,0,0,0,0,19.15
1671926400000,2022-12-25 00:00:00,MLN/USDT,19.15,19.15,19.15,19.15,0,0,0,0,0,19.15
1671840000000,2022-12-24 00:00:00,MLN/USDT,19.15,19.15,19.15,19.15,0,0,0,0,0,19.15
1671753600000,2022-12-23 00:00:00,MLN/USDT,19.15,19.15,19.15,19.15,0,0,0,0,0,19.15
1671667200000,2022-12-22 00:00:00,MLN/USDT,19.15,19.15,19.15,19.15,0,0,0,0,0,19.15
1671580800000,2022-12-21 00:00:00,MLN/USDT,19.15,19.15,19.15,19.15,0,0,0,0,0,19.15
1671494400000,2022-12-20 00:00:00,MLN/USDT,19.15,19.15,19.15,19.15,0,0,0,0,0,19.15
1671408000000,2022-12-19 00:00:00,MLN/USDT,19.15,19.15,19.15,19.15,0,0,0,0,0,19.15
1671321600000,2022-12-18 00:00:00,MLN/USDT,19.15,19.15,19.15,19.15,1.48353135,0.077469,0,0,1,19.15
1671235200000,2022-12-17 00:00:00,MLN/USDT,19.65,19.65,19.65,19.65,0,0,0,0,0,19.651708604238937613
1671148800000,2022-12-16 00:00:00,MLN/USDT,19.66,19.66,19.65,19.65,33.3687572,1.698008,0,0,2,19.651708604238937613
1671062400000,2022-12-15 00:00:00,MLN/USDT,21.64,21.64,21.64,21.64,0,0,0,0,0,21.64
1670976000000,2022-12-14 00:00:00,MLN/USDT,21.64,21.64,21.64,21.64,0,0,0,0,0,21.64
1670889600000,2022-12-13 00:00:00,MLN/USDT,21.64,21.64,21.64,21.64,0,0,0,0,0,21.64
1670803200000,2022-12-12 00:00:00,MLN/USDT,21.64,21.64,21.64,21.64,0,0,0,0,0,21.64
1670716800000,2022-12-11 00:00:00,MLN/USDT,21.64,21.64,21.64,21.64,0,0,0,0,0,21.64
1670630400000,2022-12-10 00:00:00,MLN/USDT,21.64,21.64,21.64,21.64,0,0,0,0,0,21.64
1670544000000,2022-12-09 00:00:00,MLN/USDT,21.64,21.64,21.64,21.64,0,0,0,0,0,21.64
1670457600000,2022-12-08 00:00:00,MLN/USDT,21.64,21.64,21.64,21.64,0,0,0,0,0,21.64
1670371200000,2022-12-07 00:00:00,MLN/USDT,21.64,21.64,21.64,21.64,0,0,0,0,0,21.64
1670284800000,2022-12-06 00:00:00,MLN/USDT,21.64,21.64,21.64,21.64,0,0,0,0,0,21.64
1670198400000,2022-12-05 00:00:00,MLN/USDT,21.64,21.64,21.64,21.64,1.445552,0.0668,1.445552,0.0668,1,21.64
1670112000000,2022-12-04 00:00:00,MLN/USDT,21.64,21.64,21.64,21.64,0,0,0,0,0,21.64
1670025600000,2022-12-03 00:00:00,MLN/USDT,21.64,21.64,21.64,21.64,9.99999548,0.462107,0,0,2,21.64
1669939200000,2022-12-02 00:00:00,MLN/USDT,21.64,21.64,21.64,21.64,0,0,0,0,0,21.64
1669852800000,2022-12-01 00:00:00,MLN/USDT,21.64,21.64,21.64,21.64,0,0,0,0,0,21.64
1669766400000,2022-11-30 00:00:00,MLN/USDT,21.64,21.64,21.64,21.64,4.95556,0.229,4.95556,0.229,1,21.64
1669680000000,2022-11-29 00:00:00,MLN/USDT,18.43,18.43,18.43,18.43,0,0,0,0,0,19.140963862532200815
1669593600000,2022-11-28 00:00:00,MLN/USDT,19.22,19.22,18.43,18.43,4.71573855,0.246408,0,0,2,19.140963862532200815
1669507200000,2022-11-27 00:00:00,MLN/USDT,18.45,18.45,18.45,18.45,0,0,0,0,0,18.37045659919239007
1669420800000,2022-11-26 00:00:00,MLN/USDT,18.45,18.45,18.45,18.45,0,0,0,0,0,18.37045659919239007
1669334400000,2022-11-25 00:00:00,MLN/USDT,18.34,18.45,18.34,18.45,2.30000144,0.125202,0,0,2,18.37045659919239007
1669248000000,2022-11-24 00:00:00,MLN/USDT,18.11,18.11,18.11,18.11,0,0,0,0,0,18.204622384820329827
1669161600000,2022-11-23 00:00:00,MLN/USDT,18.11,18.11,18.11,18.11,0,0,0,0,0,18.204622384820329827
1669075200000,2022-11-22 00:00:00,MLN/USDT,18.11,18.11,18.11,18.11,0,0,0,0,0,18.204622384820329827
1668988800000,2022-11-21 00:00:00,MLN/USDT,18.11,18.11,18.11,18.11,0,0,0,0,0,18.204622384820329827
1668902400000,2022-11-20 00:00:00,MLN/USDT,18.11,18.11,18.11,18.11,0,0,0,0,0,18.204622384820329827
1668816000000,2022-11-19 00:00:00,MLN/USDT,18.11,18.11,18.11,18.11,0,0,0,0,0,18.204622384820329827
1668729600000,2022-11-18 00:00:00,MLN/USDT,18.11,18.11,18.11,18.11,0,0,0,0,0,18.204622384820329827
1668643200000,2022-11-17 00:00:00,MLN/USDT,18.11,18.11,18.11,18.11,0,0,0,0,0,18.204622384820329827
1668556800000,2022-11-16 00:00:00,MLN/USDT,18.11,18.11,18.11,18.11,0,0,0,0,0,18.204622384820329827
1668470400000,2022-11-15 00:00:00,MLN/USDT,18.11,18.11,18.11,18.11,0,0,0,0,0,18.204622384820329827
1668384000000,2022-11-14 00:00:00,MLN/USDT,18.3,18.3,18.11,18.11,41.55131863,2.282518,0,0,4,18.204622384820329827
1668297600000,2022-11-13 00:00:00,MLN/USDT,19,19,19,19,5.001769,0.263251,0,0,2,19
1668211200000,2022-11-12 00:00:00,MLN/USDT,20.74,20.74,20.74,20.74,0,0,0,0,0,20.726514076019090974
1668124800000,2022-11-11 00:00:00,MLN/USDT,20.74,20.74,20.74,20.74,0,0,0,0,0,20.726514076019090974
1668038400000,2022-11-10 00:00:00,MLN/USDT,20.74,20.74,20.74,20.74,0,0,0,0,0,20.726514076019090974
1667952000000,2022-11-09 00:00:00,MLN/USDT,19,21.27,19,20.74,150.18811898,7.247481,147.18991898,7.089681,6,20.726514076019090974
1667865600000,2022-11-08 00:00:00,MLN/USDT,21.36,21.36,20.1,20.1,15.1163,0.714,0,0,3,21.17655742476664263
1667779200000,2022-11-07 00:00:00,MLN/USDT,25.97,25.97,25.97,25.97,0,0,0,0,0,25.97
1667692800000,2022-11-06 00:00:00,MLN/USDT,25.97,25.97,25.97,25.97,1.07162608,0.041264,1.07162608,0.041264,1,25.97
1667606400000,2022-11-05 00:00:00,MLN/USDT,26.6,26.6,26.6,26.6,4.1266176,0.155136,4.1266176,0.155136,2,26.6
1667520000000,2022-11-04 00:00:00,MLN/USDT,25.62,25.62,25.62,25.62,0,0,0,0,0,24.933214969187719535
1667433600000,2022-11-03 00:00:00,MLN/USDT,24.89,25.62,24.89,25.62,6.53124978,0.26196,6.53124978,0.26196,3,24.933214969187719535
1667347200000,2022-11-02 00:00:00,MLN/USDT,23.01,23.53,23,23.53,24.23276253,1.036444,17.48279,0.743,4,23.383092042593461588
1667260800000,2022-11-01 00:00:00,MLN/USDT,23.61,23.61,23.1,23.1,40.11482508,1.724996,12.37985628,0.524348,3,23.257391355694775972
1667174400000,2022-10-31 00:00:00,MLN/USDT,25.16,25.21,25.16,25.21,74.85827063,2.973739,56.10203063,2.229739,5,25.173132180292527817
1667088000000,2022-10-30 00:00:00,MLN/USDT,25.99,25.99,23.01,23.01,23.49274036,0.977354,13.90802755,0.562373,4,24.081912149247453734
1667001600000,2022-10-29 00:00:00,MLN/USDT,24.01,24.07,24,24.07,124.94052218,5.205593,1.21055251,0.050293,5,24.00121048359460282
1666915200000,2022-10-28 00:00:00,MLN/USDT,23.88,24.82,23.86,24.82,550.63273397,22.864457,251.63718181,10.532491,10,24.088211720903513066
1666828800000,2022-10-27 00:00:00,MLN/USDT,26.99,31.29,26.99,27.6,254.99227499,9.102097,252.56347499,9.014097,8,28.133027183209492411
1666742400000,2022-10-26 00:00:00,MLN/USDT,25.93,25.93,25.93,25.93,103.23998384,3.981488,103.23998384,3.981488,1,25.93
1666656000000,2022-10-25 00:00:00,MLN/USDT,26,26.9,25.89,25.89,76.7341994,2.955632,5.4995974,0.204446,5,25.964552012515035114
1666569600000,2022-10-24 00:00:00,MLN/USDT,27.17,27.17,27.17,27.17,0,0,0,0,0,31.057439042967148418
1666483200000,2022-10-23 00:00:00,MLN/USDT,34.77,34.77,27.17,27.17,1056.72440056,34.269031,301.43700633,9.617003,19,31.057439042967148418
1666396800000,2022-10-22 00:00:00,MLN/USDT,69.97,69.97,31.27,34.45,1522.84301245,39.88034,451.88033274,10.813291,41,38.759119873440438417
1666310400000,2022-10-21 00:00:00,MLN/USDT,20.47,26.44,20.47,24.51,400.77057531,16.681874,133.22786754,6.43101,9,24.331113237152839615
1666224000000,2022-10-20 00:00:00,MLN/USDT,19.11,19.11,19.11,19.11,0,0,0,0,0,19.11
1666137600000,2022-10-19 00:00:00,MLN/USDT,19.11,19.11,19.11,19.11,0,0,0,0,0,19.11
1666051200000,2022-10-18 00:00:00,MLN/USDT,19.11,19.11,19.11,19.11,0,0,0,0,0,19.11
1665964800000,2022-10-17 00:00:00,MLN/USDT,19.11,19.11,19.11,19.11,0,0,0,0,0,19.11
1665878400000,2022-10-16 00:00:00,MLN/USDT,19.11,19.11,19.11,19.11,0,0,0,0,0,19.11
1665792000000,2022-10-15 00:00:00,MLN/USDT,19.11,19.11,19.11,19.11,0,0,0,0,0,19.11
1665705600000,2022-10-14 00:00:00,MLN/USDT,19.11,19.11,19.11,19.11,0.83994183,0.043953,0,0,1,19.11
1665619200000,2022-10-13 00:00:00,MLN/USDT,18.96,18.96,18.96,18.96,0,0,0,0,0,18.96
1665532800000,2022-10-12 00:00:00,MLN/USDT,18.96,18.96,18.96,18.96,2.06330304,0.108824,2.06330304,0.108824,1,18.96
1665446400000,2022-10-11 00:00:00,MLN/USDT,20.01,20.01,17.76,18.64,1531.55453493,81.968185,607.74172561,32.444164,14,18.706637429830315912
1665360000000,2022-10-10 00:00:00,MLN/USDT,20,20,20,20,2.34146,0.117073,0,0,1,20
1665273600000,2022-10-09 00:00:00,MLN/USDT,19.9,20.01,19.9,20,217.11790042,10.858488,13.7014485,0.688515,3,19.995255404879987923
1665187200000,2022-10-08 00:00:00,MLN/USDT,19.67,19.69,19.66,19.66,313.62515094,15.939998,263.61909556,13.396455,5,19.6753621968319809
1665100800000,2022-10-07 00:00:00,MLN/USDT,19.23,19.23,19.23,19.23,0,0,0,0,0,19.23
1665014400000,2022-10-06 00:00:00,MLN/USDT,19.23,19.23,19.23,19.23,0,0,0,0,0,19.23
1664928000000,2022-10-05 00:00:00,MLN/USDT,19.23,19.23,19.23,19.23,46.40539371,2.413177,0,0,1,19.23
1664841600000,2022-10-04 00:00:00,MLN/USDT,19.02,19.02,19.02,19.02,0,0,0,0,0,19.02
1664755200000,2022-10-03 00:00:00,MLN/USDT,19.02,19.02,19.02,19.02,0,0,0,0,0,19.02
1664668800000,2022-10-02 00:00:00,MLN/USDT,19.02,19.02,19.02,19.02,25.97515752,1.365676,0,0,1,19.02
1664582400000,2022-10-01 00:00:00,MLN/USDT,19.46,19.46,19.46,19.46,0,0,0,0,0,19.46
1664496000000,2022-09-30 00:00:00,MLN/USDT,19.46,19.46,19.46,19.46,5.24374998,0.269463,5.24374998,0.269463,1,19.46
1664409600000,2022-09-29 00:00:00,MLN/USDT,17.48,17.48,17.48,17.48,0,0,0,0,0,17.587858350494168354
1664323200000,2022-09-28 00:00:00,MLN/USDT,17.77,17.77,17.48,17.48,11.94460136,0.679182,0,0,2,17.587858350494168354
1664236800000,2022-09-27 00:00:00,MLN/USDT,19.51,19.51,19.51,19.51,0,0,0,0,0,19.649962517603425614
1664150400000,2022-09-26 00:00:00,MLN/USDT,19.51,19.51,19.51,19.51,0,0,0,0,0,19.649962517603425614
1664064000000,2022-09-25 00:00:00,MLN/USDT,19.98,20,19.32,19.51,307.86057602,15.670721,132.42973404,6.62758,5,19.649962517603425614
1663977600000,2022-09-24 00:00:00,MLN/USDT,19.89,19.9,19.64,19.65,514.17219793,25.999531,267.07141417,13.42233,9,19.777005975696668098
1663891200000,2022-09-23 00:00:00,MLN/USDT,19.79,19.79,19.79,19.79,0,0,0,0,0,19.79
1663804800000,2022-09-22 00:00:00,MLN/USDT,19.79,19.79,19.79,19.79,10.569839,0.5341,0,0,1,19.79
1663718400000,2022-09-21 00:00:00,MLN/USDT,20.09,20.09,20.09,20.09,0,0,0,0,0,20.47561400408417901
1663632000000,2022-09-20 00:00:00,MLN/USDT,20.09,20.09,20.09,20.09,0,0,0,0,0,20.47561400408417901
1663545600000,2022-09-19 00:00:00,MLN/USDT,21.25,21.25,20.09,20.09,33.28493674,1.626412,8.25323424,0.399866,3,20.47561400408417901
1663459200000,2022-09-18 00:00:00,MLN/USDT,23,23,23,23,12.282,0.534,12.282,0.534,1,23
1663372800000,2022-09-17 00:00:00,MLN/USDT,21.43,21.43,21.43,21.43,0,0,0,0,0,22.04717642481158256
1663286400000,2022-09-16 00:00:00,MLN/USDT,24,24,21.43,21.43,7.15993039,0.325516,1.719432,0.071643,2,22.04717642481158256
1663200000000,2022-09-15 00:00:00,MLN/USDT,22.41,22.41,22.41,22.41,0,0,0,0,0,22.41
1663113600000,2022-09-14 00:00:00,MLN/USDT,22.41,22.41,22.41,22.41,0,0,0,0,0,22.41
1663027200000,2022-09-13 00:00:00,MLN/USDT,22.41,22.41,22.41,22.41,98.12586024,4.378664,0,0,1,22.41
1662940800000,2022-09-12 00:00:00,MLN/USDT,24.39,24.39,24.39,24.39,0,0,0,0,0,24.39
1662854400000,2022-09-11 00:00:00,MLN/USDT,24.39,24.39,24.39,24.39,0,0,0,0,0,24.39
1662768000000,2022-09-10 00:00:00,MLN/USDT,24.39,24.39,24.39,24.39,14.78999844,0.606396,0,0,1,24.39
1662681600000,2022-09-09 00:00:00,MLN/USDT,22.75,25.96,22.27,23.52,311.7712081,13.205944,209.44306704,8.838893,8,23.611029973710391506
1662595200000,2022-09-08 00:00:00,MLN/USDT,22.81,22.81,22.81,22.81,0,0,0,0,0,22.81
1662508800000,2022-09-07 00:00:00,MLN/USDT,22.81,22.81,22.81,22.81,0,0,0,0,0,22.81
1662422400000,2022-09-06 00:00:00,MLN/USDT,22.81,22.81,22.81,22.81,0,0,0,0,0,22.81
1662336000000,2022-09-05 00:00:00,MLN/USDT,22.81,22.81,22.81,22.81,0,0,0,0,0,22.81
1662249600000,2022-09-04 00:00:00,MLN/USDT,22.81,22.81,22.81,22.81,0,0,0,0,0,22.81
1662163200000,2022-09-03 00:00:00,MLN/USDT,22.81,22.81,22.81,22.81,57.025,2.5,0,0,1,22.81
1662076800000,2022-09-02 00:00:00,MLN/USDT,23.05,23.05,23.05,23.05,59.98253095,2.602279,59.98253095,2.602279,1,23.05
1661990400000,2022-09-01 00:00:00,MLN/USDT,23.1,23.1,22.93,22.93,131.91296334,5.731449,66.6961911,2.887281,2,23.015953284650090705
1661904000000,2022-08-31 00:00:00,MLN/USDT,21.64,23.62,21.64,23.52,424.62586147,18.016951,212.38245782,8.993307,6,23.568370748934120494
1661817600000,2022-08-30 00:00:00,MLN/USDT,23.74,23.74,23.74,23.74,0.40775824,0.017176,0,0,1,23.74
1661731200000,2022-08-29 00:00:00,MLN/USDT,24.55,24.55,24.55,24.55,0,0,0,0,0,24.545001018537380321
1661644800000,2022-08-28 00:00:00,MLN/USDT,24.55,24.55,24.55,24.55,0,0,0,0,0,24.545001018537380321
1661558400000,2022-08-27 00:00:00,MLN/USDT,24.54,24.55,24.54,24.55,240.24538002,9.787956,240.24538002,9.787956,2,24.545001018537380321
1661472000000,2022-08-26 00:00:00,MLN/USDT,21.25,21.25,21.25,21.25,0,0,0,0,0,23.01938382218203022
1661385600000,2022-08-25 00:00:00,MLN/USDT,21.25,21.25,21.25,21.25,0,0,0,0,0,23.01938382218203022
1661299200000,2022-08-24 00:00:00,MLN/USDT,21.25,21.25,21.25,21.25,0,0,0,0,0,23.01938382218203022
1661212800000,2022-08-23 00:00:00,MLN/USDT,21.25,21.25,21.25,21.25,0,0,0,0,0,23.01938382218203022
1661126400000,2022-08-22 00:00:00,MLN/USDT,21.25,21.25,21.25,21.25,0,0,0,0,0,23.01938382218203022
1661040000000,2022-08-21 00:00:00,MLN/USDT,21.25,21.25,21.25,21.25,0,0,0,0,0,23.01938382218203022
1660953600000,2022-08-20 00:00:00,MLN/USDT,21.25,21.25,21.25,21.25,0,0,0,0,0,23.01938382218203022
1660867200000,2022-08-19 00:00:00,MLN/USDT,29.33,29.33,21.25,21.25,18.42108896,0.81444,0,0,3,23.01938382218203022
1660780800000,2022-08-18 00:00:00,MLN/USDT,29.33,29.33,29.33,29.33,0,0,0,0,0,29.33
1660694400000,2022-08-17 00:00:00,MLN/USDT,29.33,29.33,29.33,29.33,0,0,0,0,0,29.33
1660608000000,2022-08-16 00:00:00,MLN/USDT,29.33,29.33,29.33,29.33,9.1184037,0.31089,0,0,1,29.33
1660521600000,2022-08-15 00:00:00,MLN/USDT,29.33,29.33,29.33,29.33,0,0,0,0,0,29.33
1660435200000,2022-08-14 00:00:00,MLN/USDT,29.33,29.33,29.33,29.33,4.66347,0.159,0,0,1,29.33
1660348800000,2022-08-13 00:00:00,MLN/USDT,30,30,30,30,5.43117,0.181039,0,0,1,30
1660262400000,2022-08-12 00:00:00,MLN/USDT,30,30,30,30,0,0,0,0,0,30
1660176000000,2022-08-11 00:00:00,MLN/USDT,30,30,30,30,27.09105,0.903035,23.16123,0.772041,2,30
1660089600000,2022-08-10 00:00:00,MLN/USDT,27.26,27.26,27.26,27.26,0,0,0,0,0,27.262263800163325823
1660003200000,2022-08-09 00:00:00,MLN/USDT,27.27,27.27,27.26,27.26,5.17983,0.19,0,0,2,27.262263800163325823
1659916800000,2022-08-08 00:00:00,MLN/USDT,26.3,27,26.3,27,2.4464327,0.093,2.4464327,0.093,2,26.305879131684268281
1659830400000,2022-08-07 00:00:00,MLN/USDT,23.94,23.94,23.94,23.94,1.52076456,0.063524,0,0,1,23.94
1659744000000,2022-08-06 00:00:00,MLN/USDT,20,27,20,27,18.13734515,0.87224,18.13734515,0.87224,12,21.030775975970220757
1659657600000,2022-08-05 00:00:00,MLN/USDT,20,20,20,20,1.1,0.055,0,0,2,20
1659225600000,2022-07-31 00:00:00,MLN/USDT,29.16868914,29.16868914,28.4417,28.4417,121.7423440392188594,4.22640242,0,0,0,28.80519457
1659139200000,2022-07-30 00:00:00,MLN/USDT,28.80090906,29.40119098,28.80090906,29.40119098,516.231867115128003,17.89069674,0,0,0,28.85476595
1659052800000,2022-07-29 00:00:00,MLN/USDT,28.15441821,28.15441821,27.8800844,27.9462,188.8703897395964213,6.74785603,0,0,0,27.98968871
1658966400000,2022-07-28 00:00:00,MLN/USDT,25.2036876,25.2036876,25.2036876,25.2036876,0,0,0,0,0,25.2036876
1658880000000,2022-07-27 00:00:00,MLN/USDT,25.2036876,25.2036876,25.2036876,25.2036876,54.616294499076492,2.16699617,0,0,0,25.2036876
1658793600000,2022-07-26 00:00:00,MLN/USDT,25.20369132,25.20369132,25.20369132,25.20369132,30.380670657799392,1.2054056,0,0,0,25.20369132
1658707200000,2022-07-25 00:00:00,MLN/USDT,28.06880378,28.06880379,25.8741,25.8741,0,0,0,0,0,27.90175821
1658620800000,2022-07-24 00:00:00,MLN/USDT,28.06880378,28.06880379,25.8741,25.8741,665.9724749319989163,23.86847703,0,0,0,27.90175821
1658534400000,2022-07-23 00:00:00,MLN/USDT,25.8912,25.8912,25.8912,25.8912,0,0,0,0,0,25.8912
1658448000000,2022-07-22 00:00:00,MLN/USDT,25.8912,25.8912,25.8912,25.8912,55.534377161664,2.14491322,0,0,0,25.8912
1658361600000,2022-07-21 00:00:00,MLN/USDT,26.19675067,26.19675067,26.19675067,26.19675067,56.8528709913564602,2.17022606,0,0,0,26.19675067
1658275200000,2022-07-20 00:00:00,MLN/USDT,26.5131,26.5131,26.5131,26.5131,56.536333470702,2.13239242,0,0,0,26.5131
1658188800000,2022-07-19 00:00:00,MLN/USDT,28.366,28.366,25.99381522,25.99381522,1511.8720739156870618,57.97319743,0,0,0,26.07881126
1658102400000,2022-07-18 00:00:00,MLN/USDT,23.114,23.64808518,23.114,23.64808518,0,0,0,0,0,23.38104259
1658016000000,2022-07-17 00:00:00,MLN/USDT,23.114,23.64808518,23.114,23.64808518,92.9344359342026516,3.97477724,0,0,0,23.38104259
1657929600000,2022-07-16 00:00:00,MLN/USDT,25.09706043,25.09706043,25.09706043,25.09706043,54.0278175575431683,2.15275481,0,0,0,25.09706043
1657843200000,2022-07-15 00:00:00,MLN/USDT,24.40996451,24.40996451,21.42143759,24.10827128,0,0,0,0,0,22.89533611
1657756800000,2022-07-14 00:00:00,MLN/USDT,24.40996451,24.40996451,21.42143759,24.10827128,4368.917374593891354,190.8212814,0,0,0,22.89533611
1657670400000,2022-07-13 00:00:00,MLN/USDT,25.172,25.172,23.82763365,23.98994729,0,0,0,0,0,24.10397396
1657584000000,2022-07-12 00:00:00,MLN/USDT,25.172,25.172,23.82763365,23.98994729,284.8960847764825464,11.81946534,0,0,0,24.10397396
1657497600000,2022-07-11 00:00:00,MLN/USDT,37.091,37.091,37.091,37.091,37.46191630547,1.01000017,0,0,0,37.091
1657411200000,2022-07-10 00:00:00,MLN/USDT,25.62890022,25.62890022,25.1244,25.1244,106.6890242394947187,4.20422017,0,0,0,25.37665011
1657324800000,2022-07-09 00:00:00,MLN/USDT,25.27313555,25.27313555,25.27313555,25.27313555,25.444017834170481,1.00676142,0,0,0,25.27313555
1657238400000,2022-07-08 00:00:00,MLN/USDT,25.44484812,25.44484812,21.74704087,24.1462,0,0,0,0,0,22.73271224
1657152000000,2022-07-07 00:00:00,MLN/USDT,25.44484812,25.44484812,21.74704087,24.1462,0,0,0,0,0,22.73271224
1657065600000,2022-07-06 00:00:00,MLN/USDT,25.44484812,25.44484812,21.74704087,24.1462,222.260872641218404,9.77713835,0,0,0,22.73271224
1656979200000,2022-07-05 00:00:00,MLN/USDT,24.3972,24.3972,24.13157843,24.13157843,0,0,0,0,0,24.23241633
1656892800000,2022-07-04 00:00:00,MLN/USDT,24.3972,24.3972,24.13157843,24.13157843,98.0640700265127816,4.04681352,0,0,0,24.23241633
1656806400000,2022-07-03 00:00:00,MLN/USDT,24.51666623,24.51666623,24.51666623,24.51666623,24.5544552386602728,1.00154136,0,0,0,24.51666623
1656720000000,2022-07-02 00:00:00,MLN/USDT,24.56738165,25.8,23.3264,23.3264,147.5112831356911824,5.94040216,0,0,0,24.83186814
1656633600000,2022-07-01 00:00:00,MLN/USDT,23.58929691,23.58929691,23.58929691,23.58929691,50.0245745550163992,2.12064712,0,0,0,23.58929691
1656547200000,2022-06-30 00:00:00,MLN/USDT,23.7807732,23.7807732,23.7807732,23.7807732,50.839977824008188,2.13786059,0,0,0,23.7807732
1656460800000,2022-06-29 00:00:00,MLN/USDT,23.48812163,24.48029713,23.48812163,24.48029713,317.5527330535604855,13.25555059,0,0,0,23.95620845
1656374400000,2022-06-28 00:00:00,MLN/USDT,25.41693921,25.41693921,23.768,23.768,385.7313582728201655,15.75033007,0,0,0,24.49036665
1656288000000,2022-06-27 00:00:00,MLN/USDT,23.7636,24.50267999,23.7636,24.50267999,141.7845003360816933,5.84758923,0,0,0,24.24665871
1656201600000,2022-06-26 00:00:00,MLN/USDT,25.30753868,25.30753868,25.30753868,25.30753868,53.2686112580567936,2.10485152,0,0,0,25.30753868
1656115200000,2022-06-25 00:00:00,MLN/USDT,22.9518,24.81549348,22.9518,24.81549348,196.1069859431617248,8.23685634,0,0,0,23.80847472
1656028800000,2022-06-24 00:00:00,MLN/USDT,23.20919865,23.20919865,23.20919865,23.20919865,46.848048770512638,2.01851212,0,0,0,23.20919865
1655942400000,2022-06-23 00:00:00,MLN/USDT,24.2671692,24.2671692,22.272,22.272,94.64090496764076,4.0671506,0,0,0,23.2695846
1655856000000,2022-06-22 00:00:00,MLN/USDT,23.50873074,23.50873074,23.50873073,23.50873073,1881.2560716227644693,80.02371941,0,0,0,23.50873073
1655769600000,2022-06-21 00:00:00,MLN/USDT,27.7091318,27.7091318,25.86732981,26.1359367,326.5335248335648488,12.15421298,0,0,0,26.86587156
1655683200000,2022-06-20 00:00:00,MLN/USDT,28.79,33.3,22.09069715,22.09069715,8226.429113554392768,341.3495292,0,0,0,24.09972304
1655596800000,2022-06-19 00:00:00,MLN/USDT,18.3634,22.52160388,18.3634,22.52160388,59.735587839002355,3.05436649,0,0,0,19.5574395
1655510400000,2022-06-18 00:00:00,MLN/USDT,20.00000001,20.00000001,18.17212943,19.99030776,7362.6968045746027566,368.75621898,0,0,0,19.96629867
1655424000000,2022-06-17 00:00:00,MLN/USDT,20.00000001,20.00000001,20.00000001,20.00000001,38.491852019245926,1.9245926,0,0,0,20.00000001
1655337600000,2022-06-16 00:00:00,MLN/USDT,23.5662,23.5662,20,20.00000001,19695.9655188571318694,960.01561399,0,0,0,20.51629706
1655251200000,2022-06-15 00:00:00,MLN/USDT,20.89513066,20.89513066,20.89513066,20.89513066,41.0925726983112934,1.96660999,0,0,0,20.89513066
1655164800000,2022-06-14 00:00:00,MLN/USDT,22.93300927,22.93300927,22.2,22.2,96.322438342891644,4.2680577,0,0,0,22.56821372
1655078400000,2022-06-13 00:00:00,MLN/USDT,22.20721995,22.76368539,20.83091906,21.63,2607.749247413657305,117.62244925,0,0,0,22.17050626
1654992000000,2022-06-12 00:00:00,MLN/USDT,24.65381599,24.875,23.16175184,24.6552787,5442.7338351378051804,223.27995042,0,0,0,24.37627662
1654905600000,2022-06-11 00:00:00,MLN/USDT,25.81599411,25.81599411,25.81599411,25.81599411,0,0,0,0,0,25.81599411
1654819200000,2022-06-10 00:00:00,MLN/USDT,25.81599411,25.81599411,25.81599411,25.81599411,159.9517322877907638,6.19583858,0,0,0,25.81599411
1654732800000,2022-06-09 00:00:00,MLN/USDT,28.54785954,37.099,25.98692707,26.78116196,0,0,0,0,0,27.81388496
1654646400000,2022-06-08 00:00:00,MLN/USDT,28.54785954,37.099,25.98692707,26.78116196,44008.4646629117985312,1582.24802922,0,0,0,27.81388496
1654560000000,2022-06-07 00:00:00,MLN/USDT,26.89046553,26.89046553,26.89046553,26.89046553,2140.5891311202023124,79.60401908,0,0,0,26.89046553
1654473600000,2022-06-06 00:00:00,MLN/USDT,21.3662687,27.88771284,21.3662687,27.88771284,781.3806751995586986,36.16979466,0,0,0,21.60312721
1654387200000,2022-06-05 00:00:00,MLN/USDT,28.02387255,28.76708214,28.02387255,28.76708214,0,0,0,0,0,28.48949564
1654300800000,2022-06-04 00:00:00,MLN/USDT,28.02387255,28.76708214,28.02387255,28.76708214,7242.4622006945046176,254.21517784,0,0,0,28.48949564
1654214400000,2022-06-03 00:00:00,MLN/USDT,28.01313692,28.01313692,28.01313692,28.01313692,897.4712967927361228,32.03751509,0,0,0,28.01313692
1654128000000,2022-06-02 00:00:00,MLN/USDT,26.95285654,30.63716923,26.95285654,30.44684594,0,0,0,0,0,27.74999686
1654041600000,2022-06-01 00:00:00,MLN/USDT,26.95285654,30.63716923,26.95285654,30.44684594,0,0,0,0,0,27.74999686
1653955200000,2022-05-31 00:00:00,MLN/USDT,26.95285654,30.63716923,26.95285654,30.44684594,0,0,0,0,0,27.74999686
1653868800000,2022-05-30 00:00:00,MLN/USDT,26.95285654,30.63716923,26.95285654,30.44684594,0,0,0,0,0,27.74999686
1653782400000,2022-05-29 00:00:00,MLN/USDT,26.95285654,30.63716923,26.95285654,30.44684594,16756.5291595856751456,603.83895696,0,0,0,27.74999686
1653696000000,2022-05-28 00:00:00,MLN/USDT,26.77617196,26.97715238,26.77617196,26.97715238,0,0,0,0,0,26.95342997
1653609600000,2022-05-27 00:00:00,MLN/USDT,26.77617196,26.97715238,26.77617196,26.97715238,3581.4048224425571227,132.87380591,0,0,0,26.95342997
1653523200000,2022-05-26 00:00:00,MLN/USDT,28,28,28,28,172.41472416,6.15766872,0,0,0,28
1653436800000,2022-05-25 00:00:00,MLN/USDT,28.44658762,28.44658762,28.44658762,28.44658762,0,0,0,0,0,28.44658762
1653350400000,2022-05-24 00:00:00,MLN/USDT,28.44658762,28.44658762,28.44658762,28.44658762,983.243103290973701,34.56453605,0,0,0,28.44658762
1653264000000,2022-05-23 00:00:00,MLN/USDT,31.21035987,31.21035987,31.21035987,31.21035987,96.0381845449421253,3.07712519,0,0,0,31.21035987
1653177600000,2022-05-22 00:00:00,MLN/USDT,30.35973907,30.35973907,30.35973907,30.35973907,1536.4401833849570184,50.60781912,0,0,0,30.35973907
1653091200000,2022-05-21 00:00:00,MLN/USDT,29.97780906,32.84932399,29.90061164,32.55913496,0,0,0,0,0,30.71486029
1653004800000,2022-05-20 00:00:00,MLN/USDT,29.97780906,32.84932399,29.90061164,32.55913496,0,0,0,0,0,30.71486029
1652918400000,2022-05-19 00:00:00,MLN/USDT,29.97780906,32.84932399,29.90061164,32.55913496,27172.5872137252871444,884.67233636,0,0,0,30.71486029
1652832000000,2022-05-18 00:00:00,MLN/USDT,32.72227515,32.72227515,30.08106797,30.40366626,21916.6095041964798021,726.78233373,0,0,0,30.15567177
1652745600000,2022-05-17 00:00:00,MLN/USDT,30.80654258,41.95835731,30.74436078,32.43161855,17296.914879199444034,470.50342612,0,0,0,36.76256945
1652659200000,2022-05-16 00:00:00,MLN/USDT,33.77914408,34.01116648,28.68993239,29.48291998,48991.8690762007226928,1522.53586388,0,0,0,32.17780956
1652572800000,2022-05-15 00:00:00,MLN/USDT,28,63.30487855,28,37.3258545,76337.6765493787414574,1891.46174809,0,0,0,40.35909086
1652486400000,2022-05-14 00:00:00,MLN/USDT,27.21338435,27.33135061,27.21338435,27.33135061,570.5899373776690654,20.92104178,0,0,0,27.27349543
1652400000000,2022-05-13 00:00:00,MLN/USDT,26,26.58343004,25.78869897,26.58343004,4170.526492492309671,158.9530323,0,0,0,26.23747677
1652313600000,2022-05-12 00:00:00,MLN/USDT,33.67991723,33.67991723,26,26,52344.9212263303573042,2013.23531566,0,0,0,26.00039887
1652227200000,2022-05-11 00:00:00,MLN/USDT,33.67991723,55.51999999,33.67991723,33.67991723,4377.3798467192163525,127.74803385,0,0,0,34.26573165
1652140800000,2022-05-10 00:00:00,MLN/USDT,40,40,39.46590489,40,12584.255515827244295,314.61987329,0,0,0,39.9982855
1652054400000,2022-05-09 00:00:00,MLN/USDT,45,45.99999999,40,40,60899.6379329133328368,1444.79122623,0,0,0,42.15116816
1651968000000,2022-05-08 00:00:00,MLN/USDT,51.1981654,51.1981654,51.1981654,51.1981654,0,0,0,0,0,51.1981654
1651881600000,2022-05-07 00:00:00,MLN/USDT,51.1981654,51.1981654,51.1981654,51.1981654,0,0,0,0,0,51.1981654
1651795200000,2022-05-06 00:00:00,MLN/USDT,51.1981654,51.1981654,51.1981654,51.1981654,428.239519142316428,8.36435282,0,0,0,51.1981654
1651708800000,2022-05-05 00:00:00,MLN/USDT,47,47,45.32383144,45.32383144,15675.007722167708712,337.25029994,0,0,0,46.4788548
1651622400000,2022-05-04 00:00:00,MLN/USDT,50.00000005,50.00000005,50,50,21220.3111755,424.40622351,0,0,0,50
1651536000000,2022-05-03 00:00:00,MLN/USDT,52,52,50,50,1133.2591895315812536,22.52800149,0,0,0,50.30447064
1651449600000,2022-05-02 00:00:00,MLN/USDT,60.82133877,60.82133877,50,50,4831.4244378037363968,96.08634928,0,0,0,50.28211056
1651363200000,2022-05-01 00:00:00,MLN/USDT,50.65066684,50.65066684,50.65066684,50.65066684,154.5564086777659652,3.05141903,0,0,0,50.65066684
1651276800000,2022-04-30 00:00:00,MLN/USDT,55.14997677,55.14997677,55.14997677,55.14997677,176.919222803961435,3.2079655,0,0,0,55.14997677
1651190400000,2022-04-29 00:00:00,MLN/USDT,52.92595201,54.47000012,52.92595201,54.47000012,0,0,0,0,0,54.29697728
1651104000000,2022-04-28 00:00:00,MLN/USDT,52.92595201,54.47000012,52.92595201,54.47000012,1698.4182904952105024,31.28016283,0,0,0,54.29697728
1651017600000,2022-04-27 00:00:00,MLN/USDT,55.00001567,57.46631479,55.00001567,57.46631479,0,0,0,0,0,56.83296356
1650931200000,2022-04-26 00:00:00,MLN/USDT,55.00001567,57.46631479,55.00001567,57.46631479,0,0,0,0,0,56.83296356
1650844800000,2022-04-25 00:00:00,MLN/USDT,55.00001567,57.46631479,55.00001567,57.46631479,1471.0862850398362692,25.88438457,0,0,0,56.83296356
1650758400000,2022-04-24 00:00:00,MLN/USDT,61.71179039,64.4367989,56.38860397,56.38860397,20792.5846899685459974,333.19682631,0,0,0,62.40330954
1650672000000,2022-04-23 00:00:00,MLN/USDT,61.71179059,61.71179059,61.71179059,61.71179059,62.3288986220135056,1.00999984,0,0,0,61.71179059
1650585600000,2022-04-22 00:00:00,MLN/USDT,61.73386373,61.73386373,61.10531866,61.71179068,233.5809147468932302,3.79404611,0,0,0,61.56512282
1650499200000,2022-04-21 00:00:00,MLN/USDT,62.73621378,73.01992994,57.77493693,59.88031719,76043.3722021443426894,1292.57399082,0,0,0,58.83096267
1650412800000,2022-04-20 00:00:00,MLN/USDT,59.29665331,75.57711002,55.99781054,56.66091133,37459.3475278055758032,656.43956631,0,0,0,57.06442672
1650326400000,2022-04-19 00:00:00,MLN/USDT,58.89774811,58.89774811,58.60406239,58.60406239,204.4767252457496675,3.48040127,0,0,0,58.75090525
1650240000000,2022-04-18 00:00:00,MLN/USDT,56.085022,57.47166987,56.085022,57.47166987,655.1350717231455839,11.59075159,0,0,0,56.52222521
1650153600000,2022-04-17 00:00:00,MLN/USDT,54.09457249,54.09457249,54.09457249,54.09457249,0,0,0,0,0,54.09457249
1650067200000,2022-04-16 00:00:00,MLN/USDT,54.09457249,54.09457249,54.09457249,54.09457249,81.1418457523026024,1.49999976,0,0,0,54.09457249
1649980800000,2022-04-15 00:00:00,MLN/USDT,55.40338296,58.16552849,55.40338296,55.78573408,8923.1354391265533825,159.54538033,0,0,0,55.92851025
1649894400000,2022-04-14 00:00:00,MLN/USDT,55.63428768,55.67086327,54.00206137,54.00206137,1357.379173531270951,24.67618778,0,0,0,55.00765295
1649808000000,2022-04-13 00:00:00,MLN/USDT,54.82321654,55.34217226,54.82321654,55.34217226,6548.8970974494805612,118.50422108,0,0,0,55.26298589
1649721600000,2022-04-12 00:00:00,MLN/USDT,52.56465942,54.00277294,52.56465942,54.00277294,798.2387523255500355,15.03185595,0,0,0,53.10314009
1649635200000,2022-04-11 00:00:00,MLN/USDT,56.86940084,56.86940084,53.53809474,53.53809474,9357.4338211399890672,166.22060656,0,0,0,56.29526937
1649548800000,2022-04-10 00:00:00,MLN/USDT,57.9463901,60.5187186,57.04998484,59.15303809,16628.7853923870798691,285.28752109,0,0,0,58.28781199
1649462400000,2022-04-09 00:00:00,MLN/USDT,57.14665364,57.14665364,57.09602797,57.09602797,0,0,0,0,0,57.10434488
1649376000000,2022-04-08 00:00:00,MLN/USDT,57.14665364,57.14665364,57.09602797,57.09602797,0,0,0,0,0,57.10434488
1649289600000,2022-04-07 00:00:00,MLN/USDT,57.14665364,57.14665364,57.09602797,57.09602797,579.2445840831537008,10.14361666,0,0,0,57.10434488
1649203200000,2022-04-06 00:00:00,MLN/USDT,58.52883455,58.67952709,57.09602797,57.09602797,1604.361192357006672,27.40312455,0,0,0,58.54665184
1649116800000,2022-04-05 00:00:00,MLN/USDT,62.5745185,64.29599857,61.57800001,61.57800001,20032.71727071779912,321.72674336,0,0,0,62.26624825
1649030400000,2022-04-04 00:00:00,MLN/USDT,62.90704299,62.90704299,62.90704299,62.90704299,2911.0745942742858042,46.27581358,0,0,0,62.90704299
1648944000000,2022-04-03 00:00:00,MLN/USDT,61.76414042,64.95271832,61.76414042,63.47860085,12302.1350908011400064,194.40127792,0,0,0,63.28217192
1648857600000,2022-04-02 00:00:00,MLN/USDT,59.70042964,68.43985746,59.70042964,64.66895206,0,0,0,0,0,65.27118894
1648771200000,2022-04-01 00:00:00,MLN/USDT,59.70042964,68.43985746,59.70042964,64.66895206,34664.5046341471697406,531.08431449,0,0,0,65.27118894
1648684800000,2022-03-31 00:00:00,MLN/USDT,62.47430951,62.47430951,62.47430951,62.47430951,330.4407565614304473,5.28922623,0,0,0,62.47430951
1648598400000,2022-03-30 00:00:00,MLN/USDT,61.39686733,61.39686733,61.39686733,61.39686733,79.830030389425701,1.3002297,0,0,0,61.39686733
1648512000000,2022-03-29 00:00:00,MLN/USDT,61.39686733,61.39686733,61.39686733,61.39686733,987.4957046789703182,16.08381254,0,0,0,61.39686733
1648425600000,2022-03-28 00:00:00,MLN/USDT,59.26804005,62.09098371,59.26804005,62.01703771,34317.9731869009621635,564.21341543,0,0,0,60.82445445
1648339200000,2022-03-27 00:00:00,MLN/USDT,59.86670712,59.86670712,59.86670712,59.86670712,715.7651571832470984,11.95598007,0,0,0,59.86670712
1648252800000,2022-03-26 00:00:00,MLN/USDT,58.53017195,67.05944167,57.17343012,57.17343012,0,0,0,0,0,60.36014703
1648166400000,2022-03-25 00:00:00,MLN/USDT,58.53017195,67.05944167,57.17343012,57.17343012,10394.1644572892120904,172.20243768,0,0,0,60.36014703
1648080000000,2022-03-24 00:00:00,MLN/USDT,58.69615418,58.69615418,58.69615418,58.69615418,344.5238510826639138,5.86961541,0,0,0,58.69615418
1647993600000,2022-03-23 00:00:00,MLN/USDT,58.4551644,58.4551644,58.4551644,58.4551644,550.072159308136932,9.41015503,0,0,0,58.4551644
1647907200000,2022-03-22 00:00:00,MLN/USDT,61.95026766,61.95026766,59.36215776,59.36215776,1738.1052584322349764,29.21625474,0,0,0,59.49103586
1647820800000,2022-03-21 00:00:00,MLN/USDT,62.72629425,80.07314913,61.95026766,61.95026766,0,0,0,0,0,72.15171532
1647734400000,2022-03-20 00:00:00,MLN/USDT,62.72629425,80.07314913,61.95026766,61.95026766,65098.9153516210672584,902.25041862,0,0,0,72.15171532
1647648000000,2022-03-19 00:00:00,MLN/USDT,60.68192855,60.68192855,59.6247583,59.97175144,7252.2362703864735242,120.44161438,0,0,0,60.21370859
1647561600000,2022-03-18 00:00:00,MLN/USDT,54.59255478,54.59255641,54.59255478,54.59255641,4699.0338892952075242,86.07462862,0,0,0,54.59255491
1647475200000,2022-03-17 00:00:00,MLN/USDT,54.59255499,54.592555,53.44416627,54.592555,0,0,0,0,0,54.23115124
1647388800000,2022-03-16 00:00:00,MLN/USDT,54.59255499,54.592555,53.44416627,54.592555,1869.0628755512685608,34.46474642,0,0,0,54.23115124
1647302400000,2022-03-15 00:00:00,MLN/USDT,51.62857273,52.6473,51.112287,52.6473,2311.5126509773356961,44.34527657,0,0,0,52.12534073
1647216000000,2022-03-14 00:00:00,MLN/USDT,51.62857273,51.62857273,51.62857273,51.62857273,0,0,0,0,0,51.62857273
1647129600000,2022-03-13 00:00:00,MLN/USDT,51.62857273,51.62857273,51.62857273,51.62857273,0,0,0,0,0,51.62857273
1647043200000,2022-03-12 00:00:00,MLN/USDT,51.62857273,51.62857273,51.62857273,51.62857273,1246.5575404692026057,24.14472209,0,0,0,51.62857273
1646956800000,2022-03-11 00:00:00,MLN/USDT,50.99565805,50.99565805,50.99565805,50.99565805,181.900571904415558,3.56698156,0,0,0,50.99565805
1646870400000,2022-03-10 00:00:00,MLN/USDT,52.90317898,52.90317898,51.7897468,51.7897468,1243.165566772024716,23.91493466,0,0,0,51.9828126
1646784000000,2022-03-09 00:00:00,MLN/USDT,55.14400101,55.14400101,55.14400101,55.14400101,133.3996761432260793,2.41911493,0,0,0,55.14400101
1646697600000,2022-03-08 00:00:00,MLN/USDT,52.94462685,56.25535274,51.89799881,55.14400101,0,0,0,0,0,52.24239388
1646611200000,2022-03-07 00:00:00,MLN/USDT,52.94462685,56.25535274,51.89799881,55.14400101,153911.8009172338012132,2946.10927039,0,0,0,52.24239388
1646524800000,2022-03-06 00:00:00,MLN/USDT,53.53400523,65.637,52.65009526,53.7938598,469143.5463428173691498,8475.16955338,0,0,0,55.35506321
1646438400000,2022-03-05 00:00:00,MLN/USDT,59.717403,68.24333561,51.00495721,51.00495721,0,0,0,0,0,61.86125957
1646352000000,2022-03-04 00:00:00,MLN/USDT,59.717403,68.24333561,51.00495721,51.00495721,222749.1950582079454504,3600.78660872,0,0,0,61.86125957
1646265600000,2022-03-03 00:00:00,MLN/USDT,57.93865239,58.57326965,57.93865239,58.57326965,0,0,0,0,0,57.96316721
1646179200000,2022-03-02 00:00:00,MLN/USDT,57.93865239,58.57326965,57.93865239,58.57326965,1500.278642867215263,25.8833103,0,0,0,57.96316721
1646092800000,2022-03-01 00:00:00,MLN/USDT,60.69161106,60.69161106,60.69161106,60.69161106,6697.0647198259827102,110.34580567,0,0,0,60.69161106
1646006400000,2022-02-28 00:00:00,MLN/USDT,55.47896966,56.33439998,55.12617289,56.33439998,7854.423483641420682,142.13584527,0,0,0,55.2599766
1645920000000,2022-02-27 00:00:00,MLN/USDT,50,50,45.32383144,45.32383144,0,0,0,0,0,45.89388573
1645833600000,2022-02-26 00:00:00,MLN/USDT,50,50,45.32383144,45.32383144,0,0,0,0,0,45.89388573
1645747200000,2022-02-25 00:00:00,MLN/USDT,50,50,45.32383144,45.32383144,0,0,0,0,0,45.89388573
1645660800000,2022-02-24 00:00:00,MLN/USDT,50,50,45.32383144,45.32383144,7245.1629456374852607,157.86771659,0,0,0,45.89388573
1645574400000,2022-02-23 00:00:00,MLN/USDT,54.6389437,54.6389437,53.163001,53.163001,6981.8450274873391833,128.31149499,0,0,0,54.41324667
1645488000000,2022-02-22 00:00:00,MLN/USDT,56.0033484,56.0033484,54.08644702,54.08644702,0,0,0,0,0,54.14663468
1645401600000,2022-02-21 00:00:00,MLN/USDT,56.0033484,56.0033484,54.08644702,54.08644702,7043.9038288558975372,130.08941129,0,0,0,54.14663468
1645315200000,2022-02-20 00:00:00,MLN/USDT,54.70475826,57.46433003,51.44105987,54.22690385,9315.87815716360244,172.34405296,0,0,0,54.05395775
1645228800000,2022-02-19 00:00:00,MLN/USDT,56.88799644,58.33614969,56.88799644,58.33614969,0,0,0,0,0,57.30756185
1645142400000,2022-02-18 00:00:00,MLN/USDT,56.88799644,58.33614969,56.88799644,58.33614969,204.046688059835929,3.56055434,0,0,0,57.30756185
1645056000000,2022-02-17 00:00:00,MLN/USDT,61.47545756,61.47545756,56.68993322,56.68993322,3122.465307595641741,51.42251922,0,0,0,60.72174905
1644969600000,2022-02-16 00:00:00,MLN/USDT,61.72091121,64.08545609,61.47453491,63.04892766,12173.7411749517503625,194.20240875,0,0,0,62.68584027
1644883200000,2022-02-15 00:00:00,MLN/USDT,61.55969651,61.55969651,59.32655603,59.32655603,37421.2830553231663104,624.55816704,0,0,0,59.91640976
1644796800000,2022-02-14 00:00:00,MLN/USDT,56.30834062,56.30834062,55.1413021,55.1413021,2592.1808516503998384,46.70127319,0,0,0,55.50557136
1644710400000,2022-02-13 00:00:00,MLN/USDT,58.17578983,70.787299,58.17578983,60.30663734,38108.6385866219084512,576.47483503,0,0,0,66.10633504
1644624000000,2022-02-12 00:00:00,MLN/USDT,60.2986888,60.2986888,59.3301962,59.3301962,0,0,0,0,0,59.34696585
1644537600000,2022-02-11 00:00:00,MLN/USDT,60.2986888,60.2986888,59.3301962,59.3301962,9930.784899792894687,167.33433222,0,0,0,59.34696585
1644451200000,2022-02-10 00:00:00,MLN/USDT,64.5187617,64.5187617,62.860518,62.860518,3242.740638458910228,51.03257116,0,0,0,63.5425683
1644364800000,2022-02-09 00:00:00,MLN/USDT,63.74507675,66.72329989,63.74507675,66.72329989,1007.7880118822929985,15.69861799,0,0,0,64.19597015
1644278400000,2022-02-08 00:00:00,MLN/USDT,63.20513775,63.20513775,61.36712839,62.28513287,26785.1300374592016576,427.20994104,0,0,0,62.69781544
1644192000000,2022-02-07 00:00:00,MLN/USDT,61.776,64.7962023,61.68516405,64.25840526,43237.6484290583931682,678.72660826,0,0,0,63.70407157
1644105600000,2022-02-06 00:00:00,MLN/USDT,62.79151345,63.1145323,61.48653585,63.1145323,10646.1675904619492728,168.71890216,0,0,0,63.10002883
1644019200000,2022-02-05 00:00:00,MLN/USDT,59.4546719,61.32856761,59.4546719,61.32856761,5541.9297646101892644,91.11669004,0,0,0,60.82233411
1643932800000,2022-02-04 00:00:00,MLN/USDT,59.42492407,59.42492407,59.42492407,59.42492407,389.5506090884988722,6.55534046,0,0,0,59.42492407
1643846400000,2022-02-03 00:00:00,MLN/USDT,56.45944381,56.45944381,55.1413021,55.1413021,0,0,0,0,0,55.75172135
1643760000000,2022-02-02 00:00:00,MLN/USDT,56.45944381,56.45944381,55.1413021,55.1413021,171.9217799305713655,3.08370353,0,0,0,55.75172135
1643673600000,2022-02-01 00:00:00,MLN/USDT,57.07810123,61.06685713,57.06829783,57.70729978,21009.4853165122425132,359.48440326,0,0,0,58.44338482
1643587200000,2022-01-31 00:00:00,MLN/USDT,55.12364133,55.12364133,54.13158333,54.13158333,155.1594615530099738,2.83335013,0,0,0,54.76183826
1643500800000,2022-01-30 00:00:00,MLN/USDT,58.55860584,58.55860584,56.8261583,56.8261583,3542.517840130321504,61.97411732,0,0,0,57.1612472
1643414400000,2022-01-29 00:00:00,MLN/USDT,55.74513697,58.68270199,55.27665992,58.2235528,8606.8084032646907625,154.59899805,0,0,0,55.67182525
1643328000000,2022-01-28 00:00:00,MLN/USDT,52.99995322,56.26064196,52.9999532,56.26064196,34415.436099632576322,636.42857423,0,0,0,54.0758814
1643241600000,2022-01-27 00:00:00,MLN/USDT,52.99995327,52.99995327,52.99995327,52.99995327,4505.9089542650738808,85.01722504,0,0,0,52.99995327
1643155200000,2022-01-26 00:00:00,MLN/USDT,54.33290936,55.1899725,54.33290936,54.93578758,2259.2867689046938965,41.23357201,0,0,0,54.79240965
1643068800000,2022-01-25 00:00:00,MLN/USDT,53.69225935,53.69225935,53.69225935,53.69225935,2769.487931048218507,51.58076722,0,0,0,53.69225935
1642982400000,2022-01-24 00:00:00,MLN/USDT,55.82787646,60.3887377,52.09435224,54.52325326,3393.1665933369873003,59.31479343,0,0,0,57.20607621
1642896000000,2022-01-23 00:00:00,MLN/USDT,54.54356084,54.86630053,54.21814782,54.68040853,16423.386445860792314,301.5931498,0,0,0,54.45543593
1642809600000,2022-01-22 00:00:00,MLN/USDT,58.81331101,76.08475448,52.42856413,52.42856413,31720.6858987339616848,569.03978201,0,0,0,55.74423248
1642723200000,2022-01-21 00:00:00,MLN/USDT,69.49765394,71.37533767,63.40885,63.40885,34818.679976206571288,507.8562056,0,0,0,68.56011523
1642636800000,2022-01-20 00:00:00,MLN/USDT,73.71712223,73.71712223,72.17416673,72.17416673,11451.3606688710146988,158.39897349,0,0,0,72.29441212
1642550400000,2022-01-19 00:00:00,MLN/USDT,75.92258568,80.76196402,75.92258568,78.58480447,0,0,0,0,0,78.65069254
1642464000000,2022-01-18 00:00:00,MLN/USDT,75.92258568,80.76196402,75.92258568,78.58480447,0,0,0,0,0,78.65069254
1642377600000,2022-01-17 00:00:00,MLN/USDT,75.92258568,80.76196402,75.92258568,78.58480447,32900.350503410192726,418.3097369,0,0,0,78.65069254
1642291200000,2022-01-16 00:00:00,MLN/USDT,76.92,76.92,76.92,76.92,8479.3823180628,110.23637959,0,0,0,76.92
1642204800000,2022-01-15 00:00:00,MLN/USDT,74.67352963,84.05505347,74.67352963,78.61777754,0,0,0,0,0,77.07485729
1642118400000,2022-01-14 00:00:00,MLN/USDT,74.67352963,84.05505347,74.67352963,78.61777754,120178.4525318286583309,1559.24327021,0,0,0,77.07485729
1642032000000,2022-01-13 00:00:00,MLN/USDT,77.51031373,79.59116235,77.51031373,79.59116235,1345.1830474014678032,16.92823216,0,0,0,79.46388227
1641945600000,2022-01-12 00:00:00,MLN/USDT,75.41382825,77.51031373,75.41382825,77.51031373,28890.927034338464082,375.37428981,0,0,0,76.9656522
1641859200000,2022-01-11 00:00:00,MLN/USDT,72.93117439,75.841463,72.93117439,75.841463,229020.8219042666438352,3119.75692354,0,0,0,73.40982888
1641772800000,2022-01-10 00:00:00,MLN/USDT,75.21469342,77.81542809,75.07028389,75.8600291,0,0,0,0,0,75.40417579
1641686400000,2022-01-09 00:00:00,MLN/USDT,75.21469342,77.81542809,75.07028389,75.8600291,129556.9028581742709347,1718.16615593,0,0,0,75.40417579
1641600000000,2022-01-08 00:00:00,MLN/USDT,79.82311457,80.8045342,73.80048417,73.93590465,48942.419271449279676,627.99579247,0,0,0,77.9343108
1641513600000,2022-01-07 00:00:00,MLN/USDT,80.41600466,80.41600466,78.36150939,78.36150939,26259.014893949187801,333.09228007,0,0,0,78.8340543
1641427200000,2022-01-06 00:00:00,MLN/USDT,85.67667434,85.67667434,81.86458907,82.71598261,88752.4171101194455541,1070.05888607,0,0,0,82.94161963
1641340800000,2022-01-05 00:00:00,MLN/USDT,91.6187834,95.77390338,86.47656219,86.70489134,138776.4515430377031748,1490.05340954,0,0,0,93.13521962
1641254400000,2022-01-04 00:00:00,MLN/USDT,93.03807948,93.47979714,91.6187834,91.6187834,29365.6724269503396464,315.04631644,0,0,0,93.21065156
1641168000000,2022-01-03 00:00:00,MLN/USDT,94.78800201,121.61519267,89.81735247,89.81735247,21966.484962113707812,219.07416914,0,0,0,100.2696258
1641081600000,2022-01-02 00:00:00,MLN/USDT,98.04952898,98.88558396,94.78800201,96.2310834,42613.4670152397799411,439.13181263,0,0,0,97.04026397
1640995200000,2022-01-01 00:00:00,MLN/USDT,89.68937928,112.47520014,89.68937928,98.62258216,320705.9319864142771218,3042.12177762,0,0,0,105.42179289
1640908800000,2021-12-31 00:00:00,MLN/USDT,92.61005003,94.18800354,75,90.38999939,194271.9902379885390383,2305.85034007,0,0,0,84.25177769
1640822400000,2021-12-30 00:00:00,MLN/USDT,93.01599884,107.66000366,89.73748553,92.61005003,51981.34248438331935,544.1105922,0,0,0,95.53451675
1640736000000,2021-12-29 00:00:00,MLN/USDT,118.19385919,125.04756771,92.88400269,92.88400269,752907.49312060990806,6710.86589453,0,0,0,112.192302
1640649600000,2021-12-28 00:00:00,MLN/USDT,86.9340645,130.65206568,60,120.61215579,4172103.066402406873925,36909.6425975,0,0,0,113.03558563
1640563200000,2021-12-27 00:00:00,MLN/USDT,83.99617793,88.967272,83.99617793,88.88975979,6477.668901265379715,73.2428985,0,0,0,88.44091419
1640476800000,2021-12-26 00:00:00,MLN/USDT,85.84839301,85.84839301,85.84839301,85.84839301,903.3087044327179977,10.52213877,0,0,0,85.84839301
1640390400000,2021-12-25 00:00:00,MLN/USDT,82.79988935,83.07443686,82.79988935,83.07443686,273.5409652526157655,3.29999993,0,0,0,82.89120335
1640304000000,2021-12-24 00:00:00,MLN/USDT,82.29042141,84.00736438,82.29042141,84.00736438,642.950084222166714,7.77999759,0,0,0,82.6414246
1640217600000,2021-12-23 00:00:00,MLN/USDT,81.92651611,84.65691421,81.92651611,84.65691421,264.530842081059432,3.15950064,0,0,0,83.72552255
1640131200000,2021-12-22 00:00:00,MLN/USDT,81.75648922,83.90815468,81.75648922,83.90815468,983.1160186736003712,11.81624022,0,0,0,83.20040896
1640044800000,2021-12-21 00:00:00,MLN/USDT,79.97679808,80.60744558,79.69983564,80.60744558,8801.7298856042450972,110.10741434,0,0,0,79.93766758
1639958400000,2021-12-20 00:00:00,MLN/USDT,82.87191118,82.87191118,77.55703928,79.85314842,80985.5079860460437366,1026.26325283,0,0,0,78.91299602
1639872000000,2021-12-19 00:00:00,MLN/USDT,83.25895013,83.25895013,83.22603962,83.22603962,4350.0834724247099904,52.26779352,0,0,0,83.22684352
1639785600000,2021-12-18 00:00:00,MLN/USDT,84.80912232,90.86669454,84.41215748,85.33902446,95772.7202520269806148,1125.24141868,0,0,0,85.11304211
1639699200000,2021-12-17 00:00:00,MLN/USDT,85.1252865,85.98498161,82.19110519,84.04113079,5080.1017920432587051,59.81766023,0,0,0,84.92645437
1639612800000,2021-12-16 00:00:00,MLN/USDT,85.419901,85.419901,84.01071037,84.01071037,4333.2929544078804768,51.45283488,0,0,0,84.21874061
1639526400000,2021-12-15 00:00:00,MLN/USDT,82.67697596,85.10891043,81.466314,85.10891043,78457.1536593268908807,937.33558563,0,0,0,83.70230989
1639440000000,2021-12-14 00:00:00,MLN/USDT,84.75686944,103.36343777,82.16534174,82.16534174,592803.6011348711434404,6443.95968061,0,0,0,91.99368564
1639353600000,2021-12-13 00:00:00,MLN/USDT,86.42782713,86.42782713,82.47420728,84.2786734,62843.2867092605332522,752.41445497,0,0,0,83.52216826
1639267200000,2021-12-12 00:00:00,MLN/USDT,85.50662267,89.67760816,83.82084942,89.58303916,267463.1971440710502255,3121.24820715,0,0,0,85.69110157
1639180800000,2021-12-11 00:00:00,MLN/USDT,81.76781161,94.79200627,81.76781161,86.63969072,675380.8229457933262626,7613.48888551,0,0,0,88.70845326
1639094400000,2021-12-10 00:00:00,MLN/USDT,84.90620836,84.98848759,81.76781161,81.76781161,26097.7202723512544984,315.69645173,0,0,0,82.66713208
1639008000000,2021-12-09 00:00:00,MLN/USDT,91.97449856,97.26265668,83.83497986,83.83497986,74468.0129859040113,800.4142422,0,0,0,93.0368415
1638921600000,2021-12-08 00:00:00,MLN/USDT,95.75612811,99.38698284,89.42826739,91.97449856,123552.0389490879501288,1304.91669624,0,0,0,94.68193587
1638835200000,2021-12-07 00:00:00,MLN/USDT,93.59890965,96.63105989,93.09674637,93.09674637,66706.914172796803152,705.2337968,0,0,0,94.58836839
1638748800000,2021-12-06 00:00:00,MLN/USDT,94.95207429,95.86863831,86.96912467,92.92147451,14682.476224851697722,159.86401996,0,0,0,91.84353195
1638662400000,2021-12-05 00:00:00,MLN/USDT,90.74433159,101.54024634,90.74433159,97.4252575,34590.254590647920718,349.72111898,0,0,0,98.9081091
1638576000000,2021-12-04 00:00:00,MLN/USDT,96.25769474,104.4096282,88.21777096,90.5433951,169485.3432370614586266,1688.24501622,0,0,0,100.39143703
1638489600000,2021-12-03 00:00:00,MLN/USDT,102.39892002,102.39892002,96.9445002,97.5423905,29207.2874559496114322,300.64427962,0,0,0,97.14898781
1638403200000,2021-12-02 00:00:00,MLN/USDT,103.41554708,103.41554708,99.47951834,101.34662433,13473.2680048323963432,132.47471304,0,0,0,101.70445133
1638316800000,2021-12-01 00:00:00,MLN/USDT,105.09247039,106.69771623,104.62809806,104.62809806,29797.2539242381970876,280.36514909,0,0,0,106.28016364
1638230400000,2021-11-30 00:00:00,MLN/USDT,108.5025747,108.5025747,105.89385209,106.61604137,10731.0454646741287563,99.15244571,0,0,0,108.22774353
1638144000000,2021-11-29 00:00:00,MLN/USDT,103.65985519,116.45114236,103.07525146,112.5292283,235650.6028225790645724,2169.41475957,0,0,0,108.62404332
1638057600000,2021-11-28 00:00:00,MLN/USDT,101.31514762,101.31514762,98.0000204,100.46389965,88815.1155367733463892,878.95878518,0,0,0,101.04582494
1637971200000,2021-11-27 00:00:00,MLN/USDT,103.03468576,103.03468576,101.36617545,101.36617545,4955.3506285808024422,48.50051687,0,0,0,102.17108906
1637884800000,2021-11-26 00:00:00,MLN/USDT,104.94056008,104.94056008,100.03471354,102.09044915,6577.3919978644445062,65.30728622,0,0,0,100.71452021
1637798400000,2021-11-25 00:00:00,MLN/USDT,106.29767565,109.68200273,106.29767565,109.68200273,24572.2460571021057264,225.98592902,0,0,0,108.73352232
1637712000000,2021-11-24 00:00:00,MLN/USDT,107.47165355,107.47165355,104,104.94056008,12127.4531267927568236,115.50104518,0,0,0,104.99864402
1637625600000,2021-11-23 00:00:00,MLN/USDT,107.47165355,108.22994018,107.47165355,107.47165355,21257.8348990182610957,197.70004679,0,0,0,107.52569483
1637539200000,2021-11-22 00:00:00,MLN/USDT,113,113,109.33548883,109.33548883,31246.6144315706583755,277.03860805,0,0,0,112.78794191
1637452800000,2021-11-21 00:00:00,MLN/USDT,115.12873015,124.38030682,115.12873015,116.02263676,0,0,0,0,0,118.47145691
1637366400000,2021-11-20 00:00:00,MLN/USDT,115.12873015,124.38030682,115.12873015,116.02263676,86878.1408978980445422,733.32550442,0,0,0,118.47145691
1637280000000,2021-11-19 00:00:00,MLN/USDT,103.82873605,116.88023035,103.45817012,113.63137415,185823.7228035356563245,1681.32037695,0,0,0,110.52249491
1637193600000,2021-11-18 00:00:00,MLN/USDT,115.5,117.55751602,106.5,106.5,63855.0496533232409975,574.29164993,0,0,0,111.18923575
1637107200000,2021-11-17 00:00:00,MLN/USDT,118.5,118.68943187,112.5,113.90470012,29456.6973435915590144,257.62338224,0,0,0,114.34015456
1637020800000,2021-11-16 00:00:00,MLN/USDT,127.5,127.5,116.38678019,118.07893452,42196.7694853440331467,345.96359337,0,0,0,121.96881491
1636934400000,2021-11-15 00:00:00,MLN/USDT,127.98967349,131.4449626,127.5,129,39231.222325638082525,302.67524174,0,0,0,129.61490375
1636848000000,2021-11-14 00:00:00,MLN/USDT,131.29525433,131.29525433,129,129,47300.8404157514780802,362.68994827,0,0,0,130.41673926
1636761600000,2021-11-13 00:00:00,MLN/USDT,130.5,132,130.06157491,130.06157491,5732.0444113390942344,43.79127284,0,0,0,130.89467466
1636675200000,2021-11-12 00:00:00,MLN/USDT,130.68199904,132.00482437,126,129,106487.621482202415772,827.3431604,0,0,0,128.71034243
1636588800000,2021-11-11 00:00:00,MLN/USDT,129,130.5,129,130.5,3480.120925844473512,26.8185484,0,0,0,129.76544718
1636502400000,2021-11-10 00:00:00,MLN/USDT,140.00318862,140.00318862,129.0037828,129.56338949,270934.0637501952134544,1981.92935267,0,0,0,136.70218032
1636416000000,2021-11-09 00:00:00,MLN/USDT,134.79404959,147,134.27576684,140.00318862,650716.3083762782451738,4726.56338466,0,0,0,137.67218493
1636329600000,2021-11-08 00:00:00,MLN/USDT,135,138,135,135,30852.110393314833525,228.06714675,0,0,0,135.2764343
1636243200000,2021-11-07 00:00:00,MLN/USDT,133.31382076,133.31382076,133.31382076,133.31382076,1723.5931903754009524,12.92884099,0,0,0,133.31382076
1636156800000,2021-11-06 00:00:00,MLN/USDT,133.5,133.5,133.31382076,133.31382076,6734.161281224228696,50.4948782,0,0,0,133.36325428
1636070400000,2021-11-05 00:00:00,MLN/USDT,140.17499999,140.17499999,133.5,135,13483.3525420264037244,98.72231188,0,0,0,136.57857363
1635984000000,2021-11-04 00:00:00,MLN/USDT,135,141,133.5,139.5,292119.8336546924576758,2123.06639501,0,0,0,137.59335758
1635897600000,2021-11-03 00:00:00,MLN/USDT,133.5,135,132,133.5,19544.4999655588494036,146.70388098,0,0,0,133.22415082
1635811200000,2021-11-02 00:00:00,MLN/USDT,131.99240003,135.7,131.99240003,135.7,239247.8876986218515916,1778.17581468,0,0,0,134.54681237
1635724800000,2021-11-01 00:00:00,MLN/USDT,130.5,133.5,130.5,131.53608485,8882.5199636495077938,67.20473929,0,0,0,132.17103522
1635638400000,2021-10-31 00:00:00,MLN/USDT,130.5,132,129,132,11147.0780591533630074,85.48036586,0,0,0,130.40512809
1635552000000,2021-10-30 00:00:00,MLN/USDT,133.5,133.5,127.85653432,129,77897.231906145324297,603.57307245,0,0,0,129.06015106
1635465600000,2021-10-29 00:00:00,MLN/USDT,133.30634155,136.5,133.30634155,136.08607113,318706.636358946754638,2365.69641114,0,0,0,134.7200067
1635379200000,2021-10-28 00:00:00,MLN/USDT,129,133.5,127.5,132,27721.7122292487544194,215.05434669,0,0,0,128.90561226
1635292800000,2021-10-27 00:00:00,MLN/USDT,135,142.5,130.05154419,130.05154419,382859.3223911788487693,2729.44102069,0,0,0,140.27023097
1635206400000,2021-10-26 00:00:00,MLN/USDT,142.5,143.8,133.50000001,136.5,48769709.8430454582749764,346973.75522252,0,0,0,140.55734507
1635120000000,2021-10-25 00:00:00,MLN/USDT,135,142.5,135,142.33,48378678.2340822397798452,340401.46178766,0,0,0,142.12241622
1635033600000,2021-10-24 00:00:00,MLN/USDT,140,730,124.5,136.5,20465548.3344883941550491,74455.61486647,0,0,0,274.86910653
1634947200000,2021-10-23 00:00:00,MLN/USDT,138,139.50449813,132,139.5,95689.428845767027115,702.23571325,0,0,0,136.26397382
1634860800000,2021-10-22 00:00:00,MLN/USDT,141,144,139.00000001,139.00000001,23628.8314886511534826,167.63469719,0,0,0,140.95430054
1634774400000,2021-10-21 00:00:00,MLN/USDT,146.41679573,147.72700784,141,141,123567.797269357112394,857.89182078,0,0,0,144.0365723
1634688000000,2021-10-20 00:00:00,MLN/USDT,131.00000004,831.00000004,131.00000004,143.42,852987.1009311866685744,5467.02886548,0,0,0,156.02388828
