https://www.CryptoDataDownload.com
unix,date,symbol,open,high,low,close,Volume SHIB,Volume USDD,buyTakerAmount,buyTakerQuantity,tradeCount,weightedAverage
1694995200000,2023-09-18 00:00:00,SHIB/USDD,0.000007184,0.000007533,0.000007184,0.00000729,65.62118064,8899015,42.96031245,5836022,40,0.000007374
1694908800000,2023-09-17 00:00:00,SHIB/USDD,0.000007342,0.000007486,0.000007134,0.000007233,282.23582726,38465987,251.32886394,34246499,143,0.000007339
1694822400000,2023-09-16 00:00:00,SHIB/USDD,0.000007499,0.000007692,0.000007297,0.000007416,1463.98149748,195054103,440.39698049,58610199,114,0.000007506
1694736000000,2023-09-15 00:00:00,SHIB/USDD,0.000007371,0.000007487,0.000007277,0.000007365,4021.90648481,544391607,1275.37184928,172315411,126,0.000007388
1694649600000,2023-09-14 00:00:00,SHIB/USDD,0.000007318,0.000007468,0.00000723,0.000007372,4458.27736631,605218435,894.11846408,121213542,144,0.000007366
1694563200000,2023-09-13 00:00:00,SHIB/USDD,0.000007022,0.000007499,0.000007017,0.000007292,17774.02986272,2452767578,11716.45902713,1616104584,693,0.000007247
1694476800000,2023-09-12 00:00:00,SHIB/USDD,0.000007127,0.000007499,0.000007003,0.000007226,12998.81603558,1796290738,6375.74469405,880134407,1163,0.000007237
1694390400000,2023-09-11 00:00:00,SHIB/USDD,0.000007378,0.000007796,0.000006786,0.000007093,15522.24859561,2153617936,11064.67196129,1531834515,1250,0.00000721
1694304000000,2023-09-10 00:00:00,SHIB/USDD,0.000007767,0.000007965,0.00000722,0.000007366,16747.41114756,2250149553,6498.5917847,870360204,1286,0.000007444
1694217600000,2023-09-09 00:00:00,SHIB/USDD,0.00000763,0.000008053,0.000007489,0.000007592,16005.36878879,2092517396,10998.31928188,1436641235,1244,0.000007649
1694131200000,2023-09-08 00:00:00,SHIB/USDD,0.000007838,0.000008087,0.000007488,0.000007668,15373.00826541,2012233088,9688.3065228,1265433697,1123,0.000007641
1694044800000,2023-09-07 00:00:00,SHIB/USDD,0.000007746,0.000008091,0.000007492,0.00000773,12115.32134862,1580072795,4880.13890859,634486360,1009,0.000007668
1693958400000,2023-09-06 00:00:00,SHIB/USDD,0.000007679,0.000007968,0.00000753,0.000007674,13882.68108386,1804485496,10205.92264854,1327843910,1150,0.000007693
1693872000000,2023-09-05 00:00:00,SHIB/USDD,0.000007509,0.000008105,0.000007439,0.000007677,29185.6210936,3845028648,16120.01827343,2126931224,2369,0.000007591
1693785600000,2023-09-04 00:00:00,SHIB/USDD,0.000007704,0.000008126,0.000007407,0.00000751,20208.67115878,2640219404,6661.81521274,875220174,1735,0.000007655
1693699200000,2023-09-03 00:00:00,SHIB/USDD,0.000007856,0.000008259,0.000007613,0.000007703,36651.65966713,4703284685,19500.25437052,2499335377,3015,0.000007793
1693612800000,2023-09-02 00:00:00,SHIB/USDD,0.00000792,0.000008271,0.000007654,0.00000785,35465.23511071,4490687407,16739.74278668,2121917485,2938,0.000007898
1693526400000,2023-09-01 00:00:00,SHIB/USDD,0.000008046,0.000008328,0.000007431,0.000007925,19714.23533481,2494777754,5639.6440075,713818032,2005,0.000007903
1693440000000,2023-08-31 00:00:00,SHIB/USDD,0.000008256,0.000008422,0.000007938,0.000008136,573.33129556,70300345,297.9922057,36514822,52,0.000008158
1693353600000,2023-08-30 00:00:00,SHIB/USDD,0.000008385,0.000008472,0.000008153,0.000008234,630.37706573,76026118,150.30317469,17993906,65,0.000008292
1693267200000,2023-08-29 00:00:00,SHIB/USDD,0.000008216,0.000008536,0.000008091,0.000008437,3815.02473565,457556648,555.15721648,66565100,168,0.000008339
1693180800000,2023-08-28 00:00:00,SHIB/USDD,0.000008056,0.000008323,0.000007951,0.000008315,562.80115933,69648943,213.74165158,26364337,60,0.000008082
1693094400000,2023-08-27 00:00:00,SHIB/USDD,0.000008107,0.000008266,0.000007976,0.000008053,2083.11742294,256442510,384.33657171,47350855,209,0.000008123
1693008000000,2023-08-26 00:00:00,SHIB/USDD,0.000008193,0.000008317,0.000008103,0.000008109,1505.36312787,184270109,577.54526285,70539606,139,0.000008169
1692921600000,2023-08-25 00:00:00,SHIB/USDD,0.000008242,0.000008303,0.000008035,0.000008267,1108.55523247,136552022,451.9964908,55628349,84,0.000008118
1692835200000,2023-08-24 00:00:00,SHIB/USDD,0.000008354,0.000008524,0.0000081,0.000008276,1033.90254254,124813863,552.13047672,66575375,106,0.000008284
1692748800000,2023-08-23 00:00:00,SHIB/USDD,0.000008016,0.000008598,0.000008003,0.000008525,2482.79857086,298049071,1241.17983975,149021984,226,0.000008331
1692662400000,2023-08-22 00:00:00,SHIB/USDD,0.000007974,0.000008168,0.000007737,0.000008016,1940.38736377,244398861,993.80137768,124907694,189,0.00000794
1692576000000,2023-08-21 00:00:00,SHIB/USDD,0.000008329,0.000008534,0.000007864,0.000008049,1281.36378114,158480734,688.54477904,84629741,84,0.000008088
1692489600000,2023-08-20 00:00:00,SHIB/USDD,0.000008486,0.000008597,0.00000825,0.000008353,1955.41298762,234118879,951.26043289,113826599,197,0.000008353
1692403200000,2023-08-19 00:00:00,SHIB/USDD,0.000008625,0.00000867,0.000008409,0.0000086,1130.8497061,132611938,659.54437753,77305195,85,0.000008527
1692316800000,2023-08-18 00:00:00,SHIB/USDD,0.000008171,0.000008707,0.000008101,0.000008635,1152.76495441,135059208,809.00664477,94907293,82,0.000008538
1692230400000,2023-08-17 00:00:00,SHIB/USDD,0.000009126,0.000009375,0.000007455,0.000008259,2825.02788494,335087206,1476.90929439,178217851,194,0.000008464
1692144000000,2023-08-16 00:00:00,SHIB/USDD,0.000009965,0.000010151,0.000009067,0.000009211,2568.67250999,266514471,1185.11885766,121897972,165,0.000009646
1692057600000,2023-08-15 00:00:00,SHIB/USDD,0.000010258,0.000010708,0.000009583,0.000009941,2829.02713085,282107660,1266.89902905,126139429,142,0.000010034
1691971200000,2023-08-14 00:00:00,SHIB/USDD,0.000010244,0.00001069,0.000010161,0.000010205,1017.89188523,97901500,531.34237388,51159592,113,0.000010399
1691884800000,2023-08-13 00:00:00,SHIB/USDD,0.000010684,0.000010907,0.00001021,0.000010343,1355.8358728,128168065,876.8572418,82712280,152,0.00001058
1691798400000,2023-08-12 00:00:00,SHIB/USDD,0.000010684,0.000011315,0.000010624,0.000010752,1737.74308617,159510821,970.11541304,88941391,130,0.000010895
1691712000000,2023-08-11 00:00:00,SHIB/USDD,0.000010036,0.000010588,0.000009898,0.000010475,1606.18291966,158588966,882.20834303,86727750,171,0.00001013
1691625600000,2023-08-10 00:00:00,SHIB/USDD,0.00000967,0.000010095,0.000009638,0.00000993,1507.56940676,152158401,718.51260757,72569873,173,0.000009908
1691539200000,2023-08-09 00:00:00,SHIB/USDD,0.000009526,0.000009955,0.000009328,0.000009729,1104.10048215,114142623,529.81306298,54492778,114,0.000009675
1691452800000,2023-08-08 00:00:00,SHIB/USDD,0.000008907,0.000009659,0.000008907,0.000009555,859.73946245,92562288,570.40100822,61621752,67,0.000009294
1691366400000,2023-08-07 00:00:00,SHIB/USDD,0.000009295,0.000009509,0.000008797,0.000008924,2173.61593959,240144500,960.54432652,105854431,168,0.000009054
1691280000000,2023-08-06 00:00:00,SHIB/USDD,0.000010052,0.000010227,0.0000093,0.000009353,1471.75160576,153012137,359.17405431,37057564,82,0.000009624
1691193600000,2023-08-05 00:00:00,SHIB/USDD,0.000008912,0.000010359,0.000008846,0.000009997,2106.81430501,211514236,1290.64012657,129337696,125,0.000009977
1691107200000,2023-08-04 00:00:00,SHIB/USDD,0.000008374,0.000008882,0.000008293,0.000008722,769.59029038,88801149,491.08865889,56655038,78,0.000008667
1691020800000,2023-08-03 00:00:00,SHIB/USDD,0.000008233,0.000008778,0.000008119,0.000008329,1291.77775121,154323372,755.61680878,89472254,126,0.000008375
1690934400000,2023-08-02 00:00:00,SHIB/USDD,0.000008451,0.000008652,0.000008119,0.000008209,1397.4258078,167970555,831.66789756,100157801,122,0.00000832
1690848000000,2023-08-01 00:00:00,SHIB/USDD,0.000008482,0.000008672,0.00000818,0.000008443,1218.83990205,146247761,497.17251524,59742825,163,0.000008334
1690761600000,2023-07-31 00:00:00,SHIB/USDD,0.000008301,0.000008708,0.000008262,0.000008484,1506.58474283,178312035,809.00558977,95718823,161,0.00000845
1690675200000,2023-07-30 00:00:00,SHIB/USDD,0.000008532,0.000008731,0.000008162,0.000008298,3868.68601058,458296672,1671.82019665,197644551,393,0.000008443
1690588800000,2023-07-29 00:00:00,SHIB/USDD,0.000008203,0.000008778,0.000008051,0.000008733,2375.35548331,286035173,1283.35228164,154576051,271,0.000008306
1690502400000,2023-07-28 00:00:00,SHIB/USDD,0.000007971,0.000008438,0.000007773,0.000008181,1766.57200961,219653602,1013.90879933,126095391,226,0.000008046
1690416000000,2023-07-27 00:00:00,SHIB/USDD,0.000007996,0.000008023,0.000007762,0.000007823,2862.83569633,364018751,1498.60989967,190504576,278,0.000007864
1690329600000,2023-07-26 00:00:00,SHIB/USDD,0.000007845,0.00000801,0.000007723,0.000007838,3645.91751169,464948360,1613.92163613,205727312,477,0.000007841
1690243200000,2023-07-25 00:00:00,SHIB/USDD,0.000007677,0.00000798,0.000007607,0.000007913,2069.55714113,266097158,1113.63224285,143026759,266,0.000007778
1690156800000,2023-07-24 00:00:00,SHIB/USDD,0.000007919,0.000007956,0.000007614,0.000007716,1970.37943929,254234864,862.12413269,111124626,240,0.00000775
1690070400000,2023-07-23 00:00:00,SHIB/USDD,0.000007801,0.000008005,0.000007734,0.000007855,1881.23044411,239341013,965.99143229,122952538,175,0.00000786
1689984000000,2023-07-22 00:00:00,SHIB/USDD,0.000007869,0.00000798,0.000007696,0.0000078,2491.47382622,317928361,1428.79670669,182319150,254,0.000007836
1689897600000,2023-07-21 00:00:00,SHIB/USDD,0.000007721,0.000007992,0.00000768,0.000007871,1705.01211699,217683579,848.16396233,108296412,171,0.000007832
1689811200000,2023-07-20 00:00:00,SHIB/USDD,0.000007757,0.000007957,0.000007637,0.000007718,4325.79086844,557172459,2301.99935423,296472800,468,0.000007764
1689724800000,2023-07-19 00:00:00,SHIB/USDD,0.000007806,0.000007957,0.000007677,0.000007758,3133.37551165,402864083,1625.92598554,209130456,367,0.000007777
1689638400000,2023-07-18 00:00:00,SHIB/USDD,0.00000786,0.000008084,0.000007605,0.000007766,5968.86987125,769187419,2984.67770217,384856503,712,0.000007761
1689552000000,2023-07-17 00:00:00,SHIB/USDD,0.000007869,0.000008161,0.000007713,0.000007863,1433.12756473,182069277,722.61496986,91815135,188,0.000007872
1689465600000,2023-07-16 00:00:00,SHIB/USDD,0.000008146,0.000008258,0.000007853,0.000007869,2101.08602996,260066519,1029.32148485,127243134,213,0.00000808
1689379200000,2023-07-15 00:00:00,SHIB/USDD,0.000008144,0.000008529,0.000007815,0.000008138,1858.90514514,227228642,865.96885724,105553365,203,0.000008182
1689292800000,2023-07-14 00:00:00,SHIB/USDD,0.000008016,0.000008408,0.000007618,0.00000794,3622.36072106,454413859,1710.8751178,214634588,391,0.000007973
1689206400000,2023-07-13 00:00:00,SHIB/USDD,0.000007528,0.000008085,0.00000745,0.00000801,3721.85606007,490127742,2090.22566728,274728331,321,0.000007598
1689120000000,2023-07-12 00:00:00,SHIB/USDD,0.00000761,0.000007636,0.000007384,0.000007553,2673.15006575,356282895,1357.58554046,180870866,299,0.000007503
1689033600000,2023-07-11 00:00:00,SHIB/USDD,0.000007564,0.000007623,0.000007451,0.000007566,4198.96499217,558724147,2098.64055793,279354250,412,0.000007515
1688947200000,2023-07-10 00:00:00,SHIB/USDD,0.000007756,0.000007756,0.000007459,0.000007564,3884.82330357,512094311,1884.13616221,248457689,431,0.000007586
1688860800000,2023-07-09 00:00:00,SHIB/USDD,0.00000774,0.0000078,0.000007609,0.000007728,3266.02401143,422693434,1818.04693475,235312158,310,0.000007726
1688774400000,2023-07-08 00:00:00,SHIB/USDD,0.000007324,0.00000766,0.000007267,0.00000766,3764.11310203,507836032,2182.989383,293161982,277,0.000007413
1688688000000,2023-07-07 00:00:00,SHIB/USDD,0.000007169,0.000007451,0.000007139,0.000007303,4206.30467296,578435380,1997.40594915,274464543,403,0.000007272
1688601600000,2023-07-06 00:00:00,SHIB/USDD,0.000007485,0.00000764,0.000007161,0.000007161,1712.76947669,234108260,794.17743578,108343321,209,0.000007317
1688515200000,2023-07-05 00:00:00,SHIB/USDD,0.000007706,0.000007786,0.000007299,0.000007303,3898.51498893,514989941,1072.26679183,141179468,278,0.000007571
1688428800000,2023-07-04 00:00:00,SHIB/USDD,0.000007781,0.000007894,0.00000764,0.000007734,1860.8059918,239889909,883.71105792,113890951,224,0.000007757
1688342400000,2023-07-03 00:00:00,SHIB/USDD,0.000007704,0.000007853,0.000007616,0.000007739,1894.26746879,245043250,944.53130663,122265368,221,0.00000773
1688256000000,2023-07-02 00:00:00,SHIB/USDD,0.000007616,0.000007771,0.000007502,0.000007639,2979.10602191,392315810,1454.24749537,191565195,283,0.000007593
1688169600000,2023-07-01 00:00:00,SHIB/USDD,0.000007604,0.00000775,0.000007508,0.000007638,2726.07092406,357371028,1551.47892073,203393622,310,0.000007628
1688083200000,2023-06-30 00:00:00,SHIB/USDD,0.000007341,0.000007693,0.0000071,0.000007554,1927.96932244,256720622,928.19671932,123469307,219,0.000007512
1687996800000,2023-06-29 00:00:00,SHIB/USDD,0.000007248,0.000007462,0.000007077,0.000007349,3258.14575517,443980747,1822.72281678,248412394,296,0.000007338
1687910400000,2023-06-28 00:00:00,SHIB/USDD,0.000007704,0.000007704,0.0000071,0.000007212,2342.0925197,320309051,1153.79113996,157809884,324,0.000007313
1687824000000,2023-06-27 00:00:00,SHIB/USDD,0.000007567,0.000007765,0.000007464,0.000007731,1909.73899157,251629529,1031.98041675,136125633,177,0.000007589
1687737600000,2023-06-26 00:00:00,SHIB/USDD,0.000007904,0.000007904,0.000007453,0.000007566,2412.58631978,315230022,1204.95863294,157424682,243,0.000007654
1687651200000,2023-06-25 00:00:00,SHIB/USDD,0.000007859,0.000008139,0.00000779,0.000007888,1981.33559054,251476888,989.7581261,125572933,177,0.000007879
1687564800000,2023-06-24 00:00:00,SHIB/USDD,0.000007952,0.000008177,0.000007701,0.000007878,2072.06159911,262474278,1015.70477041,128719372,271,0.000007895
1687478400000,2023-06-23 00:00:00,SHIB/USDD,0.000007833,0.000008221,0.000007744,0.000007914,2368.69854754,299414677,1113.80341079,140727005,250,0.000007912
1687392000000,2023-06-22 00:00:00,SHIB/USDD,0.000007551,0.000008383,0.000007524,0.000007791,3270.46302572,412549393,1559.50486027,196558391,334,0.00000793
1687305600000,2023-06-21 00:00:00,SHIB/USDD,0.000007315,0.000007716,0.000007268,0.000007523,1602.57386109,215168801,860.83898386,115738392,205,0.000007449
1687219200000,2023-06-20 00:00:00,SHIB/USDD,0.000007298,0.00000739,0.000006968,0.000007313,3627.12169216,503968891,1781.0392051,247572744,392,0.000007197
1687132800000,2023-06-19 00:00:00,SHIB/USDD,0.000007197,0.000007452,0.000007028,0.000007265,4012.56675077,559503836,2202.22515811,307054417,438,0.000007171
1687046400000,2023-06-18 00:00:00,SHIB/USDD,0.000006969,0.000007656,0.000006875,0.000007238,5127.6964843,712889306,3988.37410928,554814644,292,0.000007194
1686960000000,2023-06-17 00:00:00,SHIB/USDD,0.000006844,0.000007108,0.000006765,0.00000709,2715.24076058,393135394,1429.90065244,207295652,294,0.000006907
1686873600000,2023-06-16 00:00:00,SHIB/USDD,0.00000675,0.000006961,0.000006571,0.000006845,2512.46777078,370657283,1225.73172817,180744111,303,0.000006778
1686787200000,2023-06-15 00:00:00,SHIB/USDD,0.000006634,0.000006901,0.000006535,0.000006742,3548.3539782,529884608,1874.99993407,280146181,476,0.000006697
1686700800000,2023-06-14 00:00:00,SHIB/USDD,0.000006825,0.000007033,0.000006494,0.000006685,5200.91706601,761228225,2601.93834158,380439283,463,0.000006833
1686614400000,2023-06-13 00:00:00,SHIB/USDD,0.000006702,0.000007708,0.00000657,0.000006819,2535.4904172,373469367,1131.11268335,166884086,258,0.00000679
1686528000000,2023-06-12 00:00:00,SHIB/USDD,0.000006685,0.00000684,0.000006429,0.00000671,2174.40173153,327215583,1298.60720969,195402283,213,0.000006645
1686441600000,2023-06-11 00:00:00,SHIB/USDD,0.000006817,0.000006882,0.000006572,0.000006684,2669.46060503,394162371,1410.4605061,208174918,269,0.000006773
1686355200000,2023-06-10 00:00:00,SHIB/USDD,0.00000792,0.000008014,0.0000059,0.000006876,2931.47386359,443490914,1442.60094899,222981799,237,0.000006634
1686268800000,2023-06-09 00:00:00,SHIB/USDD,0.000007965,0.000008129,0.000007753,0.000007906,1722.54070739,216797007,775.96405326,97639796,193,0.000007946
1686182400000,2023-06-08 00:00:00,SHIB/USDD,0.00000793,0.000008147,0.000007844,0.000007956,2144.52237767,269147777,1133.17243976,142236960,267,0.000007968
1686096000000,2023-06-07 00:00:00,SHIB/USDD,0.00000813,0.000008289,0.000007788,0.000007958,3766.31989168,473107294,1913.17487477,240626602,385,0.000007961
1686009600000,2023-06-06 00:00:00,SHIB/USDD,0.000008003,0.000008315,0.000007904,0.000008224,2216.98180156,274707917,1080.0728806,133839594,270,0.000008071
1685923200000,2023-06-05 00:00:00,SHIB/USDD,0.000008742,0.000008742,0.000007906,0.000008009,1800.05565036,216596009,694.02798138,83837807,194,0.000008317
1685836800000,2023-06-04 00:00:00,SHIB/USDD,0.000008504,0.000008854,0.000008502,0.000008637,1274.83908662,147278141,564.64556527,65353055,147,0.000008656
1685750400000,2023-06-03 00:00:00,SHIB/USDD,0.00000863,0.000008775,0.000008474,0.000008623,1547.14766252,179493525,718.2610463,83437787,167,0.000008619
1685664000000,2023-06-02 00:00:00,SHIB/USDD,0.000008361,0.000008763,0.000008274,0.000008641,1936.26304357,226832723,1015.16248465,118728435,185,0.000008537
1685577600000,2023-06-01 00:00:00,SHIB/USDD,0.000008585,0.000008726,0.000008388,0.000008483,1703.1578571,199552445,878.66587161,103015784,219,0.000008535
1685491200000,2023-05-31 00:00:00,SHIB/USDD,0.000008706,0.000008757,0.000008346,0.000008548,2992.93648624,351894176,1521.86832647,178593629,360,0.000008506
1685404800000,2023-05-30 00:00:00,SHIB/USDD,0.000008715,0.000008819,0.000008552,0.00000873,1483.00352698,169885670,800.42731699,91696771,160,0.000008729
1685318400000,2023-05-29 00:00:00,SHIB/USDD,0.000008808,0.000008925,0.0000087,0.000008743,3241.73257429,369068929,1587.79785967,180767025,375,0.000008783
1685232000000,2023-05-28 00:00:00,SHIB/USDD,0.00000871,0.000009038,0.000008648,0.000008814,2238.61518876,254702223,1121.95451291,127654893,236,0.000008789
1685145600000,2023-05-27 00:00:00,SHIB/USDD,0.000008518,0.000008697,0.00000845,0.000008618,6470.73005793,753600693,3088.15379164,359606282,601,0.000008586
1685059200000,2023-05-26 00:00:00,SHIB/USDD,0.000008513,0.000008715,0.000008408,0.000008577,4544.77550959,533967224,2186.21144123,256896109,448,0.000008511
1684972800000,2023-05-25 00:00:00,SHIB/USDD,0.000008486,0.000008694,0.000008342,0.000008494,2471.07938708,291383175,1189.15035213,140245295,272,0.00000848
1684886400000,2023-05-24 00:00:00,SHIB/USDD,0.000008929,0.000008929,0.000008361,0.000008434,3888.49786179,453903930,2047.90669096,238458184,418,0.000008569
1684800000000,2023-05-23 00:00:00,SHIB/USDD,0.000008774,0.000009084,0.000008774,0.000008936,2135.13666743,239357939,1066.80834621,119497452,195,0.00000892
1684713600000,2023-05-22 00:00:00,SHIB/USDD,0.000008545,0.000008911,0.000008412,0.000008837,2717.94745171,310478887,1152.09256771,131568614,304,0.000008755
1684627200000,2023-05-21 00:00:00,SHIB/USDD,0.000008721,0.000008829,0.000008529,0.000008543,5044.93111715,580361763,2588.52943172,297692678,436,0.000008693
1684540800000,2023-05-20 00:00:00,SHIB/USDD,0.000008699,0.000008859,0.000008632,0.000008745,6281.32096251,720007170,3095.27890597,354845097,522,0.000008724
1684454400000,2023-05-19 00:00:00,SHIB/USDD,0.000008751,0.000008877,0.000008599,0.000008669,4027.66897246,462737812,2109.53162762,242283752,386,0.000008704
1684368000000,2023-05-18 00:00:00,SHIB/USDD,0.00000879,0.000008859,0.000008546,0.000008757,4944.82273699,564824237,2394.24547784,273468926,368,0.000008754
1684281600000,2023-05-17 00:00:00,SHIB/USDD,0.00000878,0.000009022,0.000008598,0.000008841,2813.70241697,320117271,1499.32949056,170585699,366,0.00000879
1684195200000,2023-05-16 00:00:00,SHIB/USDD,0.000008818,0.000009007,0.0000085,0.000008759,2062.50207085,234664116,994.35259429,113290485,218,0.000008789
1684108800000,2023-05-15 00:00:00,SHIB/USDD,0.000008808,0.00000893,0.000008702,0.000008852,6016.90413643,680197007,2844.69211577,321525495,470,0.000008846
1684022400000,2023-05-14 00:00:00,SHIB/USDD,0.000008742,0.000008893,0.000008686,0.000008838,3327.9247585,378384220,1605.05873529,182533940,414,0.000008795
1683936000000,2023-05-13 00:00:00,SHIB/USDD,0.00000892,0.00000896,0.000008638,0.000008753,1302.75450457,148856774,704.38441487,80431649,113,0.000008752
1683849600000,2023-05-12 00:00:00,SHIB/USDD,0.000008714,0.000008941,0.000008536,0.000008709,1137.44333291,131091296,347.41614764,39947654,129,0.000008677
1683763200000,2023-05-11 00:00:00,SHIB/USDD,0.000009033,0.000009098,0.000008612,0.000008685,2808.11985566,319138544,1445.92541746,164459206,311,0.0000088
1683676800000,2023-05-10 00:00:00,SHIB/USDD,0.000008902,0.000009249,0.00000882,0.000009045,1444.60567851,160393026,742.71823624,82635809,129,0.000009007
1683590400000,2023-05-09 00:00:00,SHIB/USDD,0.000008838,0.000009264,0.000008669,0.000009122,1547.81008693,173888484,720.96278985,80957222,185,0.000008901
1683504000000,2023-05-08 00:00:00,SHIB/USDD,0.000009393,0.000009393,0.000008388,0.000008927,3880.55912975,431205224,1567.02210892,174211317,451,0.000009001
1683417600000,2023-05-07 00:00:00,SHIB/USDD,0.000009639,0.00001043,0.000009382,0.000009393,1390.55537461,146876083,630.78367639,66616312,245,0.000009468
1683331200000,2023-05-06 00:00:00,SHIB/USDD,0.000009973,0.000010258,0.000009282,0.000009415,1263.24460409,130421008,567.38879668,58774698,206,0.000009691
1683244800000,2023-05-05 00:00:00,SHIB/USDD,0.000009937,0.000010225,0.000009762,0.000010011,1736.25621489,174202045,787.37041118,79066735,264,0.000009967
1683158400000,2023-05-04 00:00:00,SHIB/USDD,0.00001006,0.000010327,0.000009824,0.000009872,1543.51785482,154796478,583.87389403,58591350,305,0.000009971
1683072000000,2023-05-03 00:00:00,SHIB/USDD,0.000010006,0.000010332,0.000009825,0.000010208,1344.22467554,134488352,568.38729726,56947290,223,0.000009995
1682985600000,2023-05-02 00:00:00,SHIB/USDD,0.000009991,0.000010254,0.000009828,0.000010088,1161.17571011,116566408,572.48867756,57465028,215,0.000009962
1682899200000,2023-05-01 00:00:00,SHIB/USDD,0.000010255,0.00001078,0.000009808,0.000010006,3103.02446993,308200022,1562.25179241,155138438,563,0.000010069
1682812800000,2023-04-30 00:00:00,SHIB/USDD,0.000010353,0.000010622,0.000010113,0.000010248,5575.55035923,538920376,2773.272437,268086051,862,0.000010346
1682726400000,2023-04-29 00:00:00,SHIB/USDD,0.000010357,0.000010894,0.000010278,0.000010538,3540.59910357,340933512,1775.04593331,170961539,615,0.000010385
1682640000000,2023-04-28 00:00:00,SHIB/USDD,0.000010385,0.000010615,0.000010096,0.000010397,1812.42725662,174949011,844.31112456,81556536,313,0.000010359
1682553600000,2023-04-27 00:00:00,SHIB/USDD,0.000010259,0.000010679,0.000010229,0.000010307,2080.17676784,199901316,1026.85336856,98661562,391,0.000010406
1682467200000,2023-04-26 00:00:00,SHIB/USDD,0.000010514,0.000011024,0.00001001,0.000010262,1585.31590587,150793348,754.2884459,71606413,262,0.000010517
1682380800000,2023-04-25 00:00:00,SHIB/USDD,0.000010333,0.000010746,0.000010146,0.000010503,1102.05346044,106486541,549.30547411,53072327,156,0.00001035
1682294400000,2023-04-24 00:00:00,SHIB/USDD,0.0000105,0.000010745,0.0000103,0.000010403,3110.19732673,298331070,1570.95871593,150589824,488,0.000010425
1682208000000,2023-04-23 00:00:00,SHIB/USDD,0.000010598,0.000011027,0.000010245,0.000010698,6170.34532656,586972653,4788.0124187,455601343,353,0.000010512
1682121600000,2023-04-22 00:00:00,SHIB/USDD,0.000010411,0.000010763,0.000010386,0.000010599,2681.77210506,254446642,1356.64666597,128663114,493,0.000010539
1682035200000,2023-04-21 00:00:00,SHIB/USDD,0.000010749,0.000011426,0.000010173,0.000010401,1277.66964714,118936203,599.41819707,55876538,288,0.000010746
1681948800000,2023-04-20 00:00:00,SHIB/USDD,0.000010987,0.00001143,0.000010581,0.000010748,4267.05853416,389437486,2285.70586704,208538130,734,0.000010959
1681862400000,2023-04-19 00:00:00,SHIB/USDD,0.000011626,0.000011894,0.00001085,0.000011008,13006.87980154,1148956967,6975.10325071,616112817,2012,0.000011325
1681776000000,2023-04-18 00:00:00,SHIB/USDD,0.000011526,0.000012106,0.000011367,0.00001166,8029.42210369,689901915,4056.88996191,348680830,1235,0.000011639
1681689600000,2023-04-17 00:00:00,SHIB/USDD,0.000011473,0.000012052,0.000011239,0.000011527,6244.69020292,540060732,3080.13694202,266334411,934,0.000011563
1681603200000,2023-04-16 00:00:00,SHIB/USDD,0.000011696,0.00001209,0.000011577,0.000011763,6936.98285459,590405332,3761.19172709,320041123,1051,0.000011749
1681516800000,2023-04-15 00:00:00,SHIB/USDD,0.000011386,0.000011714,0.000011108,0.000011696,3091.41580083,272119712,1451.11693605,127808594,556,0.000011361
1681430400000,2023-04-14 00:00:00,SHIB/USDD,0.000011235,0.000011602,0.000011099,0.000011385,4187.49712095,367267449,2166.19053504,189994657,755,0.000011402
1681344000000,2023-04-13 00:00:00,SHIB/USDD,0.0000111,0.000011515,0.000010818,0.000011233,26856.59312881,2400532626,13499.15742056,1206731273,3790,0.000011188
1681257600000,2023-04-12 00:00:00,SHIB/USDD,0.000011433,0.000011442,0.00001074,0.000011101,28059.79351185,2540819097,14158.5146544,1281988825,4005,0.000011044
1681171200000,2023-04-11 00:00:00,SHIB/USDD,0.000011207,0.000011486,0.000010899,0.000011174,21980.89387765,1958472139,10757.69358391,958564592,3240,0.000011223
1681084800000,2023-04-10 00:00:00,SHIB/USDD,0.000011015,0.000011345,0.000010784,0.000011206,22239.37055891,2014682752,11102.42037722,1005798782,3126,0.000011039
1680998400000,2023-04-09 00:00:00,SHIB/USDD,0.000010949,0.000011647,0.000010737,0.000011016,11014.98779834,1004022848,5576.98927597,508220247,1531,0.000010971
1680912000000,2023-04-08 00:00:00,SHIB/USDD,0.000010988,0.000011401,0.00001075,0.000010951,8024.53290094,729215037,4207.14192305,382332966,1176,0.000011004
1680825600000,2023-04-07 00:00:00,SHIB/USDD,0.000011043,0.000011375,0.000010785,0.000010885,10025.60565666,908643443,5243.99399794,475308362,1528,0.000011033
1680739200000,2023-04-06 00:00:00,SHIB/USDD,0.000011298,0.000011451,0.000010969,0.00001104,19731.83644311,1767176649,9984.90948474,894298077,2588,0.000011166
1680652800000,2023-04-05 00:00:00,SHIB/USDD,0.00001136,0.000011662,0.000010952,0.000011326,50611.70676711,4412242144,25430.16318325,2216687757,2982,0.000011471
1680566400000,2023-04-04 00:00:00,SHIB/USDD,0.000011383,0.000011729,0.000011149,0.00001135,108906.69739001,9513523069,54674.92108912,4775768360,3698,0.000011448
1680480000000,2023-04-03 00:00:00,SHIB/USDD,0.000010921,0.000011763,0.000010585,0.000011353,97064.54366874,8848531446,48183.26711348,4392457887,3537,0.000010973
1680393600000,2023-04-02 00:00:00,SHIB/USDD,0.000011334,0.00001163,0.000010762,0.000010922,103590.2544242,9248895085,51156.55416485,4570581219,3824,0.000011203
1680307200000,2023-04-01 00:00:00,SHIB/USDD,0.000011028,0.00001167,0.000010667,0.000011322,81599.47047653,7354427616,41972.94181892,3782595967,2755,0.000011097
1680220800000,2023-03-31 00:00:00,SHIB/USDD,0.000010646,0.000011169,0.000010574,0.000011029,104659.54689706,9672747302,53863.47116106,4979137446,3732,0.000010821
1680134400000,2023-03-30 00:00:00,SHIB/USDD,0.000010732,0.000010963,0.000010302,0.000010651,103828.69995596,9712212319,54745.56594362,5122115918,1432,0.00001069
1680048000000,2023-03-29 00:00:00,SHIB/USDD,0.000010563,0.000011409,0.000010323,0.000010792,139554.87662624,12942452985,69459.16605533,6443258064,6340,0.000010783
1679961600000,2023-03-28 00:00:00,SHIB/USDD,0.000010521,0.000010832,0.000010199,0.000010562,177902.26342623,16980098127,86730.17536961,8278125592,10194,0.000010477
1679875200000,2023-03-27 00:00:00,SHIB/USDD,0.000010873,0.000011182,0.000010198,0.000010522,37196.53342867,3527372192,19004.34118671,1802817785,2344,0.000010546
1679788800000,2023-03-26 00:00:00,SHIB/USDD,0.000010589,0.000011231,0.000010353,0.000010949,15868.82787197,1489011833,8084.80325352,758785910,2156,0.000010657
1679702400000,2023-03-25 00:00:00,SHIB/USDD,0.000010797,0.000011065,0.000010357,0.000010594,26064.01906135,2441366727,12986.17980535,1216716293,2737,0.000010676
1679616000000,2023-03-24 00:00:00,SHIB/USDD,0.000010928,0.000011152,0.000010305,0.000010702,12683.46236182,1184421861,6446.68378667,601775371,1710,0.000010709
1679529600000,2023-03-23 00:00:00,SHIB/USDD,0.00001072,0.000011433,0.000010056,0.000010941,6949.98622181,642855070,3480.60597972,321194567,737,0.000010812
1679443200000,2023-03-22 00:00:00,SHIB/USDD,0.000010966,0.00001143,0.000010345,0.000010602,5327.53996735,485556652,2507.12733045,228368594,540,0.000010973
1679356800000,2023-03-21 00:00:00,SHIB/USDD,0.000010413,0.00001156,0.000010164,0.000010984,19339.33179744,1808749697,9444.84407645,883369968,2417,0.000010694
1679270400000,2023-03-20 00:00:00,SHIB/USDD,0.000011002,0.000011302,0.000010131,0.000010454,19124.66661709,1777730950,10110.16856073,939791221,2293,0.000010759
1679184000000,2023-03-19 00:00:00,SHIB/USDD,0.000010823,0.000011466,0.000010655,0.000011,13432.00699139,1217056239,6662.14000006,603503112,1640,0.000011037
1679097600000,2023-03-18 00:00:00,SHIB/USDD,0.00001121,0.000011562,0.000010506,0.00001077,15938.84018257,1424130614,8122.36620942,725831474,2019,0.000011194
1679011200000,2023-03-17 00:00:00,SHIB/USDD,0.00001078,0.000011585,0.000010296,0.000011232,18515.18159625,1708287084,9473.38769486,874036843,2148,0.000010839
1678924800000,2023-03-16 00:00:00,SHIB/USDD,0.000010502,0.000011084,0.000010283,0.000010646,14001.15170889,1326242478,7127.79836622,674983922,1814,0.000010557
1678838400000,2023-03-15 00:00:00,SHIB/USDD,0.000011386,0.000011933,0.00000962,0.000010502,13571.57154388,1246581372,6925.32232397,637405217,1720,0.000010902
1678752000000,2023-03-14 00:00:00,SHIB/USDD,0.000011177,0.00001195,0.000010725,0.000011408,15605.40744544,1378261127,7586.49787271,670120426,2143,0.000011326
1678665600000,2023-03-13 00:00:00,SHIB/USDD,0.00001096,0.000011398,0.000010417,0.000011184,21743.11716295,1970257457,10667.06191894,966833023,2803,0.000011038
1678579200000,2023-03-12 00:00:00,SHIB/USDD,0.000010692,0.000011294,0.000010026,0.000010961,23941.25740745,2243743587,12197.12378658,1142371152,2711,0.000010673
1678492800000,2023-03-11 00:00:00,SHIB/USDD,0.000010324,0.000011393,0.000010009,0.000010771,25896.57786798,2436303075,13233.72039835,1244611059,2942,0.000010631
1678406400000,2023-03-10 00:00:00,SHIB/USDD,0.00001012,0.000010564,0.000009509,0.000010325,33920.89269536,3353180326,17350.94320342,1714673315,4169,0.000010117
1678320000000,2023-03-09 00:00:00,SHIB/USDD,0.000010941,0.000011392,0.000009689,0.000010119,29769.09265164,2764023969,15167.19415405,1404726866,3918,0.00001078
1678233600000,2023-03-08 00:00:00,SHIB/USDD,0.00001108,0.000011688,0.000010502,0.00001094,32073.81682659,2895778570,16554.65800311,1495302470,4083,0.000011079
1678147200000,2023-03-07 00:00:00,SHIB/USDD,0.000011137,0.000011371,0.000010502,0.00001108,42608.81993372,3853998437,22037.99088502,1993229589,5539,0.000011059
1678060800000,2023-03-06 00:00:00,SHIB/USDD,0.000011085,0.000011371,0.000010502,0.000011132,87405.24909323,7918879327,42722.03242685,3870284513,10223,0.000011038
1677974400000,2023-03-05 00:00:00,SHIB/USDD,0.000011111,0.000011709,0.000010835,0.000011086,81120.83809932,7264919871,40899.25158332,3662139537,9217,0.000011166
1677888000000,2023-03-04 00:00:00,SHIB/USDD,0.000011386,0.000012054,0.000010521,0.000011112,62274.72781727,5539360886,30809.99403804,2740436219,7813,0.000011244
1677801600000,2023-03-03 00:00:00,SHIB/USDD,0.000012068,0.000012087,0.000010683,0.000011373,77883.40473483,6864515294,39589.20048707,3489522696,8413,0.000011347
1677715200000,2023-03-02 00:00:00,SHIB/USDD,0.000012283,0.000012451,0.000011672,0.000012067,60294.31572993,5013199745,31242.44961375,2596630283,6314,0.000012028
1677628800000,2023-03-01 00:00:00,SHIB/USDD,0.000012065,0.000013097,0.000011755,0.000012282,96529.46908411,7842529364,49181.09044438,3995626701,9750,0.000012309
1677542400000,2023-02-28 00:00:00,SHIB/USDD,0.000012578,0.00001283,0.000011752,0.000012064,97493.22299082,7856320600,49563.63462888,3993169557,9277,0.000012411
1677456000000,2023-02-27 00:00:00,SHIB/USDD,0.000013192,0.000013218,0.000012022,0.000012575,91614.70350316,7217765181,45999.16239916,3623334739,9015,0.000012694
1677369600000,2023-02-26 00:00:00,SHIB/USDD,0.000012438,0.000013173,0.000012029,0.000012935,95578.60269636,7618370700,48364.36160358,3853748711,9157,0.000012547
1677283200000,2023-02-25 00:00:00,SHIB/USDD,0.00001279,0.00001303,0.000011811,0.000012444,87800.17259706,7052456153,43830.21073139,3520301955,9045,0.000012451
1677196800000,2023-02-24 00:00:00,SHIB/USDD,0.000013182,0.000013696,0.000012046,0.000012572,70454.27301237,5390348133,36522.79353801,2794442836,6915,0.000013072
1677110400000,2023-02-23 00:00:00,SHIB/USDD,0.000013177,0.000013776,0.000012829,0.00001318,43335.30301637,3294689778,21752.25435569,1653666913,4397,0.000013153
1677024000000,2023-02-22 00:00:00,SHIB/USDD,0.000013093,0.000013531,0.000012258,0.000013017,73756.76006928,5759171212,36716.15948479,2866412289,7345,0.000012807
1676937600000,2023-02-21 00:00:00,SHIB/USDD,0.000013498,0.000013719,0.000012849,0.000013121,86356.37802633,6476616198,44285.53030193,3320358407,8403,0.000013336
1676851200000,2023-02-20 00:00:00,SHIB/USDD,0.00001335,0.000014009,0.000012719,0.000013481,101405.45689481,7509933397,50821.42712286,3762998744,9489,0.000013503
1676764800000,2023-02-19 00:00:00,SHIB/USDD,0.000013217,0.00001401,0.000012514,0.000013366,64692.37652818,4818332438,32851.50924001,2446425312,6562,0.000013429
1676678400000,2023-02-18 00:00:00,SHIB/USDD,0.000013215,0.000013595,0.000012122,0.000013244,102066.4242278,7715032016,52471.96132692,3965842708,9831,0.00001323
1676592000000,2023-02-17 00:00:00,SHIB/USDD,0.000012744,0.000013595,0.000011665,0.000013214,92415.10322724,7047230717,47020.19080422,3585669575,9081,0.000013115
1676505600000,2023-02-16 00:00:00,SHIB/USDD,0.000013899,0.000014526,0.000011948,0.000012743,105250.05668223,7731427667,52851.27778332,3879914196,10589,0.000013621
1676419200000,2023-02-15 00:00:00,SHIB/USDD,0.000012954,0.000014128,0.000012151,0.000013885,104517.7203581,7886705191,52667.39716804,3972792655,10431,0.00001326
1676332800000,2023-02-14 00:00:00,SHIB/USDD,0.00001258,0.000013481,0.000011646,0.000012926,86134.69216706,6812238945,43234.28022747,3418351775,8968,0.000012646
1676246400000,2023-02-13 00:00:00,SHIB/USDD,0.000012942,0.00001368,0.000011826,0.000012589,101371.89904882,8004172755,51713.45649272,4083747788,10099,0.00001267
1676160000000,2023-02-12 00:00:00,SHIB/USDD,0.000013031,0.000013669,0.000012405,0.000012942,108960.43620678,8318283200,55858.36958795,4262598478,10418,0.000013101
1676073600000,2023-02-11 00:00:00,SHIB/USDD,0.000013022,0.000013337,0.000011891,0.000013036,104276.030938073,8118571609,53017.614514023,4126237653,10745,0.000012845416419465
1675987200000,2023-02-10 00:00:00,SHIB/USDD,0.000012312,0.000013669,0.000011907,0.000013021,103811.689448459,8256460603,54476.13627881,4331435235,10641,0.000012577913821852
1675900800000,2023-02-09 00:00:00,SHIB/USDD,0.000013923,0.000014196,0.000011504,0.000012295,105524.567468969,8014263090,53585.082193743,4069471500,11461,0.000013186148801037
1675814400000,2023-02-08 00:00:00,SHIB/USDD,0.000014435,0.000014772,0.000012745,0.000013912,94585.569288725,6715635003,47297.906379495,3357067651,9674,0.000014088612585339
1675728000000,2023-02-07 00:00:00,SHIB/USDD,0.000014188,0.000014924,0.000013242,0.000014427,85431.068063974,6027785061,44107.512549869,3110936215,8016,0.000014173554660291
1675641600000,2023-02-06 00:00:00,SHIB/USDD,0.000014356,0.000015357,0.000013433,0.000014204,97669.760816765,6725790908,49849.174115357,3432428979,9827,0.000014523443788958
1675555200000,2023-02-05 00:00:00,SHIB/USDD,0.000014745,0.00001593,0.000013423,0.000014519,95265.115736134,6414771841,47363.274718885,3188095226,9042,0.000014856569477241
1675468800000,2023-02-04 00:00:00,SHIB/USDD,0.000012805,0.000015777,0.000012804,0.000014782,98423.992483457,6770246032,53422.378207706,3663525578,9489,0.00001456028405972
1675382400000,2023-02-03 00:00:00,SHIB/USDD,0.000012191,0.000013193,0.000011946,0.000012803,99491.820592834,7959675430,51102.470352666,4087208831,9836,0.000012500897977558
1675296000000,2023-02-02 00:00:00,SHIB/USDD,0.000012162,0.0000132,0.000011827,0.000012185,86921.698320687,7050280704,43872.950961999,3556789285,8594,0.000012335052768119
1675209600000,2023-02-01 00:00:00,SHIB/USDD,0.000011888,0.000012098,0.000011116,0.000012045,84536.434040099,7203251833,43146.559207136,3675689788,8577,0.000011737282827376
1675123200000,2023-01-31 00:00:00,SHIB/USDD,0.000011582,0.000012326,0.000011096,0.000011889,105366.934067501,8880388988,54376.934120845,4581420445,9687,0.00001186587049937
1675036800000,2023-01-30 00:00:00,SHIB/USDD,0.000012155,0.000012349,0.000010626,0.000011587,48022.213135943,4079021725,23988.455566776,2036436001,4800,0.000011776761347255
1674950400000,2023-01-29 00:00:00,SHIB/USDD,0.000011918,0.000012349,0.000011772,0.000012143,44849.80368969,3714638814,22604.089915651,1871840436,4304,0.000012074143666817
1674864000000,2023-01-28 00:00:00,SHIB/USDD,0.000011843,0.000012657,0.000011328,0.000011917,104412.371910365,8714023195,52203.514755956,4355852001,10180,0.000011983245021918
1674777600000,2023-01-27 00:00:00,SHIB/USDD,0.000011791,0.00001197,0.000011203,0.000011844,76676.650718737,6576564388,39139.627882654,3355890226,7264,0.000011659356479535
1674691200000,2023-01-26 00:00:00,SHIB/USDD,0.000011929,0.000012271,0.000011202,0.000011766,94030.251632699,7983160017,49355.729195404,4190013335,9562,0.00001177926826148
1674604800000,2023-01-25 00:00:00,SHIB/USDD,0.000011381,0.000012199,0.000010824,0.000011802,68136.962672776,5961743047,34116.226075489,2984634290,6650,0.000011430261156378
1674518400000,2023-01-24 00:00:00,SHIB/USDD,0.000012199,0.000012562,0.00001125,0.000011436,60280.055824853,4932231210,29846.100021448,2441334356,5786,0.000012222651944567
1674432000000,2023-01-23 00:00:00,SHIB/USDD,0.000012419,0.000012899,0.000011466,0.000012259,50417.84502814,4111183232,25626.642026714,2088842903,4897,0.000012264070441369
1674345600000,2023-01-22 00:00:00,SHIB/USDD,0.000012283,0.000012886,0.000011302,0.000012147,88651.182657132,7232044571,41737.650747872,3396245999,7142,0.000012261332366435
1674259200000,2023-01-21 00:00:00,SHIB/USDD,0.000012409,0.000012931,0.000011754,0.000012193,90389.086789293,7252287476,46084.139909829,3696800029,7698,0.000012464061312743
1674172800000,2023-01-20 00:00:00,SHIB/USDD,0.000011871,0.000012936,0.000011238,0.000012603,86874.566714431,7331542418,44187.797448036,3727862172,9135,0.00001185160929625
1674086400000,2023-01-19 00:00:00,SHIB/USDD,0.000011531,0.000012148,0.000010747,0.000011871,96270.530339805,8301031830,48582.835378703,4186882648,8491,0.000011599922021446
1674000000000,2023-01-18 00:00:00,SHIB/USDD,0.000010812,0.000013466,0.000010768,0.000011437,90751.798540254,7362898177,48651.026167696,3944059532,8981,0.000012351578882032
1673913600000,2023-01-17 00:00:00,SHIB/USDD,0.000010817,0.00001147,0.000010189,0.000010812,96178.270312797,8868062059,48427.249115382,4464451288,10004,0.000010846087281187
1673827200000,2023-01-16 00:00:00,SHIB/USDD,0.00001097,0.000011759,0.000010298,0.000010817,99863.972450894,9191525971,50376.929207636,4633945715,10197,0.000010867984414306
1673740800000,2023-01-15 00:00:00,SHIB/USDD,0.000010733,0.000011307,0.000009606,0.000010967,78372.300108526,7483596406,39177.278768913,3739289362,8017,0.000010475670342386
1673654400000,2023-01-14 00:00:00,SHIB/USDD,0.000010386,0.000011612,0.000010045,0.000010586,64049.853387074,5983453325,33086.347324023,3088022272,6998,0.000010709410711492
1673568000000,2023-01-13 00:00:00,SHIB/USDD,0.000009668,0.00001093,0.000009215,0.000010385,77950.803422934,7960279691,39176.539920257,3998567298,7612,0.000009796390559618
1673481600000,2023-01-12 00:00:00,SHIB/USDD,0.000009323,0.000009993,0.000008806,0.000009669,78108.424943204,8238593216,38342.011424121,4042933466,7622,0.000009483130994737
1673395200000,2023-01-11 00:00:00,SHIB/USDD,0.000009227,0.00000958,0.000008363,0.000009305,57866.673246925,6352538242,29938.587302477,3285939882,5974,0.000009110296637886
1673308800000,2023-01-10 00:00:00,SHIB/USDD,0.000009023,0.000009926,0.000008471,0.000009427,41577.756078582,4528157980,20654.759733793,2246786939,4320,0.000009189596736669
1673222400000,2023-01-09 00:00:00,SHIB/USDD,0.000008846,0.000009559,0.000008466,0.000008843,50240.395237888,5550507948,26282.705413508,2902674657,4819,0.000009052755132961
1673136000000,2023-01-08 00:00:00,SHIB/USDD,0.000008639,0.00000932,0.000008487,0.000008845,102451.193141241,11839584633,51264.506614263,5923350596,9510,0.000008653769169058
1673049600000,2023-01-07 00:00:00,SHIB/USDD,0.000008702,0.000009271,0.000008276,0.000008645,74681.536535554,8594789323,36711.945419254,4223794846,7647,0.000008689522984577
1672963200000,2023-01-06 00:00:00,SHIB/USDD,0.000008585,0.000009025,0.000008276,0.0000087,105444.834221092,12339983455,53703.556613175,6283933685,9878,0.000008546160497667
1672876800000,2023-01-05 00:00:00,SHIB/USDD,0.000008567,0.000009395,0.000008307,0.000008586,84172.032206469,9655519119,42946.487879823,4924496913,8378,0.000008718377783144
1672790400000,2023-01-04 00:00:00,SHIB/USDD,0.000008294,0.000008733,0.000007987,0.000008562,45683.125531556,5454741299,23073.275038237,2754437087,4072,0.000008375356227816
1672704000000,2023-01-03 00:00:00,SHIB/USDD,0.000008361,0.000008623,0.000008156,0.000008295,51619.143943852,6209379489,25345.819730899,3048367107,5018,0.000008313323653495
1672617600000,2023-01-02 00:00:00,SHIB/USDD,0.000008362,0.000008622,0.000007779,0.000008357,53394.631698501,6388606099,26402.172670352,3159042356,5099,0.000008357947042423
1672531200000,2023-01-01 00:00:00,SHIB/USDD,0.000008146,0.00000862,0.000007748,0.000008263,35739.828097323,4337311548,18194.502050734,2207897260,3785,0.000008240367543838
1672444800000,2022-12-31 00:00:00,SHIB/USDD,0.000008191,0.000008441,0.000008016,0.000008231,51600.226238743,6250023985,26016.041771583,3151370386,5095,0.000008256175010428
1672358400000,2022-12-30 00:00:00,SHIB/USDD,0.000008365,0.000008614,0.000007436,0.000008193,68849.997982253,8421293211,35256.769786605,4312285498,6410,0.000008176141022696
1672272000000,2022-12-29 00:00:00,SHIB/USDD,0.000008037,0.000008478,0.000007608,0.000008363,46853.881123856,5784689397,23602.171255556,2913635949,4556,0.000008100067530876
1672185600000,2022-12-28 00:00:00,SHIB/USDD,0.000008366,0.000008638,0.000007818,0.000008011,24901.354537294,3056327956,12796.283508453,1570301628,2813,0.000008147975631994
1672099200000,2022-12-27 00:00:00,SHIB/USDD,0.000008458,0.000008648,0.000007953,0.000008336,42895.579589148,5111038257,21792.652763301,2595871651,3713,0.000008393460956674
1672012800000,2022-12-26 00:00:00,SHIB/USDD,0.000008503,0.000008642,0.000008213,0.000008457,54818.644798098,6492694508,27450.508501425,3250978841,5752,0.000008443191073493
1671926400000,2022-12-25 00:00:00,SHIB/USDD,0.000008355,0.000008648,0.000008204,0.000008644,36618.892692292,4345230488,17935.721556694,2128127596,3560,0.000008427656179706
1671840000000,2022-12-24 00:00:00,SHIB/USDD,0.00000827,0.000008644,0.000008216,0.000008476,24564.55080931,2903274165,12033.376258812,1422233760,2288,0.000008461071169538
1671753600000,2022-12-23 00:00:00,SHIB/USDD,0.000008505,0.000008649,0.000008089,0.000008448,70869.56799228,8362159125,35645.742185929,4205866598,8147,0.00000847522809044
1671667200000,2022-12-22 00:00:00,SHIB/USDD,0.000008391,0.000008649,0.000007745,0.000008509,74380.840966663,8812810638,37816.245037718,4479353527,8434,0.000008440413890984
1671580800000,2022-12-21 00:00:00,SHIB/USDD,0.000008628,0.000008654,0.000008173,0.00000839,159792.849185141,18980415600,81577.668225816,9689586249,8573,0.000008419106939511
1671494400000,2022-12-20 00:00:00,SHIB/USDD,0.000008231,0.000008979,0.000008231,0.000008629,24147.486477103,2818465045,12515.327159566,1460626301,2812,0.000008567784886959
1671408000000,2022-12-19 00:00:00,SHIB/USDD,0.000008732,0.000009103,0.000008208,0.000008442,3057.113784716,351314411,1408.875966008,161484569,1210,0.000008706144417914
1671321600000,2022-12-18 00:00:00,SHIB/USDD,0.000008442,0.000009481,0.000008112,0.000008699,3225.250902443,367609724,1726.798472372,196761713,1254,0.000008776278024929
1671235200000,2022-12-17 00:00:00,SHIB/USDD,0.000008425,0.000008622,0.000008047,0.000008423,3092.950458387,369834530,1557.853377779,186206384,1195,0.000008363503680399
1671148800000,2022-12-16 00:00:00,SHIB/USDD,0.000009029,0.000009297,0.000008264,0.000008423,3198.644107956,361861842,1672.852158916,189578878,1287,0.000008846231435719
1671062400000,2022-12-15 00:00:00,SHIB/USDD,0.00000915,0.000009338,0.000008901,0.000009074,3212.953746606,354929799,1631.186588015,180098993,1156,0.000009052689970881
1670976000000,2022-12-14 00:00:00,SHIB/USDD,0.000009328,0.000009789,0.000008915,0.000009153,3029.314364368,325894839,1542.951388818,165737691,1220,0.000009296599676196
1670889600000,2022-12-13 00:00:00,SHIB/USDD,0.000009154,0.000009587,0.000008809,0.000009328,3253.503761133,354600068,1769.421236378,192815246,1207,0.00000917739760241
1670803200000,2022-12-12 00:00:00,SHIB/USDD,0.00000932,0.000009328,0.000008739,0.000009152,3464.219057544,381453455,1513.961393583,166504514,1334,0.000009082275215204
1670716800000,2022-12-11 00:00:00,SHIB/USDD,0.000009438,0.000009628,0.000009289,0.000009319,3247.750639574,343489129,1650.577888173,174481640,1409,0.000009455402075653
1670630400000,2022-12-10 00:00:00,SHIB/USDD,0.000009421,0.000009582,0.000009363,0.000009435,3736.179274115,395130797,1846.112760709,195147404,1384,0.000009455654584115
1670544000000,2022-12-09 00:00:00,SHIB/USDD,0.000009503,0.000009556,0.000009352,0.000009421,1624.124965703,171857498,783.836570465,82949552,682,0.000009450737633691
1670457600000,2022-12-08 00:00:00,SHIB/USDD,0.000009272,0.000009531,0.000009235,0.000009503,2469.052492732,263197945,1218.21480683,129710174,967,0.000009381304146128
1670371200000,2022-12-07 00:00:00,SHIB/USDD,0.000009491,0.000009582,0.000009187,0.000009273,3302.842544256,353131116,1621.278985833,173113219,1280,0.000009354457442799
1670284800000,2022-12-06 00:00:00,SHIB/USDD,0.000009541,0.000009754,0.000009393,0.000009488,3390.921077904,356130319,1637.466700119,171859562,1407,0.000009521847512632
1670198400000,2022-12-05 00:00:00,SHIB/USDD,0.000009463,0.000010314,0.000009393,0.00000954,4176.286634053,430807244,2155.619549572,222040140,1416,0.00000969791557933
1670112000000,2022-12-04 00:00:00,SHIB/USDD,0.000009322,0.00000956,0.000009322,0.00000946,4796.012748659,507960532,2343.083237935,248094865,1848,0.000009441864178315
1670025600000,2022-12-03 00:00:00,SHIB/USDD,0.000009408,0.000009668,0.000009286,0.000009324,4800.820803183,508078233,2167.332510543,229259483,1972,0.000009449321082982
1669939200000,2022-12-02 00:00:00,SHIB/USDD,0.00000931,0.000009458,0.000009226,0.000009409,4620.506274885,494328534,2170.975418698,232219632,1862,0.000009347199024324
1669852800000,2022-12-01 00:00:00,SHIB/USDD,0.000009432,0.000009435,0.000009227,0.00000931,4609.061925867,494033940,2381.107107972,255118731,1920,0.000009329611274224
1669766400000,2022-11-30 00:00:00,SHIB/USDD,0.000009154,0.000009488,0.000009118,0.000009435,4722.090449615,505600025,2460.63940434,263345336,1830,0.00000934015469749
1669680000000,2022-11-29 00:00:00,SHIB/USDD,0.00000916,0.000009474,0.000009072,0.000009152,4238.629981123,458938842,2098.611262123,227204830,1722,0.000009236317447523
1669593600000,2022-11-28 00:00:00,SHIB/USDD,0.000009357,0.000009429,0.00000891,0.000009158,4471.832941059,489954573,2388.17497683,261526713,1626,0.000009127631236785
1669507200000,2022-11-27 00:00:00,SHIB/USDD,0.000009114,0.000009782,0.000009047,0.000009357,5864.882421808,623452179,2968.212438559,315311514,1867,0.000009409878515031
1669420800000,2022-11-26 00:00:00,SHIB/USDD,0.000009262,0.000009462,0.00000891,0.000009113,3849.042084371,414469370,1821.83488462,196089317,1485,0.000009287741879597
1669334400000,2022-11-25 00:00:00,SHIB/USDD,0.000009081,0.000009542,0.000008879,0.00000926,4363.380869144,477543875,2305.240527711,252070826,1723,0.000009139506404043
1669248000000,2022-11-24 00:00:00,SHIB/USDD,0.000009101,0.000009262,0.000008941,0.000009081,3990.708751125,438903534,2011.91144178,221116004,1460,0.00000909281839835
1669161600000,2022-11-23 00:00:00,SHIB/USDD,0.000008873,0.000009196,0.000008791,0.0000091,5312.434379912,590853271,2109.649546679,233825510,1716,0.000008992078594862
1669075200000,2022-11-22 00:00:00,SHIB/USDD,0.000008498,0.000008957,0.000008251,0.000008876,4458.900544683,519652072,2172.584028197,252986889,1722,0.000008583922329456
1668988800000,2022-11-21 00:00:00,SHIB/USDD,0.000008905,0.000008906,0.000008354,0.000008496,3995.876726474,461475641,2050.256624673,236337664,1562,0.000008660362224789
1668902400000,2022-11-20 00:00:00,SHIB/USDD,0.000009273,0.000009275,0.000008751,0.000008908,4857.104865125,531751969,2230.788675469,244185519,1228,0.000009135371784909
1668816000000,2022-11-19 00:00:00,SHIB/USDD,0.000009173,0.000009273,0.000009019,0.000009221,17709.167382253,1930402926,9881.571525468,1076658853,1073,0.000009173951775398
1668729600000,2022-11-18 00:00:00,SHIB/USDD,0.000009161,0.000009373,0.000009088,0.000009172,14356.432561924,1564014030,7510.210852427,817410747,743,0.000009179516965299
1668643200000,2022-11-17 00:00:00,SHIB/USDD,0.000009311,0.000009428,0.000009087,0.000009176,13627.796532792,1472865905,6611.796982597,714500344,899,0.000009253078671541
1668556800000,2022-11-16 00:00:00,SHIB/USDD,0.000009361,0.000009727,0.000009105,0.000009314,23639.052730501,2516774272,12532.760851841,1333535057,1401,0.000009394319323515
1668470400000,2022-11-15 00:00:00,SHIB/USDD,0.000009222,0.000009595,0.000009105,0.000009367,25364.505581386,2717046607,13019.539213001,1394786534,1518,0.000009335892965294
1668384000000,2022-11-14 00:00:00,SHIB/USDD,0.000009143,0.000009501,0.000008762,0.000009216,27465.144428782,2986390385,13348.628904424,1448911278,1739,0.00000919895293646
1668297600000,2022-11-13 00:00:00,SHIB/USDD,0.000009799,0.00000992,0.000009061,0.000009155,23155.407773993,2442599307,11374.928653528,1200592898,2314,0.00000948565509162
1668211200000,2022-11-12 00:00:00,SHIB/USDD,0.000010038,0.000010066,0.000009522,0.000009718,17768.24243153,1810910828,8410.675731947,857042548,1776,0.000009813372710597
1668124800000,2022-11-11 00:00:00,SHIB/USDD,0.000010464,0.000010728,0.000009603,0.000010039,16125.88303967,1586151417,7512.883946302,739874760,1626,0.000010172580641998
1668038400000,2022-11-10 00:00:00,SHIB/USDD,0.000008906,0.000011284,0.000008824,0.000010526,13543.297071767,1338641169,6733.359230634,665721680,1382,0.0000101338265704
1667952000000,2022-11-09 00:00:00,SHIB/USDD,0.000010192,0.000010372,0.000005299,0.000008938,25232.943741611,2565729192,12545.607140413,1276994843,2819,0.000009851517361742
1667865600000,2022-11-08 00:00:00,SHIB/USDD,0.000011888,0.000011966,0.000009327,0.000010189,44515.729638738,4066490317,27099.387120455,2469360765,4047,0.000010966820839418
1667779200000,2022-11-07 00:00:00,SHIB/USDD,0.000011851,0.000012333,0.000011473,0.00001188,33766.474933714,2817739675,17945.684902033,1497414691,3136,0.000011984417788464
1667692800000,2022-11-06 00:00:00,SHIB/USDD,0.000012535,0.000013174,0.000011796,0.000011844,55887.291889928,4467151077,28880.84121728,2308401803,5197,0.000012512659532715
1667606400000,2022-11-05 00:00:00,SHIB/USDD,0.000012557,0.000013364,0.000012165,0.000012528,52775.464501104,4149029816,28050.304831603,2203197597,4780,0.000012721341188444
1667520000000,2022-11-04 00:00:00,SHIB/USDD,0.000011795,0.00001348,0.000011642,0.000012555,64145.175828112,5180579990,31379.094588114,2536699198,6257,0.00001239325218536
1667433600000,2022-11-03 00:00:00,SHIB/USDD,0.000011803,0.000012428,0.000011683,0.000011794,70665.184987134,5840725612,34940.020269148,2888540498,7338,0.000012100228221667
1667347200000,2022-11-02 00:00:00,SHIB/USDD,0.000012895,0.000013056,0.000011546,0.000011804,79422.069370265,6454848695,38235.255620083,3117659309,7509,0.000012315494085068
1667260800000,2022-11-01 00:00:00,SHIB/USDD,0.0000125,0.000013876,0.000012317,0.000012899,79977.471605084,6214546752,39586.209088146,3072845126,7715,0.000012874184929424
1667174400000,2022-10-31 00:00:00,SHIB/USDD,0.000011951,0.000013184,0.000011658,0.000012494,75547.073803232,6163440362,37579.266786709,3065703229,7254,0.000012260624245242
1667088000000,2022-10-30 00:00:00,SHIB/USDD,0.000012919,0.000013973,0.000011506,0.000011952,76108.480754977,6030388385,37133.72793929,2940492733,7372,0.000012644810961554
1667001600000,2022-10-29 00:00:00,SHIB/USDD,0.000011743,0.000015208,0.000011566,0.000012931,83936.500839458,6523911321,40182.87366219,3118662350,6374,0.000012919144319327
1666915200000,2022-10-28 00:00:00,SHIB/USDD,0.000010526,0.000012314,0.000010356,0.000011742,53306.594130211,4785953014,24247.994184706,2194811049,4368,0.000011166391808066
1666828800000,2022-10-27 00:00:00,SHIB/USDD,0.000010799,0.000012078,0.000010602,0.000010602,78808.535754877,7112938069,38482.110214256,3476014899,6752,0.000011084362966075
1666742400000,2022-10-26 00:00:00,SHIB/USDD,0.000010272,0.000010925,0.000010217,0.000010834,68286.756039806,6477561209,34108.358446655,3235739118,6790,0.000010544119104272
1666656000000,2022-10-25 00:00:00,SHIB/USDD,0.000009952,0.000010487,0.000009923,0.000010271,40680.470739507,4026558042,19601.017264499,1940860952,4064,0.000010104976399466
1666569600000,2022-10-24 00:00:00,SHIB/USDD,0.0000102,0.000010229,0.000009881,0.000009952,84468.406872435,8427748326,42051.535391371,4195536420,7640,0.000010023013567183
1666483200000,2022-10-23 00:00:00,SHIB/USDD,0.000010023,0.000010446,0.000009887,0.000010194,78757.078870066,7842490697,39596.801320881,3942609031,7986,0.000010042830945826
1666396800000,2022-10-22 00:00:00,SHIB/USDD,0.000010043,0.000010115,0.000009921,0.000010024,64918.584323508,6472282570,31247.57739929,3114886545,5923,0.000010030339972766
1666310400000,2022-10-21 00:00:00,SHIB/USDD,0.000009921,0.000010068,0.000009241,0.000010041,79533.638710097,8013173793,39124.008671061,3942301028,7352,0.000009926244390054
1666224000000,2022-10-20 00:00:00,SHIB/USDD,0.000009873,0.000010138,0.000009738,0.000009923,62291.243114557,6238746982,30689.568892965,3074017005,5792,0.000009984951078197
1666137600000,2022-10-19 00:00:00,SHIB/USDD,0.000010177,0.000010738,0.000009607,0.000009873,66985.728168482,6629720375,33200.576753905,3285987724,7328,0.000010104399502464
1666051200000,2022-10-18 00:00:00,SHIB/USDD,0.000010412,0.000010727,0.000009914,0.000010174,56301.100254563,5484131105,29937.012171448,2916256485,5036,0.00001026747314403
1665964800000,2022-10-17 00:00:00,SHIB/USDD,0.000010273,0.000010689,0.000010113,0.000010403,51659.809777393,5006234003,25965.694417898,2515553804,4866,0.000010319459463437
1665878400000,2022-10-16 00:00:00,SHIB/USDD,0.000010208,0.00001058,0.000010123,0.000010288,50108.161453803,4879742345,24735.831061589,2408666003,4658,0.000010268758157992
1665792000000,2022-10-15 00:00:00,SHIB/USDD,0.000009932,0.000010863,0.000009865,0.000010207,20902.630435447,2046479674,11506.7826778,1126419306,2097,0.000010214970971516
1665705600000,2022-10-14 00:00:00,SHIB/USDD,0.000010402,0.000015665,0.000009834,0.000010189,31919.735951729,3067586853,16539.454692812,1593847330,2837,0.00001041073834491
1665619200000,2022-10-13 00:00:00,SHIB/USDD,0.00001007,0.000010843,0.000008974,0.000010415,48373.292751386,4872981369,28529.650284982,2868495824,4090,0.000009940216363541
1665532800000,2022-10-12 00:00:00,SHIB/USDD,0.000010203,0.000010439,0.00000991,0.00001021,48122.183438539,4692945915,25203.450053704,2457471098,4356,0.000010254716893377
1665446400000,2022-10-11 00:00:00,SHIB/USDD,0.000010177,0.000010398,0.000009809,0.000010213,49852.078045309,4889873295,29158.670006811,2858277301,2970,0.000010196035627021
1665360000000,2022-10-10 00:00:00,SHIB/USDD,0.000011038,0.000011114,0.000009817,0.00001021,143721.310451702,13209633482,71330.322699761,6558240033,4423,0.000010882943742002
1665273600000,2022-10-09 00:00:00,SHIB/USDD,0.000011053,0.000011284,0.000010912,0.000011053,128076.789615952,11587768334,67554.919919477,6104299820,3448,0.000011053184076725
1665187200000,2022-10-08 00:00:00,SHIB/USDD,0.000011092,0.0000111,0.000010856,0.000010999,86191.734778596,7798067645,42885.424012081,3880008937,2888,0.00001105300790101
1665100800000,2022-10-07 00:00:00,SHIB/USDD,0.000011178,0.00001127,0.000010922,0.000011066,77978.653192724,6993416908,38347.5213709,3439435860,3120,0.000011150784971402
1665014400000,2022-10-06 00:00:00,SHIB/USDD,0.000011452,0.000011581,0.000011097,0.000011151,55235.195057697,4871072820,26978.095461634,2380281270,1888,0.000011340284290825
1664928000000,2022-10-05 00:00:00,SHIB/USDD,0.000011593,0.000011752,0.000011116,0.000011393,64792.584292258,5672401679,32191.038934889,2816522565,2323,0.000011424002311788
1664841600000,2022-10-04 00:00:00,SHIB/USDD,0.000011166,0.00001172,0.000011099,0.000011596,29854.497023695,2642243684,14327.548620661,1268987891,1118,0.00001130055207597
1664755200000,2022-10-03 00:00:00,SHIB/USDD,0.000010934,0.000011218,0.000010864,0.000011165,147815.371310426,13333242326,75085.498985973,6772658244,5353,0.000011086336821143
1664668800000,2022-10-02 00:00:00,SHIB/USDD,0.000011162,0.000011268,0.000010665,0.000010933,143038.005208734,12879803816,70498.877089222,6348711523,4171,0.000011106237633717
1664582400000,2022-10-01 00:00:00,SHIB/USDD,0.000011292,0.000011519,0.00001108,0.000011157,191149.268891922,17025132105,97357.555553247,8671243353,5794,0.000011227962170874
1664496000000,2022-09-30 00:00:00,SHIB/USDD,0.000011113,0.000011489,0.000011035,0.000011292,100509.9453311,8975438628,49717.840332222,4440057079,3524,0.000011198754981021
1664409600000,2022-09-29 00:00:00,SHIB/USDD,0.000011107,0.000011228,0.000010859,0.000011112,83188.707268787,7493169687,42918.802519743,3865218653,2804,0.000011102326979807
1664323200000,2022-09-28 00:00:00,SHIB/USDD,0.000011168,0.000011475,0.00001071,0.000011117,80254.202105874,7254875109,40240.06175694,3637761944,2917,0.000011064028921097
1664236800000,2022-09-27 00:00:00,SHIB/USDD,0.000011127,0.000011525,0.000010834,0.000011036,67010.806274944,5963610631,32508.819572235,2895180251,2260,0.000011238940713999
1664150400000,2022-09-26 00:00:00,SHIB/USDD,0.000010927,0.000011172,0.000010752,0.000011065,84558.78575487,7691243941,42647.064880748,3878171006,3070,0.000010994769947505
1664064000000,2022-09-25 00:00:00,SHIB/USDD,0.000011257,0.000011554,0.000010771,0.000011017,89854.841351139,7962986183,46763.756640246,4143648693,2630,0.000011285221140815
1663977600000,2022-09-24 00:00:00,SHIB/USDD,0.000011068,0.000012133,0.000010966,0.000011248,148031.987573529,12943087790,73822.019110051,6452465416,4516,0.000011443677699946
1663891200000,2022-09-23 00:00:00,SHIB/USDD,0.000010891,0.000011409,0.000010429,0.000011069,122470.141458012,11278700883,60860.51241358,5602325498,3856,0.000010860938528308
1663804800000,2022-09-22 00:00:00,SHIB/USDD,0.000010408,0.000010981,0.000010334,0.00001087,154248.076233301,14404741561,77861.203119239,7270819312,4369,0.000010710423749938
1663718400000,2022-09-21 00:00:00,SHIB/USDD,0.000010528,0.000011969,0.00000857,0.000010405,100536.009289713,9499989162,51167.904045341,4838103109,3179,0.000010584795130024
1663632000000,2022-09-20 00:00:00,SHIB/USDD,0.000011004,0.000011044,0.000010482,0.000010527,107648.154729866,10008064468,52669.513273339,4897298729,3185,0.000010757886227608
1663545600000,2022-09-19 00:00:00,SHIB/USDD,0.000010709,0.000011248,0.000010497,0.000010995,106144.099354009,9779947838,52163.260108655,4804276441,3299,0.000010855466609269
1663459200000,2022-09-18 00:00:00,SHIB/USDD,0.000011851,0.000011932,0.000008062,0.000010633,75998.411535545,6595221910,37058.620948448,3216430025,2707,0.000011537337111147
1663372800000,2022-09-17 00:00:00,SHIB/USDD,0.000011556,0.000011958,0.000011556,0.000011928,16496.71502849,1401967944,8349.399014148,709509379,493,0.000011767446111324
1663286400000,2022-09-16 00:00:00,SHIB/USDD,0.00001169,0.000011784,0.000011311,0.000011554,75557.503873251,6546359330,38887.255968384,3369835173,2234,0.000011543622969609
1663200000000,2022-09-15 00:00:00,SHIB/USDD,0.000012246,0.000012518,0.000011153,0.000011702,135526.218107234,11282043120,66021.104222741,5495734769,4006,0.00001201440417763
1663113600000,2022-09-14 00:00:00,SHIB/USDD,0.000012125,0.000012433,0.00001182,0.000012245,269857.343492713,22054817573,132099.023066578,10795900646,5241,0.00001223633717469
1663027200000,2022-09-13 00:00:00,SHIB/USDD,0.000012876,0.000013044,0.00001185,0.000012126,445898.339649918,35534922968,226381.451728929,18011133227,3784,0.000012556188982453
1662940800000,2022-09-12 00:00:00,SHIB/USDD,0.000013013,0.000013289,0.000012286,0.000012869,522464.856109334,40461566044,258082.828117598,19981933369,4044,0.00001291403184547
1662854400000,2022-09-11 00:00:00,SHIB/USDD,0.000013216,0.000013466,0.000012575,0.000013072,317759.119644398,24458307781,153500.226134931,11817583539,2560,0.000012993023335764
1662768000000,2022-09-10 00:00:00,SHIB/USDD,0.00001289,0.000013664,0.000012705,0.000013342,494195.849225768,37751833006,255484.366548774,19516563436,4488,0.000013092257485834
1662681600000,2022-09-09 00:00:00,SHIB/USDD,0.000012237,0.000013885,0.000012228,0.000012936,551300.779322858,43070769930,275452.775046236,21530186525,4597,0.00001280793725567
1662595200000,2022-09-08 00:00:00,SHIB/USDD,0.00001229,0.00001246,0.000011948,0.000012246,451423.615688139,36941950245,233150.39286395,19076378721,3924,0.000012220209516519
1662508800000,2022-09-07 00:00:00,SHIB/USDD,0.000012047,0.000012501,0.000011768,0.000012289,497859.818715525,40979182372,244550.030897712,20122908473,4267,0.000012150288885095
1662422400000,2022-09-06 00:00:00,SHIB/USDD,0.000012594,0.000012898,0.000011774,0.000012037,477409.389404481,38649623466,238623.837436674,19323724438,4166,0.000012360664622753
1662336000000,2022-09-05 00:00:00,SHIB/USDD,0.000012838,0.000012913,0.00001209,0.000012534,458937.076000875,36702087918,237573.898860392,19014518267,4104,0.000012507756872424
1662249600000,2022-09-04 00:00:00,SHIB/USDD,0.000012342,0.000013342,0.00001224,0.000012808,363711.335621977,28686471961,177494.981852829,14000405638,3032,0.000012682651123949
1662163200000,2022-09-03 00:00:00,SHIB/USDD,0.000012194,0.00001245,0.000011964,0.000012331,636184.158109808,52009170448,326650.580115016,26704271219,5848,0.000012232394464025
1662076800000,2022-09-02 00:00:00,SHIB/USDD,0.000012292,0.000012515,0.000012036,0.000012137,663173.782927629,54167430896,332341.611831001,27143678264,5843,0.000012243660981019
1661990400000,2022-09-01 00:00:00,SHIB/USDD,0.00001213,0.000012527,0.000011934,0.000012291,408308.602121794,33661373781,202830.81888324,16719895920,3699,0.000012130753387227
1661904000000,2022-08-31 00:00:00,SHIB/USDD,0.000012233,0.000012539,0.000011987,0.000012148,589173.41728937,47940755574,302902.065198093,24642490559,4985,0.000012290926363818
1661817600000,2022-08-30 00:00:00,SHIB/USDD,0.000012444,0.000012861,0.000011917,0.000012146,465940.966205743,37522306753,235465.941005247,18962447344,3980,0.000012422287703003
1661731200000,2022-08-29 00:00:00,SHIB/USDD,0.000011883,0.000012612,0.000011717,0.000012503,520243.158689641,43060894759,255126.27819369,21119808732,4480,0.000012085165365938
1661644800000,2022-08-28 00:00:00,SHIB/USDD,0.000012182,0.000012465,0.000011011,0.000011832,487203.845081058,39657442530,244739.230732633,19917663039,4215,0.000012286143339676
1661558400000,2022-08-27 00:00:00,SHIB/USDD,0.000012401,0.00001267,0.000011925,0.000012181,490766.490941874,40122617051,239178.401573882,19557657570,4185,0.000012233940180452
1661472000000,2022-08-26 00:00:00,SHIB/USDD,0.000013907,0.000013994,0.000011976,0.000012391,708674.392409169,53123477527,356509.577386731,26736622938,6271,0.000013350818391163
1661385600000,2022-08-25 00:00:00,SHIB/USDD,0.00001319,0.000015695,0.00001263,0.000013876,253853.743640101,18291051737,124978.296317586,9008069436,2641,0.000013881946181007
1661299200000,2022-08-24 00:00:00,SHIB/USDD,0.000013421,0.000013539,0.000012962,0.00001315,8515.823244659,646598200,4827.009894496,366593869,1292,0.000013170687581109
1661212800000,2022-08-23 00:00:00,SHIB/USDD,0.000013163,0.000013468,0.000012585,0.000013267,19754.531561596,1501589664,9966.846455517,757921773,3319,0.000013156581003154
1661126400000,2022-08-22 00:00:00,SHIB/USDD,0.000013461,0.000013574,0.000012611,0.000013164,18416.162349789,1407117210,9111.320196651,696950646,3261,0.000013091176560578
1661040000000,2022-08-21 00:00:00,SHIB/USDD,0.000012865,0.000013776,0.000012725,0.000013541,287877.879390486,22108409007,140505.270546065,10790140651,4290,0.00001302241866857
1660953600000,2022-08-20 00:00:00,SHIB/USDD,0.000013134,0.000014502,0.000011939,0.000012865,388492.673028152,29400656491,195806.809259519,14822272669,3423,0.000013220776398415
1660867200000,2022-08-19 00:00:00,SHIB/USDD,0.00001331,0.000014388,0.000012144,0.000013216,324397.720392372,24548550292,159511.984943078,12070907437,3048,0.000013218768457085
1660780800000,2022-08-18 00:00:00,SHIB/USDD,0.000014767,0.000015043,0.000013277,0.000013597,236202.17443544,16392527335,115625.072983771,8020591929,1999,0.000014413931691766
1660694400000,2022-08-17 00:00:00,SHIB/USDD,0.000015701,0.00001667,0.000014547,0.000014765,152052.52006736,9730090328,72834.150319618,4663627809,1663,0.000015639044815533
1660608000000,2022-08-16 00:00:00,SHIB/USDD,0.000015501,0.00001664,0.000015231,0.0000157,66629.95541887,4187454017,33685.700781993,2116426318,866,0.000015913918016441
1660521600000,2022-08-15 00:00:00,SHIB/USDD,0.000016885,0.000017615,0.000015231,0.000015356,121658.325028251,7387528074,60326.553343937,3668281690,1625,0.000016486110238391
1660435200000,2022-08-14 00:00:00,SHIB/USDD,0.00001265,0.00002005,0.000012081,0.000016986,550079.250475934,35586997629,265747.77040468,17141344941,6514,0.000015571936780568
1660348800000,2022-08-13 00:00:00,SHIB/USDD,0.000012726,0.000013118,0.000011862,0.000012701,275368.352454683,21757824897,133844.227869575,10585319492,3194,0.000012656882364137
1660262400000,2022-08-12 00:00:00,SHIB/USDD,0.000012319,0.000015125,0.000011701,0.000012493,174730.757592788,14152359040,79677.793093621,6464866188,1707,0.000012347907622867
1660176000000,2022-08-11 00:00:00,SHIB/USDD,0.000012391,0.00001438,0.000011818,0.000012498,298697.223954195,24049518349,137732.87187097,11102490696,3104,0.000012421003955313
1660089600000,2022-08-10 00:00:00,SHIB/USDD,0.00001206,0.00003907,0.00001158,0.000012346,506299.798620476,41991131494,247005.029934865,20482518768,4092,0.000012060209702021
1660003200000,2022-08-09 00:00:00,SHIB/USDD,0.00001231,0.00001277,0.00001162,0.00001206,625558.72236989,51628676758,309016.9170362,25494434829,6395,0.000012118981358557
1659916800000,2022-08-08 00:00:00,SHIB/USDD,0.00001201,0.00001276,0.00001106,0.00001226,545981.64050008,44025023588,273669.22316029,22071283841,6424,0.000012403418121665
1659830400000,2022-08-07 00:00:00,SHIB/USDD,0.00001196,0.00001224,0.00001121,0.00001206,241015.70647887,20049649798,126057.08242257,10488129054,2592,0.000012021551398964
1659744000000,2022-08-06 00:00:00,SHIB/USDD,0.00001217,0.00001224,0.0000119,0.00001196,37176.76869794,3080654415,16744.30356887,1387451180,489,0.000012068247755876
1659657600000,2022-08-05 00:00:00,SHIB/USDD,0.00001186,0.00001229,0.00001003,0.00001214,191417.79194262,15949609873,98999.20282484,8255939306,1865,0.000012005078138948
1659571200000,2022-08-04 00:00:00,SHIB/USDD,0.00001191,0.00001196,0.000011,0.00001188,78453.85322216,6669646813,39763.48563341,3382305230,1078,0.000011763778830186
1659484800000,2022-08-03 00:00:00,SHIB/USDD,0.00001171,0.00001203,0.00001035,0.00001183,10120.00218867,869597135,5701.45007301,489251713,193,0.000011653151985661
1659398400000,2022-08-02 00:00:00,SHIB/USDD,0.00001191,0.00001191,0.00001103,0.00001177,1613.60769625,136357124,712.9900642,60112535,38,0.000011835208764168
1659312000000,2022-08-01 00:00:00,SHIB/USDD,0.00001205,0.00001205,0.00001205,0.00001205,0,0,0,0,0,0.000012049999999999
1659225600000,2022-07-31 00:00:00,SHIB/USDD,0.00001191,0.00001205,0.00001191,0.00001205,1607.47264659,134467817.57027582,0,0,0,0.00001195
1659139200000,2022-07-30 00:00:00,SHIB/USDD,0.00001184,0.00001234,0.00001155,0.0000119,416.63971018,34834960.94130636,0,0,0,0.00001196
1659052800000,2022-07-29 00:00:00,SHIB/USDD,0.00001186,0.0000127,0.00001102,0.00001111,73543.81360206,6163210069.38809626,0,0,0,0.00001193
1658966400000,2022-07-28 00:00:00,SHIB/USDD,0.0000114,0.00001219,0.0000108,0.00001185,218762.01476186,18941077852.07010504,0,0,0,0.00001154
1658880000000,2022-07-27 00:00:00,SHIB/USDD,0.00001052,0.00001146,0.00001042,0.00001146,3274.54373348,305969559.21702665,0,0,0,0.0000107
1658793600000,2022-07-26 00:00:00,SHIB/USDD,0.00001072,0.00001084,0.0000102,0.00001068,205850.68943093,19704357339.57472909,0,0,0,0.00001044
1658707200000,2022-07-25 00:00:00,SHIB/USDD,0.00001165,0.0000117,0.00001055,0.00001072,185551.047181,16558046100.92807165,0,0,0,0.0000112
1658620800000,2022-07-24 00:00:00,SHIB/USDD,0.00001154,0.00001192,0.00001143,0.00001163,152140.64255636,13012400352.93451699,0,0,0,0.00001169
1658534400000,2022-07-23 00:00:00,SHIB/USDD,0.00001169,0.00001214,0.00001131,0.00001153,129682.49406217,11191315823.31069151,0,0,0,0.00001158
1658448000000,2022-07-22 00:00:00,SHIB/USDD,0.00001203,0.00001249,0.00001149,0.00001168,176667.80828835,14761093089.6771935,0,0,0,0.00001196
1658361600000,2022-07-21 00:00:00,SHIB/USDD,0.00001191,0.00001225,0.00001101,0.00001202,228527.54502317,19196518763.11977281,0,0,0,0.0000119
1658275200000,2022-07-20 00:00:00,SHIB/USDD,0.00001221,0.00001315,0.00001118,0.00001197,256728.20317162,20495229834.23306499,0,0,0,0.00001252
1658188800000,2022-07-19 00:00:00,SHIB/USDD,0.00001204,0.00001251,0.00001134,0.00001222,245691.07902883,20626692039.92907798,0,0,0,0.00001191
1658102400000,2022-07-18 00:00:00,SHIB/USDD,0.00001076,0.00001249,0.0000107,0.00001203,236995.53881999,20904357197.58251045,0,0,0,0.00001133
1658016000000,2022-07-17 00:00:00,SHIB/USDD,0.00001106,0.00001123,0.00001005,0.00001077,162018.34624143,14830451603.23354946,0,0,0,0.00001092
1657929600000,2022-07-16 00:00:00,SHIB/USDD,0.00001079,0.00001124,0.00001002,0.00001107,156036.34993218,14397454541.96585576,0,0,0,0.00001083
1657843200000,2022-07-15 00:00:00,SHIB/USDD,0.00001067,0.0000112,0.00001036,0.00001086,142769.91866967,13149068553.26745096,0,0,0,0.00001085
1657756800000,2022-07-14 00:00:00,SHIB/USDD,0.0000105,0.00001075,0.00000977,0.00001065,189266.65645674,18119089091.95703628,0,0,0,0.00001044
1657670400000,2022-07-13 00:00:00,SHIB/USDD,0.00000987,0.00001058,0.00000953,0.00001049,185401.85428117,18144754670.74544183,0,0,0,0.00001021
1657584000000,2022-07-12 00:00:00,SHIB/USDD,0.00001035,0.00001056,0.00000972,0.00000986,181392.06600257,17659494574.20981388,0,0,0,0.00001027
1657497600000,2022-07-11 00:00:00,SHIB/USDD,0.00001125,0.00001125,0.00000989,0.00001036,199155.61756171,18361001870.07809776,0,0,0,0.00001084
1657411200000,2022-07-10 00:00:00,SHIB/USDD,0.00001167,0.00001175,0.00001094,0.00001124,250853.51015213,22206220235.52489456,0,0,0,0.00001129
1657324800000,2022-07-09 00:00:00,SHIB/USDD,0.00001123,0.0000119,0.00001099,0.00001166,236984.02106293,20625756975.08728793,0,0,0,0.00001148
1657238400000,2022-07-08 00:00:00,SHIB/USDD,0.00001135,0.00001159,0.00001083,0.00001124,221379.2305272,19599319202.25730857,0,0,0,0.00001129
1657152000000,2022-07-07 00:00:00,SHIB/USDD,0.0000105,0.00001154,0.0000105,0.00001135,194295.0806277,17788410230.29053281,0,0,0,0.00001092
1657065600000,2022-07-06 00:00:00,SHIB/USDD,0.00001043,0.00001063,0.00001017,0.00001051,231763.08940287,22169589549.26076663,0,0,0,0.00001045
1656979200000,2022-07-05 00:00:00,SHIB/USDD,0.00001059,0.00001101,0.00001009,0.00001042,239831.19970779,22957492873.96367173,0,0,0,0.00001044
1656892800000,2022-07-04 00:00:00,SHIB/USDD,0.0000102,0.00001063,0.00001004,0.00001058,214079.54551077,20835396840.72743533,0,0,0,0.00001027
1656806400000,2022-07-03 00:00:00,SHIB/USDD,0.00001008,0.00001028,0.00000954,0.00001019,155606.55501464,15491164420.46269554,0,0,0,0.00001004
1656720000000,2022-07-02 00:00:00,SHIB/USDD,0.00001009,0.00001031,0.00000956,0.00001009,145579.23938937,14381929111.03417073,0,0,0,0.00001012
1656633600000,2022-07-01 00:00:00,SHIB/USDD,0.00001042,0.0000106,0.00000959,0.00001008,239905.29305319,23606277055.02234203,0,0,0,0.00001016
1656547200000,2022-06-30 00:00:00,SHIB/USDD,0.00001031,0.00001054,0.00000943,0.00001041,250535.42202953,24855415850.60843685,0,0,0,0.00001007
1656460800000,2022-06-29 00:00:00,SHIB/USDD,0.00001011,0.00001075,0.0000095,0.0000103,243280.52541246,24166681534.83178117,0,0,0,0.00001006
1656374400000,2022-06-28 00:00:00,SHIB/USDD,0.00001122,0.00001134,0.00001,0.00001009,207664.57516131,19402316533.74683835,0,0,0,0.0000107
1656288000000,2022-06-27 00:00:00,SHIB/USDD,0.00001118,0.00001201,0.00001055,0.00001121,175396.92591172,15424337651.76717034,0,0,0,0.00001137
1656201600000,2022-06-26 00:00:00,SHIB/USDD,0.00001211,0.00001237,0.00001085,0.00001117,160617.60232994,13509844235.51947677,0,0,0,0.00001188
1656115200000,2022-06-25 00:00:00,SHIB/USDD,0.00001115,0.00001214,0.00001091,0.0000121,151720.54465793,13072694639.06474033,0,0,0,0.0000116
1656028800000,2022-06-24 00:00:00,SHIB/USDD,0.00001052,0.00001153,0.00001024,0.00001114,150135.85863345,13850908017.42812881,0,0,0,0.00001083
1655942400000,2022-06-23 00:00:00,SHIB/USDD,0.00000988,0.00001184,0.0000097,0.00001053,157223.65846418,15230547743.52387805,0,0,0,0.00001032
1655856000000,2022-06-22 00:00:00,SHIB/USDD,0.00001088,0.00001108,0.00000946,0.00000989,163609.00408224,16076670504.94030455,0,0,0,0.00001017
1655769600000,2022-06-21 00:00:00,SHIB/USDD,0.00000851,0.00001215,0.00000835,0.00001078,180305.37822668,18498738693.32860501,0,0,0,0.00000974
1655683200000,2022-06-20 00:00:00,SHIB/USDD,0.00000858,0.00000874,0.00000827,0.00000852,154065.5123098,18153824196.39066444,0,0,0,0.00000848
1655596800000,2022-06-19 00:00:00,SHIB/USDD,0.00000799,0.00000885,0.0000077,0.00000859,181120.08934779,21693447804.35959427,0,0,0,0.00000834
1655510400000,2022-06-18 00:00:00,SHIB/USDD,0.00000834,0.00000853,0.0000074,0.00000798,219017.4878926,27220825971.91314331,0,0,0,0.00000804
1655424000000,2022-06-17 00:00:00,SHIB/USDD,0.00000818,0.00000877,0.0000081,0.00000835,153438.03909785,18351505576.01129267,0,0,0,0.00000836
1655337600000,2022-06-16 00:00:00,SHIB/USDD,0.00000902,0.00000917,0.00000809,0.00000817,189236.36206214,22346780240.54126879,0,0,0,0.00000846
1655251200000,2022-06-15 00:00:00,SHIB/USDD,0.00000838,0.00000907,0.00000781,0.00000901,255253.98468594,30863202901.80880091,0,0,0,0.00000827
1655164800000,2022-06-14 00:00:00,SHIB/USDD,0.0000081,0.0000087,0.00000761,0.00000839,251381.64838238,30385840648.08808837,0,0,0,0.00000827
1655078400000,2022-06-13 00:00:00,SHIB/USDD,0.00000861,0.00000878,0.00000747,0.00000811,247109.73141701,30494353654.40584365,0,0,0,0.0000081
1654992000000,2022-06-12 00:00:00,SHIB/USDD,0.00000932,0.0000095,0.00000838,0.0000086,253294.12306189,28462850932.36726336,0,0,0,0.00000889
1654905600000,2022-06-11 00:00:00,SHIB/USDD,0.00001016,0.00001034,0.00000909,0.00000933,196451.5678899,20370308813.81419207,0,0,0,0.00000964
1654819200000,2022-06-10 00:00:00,SHIB/USDD,0.00001053,0.00001069,0.00001,0.00001015,250897.79757612,24241731579.63603639,0,0,0,0.00001034
1654732800000,2022-06-09 00:00:00,SHIB/USDD,0.0000106,0.00001079,0.00001044,0.00001053,183275.36025346,17279376086.76761809,0,0,0,0.0000106
1654646400000,2022-06-08 00:00:00,SHIB/USDD,0.00001074,0.00001097,0.00001052,0.00001068,234827.00663,21956740455.71231846,0,0,0,0.00001069
1654560000000,2022-06-07 00:00:00,SHIB/USDD,0.00001104,0.00001118,0.00001024,0.00001077,256740.15993174,24063252598.07900083,0,0,0,0.00001066
1654473600000,2022-06-06 00:00:00,SHIB/USDD,0.00001081,0.00001139,0.00001075,0.00001103,252149.96331586,22756854931.19611072,0,0,0,0.00001108
1654387200000,2022-06-05 00:00:00,SHIB/USDD,0.00001088,0.00001102,0.00001067,0.0000108,143922.1072151,13279686509.09099261,0,0,0,0.00001083
1654300800000,2022-06-04 00:00:00,SHIB/USDD,0.00001082,0.00001095,0.00001049,0.00001087,154580.31999313,14299203370.69332451,0,0,0,0.00001081
1654214400000,2022-06-03 00:00:00,SHIB/USDD,0.00001118,0.00001125,0.00001052,0.00001081,178743.1588911,16535459229.59040652,0,0,0,0.0000108
1654128000000,2022-06-02 00:00:00,SHIB/USDD,0.00001091,0.00001133,0.00001071,0.00001119,180154.44425275,16314148081.91470524,0,0,0,0.00001104
1654041600000,2022-06-01 00:00:00,SHIB/USDD,0.00001176,0.00001192,0.00001055,0.0000109,189857.14379534,16788015683.78873161,0,0,0,0.0000113
1653955200000,2022-05-31 00:00:00,SHIB/USDD,0.00001214,0.0000123,0.00001151,0.00001177,164851.70769575,13948832351.61636069,0,0,0,0.00001181
1653868800000,2022-05-30 00:00:00,SHIB/USDD,0.00001152,0.00001246,0.00001131,0.00001215,246706.61245301,20813185925.74557074,0,0,0,0.00001185
1653782400000,2022-05-29 00:00:00,SHIB/USDD,0.00001071,0.00001182,0.00001054,0.00001153,157361.72075736,14288984057.50511144,0,0,0,0.00001101
1653696000000,2022-05-28 00:00:00,SHIB/USDD,0.00001049,0.00001086,0.00001041,0.0000107,112796.14118518,10584177684.30727427,0,0,0,0.00001065
1653609600000,2022-05-27 00:00:00,SHIB/USDD,0.00001053,0.00001083,0.00001015,0.00001038,89694.58081312,8581650993.37836972,0,0,0,0.00001045
1653523200000,2022-05-26 00:00:00,SHIB/USDD,0.00001153,0.00001171,0.00001032,0.0000107,97014.36307342,8698399423.75776366,0,0,0,0.00001115
1653436800000,2022-05-25 00:00:00,SHIB/USDD,0.00001173,0.00001191,0.00001147,0.00001163,78954.99896838,6787564632.53760108,0,0,0,0.00001163
1653350400000,2022-05-24 00:00:00,SHIB/USDD,0.00001164,0.00001198,0.00001125,0.00001174,108280.67041919,9260185014.80520097,0,0,0,0.00001169
1653264000000,2022-05-23 00:00:00,SHIB/USDD,0.0000119,0.00001283,0.00001152,0.00001163,96771.76799988,7996076381.07565847,0,0,0,0.0000121
1653177600000,2022-05-22 00:00:00,SHIB/USDD,0.00001172,0.00001203,0.00001163,0.00001194,47012.58207762,3974571882.45978584,0,0,0,0.00001182
1653091200000,2022-05-21 00:00:00,SHIB/USDD,0.0000116,0.00001199,0.00001138,0.00001173,59002.39306308,5068324117.21749413,0,0,0,0.00001164
1653004800000,2022-05-20 00:00:00,SHIB/USDD,0.00001176,0.000012,0.00001128,0.00001161,67525.76912274,5787284110.26693877,0,0,0,0.00001166
1652918400000,2022-05-19 00:00:00,SHIB/USDD,0.00001151,0.00001211,0.00001132,0.00001185,71581.4966245,6121931990.07689594,0,0,0,0.00001169
