https://www.CryptoDataDownload.com
unix,date,symbol,open,high,low,close,Volume BTCST,Volume USDT,buyTakerAmount,buyTakerQuantity,tradeCount,weightedAverage
1688860800000,2023-07-09 00:00:00,BTCST/USDT,11.973,11.973,11.973,11.973,0,0,0,0,0,11.094
1688774400000,2023-07-08 00:00:00,BTCST/USDT,11.973,11.973,11.973,11.973,0,0,0,0,0,11.094
1688688000000,2023-07-07 00:00:00,BTCST/USDT,11.973,11.973,11.973,11.973,0,0,0,0,0,11.094
1688601600000,2023-07-06 00:00:00,BTCST/USDT,10.981,11.973,10.98,11.973,42.465,3.83026,5.485,0.46227,4,11.094
1688515200000,2023-07-05 00:00:00,BTCST/USDT,10.981,10.981,10.981,10.981,2.035,0.18533,0,0,2,10.981
1688428800000,2023-07-04 00:00:00,BTCST/USDT,10.98,10.98,10.98,10.98,5.324,0.48497,0,0,2,10.98
1688342400000,2023-07-03 00:00:00,BTCST/USDT,10.98,12.869,10.98,12.869,19.975,1.56714,18.877,1.46714,4,12.762
1688256000000,2023-07-02 00:00:00,BTCST/USDT,10.504,10.504,10.504,10.504,0,0,0,0,0,10.504
1688169600000,2023-07-01 00:00:00,BTCST/USDT,10.504,10.504,10.504,10.504,0,0,0,0,0,10.504
1688083200000,2023-06-30 00:00:00,BTCST/USDT,10.504,10.504,10.504,10.504,0,0,0,0,0,10.504
1687996800000,2023-06-29 00:00:00,BTCST/USDT,10.504,10.504,10.504,10.504,0,0,0,0,0,10.504
1687910400000,2023-06-28 00:00:00,BTCST/USDT,10.504,10.504,10.504,10.504,0,0,0,0,0,10.504
1687824000000,2023-06-27 00:00:00,BTCST/USDT,10.504,10.504,10.504,10.504,0,0,0,0,0,10.504
1687737600000,2023-06-26 00:00:00,BTCST/USDT,10.504,10.504,10.504,10.504,0,0,0,0,0,10.504
1687651200000,2023-06-25 00:00:00,BTCST/USDT,10.504,10.504,10.504,10.504,0,0,0,0,0,10.504
1687564800000,2023-06-24 00:00:00,BTCST/USDT,10.504,10.504,10.504,10.504,0,0,0,0,0,10.504
1687478400000,2023-06-23 00:00:00,BTCST/USDT,10.504,10.504,10.504,10.504,0.825,0.07863,0,0,1,10.504
1687392000000,2023-06-22 00:00:00,BTCST/USDT,10.505,10.505,10.505,10.505,0,0,0,0,0,10.505
1687305600000,2023-06-21 00:00:00,BTCST/USDT,10.505,10.505,10.505,10.505,10.489,0.99855,0,0,1,10.505
1687219200000,2023-06-20 00:00:00,BTCST/USDT,12.869,12.869,12.869,12.869,0,0,0,0,0,12.869
1687132800000,2023-06-19 00:00:00,BTCST/USDT,12.869,12.869,12.869,12.869,0,0,0,0,0,12.869
1687046400000,2023-06-18 00:00:00,BTCST/USDT,12.869,12.869,12.869,12.869,0.506,0.03937,0,0,1,12.869
1686960000000,2023-06-17 00:00:00,BTCST/USDT,14.998,14.998,14.998,14.998,0,0,0,0,0,14.998
1686873600000,2023-06-16 00:00:00,BTCST/USDT,14.998,14.998,14.998,14.998,0,0,0,0,0,14.998
1686787200000,2023-06-15 00:00:00,BTCST/USDT,14.998,14.998,14.998,14.998,0,0,0,0,0,14.998
1686700800000,2023-06-14 00:00:00,BTCST/USDT,14.998,14.998,14.998,14.998,0,0,0,0,0,14.998
1686614400000,2023-06-13 00:00:00,BTCST/USDT,14.998,14.998,14.998,14.998,0,0,0,0,0,14.998
1686528000000,2023-06-12 00:00:00,BTCST/USDT,14.998,14.998,14.998,14.998,0,0,0,0,0,14.998
1686441600000,2023-06-11 00:00:00,BTCST/USDT,14.998,14.998,14.998,14.998,0,0,0,0,0,14.998
1686355200000,2023-06-10 00:00:00,BTCST/USDT,14.998,14.998,14.998,14.998,0.999,0.06667,0.999,0.06667,1,14.998
1686268800000,2023-06-09 00:00:00,BTCST/USDT,12.869,12.869,12.869,12.869,0,0,0,0,0,11.68
1686182400000,2023-06-08 00:00:00,BTCST/USDT,12.869,12.869,12.869,12.869,0,0,0,0,0,11.68
1686096000000,2023-06-07 00:00:00,BTCST/USDT,11.607,12.869,11.607,12.869,13.786,1.18093,13.786,1.18093,3,11.68
1686009600000,2023-06-06 00:00:00,BTCST/USDT,11.607,11.607,11.607,11.607,3.992,0.344,0,0,1,11.607
1685923200000,2023-06-05 00:00:00,BTCST/USDT,11.604,11.604,11.604,11.604,0,0,0,0,0,11.431
1685836800000,2023-06-04 00:00:00,BTCST/USDT,11.604,11.604,11.604,11.604,0,0,0,0,0,11.431
1685750400000,2023-06-03 00:00:00,BTCST/USDT,11.604,11.604,11.604,11.604,0,0,0,0,0,11.431
1685664000000,2023-06-02 00:00:00,BTCST/USDT,11.604,11.604,11.604,11.604,0,0,0,0,0,11.431
1685577600000,2023-06-01 00:00:00,BTCST/USDT,11.604,11.604,11.604,11.604,0,0,0,0,0,11.431
1685491200000,2023-05-31 00:00:00,BTCST/USDT,11.604,11.604,11.604,11.604,0,0,0,0,0,11.431
1685404800000,2023-05-30 00:00:00,BTCST/USDT,11.604,11.604,11.604,11.604,0,0,0,0,0,11.431
1685318400000,2023-05-29 00:00:00,BTCST/USDT,11.604,11.604,11.604,11.604,0,0,0,0,0,11.431
1685232000000,2023-05-28 00:00:00,BTCST/USDT,11.604,11.604,11.604,11.604,0,0,0,0,0,11.431
1685145600000,2023-05-27 00:00:00,BTCST/USDT,11.604,11.604,11.604,11.604,0,0,0,0,0,11.431
1685059200000,2023-05-26 00:00:00,BTCST/USDT,11.054,11.604,11.054,11.604,4.507,0.39454,4.507,0.39454,2,11.431
1684972800000,2023-05-25 00:00:00,BTCST/USDT,10.301,10.301,10.301,10.301,4.237,0.41132,0,0,1,10.301
1684886400000,2023-05-24 00:00:00,BTCST/USDT,10.3,10.3,10.3,10.3,0,0,0,0,0,10.3
1684800000000,2023-05-23 00:00:00,BTCST/USDT,10.3,10.3,10.3,10.3,0,0,0,0,0,10.3
1684713600000,2023-05-22 00:00:00,BTCST/USDT,10.3,10.3,10.3,10.3,0,0,0,0,0,10.3
1684627200000,2023-05-21 00:00:00,BTCST/USDT,10.3,10.3,10.3,10.3,0,0,0,0,0,10.3
1684540800000,2023-05-20 00:00:00,BTCST/USDT,10.3,10.3,10.3,10.3,0,0,0,0,0,10.3
1684454400000,2023-05-19 00:00:00,BTCST/USDT,10.3,10.3,10.3,10.3,0,0,0,0,0,10.3
1684368000000,2023-05-18 00:00:00,BTCST/USDT,10.3,10.3,10.3,10.3,0,0,0,0,0,10.3
1684281600000,2023-05-17 00:00:00,BTCST/USDT,10.3,10.3,10.3,10.3,0,0,0,0,0,10.3
1684195200000,2023-05-16 00:00:00,BTCST/USDT,10.3,10.3,10.3,10.3,0,0,0,0,0,10.3
1684108800000,2023-05-15 00:00:00,BTCST/USDT,10.3,10.3,10.3,10.3,0,0,0,0,0,10.3
1684022400000,2023-05-14 00:00:00,BTCST/USDT,10.3,10.3,10.3,10.3,0,0,0,0,0,10.3
1683936000000,2023-05-13 00:00:00,BTCST/USDT,10.3,10.3,10.3,10.3,0.885,0.08599,0,0,1,10.3
1683849600000,2023-05-12 00:00:00,BTCST/USDT,11.604,11.604,11.604,11.604,0.999,0.08617,0.999,0.08617,1,11.604
1683763200000,2023-05-11 00:00:00,BTCST/USDT,11.604,11.604,11.604,11.604,0,0,0,0,0,11.603
1683676800000,2023-05-10 00:00:00,BTCST/USDT,11.604,11.604,11.604,11.604,0,0,0,0,0,11.603
1683590400000,2023-05-09 00:00:00,BTCST/USDT,11.604,11.604,11.604,11.604,0,0,0,0,0,11.603
1683504000000,2023-05-08 00:00:00,BTCST/USDT,11.604,11.604,11.604,11.604,0,0,0,0,0,11.603
1683417600000,2023-05-07 00:00:00,BTCST/USDT,11.604,11.604,11.604,11.604,0,0,0,0,0,11.603
1683331200000,2023-05-06 00:00:00,BTCST/USDT,11.604,11.604,11.604,11.604,0,0,0,0,0,11.603
1683244800000,2023-05-05 00:00:00,BTCST/USDT,11.604,11.604,11.604,11.604,0,0,0,0,0,11.603
1683158400000,2023-05-04 00:00:00,BTCST/USDT,11.604,11.604,11.604,11.604,0,0,0,0,0,11.603
1683072000000,2023-05-03 00:00:00,BTCST/USDT,11.604,11.604,11.604,11.604,0,0,0,0,0,11.603
1682985600000,2023-05-02 00:00:00,BTCST/USDT,11.603,11.604,11.603,11.604,8.274,0.71309,8.274,0.71309,2,11.603
1682899200000,2023-05-01 00:00:00,BTCST/USDT,10.742,10.742,10.001,10.001,25.251,2.42902,0,0,4,10.407
1682812800000,2023-04-30 00:00:00,BTCST/USDT,12.137,12.137,12.137,12.137,0,0,0,0,0,12.112
1682726400000,2023-04-29 00:00:00,BTCST/USDT,12.137,12.137,12.137,12.137,0,0,0,0,0,12.112
1682640000000,2023-04-28 00:00:00,BTCST/USDT,12.137,12.137,12.137,12.137,0,0,0,0,0,12.112
1682553600000,2023-04-27 00:00:00,BTCST/USDT,12.137,12.137,12.137,12.137,0,0,0,0,0,12.112
1682467200000,2023-04-26 00:00:00,BTCST/USDT,12.137,12.137,12.137,12.137,0,0,0,0,0,12.112
1682380800000,2023-04-25 00:00:00,BTCST/USDT,12.137,12.137,12.137,12.137,0,0,0,0,0,12.112
1682294400000,2023-04-24 00:00:00,BTCST/USDT,12.137,12.137,12.137,12.137,0,0,0,0,0,12.112
1682208000000,2023-04-23 00:00:00,BTCST/USDT,12.137,12.137,12.137,12.137,0,0,0,0,0,12.112
1682121600000,2023-04-22 00:00:00,BTCST/USDT,12.137,12.137,12.137,12.137,0,0,0,0,0,12.112
1682035200000,2023-04-21 00:00:00,BTCST/USDT,12.137,12.137,12.137,12.137,0,0,0,0,0,12.112
1681948800000,2023-04-20 00:00:00,BTCST/USDT,12.137,12.137,12.137,12.137,0,0,0,0,0,12.112
1681862400000,2023-04-19 00:00:00,BTCST/USDT,12.137,12.137,12.137,12.137,0,0,0,0,0,12.112
1681776000000,2023-04-18 00:00:00,BTCST/USDT,12.137,12.137,12.137,12.137,0,0,0,0,0,12.112
1681689600000,2023-04-17 00:00:00,BTCST/USDT,12.137,12.137,12.137,12.137,0,0,0,0,0,12.112
1681603200000,2023-04-16 00:00:00,BTCST/USDT,12.137,12.137,12.137,12.137,0,0,0,0,0,12.112
1681516800000,2023-04-15 00:00:00,BTCST/USDT,12.137,12.137,12.137,12.137,0,0,0,0,0,12.112
1681430400000,2023-04-14 00:00:00,BTCST/USDT,12.137,12.137,12.137,12.137,0,0,0,0,0,12.112
1681344000000,2023-04-13 00:00:00,BTCST/USDT,12.137,12.137,12.137,12.137,0,0,0,0,0,12.112
1681257600000,2023-04-12 00:00:00,BTCST/USDT,12.137,12.137,12.137,12.137,0,0,0,0,0,12.112
1681171200000,2023-04-11 00:00:00,BTCST/USDT,12.137,12.137,12.137,12.137,0,0,0,0,0,12.112
1681084800000,2023-04-10 00:00:00,BTCST/USDT,11.612,12.137,11.612,12.137,255.337,21.08061,255.337,21.08061,3,12.112
1680998400000,2023-04-09 00:00:00,BTCST/USDT,10.749,10.749,10.749,10.749,0,0,0,0,0,11.855
1680912000000,2023-04-08 00:00:00,BTCST/USDT,11.853,12.146,10.749,10.749,12.379,1.04542,11.186,0.93437,5,11.855
1680825600000,2023-04-07 00:00:00,BTCST/USDT,11.863,11.863,10.001,10.001,2.527,0.23116,1.372,0.1157,2,11.012
1680739200000,2023-04-06 00:00:00,BTCST/USDT,10.001,10.001,10.001,10.001,0,0,0,0,0,10.001
1680652800000,2023-04-05 00:00:00,BTCST/USDT,10.001,10.001,10.001,10.001,0,0,0,0,0,10.001
1680566400000,2023-04-04 00:00:00,BTCST/USDT,10.001,10.001,10.001,10.001,0,0,0,0,0,10.001
1680480000000,2023-04-03 00:00:00,BTCST/USDT,10.001,10.001,10.001,10.001,0,0,0,0,0,10.001
1680393600000,2023-04-02 00:00:00,BTCST/USDT,10.001,10.001,10.001,10.001,0,0,0,0,0,10.001
1680307200000,2023-04-01 00:00:00,BTCST/USDT,10.001,10.001,10.001,10.001,3.475,0.34751,0,0,1,10.001
1680220800000,2023-03-31 00:00:00,BTCST/USDT,10.001,10.001,10.001,10.001,0,0,0,0,0,10.001
1680134400000,2023-03-30 00:00:00,BTCST/USDT,10.001,10.001,10.001,10.001,0,0,0,0,0,10.001
1680048000000,2023-03-29 00:00:00,BTCST/USDT,10.001,10.001,10.001,10.001,0,0,0,0,0,10.001
1679961600000,2023-03-28 00:00:00,BTCST/USDT,10.001,10.001,10.001,10.001,74.57,7.45631,0,0,1,10.001
1679875200000,2023-03-27 00:00:00,BTCST/USDT,13.271,13.271,13.271,13.271,0,0,0,0,0,13.271
1679788800000,2023-03-26 00:00:00,BTCST/USDT,13.271,13.271,13.271,13.271,0,0,0,0,0,13.271
1679702400000,2023-03-25 00:00:00,BTCST/USDT,13.271,13.271,13.271,13.271,0,0,0,0,0,13.271
1679616000000,2023-03-24 00:00:00,BTCST/USDT,13.271,13.271,13.271,13.271,0,0,0,0,0,13.271
1679529600000,2023-03-23 00:00:00,BTCST/USDT,13.272,13.272,13.271,13.271,6.914,0.521,0,0,2,13.271
1679443200000,2023-03-22 00:00:00,BTCST/USDT,14.996,14.996,14.996,14.996,0,0,0,0,0,14.996
1679356800000,2023-03-21 00:00:00,BTCST/USDT,14.996,14.996,14.996,14.996,0,0,0,0,0,14.996
1679270400000,2023-03-20 00:00:00,BTCST/USDT,14.996,14.996,14.996,14.996,0,0,0,0,0,14.996
1679184000000,2023-03-19 00:00:00,BTCST/USDT,14.996,14.996,14.996,14.996,0,0,0,0,0,14.996
1679097600000,2023-03-18 00:00:00,BTCST/USDT,14.996,14.996,14.996,14.996,0,0,0,0,0,14.996
1679011200000,2023-03-17 00:00:00,BTCST/USDT,14.996,14.996,14.996,14.996,0,0,0,0,0,14.996
1678924800000,2023-03-16 00:00:00,BTCST/USDT,14.996,14.996,14.996,14.996,0,0,0,0,0,14.996
1678838400000,2023-03-15 00:00:00,BTCST/USDT,14.996,14.996,14.996,14.996,7.804,0.52045,7.804,0.52045,1,14.996
1678752000000,2023-03-14 00:00:00,BTCST/USDT,9.011,9.011,9.011,9.011,0,0,0,0,0,9.011
1678665600000,2023-03-13 00:00:00,BTCST/USDT,9.011,9.011,9.011,9.011,0.158,0.01757,0,0,1,9.011
1678579200000,2023-03-12 00:00:00,BTCST/USDT,9.011,9.011,9.011,9.011,0,0,0,0,0,9.011
1678492800000,2023-03-11 00:00:00,BTCST/USDT,9.011,9.011,9.011,9.011,0.482,0.05351,0,0,1,9.011
1678406400000,2023-03-10 00:00:00,BTCST/USDT,15.998,15.998,9.01,11.456,139.335,14.52603,19.647,1.35199,7,9.903
1678320000000,2023-03-09 00:00:00,BTCST/USDT,10.001,29.999,10.001,15,285.536,18.92314,105.555,6.30982,37,16.101
1678233600000,2023-03-08 00:00:00,BTCST/USDT,10.001,10.001,10.001,10.001,15.572,1.55708,0,0,1,10.001
1678147200000,2023-03-07 00:00:00,BTCST/USDT,11.504,11.999,9.01,10.868,202.971,20.66532,23.952,2.09533,11,9.877
1678060800000,2023-03-06 00:00:00,BTCST/USDT,11.504,11.504,11.504,11.504,0,0,0,0,0,11.504
1677974400000,2023-03-05 00:00:00,BTCST/USDT,11.504,11.504,11.504,11.504,0.035,0.00307,0,0,1,11.504
1677888000000,2023-03-04 00:00:00,BTCST/USDT,11.506,11.506,11.506,11.506,0,0,0,0,0,11.506
1677801600000,2023-03-03 00:00:00,BTCST/USDT,11.506,11.506,11.506,11.506,0.001,0.00015,0,0,1,11.506
1677715200000,2023-03-02 00:00:00,BTCST/USDT,11.506,11.506,11.506,11.506,0.033,0.00292,0,0,1,11.506
1677628800000,2023-03-01 00:00:00,BTCST/USDT,11.504,11.504,11.504,11.504,0,0,0,0,0,12.354
1677542400000,2023-02-28 00:00:00,BTCST/USDT,11.504,11.504,11.504,11.504,0,0,0,0,0,12.354
1677456000000,2023-02-27 00:00:00,BTCST/USDT,12.998,12.999,11.504,11.504,20.88,1.69628,11.88,0.91395,4,12.354
1677369600000,2023-02-26 00:00:00,BTCST/USDT,10.922,11.999,9.002,11.999,217.205,20.63425,38.919,3.46826,17,10.575
1677283200000,2023-02-25 00:00:00,BTCST/USDT,12.219,12.219,12.219,12.219,0,0,0,0,0,11.508
1677196800000,2023-02-24 00:00:00,BTCST/USDT,12.219,12.219,12.219,12.219,0,0,0,0,0,11.508
1677110400000,2023-02-23 00:00:00,BTCST/USDT,12.219,12.219,12.219,12.219,0,0,0,0,0,11.508
1677024000000,2023-02-22 00:00:00,BTCST/USDT,12.219,12.219,12.219,12.219,0,0,0,0,0,11.508
1676937600000,2023-02-21 00:00:00,BTCST/USDT,12.219,12.219,12.219,12.219,0,0,0,0,0,11.508
1676851200000,2023-02-20 00:00:00,BTCST/USDT,12.219,12.219,12.219,12.219,0,0,0,0,0,11.508
1676764800000,2023-02-19 00:00:00,BTCST/USDT,12.219,12.219,12.219,12.219,0,0,0,0,0,11.508
1676678400000,2023-02-18 00:00:00,BTCST/USDT,11.31,12.219,11.309,12.219,46.945,4.08294,46.944,4.08281,5,11.508
1676592000000,2023-02-17 00:00:00,BTCST/USDT,11.31,11.31,11.31,11.31,0,0,0,0,0,11.31
1676505600000,2023-02-16 00:00:00,BTCST/USDT,11.31,11.31,11.31,11.31,0,0,0,0,0,11.31
1676419200000,2023-02-15 00:00:00,BTCST/USDT,11.31,11.31,11.31,11.31,0,0,0,0,0,11.31
1676332800000,2023-02-14 00:00:00,BTCST/USDT,11.31,11.31,11.31,11.31,0,0,0,0,0,11.31
1676246400000,2023-02-13 00:00:00,BTCST/USDT,11.31,11.31,11.31,11.31,0,0,0,0,0,11.31
1676160000000,2023-02-12 00:00:00,BTCST/USDT,11.31,11.31,11.31,11.31,0,0,0,0,0,11.31
1676073600000,2023-02-11 00:00:00,BTCST/USDT,11.31,11.31,11.31,11.31,1.3268892,0.11732,0,0,1,11.31
1675987200000,2023-02-10 00:00:00,BTCST/USDT,11.31,11.31,11.31,11.31,0,0,0,0,0,11.999744130329317729
1675900800000,2023-02-09 00:00:00,BTCST/USDT,11.997,12.78,11.31,11.31,22.7495889,1.8991,17.18127642,1.40678,5,11.999744130329317729
1675814400000,2023-02-08 00:00:00,BTCST/USDT,10.01,10.01,10.01,10.01,0,0,0,0,0,10.012585868053325748
1675728000000,2023-02-07 00:00:00,BTCST/USDT,10.013,10.013,10.01,10.01,4.6466408,0.46408,0,0,2,10.012585868053325748
1675641600000,2023-02-06 00:00:00,BTCST/USDT,11.998,11.999,10.01,10.01,11.85344842,1.05837,6.74850928,0.57532,5,11.245078424386479086
1675555200000,2023-02-05 00:00:00,BTCST/USDT,10,10,10,10,0,0,0,0,0,12.410479861175390587
1675468800000,2023-02-04 00:00:00,BTCST/USDT,12,14.11,10,10,70.63404134,5.7484,49.88270502,3.8856,11,12.410479861175390587
1675382400000,2023-02-03 00:00:00,BTCST/USDT,11.999,11.999,11.999,11.999,0,0,0,0,0,10.952244326021416275
1675296000000,2023-02-02 00:00:00,BTCST/USDT,11.999,11.999,11.999,11.999,0,0,0,0,0,10.952244326021416275
1675209600000,2023-02-01 00:00:00,BTCST/USDT,11.999,11.999,11.999,11.999,0,0,0,0,0,10.952244326021416275
1675123200000,2023-01-31 00:00:00,BTCST/USDT,11.999,11.999,11.999,11.999,0,0,0,0,0,10.952244326021416275
1675036800000,2023-01-30 00:00:00,BTCST/USDT,11.999,11.999,11.999,11.999,0,0,0,0,0,10.952244326021416275
1674950400000,2023-01-29 00:00:00,BTCST/USDT,11.999,11.999,11.999,11.999,0,0,0,0,0,10.952244326021416275
1674864000000,2023-01-28 00:00:00,BTCST/USDT,10.5,11.999,10.5,11.999,18.62652739,1.70709,17.52654739,1.60233,4,10.952244326021416275
1674777600000,2023-01-27 00:00:00,BTCST/USDT,10.996,10.996,10.996,10.996,0,0,0,0,0,10.99947555224386294
1674691200000,2023-01-26 00:00:00,BTCST/USDT,10.996,10.996,10.996,10.996,0,0,0,0,0,10.99947555224386294
1674604800000,2023-01-25 00:00:00,BTCST/USDT,11.001,11.001,10.995,10.996,154.69475169,14.06383,21.17853065,1.92603,4,10.99947555224386294
1674518400000,2023-01-24 00:00:00,BTCST/USDT,10.996,10.996,10.996,10.996,0,0,0,0,0,12.780546519802032916
1674432000000,2023-01-23 00:00:00,BTCST/USDT,10.996,10.996,10.996,10.996,0,0,0,0,0,12.780546519802032916
1674345600000,2023-01-22 00:00:00,BTCST/USDT,13.771,13.771,10.996,10.996,21.01982795,1.65857,11.42896603,0.82993,4,12.780546519802032916
1674259200000,2023-01-21 00:00:00,BTCST/USDT,12.23,12.23,12.23,12.23,0,0,0,0,0,11.633115018354821697
1674172800000,2023-01-20 00:00:00,BTCST/USDT,12.23,12.23,12.23,12.23,0,0,0,0,0,11.633115018354821697
1674086400000,2023-01-19 00:00:00,BTCST/USDT,12.23,12.23,12.23,12.23,0,0,0,0,0,11.633115018354821697
1674000000000,2023-01-18 00:00:00,BTCST/USDT,12.23,12.23,12.23,12.23,0,0,0,0,0,11.633115018354821697
1673913600000,2023-01-17 00:00:00,BTCST/USDT,12.23,12.23,12.23,12.23,0,0,0,0,0,11.633115018354821697
1673827200000,2023-01-16 00:00:00,BTCST/USDT,12.23,12.23,12.23,12.23,0,0,0,0,0,11.633115018354821697
1673740800000,2023-01-15 00:00:00,BTCST/USDT,12.23,12.23,12.23,12.23,0,0,0,0,0,11.633115018354821697
1673654400000,2023-01-14 00:00:00,BTCST/USDT,10.987,12.23,10.987,12.23,20.62187834,1.77777,20.62187834,1.77777,3,11.633115018354821697
1673568000000,2023-01-13 00:00:00,BTCST/USDT,10.011,10.011,10.011,10.011,0,0,0,0,0,10.010164811775524011
1673481600000,2023-01-12 00:00:00,BTCST/USDT,10.011,10.011,10.011,10.011,0,0,0,0,0,10.010164811775524011
1673395200000,2023-01-11 00:00:00,BTCST/USDT,10.011,10.011,10.011,10.011,0,0,0,0,0,10.010164811775524011
1673308800000,2023-01-10 00:00:00,BTCST/USDT,10.009,10.011,10.009,10.011,40.54877486,4.05076,18.97386854,1.89564,3,10.010164811775524011
1673222400000,2023-01-09 00:00:00,BTCST/USDT,9.91,9.91,9.001,9.001,14.08226116,1.55749,0,0,2,9.04554116157720796
1673136000000,2023-01-08 00:00:00,BTCST/USDT,9.91,9.91,9.91,9.91,0,0,0,0,0,9.938739477426944512
1673049600000,2023-01-07 00:00:00,BTCST/USDT,10.01,10.01,9.91,9.91,33.7984705,3.40075,0,0,3,9.938739477426944512
1672963200000,2023-01-06 00:00:00,BTCST/USDT,10.01,10.01,10.01,10.01,0,0,0,0,0,10.01
1672876800000,2023-01-05 00:00:00,BTCST/USDT,10.01,10.01,10.01,10.01,0,0,0,0,0,10.01
1672790400000,2023-01-04 00:00:00,BTCST/USDT,10.01,10.01,10.01,10.01,0,0,0,0,0,10.01
1672704000000,2023-01-03 00:00:00,BTCST/USDT,10.01,10.01,10.01,10.01,0,0,0,0,0,10.01
1672617600000,2023-01-02 00:00:00,BTCST/USDT,10.01,10.01,10.01,10.01,0,0,0,0,0,10.01
1672531200000,2023-01-01 00:00:00,BTCST/USDT,10.01,10.01,10.01,10.01,0,0,0,0,0,10.01
1672444800000,2022-12-31 00:00:00,BTCST/USDT,10.01,10.01,10.01,10.01,3.7864827,0.37827,0,0,1,10.01
1672358400000,2022-12-30 00:00:00,BTCST/USDT,11,11,11,11,0,0,0,0,0,11
1672272000000,2022-12-29 00:00:00,BTCST/USDT,11,11,11,11,0,0,0,0,0,11
1672185600000,2022-12-28 00:00:00,BTCST/USDT,11,11,11,11,0,0,0,0,0,11
1672099200000,2022-12-27 00:00:00,BTCST/USDT,11,11,11,11,0,0,0,0,0,11
1672012800000,2022-12-26 00:00:00,BTCST/USDT,11,11,11,11,0,0,0,0,0,11
1671926400000,2022-12-25 00:00:00,BTCST/USDT,11,11,11,11,0,0,0,0,0,11
1671840000000,2022-12-24 00:00:00,BTCST/USDT,11,11,11,11,0,0,0,0,0,11
1671753600000,2022-12-23 00:00:00,BTCST/USDT,11,11,11,11,0,0,0,0,0,11
1671667200000,2022-12-22 00:00:00,BTCST/USDT,11,11,11,11,1.1,0.1,0,0,1,11
1671580800000,2022-12-21 00:00:00,BTCST/USDT,10.5,10.5,10.5,10.5,0,0,0,0,0,10.920907177511486687
1671494400000,2022-12-20 00:00:00,BTCST/USDT,10.5,10.5,10.5,10.5,0,0,0,0,0,10.920907177511486687
1671408000000,2022-12-19 00:00:00,BTCST/USDT,10.5,10.5,10.5,10.5,0,0,0,0,0,10.920907177511486687
1671321600000,2022-12-18 00:00:00,BTCST/USDT,11,11,10.5,10.5,25.064885,2.29579,0.66165,0.06015,4,10.920907177511486687
1671235200000,2022-12-17 00:00:00,BTCST/USDT,12.346,12.346,12.346,12.346,0,0,0,0,0,12.417939195201533104
1671148800000,2022-12-16 00:00:00,BTCST/USDT,12.346,12.346,12.346,12.346,0,0,0,0,0,12.417939195201533104
1671062400000,2022-12-15 00:00:00,BTCST/USDT,12.346,12.346,12.346,12.346,0,0,0,0,0,12.417939195201533104
1670976000000,2022-12-14 00:00:00,BTCST/USDT,12.346,12.346,12.346,12.346,0,0,0,0,0,12.417939195201533104
1670889600000,2022-12-13 00:00:00,BTCST/USDT,12.346,12.346,12.346,12.346,0,0,0,0,0,12.417939195201533104
1670803200000,2022-12-12 00:00:00,BTCST/USDT,12.479,12.479,12.346,12.346,8.73974478,0.70382,0,0,2,12.417939195201533104
1670716800000,2022-12-11 00:00:00,BTCST/USDT,13.4,14.1,13.4,14.1,40.57875875,2.92843,40.57875875,2.92843,5,13.862932983090568288
1670630400000,2022-12-10 00:00:00,BTCST/USDT,10.348,11.182,10.348,11.182,47.45888035,4.26269,47.45888035,4.26269,3,11.136315086276366399
1670544000000,2022-12-09 00:00:00,BTCST/USDT,10.07,10.07,10.07,10.07,0,0,0,0,0,10.07
1670457600000,2022-12-08 00:00:00,BTCST/USDT,10.07,10.07,10.07,10.07,0,0,0,0,0,10.07
1670371200000,2022-12-07 00:00:00,BTCST/USDT,10.07,10.07,10.07,10.07,0,0,0,0,0,10.07
1670284800000,2022-12-06 00:00:00,BTCST/USDT,10.07,10.07,10.07,10.07,4.07835,0.405,4.07835,0.405,1,10.07
1670198400000,2022-12-05 00:00:00,BTCST/USDT,10.006,10.006,9.899,9.9,479.79752102,48.31717,183.68474204,18.5542,13,9.930364595071121067
1670112000000,2022-12-04 00:00:00,BTCST/USDT,10.853,10.853,10.853,10.853,0,0,0,0,0,10.85219466185908465
1670025600000,2022-12-03 00:00:00,BTCST/USDT,10.853,10.853,10.853,10.853,0,0,0,0,0,10.85219466185908465
1669939200000,2022-12-02 00:00:00,BTCST/USDT,10.853,10.853,10.853,10.853,0,0,0,0,0,10.85219466185908465
1669852800000,2022-12-01 00:00:00,BTCST/USDT,10.852,10.853,10.852,10.853,18.66892193,1.72029,18.66892193,1.72029,2,10.85219466185908465
1669766400000,2022-11-30 00:00:00,BTCST/USDT,10,10,9.101,9.101,12.26988037,1.3091,0,0,2,9.390946812252416443
1669680000000,2022-11-29 00:00:00,BTCST/USDT,11.858,11.858,9.101,9.101,0.71424915,0.07845,0,0,2,9.105577185146107629
1669593600000,2022-11-28 00:00:00,BTCST/USDT,9.014,13.399,9.011,12.81,79.86298465,7.96695,36.51580844,3.29011,12,10.153201860242146606
1669507200000,2022-11-27 00:00:00,BTCST/USDT,9.508,10.004,9.508,10.004,5.52933172,0.55845,5.52933172,0.55845,2,9.90529386257187695
1669420800000,2022-11-26 00:00:00,BTCST/USDT,10.994,10.999,9.006,9.006,132.52581453,14.25934,21.44514977,1.95001,7,9.343707988429067608
1669334400000,2022-11-25 00:00:00,BTCST/USDT,9.008,9.008,9.006,9.007,13.99031415,1.55322,0,0,4,9.007297263462093164
1669248000000,2022-11-24 00:00:00,BTCST/USDT,10.999,10.999,10.999,10.999,0,0,0,0,0,10.999
1669161600000,2022-11-23 00:00:00,BTCST/USDT,10.999,10.999,10.999,10.999,0.23438869,0.02131,0.23438869,0.02131,1,10.999
1669075200000,2022-11-22 00:00:00,BTCST/USDT,9.998,9.999,9.998,9.999,7.91477789,0.79159,7.91477789,0.79159,2,9.99858248494071133
1668988800000,2022-11-21 00:00:00,BTCST/USDT,9.001,9.001,9.001,9.001,5.64110672,0.62672,0,0,1,9.001
1668902400000,2022-11-20 00:00:00,BTCST/USDT,9.001,9.001,9.001,9.001,0,0,0,0,0,9.001
1668816000000,2022-11-19 00:00:00,BTCST/USDT,9.001,9.001,9.001,9.001,0,0,0,0,0,9.001
1668729600000,2022-11-18 00:00:00,BTCST/USDT,9.001,9.001,9.001,9.001,0,0,0,0,0,9.001
1668643200000,2022-11-17 00:00:00,BTCST/USDT,9.001,9.001,9.001,9.001,14.39484925,1.59925,0,0,1,9.001
1668556800000,2022-11-16 00:00:00,BTCST/USDT,9.999,9.999,9.999,9.999,0,0,0,0,0,9.397137879948638199
1668470400000,2022-11-15 00:00:00,BTCST/USDT,9.999,9.999,9.999,9.999,0,0,0,0,0,9.397137879948638199
1668384000000,2022-11-14 00:00:00,BTCST/USDT,10.002,10.002,9.001,9.999,113.20780936,12.07886,34.98630368,3.5,7,9.397137879948638199
1668297600000,2022-11-13 00:00:00,BTCST/USDT,10.001,10.001,10.001,10.001,0,0,0,0,0,10.117718912524466048
1668211200000,2022-11-12 00:00:00,BTCST/USDT,10.001,10.001,10.001,10.001,0,0,0,0,0,10.117718912524466048
1668124800000,2022-11-11 00:00:00,BTCST/USDT,10.001,10.001,10.001,10.001,0,0,0,0,0,10.117718912524466048
1668038400000,2022-11-10 00:00:00,BTCST/USDT,11.111,11.111,10.001,10.001,10.460925,1.035,0,0,2,10.117718912524466048
1667952000000,2022-11-09 00:00:00,BTCST/USDT,11.002,11.002,11.002,11.002,6.17960336,0.56168,0,0,1,11.002
1667865600000,2022-11-08 00:00:00,BTCST/USDT,12.11,12.11,12.11,12.11,0,0,0,0,0,12.110245189570144699
1667779200000,2022-11-07 00:00:00,BTCST/USDT,12.11,12.11,12.11,12.11,0,0,0,0,0,12.110245189570144699
1667692800000,2022-11-06 00:00:00,BTCST/USDT,12.11,12.11,12.11,12.11,0,0,0,0,0,12.110245189570144699
1667606400000,2022-11-05 00:00:00,BTCST/USDT,12.11,12.11,12.11,12.11,0,0,0,0,0,12.110245189570144699
1667520000000,2022-11-04 00:00:00,BTCST/USDT,12.11,12.11,12.11,12.11,0,0,0,0,0,12.110245189570144699
1667433600000,2022-11-03 00:00:00,BTCST/USDT,12.11,12.11,12.11,12.11,0,0,0,0,0,12.110245189570144699
1667347200000,2022-11-02 00:00:00,BTCST/USDT,12.11,12.11,12.11,12.11,0,0,0,0,0,12.110245189570144699
1667260800000,2022-11-01 00:00:00,BTCST/USDT,12.11,12.11,12.11,12.11,0,0,0,0,0,12.110245189570144699
1667174400000,2022-10-31 00:00:00,BTCST/USDT,12.111,12.111,12.11,12.11,16.3495576,1.35006,0,0,2,12.110245189570144699
1667088000000,2022-10-30 00:00:00,BTCST/USDT,13.387,13.387,13.387,13.387,0,0,0,0,0,13.386952929065182485
1667001600000,2022-10-29 00:00:00,BTCST/USDT,13.386,13.387,13.386,13.387,93.70867048,7,93.70867048,7,2,13.386952929065182485
1666915200000,2022-10-28 00:00:00,BTCST/USDT,12.11,12.11,12.11,12.11,0,0,0,0,0,12.110275016463292534
1666828800000,2022-10-27 00:00:00,BTCST/USDT,12.111,12.111,12.11,12.11,14.53233,1.2,0,0,2,12.110275016463292534
1666742400000,2022-10-26 00:00:00,BTCST/USDT,12.889,12.891,12.889,12.891,39.17292417,3.03909,39.17292417,3.03909,2,12.889688815709618749
1666656000000,2022-10-25 00:00:00,BTCST/USDT,13.201,13.202,12.101,12.101,504.21836767,39.47485,125.02664823,9.90368,16,12.781912492958291278
1666569600000,2022-10-24 00:00:00,BTCST/USDT,12.9,15.395,12.299,12.501,617.85050239,47.09651,352.63757215,27.18621,31,13.129413688715265716
1666483200000,2022-10-23 00:00:00,BTCST/USDT,14.998,17.001,12.1,13.801,7313.89730326,535.85784,3400.34999771,261.23662,105,13.729161627567714533
1666396800000,2022-10-22 00:00:00,BTCST/USDT,15,15,11.003,11.003,30.1054634,2.31472,17.3739,1.15826,4,13.312247539280195898
1666310400000,2022-10-21 00:00:00,BTCST/USDT,19.998,19.998,19.998,19.998,0,0,0,0,0,19.998
1666224000000,2022-10-20 00:00:00,BTCST/USDT,19.998,19.998,19.998,19.998,0,0,0,0,0,19.998
1666137600000,2022-10-19 00:00:00,BTCST/USDT,19.998,19.998,19.998,19.998,0,0,0,0,0,19.998
1666051200000,2022-10-18 00:00:00,BTCST/USDT,19.998,19.998,19.998,19.998,0,0,0,0,0,19.998
1665964800000,2022-10-17 00:00:00,BTCST/USDT,19.998,19.998,19.998,19.998,0,0,0,0,0,19.998
1665878400000,2022-10-16 00:00:00,BTCST/USDT,19.998,19.998,19.998,19.998,5.13788616,0.25692,0.4159584,0.0208,2,19.998
1665792000000,2022-10-15 00:00:00,BTCST/USDT,19.998,19.998,19.998,19.998,0,0,0,0,0,17.120218295981293006
1665705600000,2022-10-14 00:00:00,BTCST/USDT,19.998,19.998,19.998,19.998,0,0,0,0,0,17.120218295981293006
1665619200000,2022-10-13 00:00:00,BTCST/USDT,11.701,19.998,11.7,19.998,15.22978339,0.94885,8.85130606,0.44265,5,17.120218295981293006
1665532800000,2022-10-12 00:00:00,BTCST/USDT,11.7,11.7,11.7,11.7,0,0,0,0,0,11.700091306607992251
1665446400000,2022-10-11 00:00:00,BTCST/USDT,11.701,11.701,11.7,11.7,16.42763019,1.40406,0,0,2,11.700091306607992251
1665360000000,2022-10-10 00:00:00,BTCST/USDT,11.004,11.004,11.004,11.004,0,0,0,0,0,11.004681519724128317
1665273600000,2022-10-09 00:00:00,BTCST/USDT,11.004,11.004,11.004,11.004,0,0,0,0,0,11.004681519724128317
1665187200000,2022-10-08 00:00:00,BTCST/USDT,11.004,11.004,11.004,11.004,0,0,0,0,0,11.004681519724128317
1665100800000,2022-10-07 00:00:00,BTCST/USDT,11.004,11.004,11.004,11.004,0,0,0,0,0,11.004681519724128317
1665014400000,2022-10-06 00:00:00,BTCST/USDT,11.004,11.004,11.004,11.004,0,0,0,0,0,11.004681519724128317
1664928000000,2022-10-05 00:00:00,BTCST/USDT,11.004,11.004,11.004,11.004,0,0,0,0,0,11.004681519724128317
1664841600000,2022-10-04 00:00:00,BTCST/USDT,11.005,11.005,11.004,11.004,2.2009363,0.2,0,0,2,11.004681519724128317
1664755200000,2022-10-03 00:00:00,BTCST/USDT,11,11,11,11,0,0,0,0,0,13.153707185517956883
1664668800000,2022-10-02 00:00:00,BTCST/USDT,13.998,14,11,11,17.61772189,1.3552,17.61772189,1.3552,4,13.153707185517956883
1664582400000,2022-10-01 00:00:00,BTCST/USDT,11.999,11.999,11.999,11.999,0,0,0,0,0,11.09795000729166988
1664496000000,2022-09-30 00:00:00,BTCST/USDT,10.001,11.999,10.001,11.999,24.96602328,2.26812,13.70742188,1.14242,5,11.09795000729166988
1664409600000,2022-09-29 00:00:00,BTCST/USDT,11.999,11.999,11.999,11.999,0,0,0,0,0,11.560108063787934722
1664323200000,2022-09-28 00:00:00,BTCST/USDT,11.999,12,10.999,11.999,44.43510034,3.84811,44.43510034,3.84811,9,11.560108063787934722
1664236800000,2022-09-27 00:00:00,BTCST/USDT,8.91,8.91,8.91,8.91,5.3883225,0.60475,0,0,1,8.91
1664150400000,2022-09-26 00:00:00,BTCST/USDT,8.08,8.08,8.08,8.08,0,0,0,0,0,11.974604977037572131
1664064000000,2022-09-25 00:00:00,BTCST/USDT,8.08,8.08,8.08,8.08,0,0,0,0,0,11.974604977037572131
1663977600000,2022-09-24 00:00:00,BTCST/USDT,8.08,8.08,8.08,8.08,0,0,0,0,0,11.974604977037572131
1663891200000,2022-09-23 00:00:00,BTCST/USDT,8.08,8.08,8.08,8.08,0,0,0,0,0,11.974604977037572131
1663804800000,2022-09-22 00:00:00,BTCST/USDT,11.999,13.999,8.08,8.08,17.62059754,1.48744,16.66247114,1.36886,4,11.974604977037572131
1663718400000,2022-09-21 00:00:00,BTCST/USDT,13.999,13.999,10.25,10.25,2.35476357,0.19629,0.99994857,0.07143,4,12.192363661133928616
1663632000000,2022-09-20 00:00:00,BTCST/USDT,10.215,10.215,10.215,10.215,0,0,0,0,0,10.215195760092078093
1663545600000,2022-09-19 00:00:00,BTCST/USDT,10.215,10.215,10.215,10.215,0,0,0,0,0,10.215195760092078093
1663459200000,2022-09-18 00:00:00,BTCST/USDT,10.215,10.215,10.215,10.215,0,0,0,0,0,10.215195760092078093
1663372800000,2022-09-17 00:00:00,BTCST/USDT,10.215,10.215,10.215,10.215,0,0,0,0,0,10.215195760092078093
1663286400000,2022-09-16 00:00:00,BTCST/USDT,10.215,10.215,10.215,10.215,0,0,0,0,0,10.215195760092078093
1663200000000,2022-09-15 00:00:00,BTCST/USDT,10.215,10.215,10.215,10.215,0,0,0,0,0,10.215195760092078093
1663113600000,2022-09-14 00:00:00,BTCST/USDT,10.216,10.216,10.215,10.215,20.4048535,1.9975,0,0,2,10.215195760092078093
1663027200000,2022-09-13 00:00:00,BTCST/USDT,11.998,14,11.943,13.7,797.00136178,63.23605,797.00136178,63.23605,9,12.654576127606400183
1662940800000,2022-09-12 00:00:00,BTCST/USDT,10.101,10.101,10.012,10.012,22.12035052,2.20146,0,0,3,10.048224499800557409
1662854400000,2022-09-11 00:00:00,BTCST/USDT,14.004,14.004,14.004,14.004,0,0,0,0,0,14.004
1662768000000,2022-09-10 00:00:00,BTCST/USDT,14.004,14.004,14.004,14.004,1.00856808,0.07202,0,0,1,14.004
1662681600000,2022-09-09 00:00:00,BTCST/USDT,14.038,14.039,10.012,14.001,83.61639157,6.27573,53.36550318,3.80808,7,13.453972269271533214
1662595200000,2022-09-08 00:00:00,BTCST/USDT,10.002,10.002,10.002,10.002,0,0,0,0,0,10.002039171104046157
1662508800000,2022-09-07 00:00:00,BTCST/USDT,10.003,10.003,10.002,10.002,102.14672518,10.21259,0,0,2,10.002039171104046157
1662422400000,2022-09-06 00:00:00,BTCST/USDT,13.192,13.192,13.192,13.192,0,0,0,0,0,13.512002711310287706
1662336000000,2022-09-05 00:00:00,BTCST/USDT,13.192,13.192,13.192,13.192,0,0,0,0,0,13.512002711310287706
1662249600000,2022-09-04 00:00:00,BTCST/USDT,13.192,13.192,13.192,13.192,0,0,0,0,0,13.512002711310287706
1662163200000,2022-09-03 00:00:00,BTCST/USDT,14.223,14.223,12.841,13.192,892.559797,66.12693,892.559797,66.12693,5,13.512002711310287706
1662076800000,2022-09-02 00:00:00,BTCST/USDT,12.003,12.003,12.003,12.003,3.99999975,0.33325,0,0,1,12.003
1661990400000,2022-09-01 00:00:00,BTCST/USDT,14.5,14.5,14.5,14.5,725,50,725,50,1,14.5
1661904000000,2022-08-31 00:00:00,BTCST/USDT,16.063,16.462,16.063,16.462,804.26656136,50.06682,804.26656136,50.06682,3,16.063876680956681468
1661817600000,2022-08-30 00:00:00,BTCST/USDT,15.945,15.945,15.945,15.945,0,0,0,0,0,16.644429398674005911
1661731200000,2022-08-29 00:00:00,BTCST/USDT,15.945,15.945,15.945,15.945,0,0,0,0,0,16.644429398674005911
1661644800000,2022-08-28 00:00:00,BTCST/USDT,18.999,18.999,15.945,15.945,4.37103306,0.26404,4.37103306,0.26404,2,16.644429398674005911
1661558400000,2022-08-27 00:00:00,BTCST/USDT,16.001,16.001,15.007,15.01,39.96400051,2.58053,8.6198612,0.56235,6,15.499576211367383948
1661472000000,2022-08-26 00:00:00,BTCST/USDT,16.01,16.01,16.01,16.01,0,0,0,0,0,16.690282707782100307
1661385600000,2022-08-25 00:00:00,BTCST/USDT,17,18,16.01,16.01,51.9623333,3.12255,16.76844,0.93158,4,16.690282707782100307
1661299200000,2022-08-24 00:00:00,BTCST/USDT,19.999,19.999,14.001,19.899,48.89474674,2.62748,40.70962213,2.04287,3,18.93560645279006511
1661212800000,2022-08-23 00:00:00,BTCST/USDT,18,19.999,12.01,12.01,2210.50365609,131.37401,101.39567999,5.58867,17,16.842967755765224075
1661126400000,2022-08-22 00:00:00,BTCST/USDT,18.001,19.998,17.43,18,783.52206486,39.74921,64.90118892,3.25915,8,19.741272451923199051
1661040000000,2022-08-21 00:00:00,BTCST/USDT,18.003,19.101,18.003,19,492.42732035,25.8016,0,0,4,19.085946159985170691
1660953600000,2022-08-20 00:00:00,BTCST/USDT,20.999,22.997,18.001,18.003,233.53009431,11.55825,124.99295363,5.60785,17,20.426917126227618826
1660867200000,2022-08-19 00:00:00,BTCST/USDT,18.002,22.997,18,18,475.54999695,24.0507,193.37133003,8.58157,27,19.998840052431147421
1660780800000,2022-08-18 00:00:00,BTCST/USDT,24.966,24.966,18,23,1637.16129846,80.75734,953.21996333,44.6012,52,20.413018558208423661
1660694400000,2022-08-17 00:00:00,BTCST/USDT,17.433,29.999,17.433,24,808.00195622,33.8062,619.41195824,23.67083,44,24.497473625610846652
1660608000000,2022-08-16 00:00:00,BTCST/USDT,17.13,26,17.13,17.243,1631.60327725,77.43079,1043.91146448,44.12984,53,21.658321189346697839
1660521600000,2022-08-15 00:00:00,BTCST/USDT,22.992,22.992,17.13,22.992,184.07488366,8.61292,155.56974796,6.95903,8,21.571526504261597204
1660435200000,2022-08-14 00:00:00,BTCST/USDT,25,26,17.002,22.992,1050.61739504,49.2012,626.10090908,24.6959,22,22.11576175311396736
1660348800000,2022-08-13 00:00:00,BTCST/USDT,16.621,16.621,16.621,16.621,0,0,0,0,0,21.656428138919338708
1660262400000,2022-08-12 00:00:00,BTCST/USDT,24.999,24.999,16.621,16.621,47.59395014,2.2867,28.60485576,1.14424,3,21.656428138919338708
1660176000000,2022-08-11 00:00:00,BTCST/USDT,19.7,25,14.211,16.602,1122.58307322,55.02102,839.78564168,37.1706,15,20.986647357136693239
1660089600000,2022-08-10 00:00:00,BTCST/USDT,16.3,19.7,16.3,19.7,55.412,3.22744,16.794529,0.85827,4,17.293654417815635601
1660003200000,2022-08-09 00:00:00,BTCST/USDT,16.23,19.7,16.23,16.3,120.4116604,6.77638,58.480834,2.97336,6,17.928139903068723067
1659916800000,2022-08-08 00:00:00,BTCST/USDT,16.5,19.9,16.2,19.9,30.624142,1.73673,12.704956,0.63844,3,17.803375180274438382
1659830400000,2022-08-07 00:00:00,BTCST/USDT,18.2,20,16.2,20,65.63019217,3.59885,22,1.1,4,18.346988682147721341
1659744000000,2022-08-06 00:00:00,BTCST/USDT,20.999,22,16.2,18.2,213.66027857,11.2588,117.93718457,5.40613,12,19.380954571997167829
1659657600000,2022-08-05 00:00:00,BTCST/USDT,20,24,16.12,16.12,152.74849145,7.75353,98.09682665,4.83984,9,19.811632950823161794
1659571200000,2022-08-04 00:00:00,BTCST/USDT,20,20,14.1,14.1,80.921802,4.79252,47.51298,2.4231,4,17.353069203772797842
1659484800000,2022-08-03 00:00:00,BTCST/USDT,18.001,21,12,21,213.47487902,13.89209,8.49914414,0.41038,9,15.715351473469405129
1659398400000,2022-08-02 00:00:00,BTCST/USDT,22.899,25.867,16,18.001,294.50850536,14.18483,188.36695372,7.87741,15,21.484476036903208027
1659312000000,2022-08-01 00:00:00,BTCST/USDT,22.9,22.9,22.9,22.9,1.999857,0.08733,1.999857,0.08733,1,22.9
1659225600000,2022-07-31 00:00:00,BTCST/USDT,19.60000038,23.90000002,19.60000038,23.90000002,1377.0141292450684506,60.42192454,1164.7464888496497956,50.25069933,25,22.829813090437885086
1659139200000,2022-07-30 00:00:00,BTCST/USDT,14.98599999,30.723,13.0033009,16.49346064,140317.0839740374120384,6677.22185056,0,0,0,21.01429114
1659052800000,2022-07-29 00:00:00,BTCST/USDT,14.99999998,14.99999998,14.99999998,14.99999998,40.1501900464664132,2.67667934,0,0,0,14.99999998
1658966400000,2022-07-28 00:00:00,BTCST/USDT,10.0000001,10.0000001,10.0000001,10.0000001,0,0,0,0,0,10.0000001
1658880000000,2022-07-27 00:00:00,BTCST/USDT,10.0000001,10.0000001,10.0000001,10.0000001,0,0,0,0,0,10.0000001
1658793600000,2022-07-26 00:00:00,BTCST/USDT,10.0000001,10.0000001,10.0000001,10.0000001,0,0,0,0,0,10.0000001
1658707200000,2022-07-25 00:00:00,BTCST/USDT,10.0000001,10.0000001,10.0000001,10.0000001,0,0,0,0,0,10.0000001
1658620800000,2022-07-24 00:00:00,BTCST/USDT,10.0000001,10.0000001,10.0000001,10.0000001,0,0,0,0,0,10.0000001
1658534400000,2022-07-23 00:00:00,BTCST/USDT,10.0000001,10.0000001,10.0000001,10.0000001,20.634000406340002,2.06340002,0,0,0,10.0000001
1658448000000,2022-07-22 00:00:00,BTCST/USDT,13.99999988,13.99999999,13.99999988,13.99999999,1621.4760407998310079,115.81971811,0,0,0,13.99999989
1658361600000,2022-07-21 00:00:00,BTCST/USDT,10.98504001,11.15694,10.00000003,11.15694,775.3041172780683904,73.47018148,0,0,0,10.55263648
1658275200000,2022-07-20 00:00:00,BTCST/USDT,15.49999999,15.49999999,15.49999999,15.49999999,0,0,0,0,0,15.49999999
1658188800000,2022-07-19 00:00:00,BTCST/USDT,15.49999999,15.49999999,15.49999999,15.49999999,38.7499992000000005,2.49999995,0,0,0,15.49999999
1658102400000,2022-07-18 00:00:00,BTCST/USDT,10.00000003,10.00000003,10.00000003,10.00000003,0,0,0,0,0,10.00000003
1658016000000,2022-07-17 00:00:00,BTCST/USDT,10.00000003,10.00000003,10.00000003,10.00000003,0,0,0,0,0,10.00000003
1657929600000,2022-07-16 00:00:00,BTCST/USDT,10.00000003,10.00000003,10.00000003,10.00000003,0,0,0,0,0,10.00000003
1657843200000,2022-07-15 00:00:00,BTCST/USDT,10.00000003,10.00000003,10.00000003,10.00000003,0,0,0,0,0,10.00000003
1657756800000,2022-07-14 00:00:00,BTCST/USDT,10.00000003,10.00000003,10.00000003,10.00000003,0,0,0,0,0,10.00000003
1657670400000,2022-07-13 00:00:00,BTCST/USDT,10.00000003,10.00000003,10.00000003,10.00000003,17.386819052160457,1.7386819,0,0,0,10.00000003
1657584000000,2022-07-12 00:00:00,BTCST/USDT,12.18198,12.40707,12.18198,12.40707,52.6022638055656215,4.27854165,0,0,0,12.29443771
1657497600000,2022-07-11 00:00:00,BTCST/USDT,16.07853599,16.07853599,16.07853599,16.07853599,45.018062995336343,2.7998857,0,0,0,16.07853599
1657411200000,2022-07-10 00:00:00,BTCST/USDT,10.49616,16.78536117,10.00000003,16.78536117,0,0,0,0,0,12.10587103
1657324800000,2022-07-09 00:00:00,BTCST/USDT,10.49616,16.78536117,10.00000003,16.78536117,0,0,0,0,0,12.10587103
1657238400000,2022-07-08 00:00:00,BTCST/USDT,10.49616,16.78536117,10.00000003,16.78536117,270.8869337614667986,22.37649262,0,0,0,12.10587103
1657152000000,2022-07-07 00:00:00,BTCST/USDT,16.78536118,16.78536118,16.78536118,16.78536118,0,0,0,0,0,16.78536118
1657065600000,2022-07-06 00:00:00,BTCST/USDT,16.78536118,16.78536118,16.78536118,16.78536118,18.463898976536118,1.1000001,0,0,0,16.78536118
1656979200000,2022-07-05 00:00:00,BTCST/USDT,10,10,10,10,0,0,0,0,0,10
1656892800000,2022-07-04 00:00:00,BTCST/USDT,10,10,10,10,0,0,0,0,0,10
1656806400000,2022-07-03 00:00:00,BTCST/USDT,10,10,10,10,0,0,0,0,0,10
1656720000000,2022-07-02 00:00:00,BTCST/USDT,10,10,10,10,0,0,0,0,0,10
1656633600000,2022-07-01 00:00:00,BTCST/USDT,10,10,10,10,0,0,0,0,0,10
1656547200000,2022-06-30 00:00:00,BTCST/USDT,10,10,10,10,0,0,0,0,0,10
1656460800000,2022-06-29 00:00:00,BTCST/USDT,10,10,10,10,0,0,0,0,0,10
1656374400000,2022-06-28 00:00:00,BTCST/USDT,10,10,10,10,0,0,0,0,0,10
1656288000000,2022-06-27 00:00:00,BTCST/USDT,10,10,10,10,0,0,0,0,0,10
1656201600000,2022-06-26 00:00:00,BTCST/USDT,10,10,10,10,0,0,0,0,0,10
1656115200000,2022-06-25 00:00:00,BTCST/USDT,10,10,10,10,67.563882,6.7563882,0,0,0,10
1656028800000,2022-06-24 00:00:00,BTCST/USDT,11.00000011,16.78536119,10.99999999,16.78536119,6892.1584378381884304,615.69054223,0,0,0,11.19419248
1655942400000,2022-06-23 00:00:00,BTCST/USDT,12.00000001,12.00000001,11,11,0,0,0,0,0,11.08500788
1655856000000,2022-06-22 00:00:00,BTCST/USDT,12.00000001,12.00000001,11,11,0,0,0,0,0,11.08500788
1655769600000,2022-06-21 00:00:00,BTCST/USDT,12.00000001,12.00000001,11,11,0,0,0,0,0,11.08500788
1655683200000,2022-06-20 00:00:00,BTCST/USDT,12.00000001,12.00000001,11,11,843.2000671187658168,76.06670886,0,0,0,11.08500788
1655596800000,2022-06-19 00:00:00,BTCST/USDT,15.22013055,15.22013055,15.22013055,15.22013055,32.010250746117099,2.10315218,0,0,0,15.22013055
1655510400000,2022-06-18 00:00:00,BTCST/USDT,15.58272529,15.58272529,15.58272529,15.58272529,16.2805264290580747,1.04478043,0,0,0,15.58272529
1655424000000,2022-06-17 00:00:00,BTCST/USDT,12.00000001,15.22013055,12.00000001,15.22013055,143.6126202748357853,10.55284781,0,0,0,13.60889713
1655337600000,2022-06-16 00:00:00,BTCST/USDT,15.31000011,15.31000011,15.3100001,15.3100001,0,0,0,0,0,15.3100001
1655251200000,2022-06-15 00:00:00,BTCST/USDT,15.31000011,15.31000011,15.3100001,15.3100001,0,0,0,0,0,15.3100001
1655164800000,2022-06-14 00:00:00,BTCST/USDT,15.31000011,15.31000011,15.3100001,15.3100001,0,0,0,0,0,15.3100001
1655078400000,2022-06-13 00:00:00,BTCST/USDT,15.31000011,15.31000011,15.3100001,15.3100001,2006.43064288436009,131.0536009,0,0,0,15.3100001
1654992000000,2022-06-12 00:00:00,BTCST/USDT,16.4476,16.4476,15.31000011,15.31000011,1125.7403815524904191,73.47660339,0,0,0,15.32107269
1654905600000,2022-06-11 00:00:00,BTCST/USDT,17.3002,17.3002,16.4476,16.4476,119.9210216100334851,7.24042093,0,0,0,16.56271407
1654819200000,2022-06-10 00:00:00,BTCST/USDT,16.4476,16.4476,16.4476,16.4476,0,0,0,0,0,16.4476
1654732800000,2022-06-09 00:00:00,BTCST/USDT,16.4476,16.4476,16.4476,16.4476,0,0,0,0,0,16.4476
1654646400000,2022-06-08 00:00:00,BTCST/USDT,16.4476,16.4476,16.4476,16.4476,16.469229909808,1.00131508,0,0,0,16.4476
1654560000000,2022-06-07 00:00:00,BTCST/USDT,16.3574,16.4074,16.3574,16.4074,0,0,0,0,0,16.38246747
1654473600000,2022-06-06 00:00:00,BTCST/USDT,16.3574,16.4074,16.3574,16.4074,0,0,0,0,0,16.38246747
1654387200000,2022-06-05 00:00:00,BTCST/USDT,16.3574,16.4074,16.3574,16.4074,32.9533542854633616,2.01150128,0,0,0,16.38246747
1654300800000,2022-06-04 00:00:00,BTCST/USDT,15.9796,16.7773,15.9796,15.97960001,0,0,0,0,0,16.11396666
1654214400000,2022-06-03 00:00:00,BTCST/USDT,15.9796,16.7773,15.9796,15.97960001,92.4190991364797244,5.73534134,0,0,0,16.11396666
1654128000000,2022-06-02 00:00:00,BTCST/USDT,16.59249999,17.3987,16.59249999,17.3987,280.3685001672095947,16.85074447,0,0,0,16.63834501
1654041600000,2022-06-01 00:00:00,BTCST/USDT,17.8405,17.8405,17.8405,17.8405,0,0,0,0,0,17.8405
1653955200000,2022-05-31 00:00:00,BTCST/USDT,17.8405,17.8405,17.8405,17.8405,0,0,0,0,0,17.8405
1653868800000,2022-05-30 00:00:00,BTCST/USDT,17.8405,17.8405,17.8405,17.8405,18.46365403579,1.03492918,0,0,0,17.8405
1653782400000,2022-05-29 00:00:00,BTCST/USDT,17.3542,17.7066,17.3542,17.7066,0,0,0,0,0,17.70285498
1653696000000,2022-05-28 00:00:00,BTCST/USDT,17.3542,17.7066,17.3542,17.7066,1705.7768756376089934,96.35603283,0,0,0,17.70285498
1653609600000,2022-05-27 00:00:00,BTCST/USDT,19.7334,19.7334,19.7334,19.7334,20.287096115922,1.02805883,0,0,0,19.7334
1653523200000,2022-05-26 00:00:00,BTCST/USDT,18.7156,18.7156,18.7156,18.7156,18.952293198704,1.01264684,0,0,0,18.7156
1653436800000,2022-05-25 00:00:00,BTCST/USDT,16.7558,21.3477,16.7558,20.00000001,715.6165677093286146,35.82744523,0,0,0,19.97397702
1653350400000,2022-05-24 00:00:00,BTCST/USDT,17.0247,18.9981,15.11130002,18.9981,718.1967865445695128,45.17294781,0,0,0,15.89882488
1653264000000,2022-05-23 00:00:00,BTCST/USDT,15.1113,15.1113,15.1113,15.1113,15.528579358149,1.02761373,0,0,0,15.1113
1653177600000,2022-05-22 00:00:00,BTCST/USDT,15,15,15,15,0,0,0,0,0,15
1653091200000,2022-05-21 00:00:00,BTCST/USDT,15,15,15,15,0,0,0,0,0,15
1653004800000,2022-05-20 00:00:00,BTCST/USDT,15,15,15,15,450,30,0,0,0,15
1652918400000,2022-05-19 00:00:00,BTCST/USDT,17.2279,17.2279,17.2279,17.2279,0,0,0,0,0,17.2279
1652832000000,2022-05-18 00:00:00,BTCST/USDT,17.2279,17.2279,17.2279,17.2279,17.288660908231,1.00352689,0,0,0,17.2279
1652745600000,2022-05-17 00:00:00,BTCST/USDT,15.0169,16.2331,15.0169,16.2331,32.6254593908363148,2.08809243,0,0,0,15.62452836
1652659200000,2022-05-16 00:00:00,BTCST/USDT,17.7608,17.7608,17.7608,17.7608,17.901182784064,1.00790408,0,0,0,17.7608
1652572800000,2022-05-15 00:00:00,BTCST/USDT,16.4605,16.92800001,16.4605,16.92800001,98.548393153388838,5.8501321,0,0,0,16.84549878
1652486400000,2022-05-14 00:00:00,BTCST/USDT,15.1456,15.1694,15.1456,15.1694,15.667654684540494,1.0328638,0,0,0,15.16913913
1652400000000,2022-05-13 00:00:00,BTCST/USDT,15.0518,15.0599,12.63930001,12.63930001,201.1307255312439,14.30649276,0,0,0,14.0587025
1652313600000,2022-05-12 00:00:00,BTCST/USDT,15.9992871,17.7475,12,15.1456,1784.7406181722308,129.45905222,0,0,0,13.78614
1652227200000,2022-05-11 00:00:00,BTCST/USDT,17.2911,17.2911,15.982,16.4202,29741.9728254948707638,1811.16575902,0,0,0,16.42145269
1652140800000,2022-05-10 00:00:00,BTCST/USDT,18.7577,18.7577,18.7577,18.7577,20.253968715448,1.07976824,0,0,0,18.7577
1652054400000,2022-05-09 00:00:00,BTCST/USDT,19.8698,20.8351,19.0645,19.0645,129.4362718697757704,6.46745683,0,0,0,20.01347288
1651968000000,2022-05-08 00:00:00,BTCST/USDT,21.4998,21.4998,19.8224,20.8351,120.7356811253634259,5.94741349,0,0,0,20.30053591
1651881600000,2022-05-07 00:00:00,BTCST/USDT,17.9578,24,17.9578,23.6077,2429.4366564272115055,104.12799961,0,0,0,23.33125255
1651795200000,2022-05-06 00:00:00,BTCST/USDT,19.8353,19.8353,19.8353,19.8353,20.561797417097,1.03662649,0,0,0,19.8353
1651708800000,2022-05-05 00:00:00,BTCST/USDT,18.4213,22,18.4213,22,0,0,0,0,0,21.94634113
1651622400000,2022-05-04 00:00:00,BTCST/USDT,18.4213,22,18.4213,22,2648.8719679399273219,120.69765763,0,0,0,21.94634113
1651536000000,2022-05-03 00:00:00,BTCST/USDT,17.315,17.315,17.315,17.315,0,0,0,0,0,17.315
1651449600000,2022-05-02 00:00:00,BTCST/USDT,17.315,17.315,17.315,17.315,0,0,0,0,0,17.315
1651363200000,2022-05-01 00:00:00,BTCST/USDT,17.315,17.315,17.315,17.315,23.70003905605,1.36875767,0,0,0,17.315
1651276800000,2022-04-30 00:00:00,BTCST/USDT,20.12710001,20.12710001,20.1271,20.1271,0,0,0,0,0,20.1271
1651190400000,2022-04-29 00:00:00,BTCST/USDT,20.12710001,20.12710001,20.1271,20.1271,0,0,0,0,0,20.1271
1651104000000,2022-04-28 00:00:00,BTCST/USDT,20.12710001,20.12710001,20.1271,20.1271,0,0,0,0,0,20.1271
1651017600000,2022-04-27 00:00:00,BTCST/USDT,20.12710001,20.12710001,20.1271,20.1271,0,0,0,0,0,20.1271
1650931200000,2022-04-26 00:00:00,BTCST/USDT,20.12710001,20.12710001,20.1271,20.1271,0,0,0,0,0,20.1271
1650844800000,2022-04-25 00:00:00,BTCST/USDT,20.12710001,20.12710001,20.1271,20.1271,0,0,0,0,0,20.1271
1650758400000,2022-04-24 00:00:00,BTCST/USDT,20.12710001,20.12710001,20.1271,20.1271,0,0,0,0,0,20.1271
1650672000000,2022-04-23 00:00:00,BTCST/USDT,20.12710001,20.12710001,20.1271,20.1271,59.31292132864,2.9469184,0,0,0,20.1271
1650585600000,2022-04-22 00:00:00,BTCST/USDT,17.7251995,17.7252,17.7251995,17.7252,0,0,0,0,0,17.72519952
1650499200000,2022-04-21 00:00:00,BTCST/USDT,17.7251995,17.7252,17.7251995,17.7252,577.6833535635587376,32.59107763,0,0,0,17.72519952
1650412800000,2022-04-20 00:00:00,BTCST/USDT,16.6888,17.1018,16.6888,16.86790001,586.842649344806129,34.74870122,0,0,0,16.88818945
1650326400000,2022-04-19 00:00:00,BTCST/USDT,18.5084,18.5084,16.3666,16.3666,531.9346657517527243,32.38139219,0,0,0,16.42717097
1650240000000,2022-04-18 00:00:00,BTCST/USDT,16.4332,16.4332,16.3666,16.3666,0,0,0,0,0,16.3999
1650153600000,2022-04-17 00:00:00,BTCST/USDT,16.4332,16.4332,16.3666,16.3666,37.190205585071,2.26770929,0,0,0,16.3999
1650067200000,2022-04-16 00:00:00,BTCST/USDT,17.9361,17.9361,17.6219,17.6219,0,0,0,0,0,17.77346645
1649980800000,2022-04-15 00:00:00,BTCST/USDT,17.9361,17.9361,17.6219,17.6219,0,0,0,0,0,17.77346645
1649894400000,2022-04-14 00:00:00,BTCST/USDT,17.9361,17.9361,17.6219,17.6219,36.510637266588004,2.05422152,0,0,0,17.77346645
1649808000000,2022-04-13 00:00:00,BTCST/USDT,18.0629,18.0629,16.3747,16.4233,55.2345322613543294,3.27219134,0,0,0,16.87998241
1649721600000,2022-04-12 00:00:00,BTCST/USDT,18.43099958,18.43099958,18.06411431,18.06411441,40490.5162072184104648,2200.46426276,0,0,0,18.40089698
1649635200000,2022-04-11 00:00:00,BTCST/USDT,18.43099958,18.43099958,18.43099958,18.43099958,93.9312183956840288,5.09637136,0,0,0,18.43099958
1649548800000,2022-04-10 00:00:00,BTCST/USDT,20.53000002,20.53000002,18.11,18.11,0,0,0,0,0,19.75108816
1649462400000,2022-04-09 00:00:00,BTCST/USDT,20.53000002,20.53000002,18.11,18.11,0,0,0,0,0,19.75108816
1649376000000,2022-04-08 00:00:00,BTCST/USDT,20.53000002,20.53000002,18.11,18.11,0,0,0,0,0,19.75108816
1649289600000,2022-04-07 00:00:00,BTCST/USDT,20.53000002,20.53000002,18.11,18.11,0,0,0,0,0,19.75108816
1649203200000,2022-04-06 00:00:00,BTCST/USDT,20.53000002,20.53000002,18.11,18.11,1164.89769049288192,58.978912,0,0,0,19.75108816
1649116800000,2022-04-05 00:00:00,BTCST/USDT,22.0307,22.0307,20.8236,20.8236,0,0,0,0,0,20.82802712
1649030400000,2022-04-04 00:00:00,BTCST/USDT,22.0307,22.0307,20.8236,20.8236,5491.9929972699311504,263.68282342,0,0,0,20.82802712
1648944000000,2022-04-03 00:00:00,BTCST/USDT,21.1053,21.1076,21.09690002,21.09690002,1426.4843343295354472,67.59372178,0,0,0,21.10379924
1648857600000,2022-04-02 00:00:00,BTCST/USDT,19.3784,20.6972999,19.3784,20.6972999,0,0,0,0,0,20.66419474
1648771200000,2022-04-01 00:00:00,BTCST/USDT,19.3784,20.6972999,19.3784,20.6972999,0,0,0,0,0,20.66419474
1648684800000,2022-03-31 00:00:00,BTCST/USDT,19.3784,20.6972999,19.3784,20.6972999,1184.6774872195669308,57.32996142,0,0,0,20.66419474
1648598400000,2022-03-30 00:00:00,BTCST/USDT,18.1109,19.5633,18.11089999,19.1586,3893.039166761294793,214.65671782,0,0,0,18.13611615
1648512000000,2022-03-29 00:00:00,BTCST/USDT,18.4463,18.99000001,18.0562,18.0562,16346.259542328837666,861.43027134,0,0,0,18.9757199
1648425600000,2022-03-28 00:00:00,BTCST/USDT,19.3177,19.488,16.67830018,18.7374,5669.997821908147349,311.08270313,0,0,0,18.2266573
1648339200000,2022-03-27 00:00:00,BTCST/USDT,17.9383,19.72026,17.9143,19.63170001,2256.216888843244992,116.0906376,0,0,0,19.43495992
1648252800000,2022-03-26 00:00:00,BTCST/USDT,18.0504,18.183,17.3848,17.5971,242.3454739628037231,13.65385727,0,0,0,17.74923153
1648166400000,2022-03-25 00:00:00,BTCST/USDT,20.1993,22.047,17.7664,17.7664,13020.0040292331502738,723.08912614,0,0,0,18.00608467
1648080000000,2022-03-24 00:00:00,BTCST/USDT,17.8267,17.9128,17.8267,17.9128,0,0,0,0,0,17.90953087
1647993600000,2022-03-23 00:00:00,BTCST/USDT,17.8267,17.9128,17.8267,17.9128,499.3903464897074805,27.88405515,0,0,0,17.90953087
1647907200000,2022-03-22 00:00:00,BTCST/USDT,16.5192,17.0499,16.5192,17.0499,0,0,0,0,0,16.78041668
1647820800000,2022-03-21 00:00:00,BTCST/USDT,16.5192,17.0499,16.5192,17.0499,0,0,0,0,0,16.78041668
1647734400000,2022-03-20 00:00:00,BTCST/USDT,16.5192,17.0499,16.5192,17.0499,0,0,0,0,0,16.78041668
1647648000000,2022-03-19 00:00:00,BTCST/USDT,16.5192,17.0499,16.5192,17.0499,34.008196751626298,2.02665985,0,0,0,16.78041668
1647561600000,2022-03-18 00:00:00,BTCST/USDT,17.76419999,17.7642,17.4389,17.4389,0,0,0,0,0,17.56957351
1647475200000,2022-03-17 00:00:00,BTCST/USDT,17.76419999,17.7642,17.4389,17.4389,0,0,0,0,0,17.56957351
1647388800000,2022-03-16 00:00:00,BTCST/USDT,17.76419999,17.7642,17.4389,17.4389,90.0158185138966485,5.12339235,0,0,0,17.56957351
1647302400000,2022-03-15 00:00:00,BTCST/USDT,16.6145,16.71120001,16.6145,16.71120001,33.525528895368,2.01199248,0,0,0,16.66285
1647216000000,2022-03-14 00:00:00,BTCST/USDT,18.22899945,18.22899945,17.9128,17.9128,0,0,0,0,0,18.21322065
1647129600000,2022-03-13 00:00:00,BTCST/USDT,18.22899945,18.22899945,17.9128,17.9128,0,0,0,0,0,18.21322065
1647043200000,2022-03-12 00:00:00,BTCST/USDT,18.22899945,18.22899945,17.9128,17.9128,0,0,0,0,0,18.21322065
1646956800000,2022-03-11 00:00:00,BTCST/USDT,18.22899945,18.22899945,17.9128,17.9128,0,0,0,0,0,18.21322065
1646870400000,2022-03-10 00:00:00,BTCST/USDT,18.22899945,18.22899945,17.9128,17.9128,410.582558250372705,22.5431057,0,0,0,18.21322065
1646784000000,2022-03-09 00:00:00,BTCST/USDT,17.2353,17.71056001,17.2353,17.41410001,1779.461733613302375,101.57610365,0,0,0,17.5185075
1646697600000,2022-03-08 00:00:00,BTCST/USDT,16.6791,16.8375,16.28369999,16.3449,0,0,0,0,0,16.31914778
1646611200000,2022-03-07 00:00:00,BTCST/USDT,16.6791,16.8375,16.28369999,16.3449,4760.0181586501104574,291.68301083,0,0,0,16.31914778
1646524800000,2022-03-06 00:00:00,BTCST/USDT,18.1012,19.84539999,17.0821,17.0821,708.4410836253348135,39.00033755,0,0,0,18.16499877
1646438400000,2022-03-05 00:00:00,BTCST/USDT,16.27229999,16.7213,11.50000002,16.7213,4711.086789152177565,303.96327249,0,0,0,15.4988685
1646352000000,2022-03-04 00:00:00,BTCST/USDT,17.0895,17.0895,15,15,87.5675174063389743,5.55073949,0,0,0,15.77582907
1646265600000,2022-03-03 00:00:00,BTCST/USDT,18.2179,18.3452,17.4433,18.3452,145.6448042580868185,8.05333015,0,0,0,18.08504079
1646179200000,2022-03-02 00:00:00,BTCST/USDT,19.93850005,19.9736,18.8111,18.9234,4352.2297301157890688,223.43366016,0,0,0,19.47884543
1646092800000,2022-03-01 00:00:00,BTCST/USDT,20.1937,23.62019998,18.8576,22.5706,5801.4440147345040435,279.06224161,0,0,0,20.78906835
1646006400000,2022-02-28 00:00:00,BTCST/USDT,17.9055,18.4102,17.5852,17.5852,265.3039657349422936,14.48900281,0,0,0,18.31071256
1645920000000,2022-02-27 00:00:00,BTCST/USDT,18.0633,18.0633,16.95100101,16.95100101,1385.811262053644336,81.6887014,0,0,0,16.96454024
1645833600000,2022-02-26 00:00:00,BTCST/USDT,19.5337,19.5337,19.5337,19.5337,0,0,0,0,0,19.5337
1645747200000,2022-02-25 00:00:00,BTCST/USDT,19.5337,19.5337,19.5337,19.5337,0,0,0,0,0,19.5337
1645660800000,2022-02-24 00:00:00,BTCST/USDT,19.5337,19.5337,19.5337,19.5337,0,0,0,0,0,19.5337
1645574400000,2022-02-23 00:00:00,BTCST/USDT,19.5337,19.5337,19.5337,19.5337,0,0,0,0,0,19.5337
1645488000000,2022-02-22 00:00:00,BTCST/USDT,19.5337,19.5337,19.5337,19.5337,19.614905302303,1.00415719,0,0,0,19.5337
1645401600000,2022-02-21 00:00:00,BTCST/USDT,18.6512,18.6512,18.6512,18.6512,0,0,0,0,0,18.6512
1645315200000,2022-02-20 00:00:00,BTCST/USDT,18.6512,18.6512,18.6512,18.6512,0,0,0,0,0,18.6512
1645228800000,2022-02-19 00:00:00,BTCST/USDT,18.6512,18.6512,18.6512,18.6512,0,0,0,0,0,18.6512
1645142400000,2022-02-18 00:00:00,BTCST/USDT,18.6512,18.6512,18.6512,18.6512,0,0,0,0,0,18.6512
1645056000000,2022-02-17 00:00:00,BTCST/USDT,18.6512,18.6512,18.6512,18.6512,0,0,0,0,0,18.6512
1644969600000,2022-02-16 00:00:00,BTCST/USDT,18.6512,18.6512,18.6512,18.6512,0,0,0,0,0,18.6512
1644883200000,2022-02-15 00:00:00,BTCST/USDT,18.6512,18.6512,18.6512,18.6512,0,0,0,0,0,18.6512
1644796800000,2022-02-14 00:00:00,BTCST/USDT,18.6512,18.6512,18.6512,18.6512,0,0,0,0,0,18.6512
1644710400000,2022-02-13 00:00:00,BTCST/USDT,18.6512,18.6512,18.6512,18.6512,18.66036519968,1.0004914,0,0,0,18.6512
1644624000000,2022-02-12 00:00:00,BTCST/USDT,21.7958,21.7958,16.95100001,16.95100001,53.0162507981267901,2.88201591,0,0,0,18.39554411
1644537600000,2022-02-11 00:00:00,BTCST/USDT,23.1939,23.1939,18.00000024,18.00000024,1304.2844484984575253,72.11391003,0,0,0,18.08644751
1644451200000,2022-02-10 00:00:00,BTCST/USDT,21.8064,21.8064,21.8064,21.8064,24.711585334128,1.13322627,0,0,0,21.8064
1644364800000,2022-02-09 00:00:00,BTCST/USDT,23.62019993,23.62019993,20.0357,20.0357,183.8230558902889287,8.20328437,0,0,0,22.40847051
1644278400000,2022-02-08 00:00:00,BTCST/USDT,23.62019993,23.62019993,23.62019993,23.62019993,0,0,0,0,0,23.62019993
1644192000000,2022-02-07 00:00:00,BTCST/USDT,23.62019993,23.62019993,23.62019993,23.62019993,0,0,0,0,0,23.62019993
1644105600000,2022-02-06 00:00:00,BTCST/USDT,23.62019993,23.62019993,23.62019993,23.62019993,557.9138447331720049,23.62019993,0,0,0,23.62019993
1644019200000,2022-02-05 00:00:00,BTCST/USDT,22.5082,23.0894988,22.5082,23.0894988,943.3275556878395546,40.88573261,0,0,0,23.07229186
1643932800000,2022-02-04 00:00:00,BTCST/USDT,19.27434452,20.5385,19.27434452,20.5385,2362.6490543157924196,122.50745036,0,0,0,19.28575811
1643846400000,2022-02-03 00:00:00,BTCST/USDT,16.6332,16.6332,16.51,16.51,0,0,0,0,0,16.5716
1643760000000,2022-02-02 00:00:00,BTCST/USDT,16.6332,16.6332,16.51,16.51,0,0,0,0,0,16.5716
1643673600000,2022-02-01 00:00:00,BTCST/USDT,16.6332,16.6332,16.51,16.51,0,0,0,0,0,16.5716
1643587200000,2022-01-31 00:00:00,BTCST/USDT,16.6332,16.6332,16.51,16.51,0,0,0,0,0,16.5716
1643500800000,2022-01-30 00:00:00,BTCST/USDT,16.6332,16.6332,16.51,16.51,0,0,0,0,0,16.5716
1643414400000,2022-01-29 00:00:00,BTCST/USDT,16.6332,16.6332,16.51,16.51,0,0,0,0,0,16.5716
1643328000000,2022-01-28 00:00:00,BTCST/USDT,16.6332,16.6332,16.51,16.51,0,0,0,0,0,16.5716
1643241600000,2022-01-27 00:00:00,BTCST/USDT,16.6332,16.6332,16.51,16.51,0,0,0,0,0,16.5716
1643155200000,2022-01-26 00:00:00,BTCST/USDT,16.6332,16.6332,16.51,16.51,33.97556495344,2.0502284,0,0,0,16.5716
1643068800000,2022-01-25 00:00:00,BTCST/USDT,15.9049,16.21,15.00000001,16.21,0,0,0,0,0,15.55300453
1642982400000,2022-01-24 00:00:00,BTCST/USDT,15.9049,16.21,15.00000001,16.21,213.4051836944115158,13.72115486,0,0,0,15.55300453
1642896000000,2022-01-23 00:00:00,BTCST/USDT,18.8794,18.8794,18.8794,18.8794,0,0,0,0,0,18.8794
1642809600000,2022-01-22 00:00:00,BTCST/USDT,18.8794,18.8794,18.8794,18.8794,21.795765485548,1.15447342,0,0,0,18.8794
1642723200000,2022-01-21 00:00:00,BTCST/USDT,20.78089999,20.7809,20.1931,20.1931,270.7408161659220712,13.05997556,0,0,0,20.73057602
1642636800000,2022-01-20 00:00:00,BTCST/USDT,23.0895,23.0895,23.0895,23.0895,24.339555601515,1.05413957,0,0,0,23.0895
1642550400000,2022-01-19 00:00:00,BTCST/USDT,24.9793,24.9793,19.81,21.78436132,1818.4816390525703472,88.58130279,0,0,0,20.52895568
1642464000000,2022-01-18 00:00:00,BTCST/USDT,21.63,21.8216819,21.63,21.8216819,0,0,0,0,0,21.64216183
1642377600000,2022-01-17 00:00:00,BTCST/USDT,21.63,21.8216819,21.63,21.8216819,1442.9070773138482957,66.67111579,0,0,0,21.64216183
1642291200000,2022-01-16 00:00:00,BTCST/USDT,21.62999999,21.63,21.62999999,21.63,6303.224724619887782,291.4112218,0,0,0,21.62999999
1642204800000,2022-01-15 00:00:00,BTCST/USDT,22.6881,22.6881,21.63,21.63,534.540233954582598,24.5974178,0,0,0,21.73155891
1642118400000,2022-01-14 00:00:00,BTCST/USDT,25.6157,25.6157,22.14938581,22.14938581,0,0,0,0,0,22.36180203
1642032000000,2022-01-13 00:00:00,BTCST/USDT,25.6157,25.6157,22.14938581,22.14938581,1078.3860875914114089,48.22447163,0,0,0,22.36180203
1641945600000,2022-01-12 00:00:00,BTCST/USDT,22.2319,22.2319,22.2319,22.2319,0,0,0,0,0,22.2319
1641859200000,2022-01-11 00:00:00,BTCST/USDT,22.2319,22.2319,22.2319,22.2319,22.964779252199,1.03296521,0,0,0,22.2319
1641772800000,2022-01-10 00:00:00,BTCST/USDT,22.1493858,22.1493858,22.1493858,22.1493858,91.229412515557164,4.11882358,0,0,0,22.1493858
1641686400000,2022-01-09 00:00:00,BTCST/USDT,23.9699,23.9699,21.63,21.63,30808.3081417588953202,1379.52620579,0,0,0,22.33252838
1641600000000,2022-01-08 00:00:00,BTCST/USDT,24.8633,26.9654,21.9389,24.57609999,86470.1201218379519176,3623.72215702,0,0,0,23.86223788
1641513600000,2022-01-07 00:00:00,BTCST/USDT,24.5553,24.5553,24.5553,24.5553,0,0,0,0,0,24.5553
1641427200000,2022-01-06 00:00:00,BTCST/USDT,24.5553,24.5553,24.5553,24.5553,26.354959410318,1.07329006,0,0,0,24.5553
1641340800000,2022-01-05 00:00:00,BTCST/USDT,26.1114,26.1114,24,24,10469.5933954296722598,407.02426461,0,0,0,25.72228318
1641254400000,2022-01-04 00:00:00,BTCST/USDT,25.92178554,25.92178554,25.92178554,25.92178554,1982.5191493019124366,76.48080979,0,0,0,25.92178554
1641168000000,2022-01-03 00:00:00,BTCST/USDT,25.92178554,25.92178554,25.92178554,25.92178554,85.5418953926142648,3.30000012,0,0,0,25.92178554
1641081600000,2022-01-02 00:00:00,BTCST/USDT,25.92178554,25.92178554,25.92178554,25.92178554,920.2233965202785052,35.50000038,0,0,0,25.92178554
1640995200000,2022-01-01 00:00:00,BTCST/USDT,25.92178553,25.92178553,25.92178553,25.92178553,1158.5637953703704285,44.69459845,0,0,0,25.92178553
1640908800000,2021-12-31 00:00:00,BTCST/USDT,27.25889847,27.25889847,24.69735798,24.69735799,0,0,0,0,0,24.78539446
1640822400000,2021-12-30 00:00:00,BTCST/USDT,27.25889847,27.25889847,24.69735798,24.69735799,0,0,0,0,0,24.78539446
1640736000000,2021-12-29 00:00:00,BTCST/USDT,27.25889847,27.25889847,24.69735798,24.69735799,0,0,0,0,0,24.78539446
1640649600000,2021-12-28 00:00:00,BTCST/USDT,27.25889847,27.25889847,24.69735798,24.69735799,1269.4579639020486014,51.21798509,0,0,0,24.78539446
1640563200000,2021-12-27 00:00:00,BTCST/USDT,28.22048374,28.22048374,24.7,25.3495,146128.1054389335614892,5775.63819823,0,0,0,25.30077204
1640476800000,2021-12-26 00:00:00,BTCST/USDT,28.42575529,28.42575529,28.42575529,28.42575529,0,0,0,0,0,28.42575529
1640390400000,2021-12-25 00:00:00,BTCST/USDT,28.42575529,28.42575529,28.42575529,28.42575529,37.3642943035417148,1.31445212,0,0,0,28.42575529
1640304000000,2021-12-24 00:00:00,BTCST/USDT,28.49978316,28.49978316,26.64910075,27.0907781,15841.7823525905967344,586.41982171,0,0,0,27.01440464
1640217600000,2021-12-23 00:00:00,BTCST/USDT,28.36209636,28.36209636,28,28,114.49643062110778,4.07581384,0,0,0,28.09167325
1640131200000,2021-12-22 00:00:00,BTCST/USDT,29.11253145,30.05271274,28,29.065186,0,0,0,0,0,28.71659663
1640044800000,2021-12-21 00:00:00,BTCST/USDT,29.11253145,30.05271274,28,29.065186,0,0,0,0,0,28.71659663
1639958400000,2021-12-20 00:00:00,BTCST/USDT,29.11253145,30.05271274,28,29.065186,6607.78827270393643,230.103461,0,0,0,28.71659663
1639872000000,2021-12-19 00:00:00,BTCST/USDT,30.89056469,31.20292983,29.01693892,29.01693892,0,0,0,0,0,29.04765343
1639785600000,2021-12-18 00:00:00,BTCST/USDT,30.89056469,31.20292983,29.01693892,29.01693892,0,0,0,0,0,29.04765343
1639699200000,2021-12-17 00:00:00,BTCST/USDT,30.89056469,31.20292983,29.01693892,29.01693892,6740.8526233203927983,232.06186481,0,0,0,29.04765343
1639612800000,2021-12-16 00:00:00,BTCST/USDT,28.21199999,29.01693891,28.21199999,29.01693891,7557.5594388363434376,267.61676876,0,0,0,28.24023126
1639526400000,2021-12-15 00:00:00,BTCST/USDT,28.25434819,28.25434819,28,28.22234367,72.8261551438654168,2.58038248,0,0,0,28.22300791
1639440000000,2021-12-14 00:00:00,BTCST/USDT,29.44306232,29.44306232,28.93410623,28.93410623,933.5806602755111036,32.24556119,0,0,0,28.95222244
1639353600000,2021-12-13 00:00:00,BTCST/USDT,29.46843666,29.46843666,28.93410623,29.08731298,2478.30985576666877,85.59222173,0,0,0,28.954849
1639267200000,2021-12-12 00:00:00,BTCST/USDT,31.39817302,31.39817302,31.39817301,31.39817301,126.2723855601426255,4.02164755,0,0,0,31.39817301
1639180800000,2021-12-11 00:00:00,BTCST/USDT,31.04064616,33.34760201,31.04064616,33.34760201,114.0343239001271371,3.53244379,0,0,0,32.28199249
1639094400000,2021-12-10 00:00:00,BTCST/USDT,34.78847565,34.78847565,34.40645594,34.40645594,391.2437332633865373,11.26389727,0,0,0,34.73431299
1639008000000,2021-12-09 00:00:00,BTCST/USDT,34.78847565,34.78847565,34.78847564,34.78847564,206.510915977646282,5.93618755,0,0,0,34.78847564
1638921600000,2021-12-08 00:00:00,BTCST/USDT,34.85516572,34.85516572,34.85516572,34.85516572,113.683280873794232,3.2615906,0,0,0,34.85516572
1638835200000,2021-12-07 00:00:00,BTCST/USDT,34.78847564,34.78847564,34.78847564,34.78847564,0,0,0,0,0,34.78847564
1638748800000,2021-12-06 00:00:00,BTCST/USDT,34.78847564,34.78847564,34.78847564,34.78847564,0,0,0,0,0,34.78847564
1638662400000,2021-12-05 00:00:00,BTCST/USDT,34.78847564,34.78847564,34.78847564,34.78847564,39.0208575890611944,1.12166046,0,0,0,34.78847564
1638576000000,2021-12-04 00:00:00,BTCST/USDT,30.39945364,32.8970513,28.93410623,32.8970513,13467.1742439052839201,443.67192183,0,0,0,30.35390247
1638489600000,2021-12-03 00:00:00,BTCST/USDT,34.855168,34.855168,30.39946412,34.8551665,726.3354852013435182,21.11579037,0,0,0,34.39774086
1638403200000,2021-12-02 00:00:00,BTCST/USDT,32,34.00000001,30.39944443,30.39944519,3746.1489320239251488,117.47573591,0,0,0,31.88870368
1638316800000,2021-12-01 00:00:00,BTCST/USDT,35.14991125,37.0472161,31.85518413,33.00000001,15065.5702852298125548,435.17249523,0,0,0,34.61976676
1638230400000,2021-11-30 00:00:00,BTCST/USDT,37.6127996,37.6127996,36.14991126,36.14991126,95.8019795221215089,2.59472653,0,0,0,36.92180213
1638144000000,2021-11-29 00:00:00,BTCST/USDT,37.61397512,38.04721627,32.67946996,38.04721627,727.2498884905696754,20.24563757,0,0,0,35.92131322
1638057600000,2021-11-28 00:00:00,BTCST/USDT,31.19728459,34.42372576,31.19728459,34.42372576,0,0,0,0,0,32.81050517
1637971200000,2021-11-27 00:00:00,BTCST/USDT,31.19728459,34.42372576,31.19728459,34.42372576,73.5437630233999,2.24147,0,0,0,32.81050517
1637884800000,2021-11-26 00:00:00,BTCST/USDT,33.03971713,36.60608538,31.84250371,31.84250371,5821.138845760307568,181.83343155,0,0,0,32.01357856
1637798400000,2021-11-25 00:00:00,BTCST/USDT,34.0322899,41.48798809,32.34033569,34.7599934,2130.76774141399265,62.32550642,0,0,0,34.1877325
1637712000000,2021-11-24 00:00:00,BTCST/USDT,40.27423038,40.27423038,34.39900964,34.39900964,18726.0218934582683604,468.95437758,0,0,0,39.93143638
1637625600000,2021-11-23 00:00:00,BTCST/USDT,41.3580102,41.48798815,39.89073868,39.89073868,3225.079433632149978,79.25636802,0,0,0,40.6917389
1637539200000,2021-11-22 00:00:00,BTCST/USDT,38.18904418,43.96314743,34.00603071,43.96314743,0,0,0,0,0,40.96804155
1637452800000,2021-11-21 00:00:00,BTCST/USDT,38.18904418,43.96314743,34.00603071,43.96314743,6205.8661150605271785,151.48066347,0,0,0,40.96804155
1637366400000,2021-11-20 00:00:00,BTCST/USDT,38.599818,43.112275,33.37596,33.37596,22475.6496610850584964,571.51515874,0,0,0,39.32642786
1637280000000,2021-11-19 00:00:00,BTCST/USDT,42.95434842,42.95434842,37.00001021,38.599818,18183.3517830719090663,459.47327681,0,0,0,39.57434023
1637193600000,2021-11-18 00:00:00,BTCST/USDT,42.06419886,43.23379764,42.06419886,43.23379764,0,0,0,0,0,42.72250981
1637107200000,2021-11-17 00:00:00,BTCST/USDT,42.06419886,43.23379764,42.06419886,43.23379764,115.6366332273638081,2.70669101,0,0,0,42.72250981
1637020800000,2021-11-16 00:00:00,BTCST/USDT,45.96648386,45.96648386,45.96648386,45.96648386,70.6673751579846798,1.53736743,0,0,0,45.96648386
1636934400000,2021-11-15 00:00:00,BTCST/USDT,41.25393331,48.4,41.25393331,42.8085484,54194.2234650744411117,1171.77049851,0,0,0,46.24986167
1636848000000,2021-11-14 00:00:00,BTCST/USDT,41.94945871,45,41.2539333,41.25393331,46653.0409103283641012,1039.16660263,0,0,0,44.89466924
1636761600000,2021-11-13 00:00:00,BTCST/USDT,40.10407355,44.99999996,40,44.99999996,1925.5146723858677312,45.59184943,0,0,0,42.23374784
1636675200000,2021-11-12 00:00:00,BTCST/USDT,44.33714981,44.33714981,40,41.93264029,4439.6573759737522326,110.78262198,0,0,0,40.07539537
1636588800000,2021-11-11 00:00:00,BTCST/USDT,46.28602133,46.28602133,39.77407869,41.64208022,2589.4745651523114345,60.55225811,0,0,0,42.76429395
1636502400000,2021-11-10 00:00:00,BTCST/USDT,44.44,48.39999964,44.44,45.24595196,11086.4793952472239342,243.25040857,0,0,0,45.57640606
1636416000000,2021-11-09 00:00:00,BTCST/USDT,42.9,44.55,42.35000001,44.43999999,44313.4537656135679917,997.59810237,0,0,0,44.42014641
1636329600000,2021-11-08 00:00:00,BTCST/USDT,40.09330234,48.4,40.09330234,41.8,618742.835846589038984,13953.69334142,0,0,0,44.3425852
1636243200000,2021-11-07 00:00:00,BTCST/USDT,40.7,40.7,38,40.14999999,17197.3123694666237214,444.25505706,0,0,0,38.71044819
1636156800000,2021-11-06 00:00:00,BTCST/USDT,41.27807044,41.27807044,41.25,41.25,1011.9960827437167448,24.53234833,0,0,0,41.25149656
1636070400000,2021-11-05 00:00:00,BTCST/USDT,41.8660509,42.34999999,38.703577,42.34999999,25142.207416639743906,631.78076295,0,0,0,39.79577868
1635984000000,2021-11-04 00:00:00,BTCST/USDT,44.88868901,46.14598202,41.8,41.8,4216.20284497620997,94.1397815,0,0,0,44.78662238
1635897600000,2021-11-03 00:00:00,BTCST/USDT,42.15757531,45.78254857,41.68793728,44.888689,27870.1695595563816977,624.81805543,0,0,0,44.60525639
1635811200000,2021-11-02 00:00:00,BTCST/USDT,44,49.00049999,40.20000039,46.42481345,37796.4827056773920844,881.38503342,0,0,0,42.88305482
1635724800000,2021-11-01 00:00:00,BTCST/USDT,51.38061298,51.38061298,40.20000027,44,42735.8046665649076329,981.36809089,0,0,0,43.54717161
1635638400000,2021-10-31 00:00:00,BTCST/USDT,45.95995833,52.99999999,42.00861838,52.99999999,17785.127976506316867,365.61912306,0,0,0,48.64386695
1635552000000,2021-10-30 00:00:00,BTCST/USDT,41.97950618,46.99999999,40.15535008,41.96714925,14932.849833829575153,359.68443023,0,0,0,41.5165311
1635465600000,2021-10-29 00:00:00,BTCST/USDT,42.00470322,80,37.00000103,42.83242774,1765528.6263319335804552,31503.65516079,0,0,0,56.04202488
1635379200000,2021-10-28 00:00:00,BTCST/USDT,40.2603603,44.75434244,37,42.47032186,41953.2673583708963892,1020.31310321,0,0,0,41.11803252
1635292800000,2021-10-27 00:00:00,BTCST/USDT,42.26338013,42.26338013,40.18000024,41.18000025,22580.0240819133104768,550.73245802,0,0,0,40.99998784
1635206400000,2021-10-26 00:00:00,BTCST/USDT,44.888888,47.64146214,43.34596862,47.64146214,9849.3748410880639773,220.54161223,0,0,0,44.65993851
1635120000000,2021-10-25 00:00:00,BTCST/USDT,50.09152683,54.9999998,44.888888,44.888888,12750.8125721241478455,240.51593511,0,0,0,53.01441905
1635033600000,2021-10-24 00:00:00,BTCST/USDT,45.42150419,58,40.18000045,49,191308.1458822719083003,4120.63972043,0,0,0,46.42680721
1634947200000,2021-10-23 00:00:00,BTCST/USDT,43.72008109,45.89256637,43.49267487,45.42150419,92254.7791203762023256,2066.96104081,0,0,0,44.63305176
1634860800000,2021-10-22 00:00:00,BTCST/USDT,45.02956163,46.2853703,42.47590331,43.72008744,6303.542554597497484,141.6469066,0,0,0,44.50180174
1634774400000,2021-10-21 00:00:00,BTCST/USDT,48.26438247,48.26438247,43.26847235,45.00166256,190353.8366748929532776,4124.96986958,0,0,0,46.14672172
1634688000000,2021-10-20 00:00:00,BTCST/USDT,48.2,57.141,46.29641648,48.96317269,1201639.8813073309400109,23718.96848639,0,0,0,50.66155731
1634601600000,2021-10-19 00:00:00,BTCST/USDT,43.99999999,52.99999999,41.879907,47,132469.1003319930466716,2889.99446291,0,0,0,45.83714676
1634515200000,2021-10-18 00:00:00,BTCST/USDT,40.26022722,55.9999641,40.26022722,55.9999641,2918.591825161456608,68.00034256,0,0,0,42.9202518
1634428800000,2021-10-17 00:00:00,BTCST/USDT,44.84541684,55.99999,40.04000001,40.18000001,114666.1117321705683336,2618.23948212,0,0,0,43.79511978
1634342400000,2021-10-16 00:00:00,BTCST/USDT,49.50480514,49.50480514,44.5958352,44.5958352,58489.2434953950439825,1305.12275161,0,0,0,44.81512825
1634256000000,2021-10-15 00:00:00,BTCST/USDT,45.91631633,57,43.03849389,49.50480514,1255312.7953147124509431,25220.21500641,0,0,0,49.77407191
1634169600000,2021-10-14 00:00:00,BTCST/USDT,48.02208784,49.32023703,41.75232001,46.16663716,68239.7020263518305736,1433.58736036,0,0,0,47.60065826
1634083200000,2021-10-13 00:00:00,BTCST/USDT,49.30999945,49.32022862,46,46,22579.075967360898606,484.6654201,0,0,0,46.58693406
1633996800000,2021-10-12 00:00:00,BTCST/USDT,50.4694284,52.35905579,46,49.32023405,43097.8983714807841168,915.68257712,0,0,0,47.06641739
1633910400000,2021-10-11 00:00:00,BTCST/USDT,49.73575892,56.16441519,45,52.35905805,202202.2328106478445655,4233.69704861,0,0,0,47.76020355
1633824000000,2021-10-10 00:00:00,BTCST/USDT,53.70169594,56.1644153,46.97891086,46.97891091,178807.1946604009321871,3593.80447877,0,0,0,49.75429123
1633737600000,2021-10-09 00:00:00,BTCST/USDT,47.97900009,65.03674,46.97890801,52.5,1645886.8170574638720777,29024.24650179,0,0,0,56.70730563
1633651200000,2021-10-08 00:00:00,BTCST/USDT,58.99999999,65.6999969,44.57294495,47.87900162,2338767.3173881205485555,42668.41451645,0,0,0,54.81261359
1633564800000,2021-10-07 00:00:00,BTCST/USDT,34.006,82.99999292,34.006,58.99999999,6411117.8568426325415561,102948.46455347,0,0,0,62.27502163
1633478400000,2021-10-06 00:00:00,BTCST/USDT,20.43,43.32656721,19.99000001,33.97286033,1160383.324027433606033,43013.74628762,0,0,0,26.97703465
1633392000000,2021-10-05 00:00:00,BTCST/USDT,16.34337632,26.82610682,16.34337632,20.28373224,153342.976491307908864,7766.77629312,0,0,0,19.7434522
1633305600000,2021-10-04 00:00:00,BTCST/USDT,15.95,16.99999999,15.51550001,15.91595133,24157.4283433297425076,1519.22488709,0,0,0,15.90115364
1633219200000,2021-10-03 00:00:00,BTCST/USDT,16.16,16.38313388,15.50000585,16.22441594,19835.702154938542974,1228.86210855,0,0,0,16.14151988
1633132800000,2021-10-02 00:00:00,BTCST/USDT,16.26248215,16.888888,16.19095073,16.45529127,2066.269009414125162,124.39175681,0,0,0,16.6109802
1633046400000,2021-10-01 00:00:00,BTCST/USDT,15.10462065,16.888888,14.86627371,16.888888,27568.5813298617079284,1752.86028348,0,0,0,15.72776883
1632960000000,2021-09-30 00:00:00,BTCST/USDT,14.56,15.54243902,14.56,15.54243902,42784.128958302784299,2857.2869013,0,0,0,14.97369023
1632873600000,2021-09-29 00:00:00,BTCST/USDT,14.0730631,14.7289004,14.0730631,14.22805436,7537.6167545954874654,534.33378198,0,0,0,14.10656973
1632787200000,2021-09-28 00:00:00,BTCST/USDT,14.18695706,15.03942248,13.95,14.27761523,14060.6656961489443991,1001.22967301,0,0,0,14.04339691
1632700800000,2021-09-27 00:00:00,BTCST/USDT,14.21611623,14.75695862,14.21611623,14.44944606,191.0671186888613664,13.16971296,0,0,0,14.50807009
1632614400000,2021-09-26 00:00:00,BTCST/USDT,14.50349448,15.18,13.24018859,14.13,17271.5750735628012619,1184.24537821,0,0,0,14.58445639
1632528000000,2021-09-25 00:00:00,BTCST/USDT,14.93420376,15.87527464,14.3,14.611,17520.8340137925031266,1164.12714831,0,0,0,15.05061886
1632441600000,2021-09-24 00:00:00,BTCST/USDT,16.87537101,17.22054429,14.58,15.18961403,72829.236261307382196,4524.64734212,0,0,0,16.0961133
1632355200000,2021-09-23 00:00:00,BTCST/USDT,16.30929908,17.84243152,15.138262,17.25,89056.0033347368237359,5347.19350793,0,0,0,16.65471863
1632268800000,2021-09-22 00:00:00,BTCST/USDT,14.64531536,17.26316573,14.64531536,16.53,108039.063182231125245,6758.7598967,0,0,0,15.98504235
1632182400000,2021-09-21 00:00:00,BTCST/USDT,14.43000001,16.17608429,14.26116472,14.26116472,34857.2659231752405324,2222.28376951,0,0,0,15.68533524
1632096000000,2021-09-20 00:00:00,BTCST/USDT,17.91321234,17.92485034,15.82,15.96067866,23177.5032274561907875,1420.97222765,0,0,0,16.31101775
1632009600000,2021-09-19 00:00:00,BTCST/USDT,19.07415309,19.07415309,18.15462567,18.15462567,14275.8683766192280212,760.24479711,0,0,0,18.77798892
1631923200000,2021-09-18 00:00:00,BTCST/USDT,18.54625647,19.32483985,18.54625647,18.73292313,30687.3153498208291398,1593.40530771,0,0,0,19.25895138
1631836800000,2021-09-17 00:00:00,BTCST/USDT,19.57,19.73103402,18.54843126,18.63954161,76071.914750380960632,3993.56484488,0,0,0,19.0486239
1631750400000,2021-09-16 00:00:00,BTCST/USDT,19.32864194,22,19.02849012,19.71408564,33953.6231918122158653,1734.60399841,0,0,0,19.57427933
1631664000000,2021-09-15 00:00:00,BTCST/USDT,18.99857743,20.01,18.54516537,20.01,28840.8412819740127041,1520.79871113,0,0,0,18.96427257
1631577600000,2021-09-14 00:00:00,BTCST/USDT,18.24814732,20.06199999,17.62977871,18.57743493,72604.5208432506265628,3903.31230614,0,0,0,18.60074602
1631491200000,2021-09-13 00:00:00,BTCST/USDT,19.08003196,19.08003196,17.166,18.19254976,38901.3798260914988535,2203.94162395,0,0,0,17.65082133
1631404800000,2021-09-12 00:00:00,BTCST/USDT,20.48701348,20.48701348,18.72466914,18.95091536,15968.1566946800044448,824.21258908,0,0,0,19.37383256
1631318400000,2021-09-11 00:00:00,BTCST/USDT,18.62544511,19.22488661,18.62544511,19.22488661,14863.2260616544438548,790.11952092,0,0,0,18.81136419
1631232000000,2021-09-10 00:00:00,BTCST/USDT,19.65287266,20.04666107,18.42,18.5026648,43394.76403461320226,2327.5533729,0,0,0,18.6439394
1631145600000,2021-09-09 00:00:00,BTCST/USDT,19.41903141,22,18.10000005,19.78,33627.6033744641116488,1694.69699262,0,0,0,19.84284124
1631059200000,2021-09-08 00:00:00,BTCST/USDT,19.19,22,19.15,19.29518399,44728.7893986566925864,2330.29616664,0,0,0,19.19446551
1630972800000,2021-09-07 00:00:00,BTCST/USDT,23.95430001,24.97,19,19.47777611,78354.8840316993245066,3429.79941634,0,0,0,22.84532549
1630886400000,2021-09-06 00:00:00,BTCST/USDT,25.13118173,26.5,24.14786978,24.55429359,46268.793383933724285,1850.7103705,0,0,0,25.00055877
1630800000000,2021-09-05 00:00:00,BTCST/USDT,22.333,27.09999989,22.22,25.5,202676.043550835099725,8570.54660425,0,0,0,23.6479717
1630713600000,2021-09-04 00:00:00,BTCST/USDT,22.01945718,23.476,21.97568574,22,1689.7019130116256378,75.56182946,0,0,0,22.36184493
1630627200000,2021-09-03 00:00:00,BTCST/USDT,22.60000001,23.512,22.07256126,22.07256126,1464.319865766482868,64.79867992,0,0,0,22.59798915
1630540800000,2021-09-02 00:00:00,BTCST/USDT,22.35,24.43858691,22.2,22.60000001,26513.647937418402999,1183.8256083,0,0,0,22.39658253
1630454400000,2021-09-01 00:00:00,BTCST/USDT,22.0753066,27.09999988,21.13810263,22.53005836,57366.2487097336464076,2603.97184309,0,0,0,22.03028764
1630368000000,2021-08-31 00:00:00,BTCST/USDT,22.29288319,22.79360305,21.912,21.912,9881.924415389851932,439.92582654,0,0,0,22.4627058
1630281600000,2021-08-30 00:00:00,BTCST/USDT,22.6226516,22.6226516,22.22377203,22.22829412,13445.9361671014870292,595.29263386,0,0,0,22.58710322
1630195200000,2021-08-29 00:00:00,BTCST/USDT,23.59,23.8,22.45917934,23.0999463,48438.9472623734516168,2046.95500844,0,0,0,23.66390422
1630108800000,2021-08-28 00:00:00,BTCST/USDT,24.7,24.9,23.16392844,23.45951987,35062.863387128755678,1441.88987885,0,0,0,24.31729628
1630022400000,2021-08-27 00:00:00,BTCST/USDT,22.8,23.95,21.57595417,23.87851116,67874.6979722110482105,2949.56698985,0,0,0,23.01174993
1629936000000,2021-08-26 00:00:00,BTCST/USDT,24.18969417,25,22.82566258,23.14745411,47701.2178584481208799,1926.20139267,0,0,0,24.76439797
1629849600000,2021-08-25 00:00:00,BTCST/USDT,22.79825241,24.56180088,22.71272788,24.56180088,1007.6369483671663296,43.39100972,0,0,0,23.22225168
1629763200000,2021-08-24 00:00:00,BTCST/USDT,24.62957475,27.09999998,22.58575684,23.45400274,8312.8502033736381525,354.23349405,0,0,0,23.46714905
1629676800000,2021-08-23 00:00:00,BTCST/USDT,24.35374199,25.16418044,24.28313251,24.98494033,1887.702208488663931,75.63181094,0,0,0,24.95910365
1629590400000,2021-08-22 00:00:00,BTCST/USDT,24.00893957,25.16418043,23.8228784,23.8228784,102.99183702366963,4.29348225,0,0,0,23.98794988
1629504000000,2021-08-21 00:00:00,BTCST/USDT,24.17915812,25.16418043,23.70304162,24.13737386,356.2952671117461501,14.79305619,0,0,0,24.08530479
1629417600000,2021-08-20 00:00:00,BTCST/USDT,24.69272972,24.69272972,23.64553798,24.16437275,308.4163580918896644,12.73281324,0,0,0,24.22216931
1629331200000,2021-08-19 00:00:00,BTCST/USDT,24.1033527,27.1,23.18039896,23.8794704,739.3278628677253448,29.96327332,0,0,0,24.67446914
1629244800000,2021-08-18 00:00:00,BTCST/USDT,24.48568089,25.28499953,23.55286136,23.55286136,666.064458201265907,27.55928665,0,0,0,24.16842158
1629158400000,2021-08-17 00:00:00,BTCST/USDT,25.96436791,26.8,25.66699899,26.8,0,0,0,0,0,26.64486369
1629072000000,2021-08-16 00:00:00,BTCST/USDT,25.96436791,26.8,25.66699899,26.8,62704.4732459317423791,2353.34186639,0,0,0,26.64486369
1628985600000,2021-08-15 00:00:00,BTCST/USDT,24.51988787,25,19,24.98770913,22645.938947100221036,1021.2852238,0,0,0,22.17396122
1628899200000,2021-08-14 00:00:00,BTCST/USDT,24.57528033,26.79999999,22.90000128,22.90000128,7411.8269914563507225,299.79573825,0,0,0,24.72292313
1628812800000,2021-08-13 00:00:00,BTCST/USDT,23.83022369,26.79999959,23.1,24.73704054,33114.0506492725945479,1360.40902079,0,0,0,24.34124601
1628726400000,2021-08-12 00:00:00,BTCST/USDT,25.16955588,25.70546117,22.4089457,23.83022369,6452.7217585429837612,270.18371596,0,0,0,23.88271897
1628640000000,2021-08-11 00:00:00,BTCST/USDT,23.58930351,25.16494798,23.15461447,24.5052403,8966.6079700726138415,362.54925083,0,0,0,24.73211005
1628553600000,2021-08-10 00:00:00,BTCST/USDT,24.99999998,24.99999999,21,23.25594498,2360.6375280798597133,103.38568009,0,0,0,22.83331237
1628467200000,2021-08-09 00:00:00,BTCST/USDT,23.133786,25.02911317,23.03674681,25,0,0,0,0,0,24.87899285
1628380800000,2021-08-08 00:00:00,BTCST/USDT,23.133786,25.02911317,23.03674681,25,3082.9288759741081535,123.91694851,0,0,0,24.87899285
1628294400000,2021-08-07 00:00:00,BTCST/USDT,20.91839511,25.36839678,20.91839511,23.44126333,56438.3830900455818112,2284.12824836,0,0,0,24.70893792
1628208000000,2021-08-06 00:00:00,BTCST/USDT,18.73239995,20.03498637,17.77031937,19.18632975,1433.4736908879047298,75.19988234,0,0,0,19.06217997
1628121600000,2021-08-05 00:00:00,BTCST/USDT,17.71515962,18.87035735,17.24925963,18.82676284,2532.7550007945892546,135.49867549,0,0,0,18.69210154
1628035200000,2021-08-04 00:00:00,BTCST/USDT,17.0814,18.60050124,16.7088629,17.99618133,656.9557158595936908,37.38683831,0,0,0,17.57184468
1627948800000,2021-08-03 00:00:00,BTCST/USDT,17.53731396,17.53731396,16.90259531,16.90259531,351.2210143005247365,20.23132743,0,0,0,17.36025555
1627862400000,2021-08-02 00:00:00,BTCST/USDT,17.79454165,18.115172,15.90653709,17.39379983,589.618297723941822,33.0487899,0,0,0,17.84084378
1627776000000,2021-08-01 00:00:00,BTCST/USDT,17.85813653,18.96697126,17.60083509,18.4383273,1393.8633250696711392,76.34482168,0,0,0,18.25747044
1627689600000,2021-07-31 00:00:00,BTCST/USDT,17.08283763,17.81060816,15.72220791,17.74246386,664.5121758014095603,37.93599199,0,0,0,17.51666797
1627603200000,2021-07-30 00:00:00,BTCST/USDT,16.989267,18.4060665,16.1,17.18494311,1230.706431642916557,71.66646774,0,0,0,17.17269555
1627516800000,2021-07-29 00:00:00,BTCST/USDT,17.24292264,17.77803459,16.99924489,17.03673435,319.2384088308639708,18.57965428,0,0,0,17.18215011
1627430400000,2021-07-28 00:00:00,BTCST/USDT,16.59930127,18.15173268,15.9715269,17.23129133,773.8008830737903982,45.49314638,0,0,0,17.00917489
1627344000000,2021-07-27 00:00:00,BTCST/USDT,15.64314406,17.52503463,15.52907524,16.59805041,994.8049544233327786,60.21266657,0,0,0,16.52152298
1627257600000,2021-07-26 00:00:00,BTCST/USDT,16.74171648,21,16.74171648,18.40162435,2351.3218274982027604,121.36910132,0,0,0,19.37331497
1627171200000,2021-07-25 00:00:00,BTCST/USDT,14.86859588,16.26869738,14.45243978,16.26869738,977.0395205552767205,66.51623603,0,0,0,14.68873735
1627084800000,2021-07-24 00:00:00,BTCST/USDT,14.80028263,15.44555762,14.4909676,15.17860917,11779.7001829845438552,790.10627028,0,0,0,14.90900734
1626998400000,2021-07-23 00:00:00,BTCST/USDT,14.46462952,14.90763673,13.00000001,14.90763673,324.73298086868322,22.49597565,0,0,0,14.4351588
1626912000000,2021-07-22 00:00:00,BTCST/USDT,15,15.10512936,11.00000021,14.90763674,375.1369077680330502,28.26418821,0,0,0,13.27251662
1626825600000,2021-07-21 00:00:00,BTCST/USDT,13.74375906,15,13.74375906,15,127.698276919325847,8.63278851,0,0,0,14.7922397
1626739200000,2021-07-20 00:00:00,BTCST/USDT,16.29917727,16.29917727,11.97411989,11.97411989,179.5854031792502088,12.95809196,0,0,0,13.85893878
1626652800000,2021-07-19 00:00:00,BTCST/USDT,13.75933901,18.08394,13.75933901,16.54414662,2098.498028863496928,119.2679408,0,0,0,17.59482066
1626566400000,2021-07-18 00:00:00,BTCST/USDT,13.80562491,13.80562491,13.80562491,13.80562491,14.1589115417281455,1.02559005,0,0,0,13.80562491
1626480000000,2021-07-17 00:00:00,BTCST/USDT,13.66319675,15.26224619,13.66319675,14.77759907,361.0568876466059846,25.01409077,0,0,0,14.43413998
1626393600000,2021-07-16 00:00:00,BTCST/USDT,15.95605437,17.72,15,15,1357.8517015676795515,89.84434957,0,0,0,15.11337895
1626307200000,2021-07-15 00:00:00,BTCST/USDT,15.5853141,17.72,15.5853141,16.18273149,103.1010025934457212,6.30005876,0,0,0,16.36508587
1626220800000,2021-07-14 00:00:00,BTCST/USDT,16.43418502,16.74646693,16.07461416,16.64825322,881.1118547868426872,53.36389832,0,0,0,16.51138471
1626134400000,2021-07-13 00:00:00,BTCST/USDT,17.43844709,18.81084461,17.16850391,17.72988453,256.9539445683231676,14.59264043,0,0,0,17.60846132
1626048000000,2021-07-12 00:00:00,BTCST/USDT,18.4,18.46108266,16.875716,16.875716,230.9073515054413598,12.82967083,0,0,0,17.99791706
1625961600000,2021-07-11 00:00:00,BTCST/USDT,18.01198809,18.81084461,17.22954168,18.81084461,109.5323938539869448,6.23548503,0,0,0,17.56597816
1625875200000,2021-07-10 00:00:00,BTCST/USDT,18.21218585,18.21218585,16.33837996,16.33837996,65.9603297053193955,3.76785493,0,0,0,17.50606935
1625788800000,2021-07-09 00:00:00,BTCST/USDT,17.60132169,18.81084461,17.46569667,17.79288,369.2945601640073373,20.53531137,0,0,0,17.98339229
1625702400000,2021-07-08 00:00:00,BTCST/USDT,18.67646256,20.165,17.17865272,17.17865272,1462.4494333266034014,79.37811217,0,0,0,18.42383742
1625616000000,2021-07-07 00:00:00,BTCST/USDT,19.53260988,19.53260988,19.53260988,19.53260988,21.4343999017269156,1.09736487,0,0,0,19.53260988
1625529600000,2021-07-06 00:00:00,BTCST/USDT,19.28558336,21.5,18.72504912,20.67973777,655.8679169251873785,33.11485407,0,0,0,19.80585255
1625443200000,2021-07-05 00:00:00,BTCST/USDT,19.09225417,20.10933342,18.21746542,18.87417809,1876.7039242342838733,95.88739017,0,0,0,19.57195749
1625356800000,2021-07-04 00:00:00,BTCST/USDT,18.52219018,20.40627492,16.73331464,19.56092175,2017.733585751571212,104.5563148,0,0,0,19.29805569
1625270400000,2021-07-03 00:00:00,BTCST/USDT,17.5656811,19.5724341,17.5656811,18.15596954,313.9529574063689664,16.76457607,0,0,0,18.72716352
1625184000000,2021-07-02 00:00:00,BTCST/USDT,17.51301738,17.6678948,17.51301738,17.5656811,78.459048951097971,4.46353395,0,0,0,17.57778698
1625097600000,2021-07-01 00:00:00,BTCST/USDT,18.61713985,20.25902836,18.11658411,18.48939539,968.3926018092158469,51.43523281,0,0,0,18.82741749
1625011200000,2021-06-30 00:00:00,BTCST/USDT,19.76705431,21.5,18.54898865,19.2950679,3625.590464970528045,181.56356583,0,0,0,19.9687115
1624924800000,2021-06-29 00:00:00,BTCST/USDT,19.33964862,21.49999999,19.20313536,20.10424583,676.9509931104274116,33.29099421,0,0,0,20.33435796
1624838400000,2021-06-28 00:00:00,BTCST/USDT,18.40641224,19.62156982,17.86844834,18.98127096,3513.1866182917004172,188.44699398,0,0,0,18.64283714
1624752000000,2021-06-27 00:00:00,BTCST/USDT,17.77662583,18.53740934,16.73331462,17.7524567,2847.7659858495579648,168.37159552,0,0,0,16.91357724
1624665600000,2021-06-26 00:00:00,BTCST/USDT,18.18675252,18.91018317,16.61074918,16.91224805,1012.3370845289770726,57.52208413,0,0,0,17.59910302
1624579200000,2021-06-25 00:00:00,BTCST/USDT,20.48251948,24.14181003,20.48251948,21.95732137,697.263211706291325,32.2619337,0,0,0,21.61256725
1624492800000,2021-06-24 00:00:00,BTCST/USDT,20.62277478,21.78612437,20.00000001,21.03789768,331.30123794087372,15.942438,0,0,0,20.78108994
1624406400000,2021-06-23 00:00:00,BTCST/USDT,18.74204693,20.10017828,16.73128857,19.48863039,4386.8955021862874008,235.15991831,0,0,0,18.65494568
1624320000000,2021-06-22 00:00:00,BTCST/USDT,17.29379111,18.74403443,11.00000001,18.07921313,5904.4052056152777552,341.78793328,0,0,0,17.27505459
1624233600000,2021-06-21 00:00:00,BTCST/USDT,23.44642625,23.44642625,17.75793246,17.75793246,4034.604460571805246,188.91589007,0,0,0,21.3566178
1624147200000,2021-06-20 00:00:00,BTCST/USDT,24.24266209,24.74696,22.56207264,24.65379761,9316.82017359261052,389.6789032,0,0,0,23.90896735
1624060800000,2021-06-19 00:00:00,BTCST/USDT,26.4307057,30.65828504,22.00000003,25.29184,58370.443870822953692,2310.0154534,0,0,0,25.26842138
1623974400000,2021-06-18 00:00:00,BTCST/USDT,28.65284428,28.88336311,26,26,14343.748196964763313,524.7308407,0,0,0,27.33543959
1623888000000,2021-06-17 00:00:00,BTCST/USDT,28.56735314,29.26469728,28.56735314,28.8,13125.1482189799940722,456.31915619,0,0,0,28.76308838
1623801600000,2021-06-16 00:00:00,BTCST/USDT,29.4407263,32,28.47521133,28.8438282,3122.35727799639736,104.96197616,0,0,0,29.7475085
1623715200000,2021-06-15 00:00:00,BTCST/USDT,29.82654556,31.17614951,27.95152183,29.44009453,17463.7255612813048357,591.82381331,0,0,0,29.50831847
1623628800000,2021-06-14 00:00:00,BTCST/USDT,28.34586017,31.7153027,28.34586014,29.68662789,18701.26429749448766,627.985354,0,0,0,29.77977779
1623542400000,2021-06-13 00:00:00,BTCST/USDT,26.38320179,29.51209159,25.83786061,25.83786061,3809.9076671867479215,135.07895047,0,0,0,28.20504345
1623456000000,2021-06-12 00:00:00,BTCST/USDT,27.26819223,27.82047171,25.42801173,27.59459127,8351.16458523351744,317.224878,0,0,0,26.32569248
1623369600000,2021-06-11 00:00:00,BTCST/USDT,28.40527055,29.72717889,26.95599431,26.95599431,24493.95203600795823,851.3912646,0,0,0,28.76932505
1623283200000,2021-06-10 00:00:00,BTCST/USDT,29.89281216,30.66260415,27.38317541,28.97252376,15924.39736732884714,541.1657235,0,0,0,29.42610124
1623196800000,2021-06-09 00:00:00,BTCST/USDT,29.40855312,30.99999966,28.32972717,29.27993867,44211.2176424355213004,1478.16577127,0,0,0,29.90951252
1623110400000,2021-06-08 00:00:00,BTCST/USDT,30.72078329,30.92572472,26.0179991,30.09999966,21059.3022249293067392,732.68457926,0,0,0,28.74265792
1623024000000,2021-06-07 00:00:00,BTCST/USDT,33.65914452,34.16919564,30.05600552,30.05600552,19557.5419346451226056,595.78401654,0,0,0,32.82656364
1622937600000,2021-06-06 00:00:00,BTCST/USDT,33.66981155,34.27166423,33.1681357,33.30874716,8273.1596773257622328,247.14655828,0,0,0,33.47471126
1622851200000,2021-06-05 00:00:00,BTCST/USDT,35.04684804,35.55818357,33.68776917,33.86525628,5091.0218474138738046,147.94106289,0,0,0,34.41250014
1622764800000,2021-06-04 00:00:00,BTCST/USDT,38.77831113,38.77831113,33.5,35.24612998,42747.7141017876313191,1202.37086173,0,0,0,35.55285267
1622678400000,2021-06-03 00:00:00,BTCST/USDT,35.83536632,38.77831113,35.83536591,38.77831113,40908.3747023729786866,1081.01424346,0,0,0,37.84258621
1622592000000,2021-06-02 00:00:00,BTCST/USDT,35.07692793,37.88633269,34.85706386,36.83895974,27006.4288264700762595,733.94896505,0,0,0,36.79605819
1622505600000,2021-06-01 00:00:00,BTCST/USDT,38.94591586,39.73669067,34.92217036,34.92217036,26003.3510625146534256,701.05570426,0,0,0,37.09170456
1622419200000,2021-05-31 00:00:00,BTCST/USDT,34.17590641,38.6999243,33.57073877,38.6999243,12653.8335052652139547,357.58810117,0,0,0,35.38661791
1622332800000,2021-05-30 00:00:00,BTCST/USDT,34.10808792,40.00000001,34.10808792,36.41310383,32945.9560321091298396,889.60198407,0,0,0,37.03449028
1622246400000,2021-05-29 00:00:00,BTCST/USDT,38.51697909,38.51697909,32,33.99999999,16561.1296927987045263,469.95662979,0,0,0,35.23969797
1622160000000,2021-05-28 00:00:00,BTCST/USDT,41.91779287,43.69759998,35.59926009,38.03370176,47710.9133210920031562,1243.79520087,0,0,0,38.35913926
1622073600000,2021-05-27 00:00:00,BTCST/USDT,38.93767428,48.99625733,36.214162,44.20985367,125006.825837677214156,3119.95575845,0,0,0,40.06685848
1621987200000,2021-05-26 00:00:00,BTCST/USDT,33.11008491,38.9146193,33.11008491,38.79999831,47384.9854442743567974,1256.18192358,0,0,0,37.72143553
1621900800000,2021-05-25 00:00:00,BTCST/USDT,38.41553295,40.27044,32,34.36585786,125658.5172521747829695,3453.79726715,0,0,0,36.38271373
1621814400000,2021-05-24 00:00:00,BTCST/USDT,31.99999884,37.92258515,27.15458447,36.48362844,48856.7350177309036476,1518.29351071,0,0,0,32.17871556
1621728000000,2021-05-23 00:00:00,BTCST/USDT,38.70357702,39.43458033,1,27.52705822,30264.3735188129084745,933.56767551,0,0,0,32.41797495
1621641600000,2021-05-22 00:00:00,BTCST/USDT,49.85393746,54.51119997,38.29963938,39.25226753,128710.0274766948012546,2880.44845662,0,0,0,44.68402383
1621555200000,2021-05-21 00:00:00,BTCST/USDT,60,62.77525,43,48.88264632,1019213.7279845359540104,19631.22475158,0,0,0,51.91798988
1621468800000,2021-05-20 00:00:00,BTCST/USDT,56.14252807,63.19043659,53.86002684,59.42815534,256583.7568916547958916,4378.88533289,0,0,0,58.59567844
1621382400000,2021-05-19 00:00:00,BTCST/USDT,71.99999792,74.90902688,55,61.888,1495326.4965626852936643,22437.49822613,0,0,0,66.64408311
1621296000000,2021-05-18 00:00:00,BTCST/USDT,64.93040999,75.52311855,64.9304096,71.41194526,941934.5959676720220562,13263.42919001,0,0,0,71.01742562
1621209600000,2021-05-17 00:00:00,BTCST/USDT,67.7898991,68.83016647,54.77785275,64.93741,469850.7903951771191076,7371.42595653,0,0,0,63.73947092
1621123200000,2021-05-16 00:00:00,BTCST/USDT,66.30799865,73.2467825,63.86204599,69.53112673,294892.637558993470013,4348.8003067,0,0,0,67.81011239
1621036800000,2021-05-15 00:00:00,BTCST/USDT,71.49890007,72.49090245,63.86204547,66.39072331,625248.2244394342806344,9096.28858709,0,0,0,68.73663016
1620950400000,2021-05-14 00:00:00,BTCST/USDT,59.46120999,75,59.46120999,71,1524153.9357735130790832,22204.66621416,0,0,0,68.64115502
1620864000000,2021-05-13 00:00:00,BTCST/USDT,58.36039684,63.85462604,55.03664583,59.46120999,256846.193219078351244,4375.2550914,0,0,0,58.70427846
1620777600000,2021-05-12 00:00:00,BTCST/USDT,70.03997124,70.03997125,59.47772339,59.47772339,216082.5802273699612209,3294.41796933,0,0,0,65.59051773
1620691200000,2021-05-11 00:00:00,BTCST/USDT,67.18215688,68.02686924,64.7581682,67.70218543,195735.2889800766656584,2985.79647874,0,0,0,65.55546916
1620604800000,2021-05-10 00:00:00,BTCST/USDT,69.60128076,72.1,64.21416983,65.49999999,279012.9303023284265628,4062.73931323,0,0,0,68.67606036
1620518400000,2021-05-09 00:00:00,BTCST/USDT,71.80117702,76.10922472,67.00000001,69.54591716,435767.1879738742190333,6129.09186683,0,0,0,71.09816551
1620432000000,2021-05-08 00:00:00,BTCST/USDT,68.53551543,78.99997885,68.53551543,71.80117702,714126.768250182901008,9722.59580595,0,0,0,73.45021664
1620345600000,2021-05-07 00:00:00,BTCST/USDT,71.90000787,74.00000002,68.53551543,68.53551543,480983.6392059805252356,6728.71466271,0,0,0,71.48224636
1620259200000,2021-05-06 00:00:00,BTCST/USDT,69.500006,74,67.96000196,72,637148.4342933145518048,8883.49406136,0,0,0,71.72272868
1620172800000,2021-05-05 00:00:00,BTCST/USDT,63.30681678,71.99999999,62.71422302,69.30000486,530969.94044633464541,7757.00527525,0,0,0,68.45037764
1620086400000,2021-05-04 00:00:00,BTCST/USDT,70.00000002,70.00000002,63.30681678,63.30681678,247837.892295654520676,3711.58989647,0,0,0,66.7740508
1620000000000,2021-05-03 00:00:00,BTCST/USDT,72.00000003,73.99999999,70.74655203,70.74655203,161321.9930171527846014,2223.25015869,0,0,0,72.56133206
1619913600000,2021-05-02 00:00:00,BTCST/USDT,74.44400001,74.44400001,72.00000003,72.00000003,103110.2522870659764824,1386.94244312,0,0,0,74.34356977
1619827200000,2021-05-01 00:00:00,BTCST/USDT,75.56359916,77.2817615,73.00000001,76.10217818,203851.2366002660887806,2681.30263054,0,0,0,76.02694089
1619740800000,2021-04-30 00:00:00,BTCST/USDT,70.92602402,79.17913489,70.92602402,76.01130905,648965.7059578492487456,8436.30402484,0,0,0,76.92535784
1619654400000,2021-04-29 00:00:00,BTCST/USDT,69.30000008,71.95647194,67.26499962,67.9025716,620893.9289708149406951,8970.64974491,0,0,0,69.21393061
1619568000000,2021-04-28 00:00:00,BTCST/USDT,73.61002781,75.15381223,66.16570924,68.93580411,330837.43598661945351,4728.02686415,0,0,0,69.9736794
1619481600000,2021-04-27 00:00:00,BTCST/USDT,70.19999695,75.9538401,68.43000045,73.61000216,476764.349726917952337,6649.30030106,0,0,0,71.70143145
1619395200000,2021-04-26 00:00:00,BTCST/USDT,60.81216949,70.5,60.81216948,67.54929914,518997.3605246254724671,8013.46170529,0,0,0,64.76568799
1619308800000,2021-04-25 00:00:00,BTCST/USDT,57.45,59.159445,55,55,99870.7053979037667451,1792.13225081,0,0,0,55.72730771
1619222400000,2021-04-24 00:00:00,BTCST/USDT,57.75800373,60.17981101,55.87306043,57.45,34547.135325324381013,602.39099695,0,0,0,57.35001934
1619136000000,2021-04-23 00:00:00,BTCST/USDT,60.59462775,63.99999393,55,60.81224043,690689.394485105457819,12372.33788778,0,0,0,55.82529355
1619049600000,2021-04-22 00:00:00,BTCST/USDT,65.47001157,70.1333,55,62.52894322,1583348.6186747086645286,27134.38119794,0,0,0,58.35211819
1618963200000,2021-04-21 00:00:00,BTCST/USDT,72.12121207,73.92954,65.81818181,66.37344,346676.1028595653986274,4875.98328691,0,0,0,71.09870614
1618876800000,2021-04-20 00:00:00,BTCST/USDT,60.81022718,72.13883333,58.62689294,71.33333333,299735.890095894786378,4638.46980753,0,0,0,64.6195626
1618790400000,2021-04-19 00:00:00,BTCST/USDT,61.56570602,73,58,60.81000703,1232461.0920049442751672,18217.77097762,0,0,0,67.65158556
1618704000000,2021-04-18 00:00:00,BTCST/USDT,72.32812487,72.32812488,56,65.1531183,1276387.23145669675114,19359.62106358,0,0,0,65.930383
1618617600000,2021-04-17 00:00:00,BTCST/USDT,75.69999695,80,67.7212622,70.39427331,1089368.03970186823722,14628.9953948,0,0,0,74.46636015
1618531200000,2021-04-16 00:00:00,BTCST/USDT,86.62686567,87,75,76.11940298,1022233.8694150528274923,12689.21692397,0,0,0,80.55925559
1618444800000,2021-04-15 00:00:00,BTCST/USDT,86.14925373,90,82.80597014,87.10447761,1749601.7501129261389942,19837.26823171,0,0,0,88.19771602
1618358400000,2021-04-14 00:00:00,BTCST/USDT,81.11864495,88,71,86.62686567,2974772.8985640434619752,37410.05053907,0,0,0,79.51801336
1618272000000,2021-04-13 00:00:00,BTCST/USDT,81.317976,88,68.50847457,82.56095255,20971323.8997102988747875,248143.65284907,0,0,0,84.51283625
1618185600000,2021-04-12 00:00:00,BTCST/USDT,59.36999886,85,59.36999884,78.59100243,55667053.8281296057120775,737571.67608215,0,0,0,75.47341585
1618099200000,2021-04-11 00:00:00,BTCST/USDT,59.60363467,61.7777,54.79999932,58,7215412.0381622682399855,121303.80349365,0,0,0,59.48215827
1618012800000,2021-04-10 00:00:00,BTCST/USDT,52.0999999,63,52.0999999,59.60363315,11358094.2959886037614904,196293.92782232,0,0,0,57.86268797
1617926400000,2021-04-09 00:00:00,BTCST/USDT,54.02150155,56.4,47.09485552,51,9422613.22042719117922,181597.46669764,0,0,0,51.8873605
1617840000000,2021-04-08 00:00:00,BTCST/USDT,56.79000001,63.18384999,51,54.02150155,8251641.6275441468612936,140840.57085287,0,0,0,58.58852728
1617753600000,2021-04-07 00:00:00,BTCST/USDT,65.59999999,65.8,55.5,56.84,10892425.0314181732952236,188920.19174732,0,0,0,57.65622473
1617667200000,2021-04-06 00:00:00,BTCST/USDT,63.97499997,65.6,56,65.2,10214523.6619733259929242,164799.01707749,0,0,0,61.98170258
