https://www.CryptoDataDownload.com
unix,date,symbol,open,high,low,close,Volume SHPING,Volume USDT,buyTakerAmount,buyTakerQuantity,tradeCount,weightedAverage
1694995200000,2023-09-18 00:00:00,SHPING/USDT,0.0054,0.0054,0.0054,0.0054,0,0,0,0,0,0.00582
1694908800000,2023-09-17 00:00:00,SHPING/USDT,0.0054,0.0054,0.0054,0.0054,0,0,0,0,0,0.00582
1694822400000,2023-09-16 00:00:00,SHPING/USDT,0.0054,0.0054,0.0054,0.0054,0,0,0,0,0,0.00582
1694736000000,2023-09-15 00:00:00,SHPING/USDT,0.0054,0.0054,0.0054,0.0054,0,0,0,0,0,0.00582
1694649600000,2023-09-14 00:00:00,SHPING/USDT,0.0054,0.0054,0.0054,0.0054,0,0,0,0,0,0.00582
1694563200000,2023-09-13 00:00:00,SHPING/USDT,0.0054,0.0054,0.0054,0.0054,0,0,0,0,0,0.00582
1694476800000,2023-09-12 00:00:00,SHPING/USDT,0.0054,0.0054,0.0054,0.0054,0,0,0,0,0,0.00582
1694390400000,2023-09-11 00:00:00,SHPING/USDT,0.0054,0.0054,0.0054,0.0054,0,0,0,0,0,0.00582
1694304000000,2023-09-10 00:00:00,SHPING/USDT,0.0054,0.0054,0.0054,0.0054,0,0,0,0,0,0.00582
1694217600000,2023-09-09 00:00:00,SHPING/USDT,0.0054,0.0054,0.0054,0.0054,0,0,0,0,0,0.00582
1694131200000,2023-09-08 00:00:00,SHPING/USDT,0.00499,0.00783,0.00499,0.0054,17.88817,3098.936,9.10898,1551.019,8,0.00582
1694044800000,2023-09-07 00:00:00,SHPING/USDT,0.00428,0.00797,0.0039,0.0054,25.24487,5144.396,15.53914,3262.277,13,0.00507
1693958400000,2023-09-06 00:00:00,SHPING/USDT,0.00415,0.00415,0.00415,0.00415,0,0,0,0,0,0.00415
1693872000000,2023-09-05 00:00:00,SHPING/USDT,0.00416,0.00416,0.00415,0.00415,160.99915,38777.342,0,0,3,0.00415
1693785600000,2023-09-04 00:00:00,SHPING/USDT,0.00443,0.00443,0.00416,0.00416,2.53368,576.785,0.3528,79.639,3,0.00439
1693699200000,2023-09-03 00:00:00,SHPING/USDT,0.00398,0.00989,0.00348,0.00348,94.24892,17616.762,62.24758,11904.218,15,0.00549
1693612800000,2023-09-02 00:00:00,SHPING/USDT,0.00322,0.00322,0.00251,0.00258,3.09151,1078.931,1.7388,540,3,0.0029
1693526400000,2023-09-01 00:00:00,SHPING/USDT,0.00304,0.00323,0.00233,0.00239,22.98389,7932.612,21.6698,7382.783,7,0.00293
1693440000000,2023-08-31 00:00:00,SHPING/USDT,0.0023,0.00268,0.00202,0.00202,24.92618,10652.992,19.66719,8049.535,6,0.00235
1693353600000,2023-08-30 00:00:00,SHPING/USDT,0.00247,0.00248,0.00247,0.00248,19.87435,8032.128,19.87435,8032.128,2,0.00247
1693267200000,2023-08-29 00:00:00,SHPING/USDT,0.00267,0.00267,0.00267,0.00267,0,0,0,0,0,0.00239
1693180800000,2023-08-28 00:00:00,SHPING/USDT,0.00267,0.00267,0.00267,0.00267,0,0,0,0,0,0.00239
1693094400000,2023-08-27 00:00:00,SHPING/USDT,0.00267,0.00267,0.00267,0.00267,0,0,0,0,0,0.00239
1693008000000,2023-08-26 00:00:00,SHPING/USDT,0.00222,0.00267,0.00222,0.00267,7.39809,3104.17,6.29809,2608.675,4,0.00239
1692921600000,2023-08-25 00:00:00,SHPING/USDT,0.00222,0.00222,0.00222,0.00222,0,0,0,0,0,0.00223
1692835200000,2023-08-24 00:00:00,SHPING/USDT,0.00224,0.00224,0.00222,0.00222,6.17038,2765.962,0,0,4,0.00223
1692748800000,2023-08-23 00:00:00,SHPING/USDT,0.00223,0.00223,0.00223,0.00223,0,0,0,0,0,0.00223
1692662400000,2023-08-22 00:00:00,SHPING/USDT,0.00223,0.00223,0.00223,0.00223,0,0,0,0,0,0.00223
1692576000000,2023-08-21 00:00:00,SHPING/USDT,0.00223,0.00223,0.00223,0.00223,0,0,0,0,0,0.00223
1692489600000,2023-08-20 00:00:00,SHPING/USDT,0.00223,0.00223,0.00223,0.00223,0,0,0,0,0,0.00223
1692403200000,2023-08-19 00:00:00,SHPING/USDT,0.00223,0.00223,0.00223,0.00223,0,0,0,0,0,0.00223
1692316800000,2023-08-18 00:00:00,SHPING/USDT,0.00223,0.00223,0.00223,0.00223,0,0,0,0,0,0.00223
1692230400000,2023-08-17 00:00:00,SHPING/USDT,0.00223,0.00223,0.00223,0.00223,0,0,0,0,0,0.00223
1692144000000,2023-08-16 00:00:00,SHPING/USDT,0.00224,0.00224,0.00223,0.00223,2.31433,1035.016,0,0,2,0.00223
1692057600000,2023-08-15 00:00:00,SHPING/USDT,0.00223,0.00223,0.00223,0.00223,0,0,0,0,0,0.00223
1691971200000,2023-08-14 00:00:00,SHPING/USDT,0.00223,0.00223,0.00223,0.00223,0,0,0,0,0,0.00223
1691884800000,2023-08-13 00:00:00,SHPING/USDT,0.00223,0.00223,0.00223,0.00223,0,0,0,0,0,0.00223
1691798400000,2023-08-12 00:00:00,SHPING/USDT,0.00223,0.00223,0.00223,0.00223,0,0,0,0,0,0.00223
1691712000000,2023-08-11 00:00:00,SHPING/USDT,0.00224,0.00224,0.00223,0.00223,5.40166,2411.882,0,0,2,0.00223
1691625600000,2023-08-10 00:00:00,SHPING/USDT,0.0022,0.0022,0.0022,0.0022,0,0,0,0,0,0.00266
1691539200000,2023-08-09 00:00:00,SHPING/USDT,0.0022,0.0022,0.0022,0.0022,0,0,0,0,0,0.00266
1691452800000,2023-08-08 00:00:00,SHPING/USDT,0.00282,0.00282,0.0022,0.0022,33.46329,12642.103,0,0,7,0.00266
1691366400000,2023-08-07 00:00:00,SHPING/USDT,0.00365,0.00399,0.00353,0.00353,12.041,3267.875,9.0364,2416.716,4,0.00369
1691280000000,2023-08-06 00:00:00,SHPING/USDT,0.00268,0.00268,0.00268,0.00268,0,0,0,0,0,0.0027
1691193600000,2023-08-05 00:00:00,SHPING/USDT,0.00268,0.00268,0.00268,0.00268,0,0,0,0,0,0.0027
1691107200000,2023-08-04 00:00:00,SHPING/USDT,0.00268,0.00268,0.00268,0.00268,0,0,0,0,0,0.0027
1691020800000,2023-08-03 00:00:00,SHPING/USDT,0.00268,0.00268,0.00268,0.00268,0,0,0,0,0,0.0027
1690934400000,2023-08-02 00:00:00,SHPING/USDT,0.00273,0.00273,0.00268,0.00268,8.92967,3304.635,0,0,2,0.0027
1690848000000,2023-08-01 00:00:00,SHPING/USDT,0.003,0.003,0.003,0.003,0,0,0,0,0,0.003
1690761600000,2023-07-31 00:00:00,SHPING/USDT,0.003,0.003,0.003,0.003,0,0,0,0,0,0.003
1690675200000,2023-07-30 00:00:00,SHPING/USDT,0.003,0.003,0.003,0.003,1.00999,336.666,1.00999,336.666,1,0.003
1690588800000,2023-07-29 00:00:00,SHPING/USDT,0.0024,0.0024,0.0024,0.0024,0.08028,33.45,0,0,1,0.0024
1690502400000,2023-07-28 00:00:00,SHPING/USDT,0.0026,0.0026,0.0026,0.0026,1.17666,452.564,0,0,1,0.0026
1690416000000,2023-07-27 00:00:00,SHPING/USDT,0.0026,0.0026,0.0026,0.0026,0,0,0,0,0,0.0026
1690329600000,2023-07-26 00:00:00,SHPING/USDT,0.0026,0.0026,0.0026,0.0026,0,0,0,0,0,0.0026
1690243200000,2023-07-25 00:00:00,SHPING/USDT,0.0026,0.0026,0.0026,0.0026,0,0,0,0,0,0.0026
1690156800000,2023-07-24 00:00:00,SHPING/USDT,0.0026,0.0026,0.0026,0.0026,0.44966,172.947,0,0,1,0.0026
1690070400000,2023-07-23 00:00:00,SHPING/USDT,0.0031,0.0031,0.0031,0.0031,0,0,0,0,0,0.0031
1689984000000,2023-07-22 00:00:00,SHPING/USDT,0.0031,0.0031,0.0031,0.0031,0,0,0,0,0,0.0031
1689897600000,2023-07-21 00:00:00,SHPING/USDT,0.0031,0.0031,0.0031,0.0031,0,0,0,0,0,0.0031
1689811200000,2023-07-20 00:00:00,SHPING/USDT,0.0031,0.0031,0.0031,0.0031,0,0,0,0,0,0.0031
1689724800000,2023-07-19 00:00:00,SHPING/USDT,0.0031,0.0031,0.0031,0.0031,0,0,0,0,0,0.0031
1689638400000,2023-07-18 00:00:00,SHPING/USDT,0.0031,0.0031,0.0031,0.0031,0,0,0,0,0,0.0031
1689552000000,2023-07-17 00:00:00,SHPING/USDT,0.0031,0.0031,0.0031,0.0031,1.86,600,1.86,600,1,0.0031
1689465600000,2023-07-16 00:00:00,SHPING/USDT,0.0026,0.0026,0.0026,0.0026,0,0,0,0,0,0.0026
1689379200000,2023-07-15 00:00:00,SHPING/USDT,0.0026,0.0026,0.0026,0.0026,0.15932,61.28,0,0,1,0.0026
1689292800000,2023-07-14 00:00:00,SHPING/USDT,0.00273,0.00273,0.00273,0.00273,0,0,0,0,0,0.0029
1689206400000,2023-07-13 00:00:00,SHPING/USDT,0.00273,0.00273,0.00273,0.00273,0,0,0,0,0,0.0029
1689120000000,2023-07-12 00:00:00,SHPING/USDT,0.00273,0.00273,0.00273,0.00273,0,0,0,0,0,0.0029
1689033600000,2023-07-11 00:00:00,SHPING/USDT,0.00273,0.00273,0.00273,0.00273,0,0,0,0,0,0.0029
1688947200000,2023-07-10 00:00:00,SHPING/USDT,0.00273,0.00273,0.00273,0.00273,0,0,0,0,0,0.0029
1688860800000,2023-07-09 00:00:00,SHPING/USDT,0.0031,0.0031,0.00273,0.00273,2.33937,808.821,1.09999,354.838,2,0.0029
1688774400000,2023-07-08 00:00:00,SHPING/USDT,0.00309,0.00309,0.00309,0.00309,0,0,0,0,0,0.00309
1688688000000,2023-07-07 00:00:00,SHPING/USDT,0.00309,0.00309,0.00309,0.00309,34.183,11062.462,34.183,11062.462,1,0.00309
1688601600000,2023-07-06 00:00:00,SHPING/USDT,0.00308,0.00308,0.00308,0.00308,2.44361,793.38,2.44361,793.38,1,0.00308
1688515200000,2023-07-05 00:00:00,SHPING/USDT,0.00305,0.00305,0.00305,0.00305,0,0,0,0,0,0.00305
1688428800000,2023-07-04 00:00:00,SHPING/USDT,0.00305,0.00305,0.00305,0.00305,0,0,0,0,0,0.00305
1688342400000,2023-07-03 00:00:00,SHPING/USDT,0.00305,0.00305,0.00305,0.00305,0,0,0,0,0,0.00305
1688256000000,2023-07-02 00:00:00,SHPING/USDT,0.00305,0.00305,0.00305,0.00305,0,0,0,0,0,0.00305
1688169600000,2023-07-01 00:00:00,SHPING/USDT,0.00305,0.00305,0.00305,0.00305,0,0,0,0,0,0.00305
1688083200000,2023-06-30 00:00:00,SHPING/USDT,0.00305,0.00305,0.00305,0.00305,14.99999,4918.032,14.99999,4918.032,1,0.00305
1687996800000,2023-06-29 00:00:00,SHPING/USDT,0.00273,0.00273,0.00273,0.00273,0,0,0,0,0,0.00306
1687910400000,2023-06-28 00:00:00,SHPING/USDT,0.00342,0.00342,0.00273,0.00273,4.75012,1557.251,0.99999,292.397,4,0.00306
1687824000000,2023-06-27 00:00:00,SHPING/USDT,0.00274,0.00274,0.00274,0.00274,0,0,0,0,0,0.00274
1687737600000,2023-06-26 00:00:00,SHPING/USDT,0.00274,0.00274,0.00274,0.00274,0,0,0,0,0,0.00274
1687651200000,2023-06-25 00:00:00,SHPING/USDT,0.00274,0.00274,0.00274,0.00274,0,0,0,0,0,0.00274
1687564800000,2023-06-24 00:00:00,SHPING/USDT,0.00274,0.00274,0.00274,0.00274,2.17821,794.97,0,0,2,0.00274
1687478400000,2023-06-23 00:00:00,SHPING/USDT,0.00349,0.00349,0.00349,0.00349,0,0,0,0,0,0.00323
1687392000000,2023-06-22 00:00:00,SHPING/USDT,0.00299,0.00349,0.00232,0.00349,15.55511,4880.623,14.00637,4213.065,7,0.00323
1687305600000,2023-06-21 00:00:00,SHPING/USDT,0.00265,0.00298,0.00245,0.00245,94.14159,34763.903,70.63139,25167.902,7,0.00273
1687219200000,2023-06-20 00:00:00,SHPING/USDT,0.00232,0.00232,0.00232,0.00232,0,0,0,0,0,0.00252
1687132800000,2023-06-19 00:00:00,SHPING/USDT,0.00232,0.00232,0.00232,0.00232,0,0,0,0,0,0.00252
1687046400000,2023-06-18 00:00:00,SHPING/USDT,0.00232,0.00232,0.00232,0.00232,0,0,0,0,0,0.00252
1686960000000,2023-06-17 00:00:00,SHPING/USDT,0.00297,0.00297,0.00232,0.00232,21.67509,8682.375,6.99999,2356.902,3,0.00252
1686873600000,2023-06-16 00:00:00,SHPING/USDT,0.00259,0.00297,0.00259,0.00297,5.83051,2004.992,5.83051,2004.992,2,0.00291
1686787200000,2023-06-15 00:00:00,SHPING/USDT,0.00242,0.00242,0.00242,0.00242,0,0,0,0,0,0.00239
1686700800000,2023-06-14 00:00:00,SHPING/USDT,0.00237,0.00242,0.00237,0.00242,3.99999,1670.327,3.99999,1670.327,2,0.00239
1686614400000,2023-06-13 00:00:00,SHPING/USDT,0.00241,0.00253,0.00241,0.00253,75.53341,30038.435,75.53341,30038.435,3,0.00251
1686528000000,2023-06-12 00:00:00,SHPING/USDT,0.00265,0.00265,0.00253,0.00253,5.46506,2111.603,0,0,4,0.00258
1686441600000,2023-06-11 00:00:00,SHPING/USDT,0.00289,0.00289,0.00289,0.00289,0.99999,346.02,0.99999,346.02,1,0.00289
1686355200000,2023-06-10 00:00:00,SHPING/USDT,0.00278,0.00296,0.00255,0.00255,10.61879,3935.263,2.99999,1013.513,5,0.0027
1686268800000,2023-06-09 00:00:00,SHPING/USDT,0.00279,0.00298,0.00278,0.00298,48.60483,17306.845,26.25985,9269.08,6,0.0028
1686182400000,2023-06-08 00:00:00,SHPING/USDT,0.0031,0.0031,0.00308,0.00308,26.5083,8595.079,10.81351,3510.883,7,0.00308
1686096000000,2023-06-07 00:00:00,SHPING/USDT,0.00358,0.04,0.0031,0.0031,1950.34567,203319.565,1202.88455,102381.886,267,0.01895
1686009600000,2023-06-06 00:00:00,SHPING/USDT,0.00398,0.00398,0.00306,0.00306,60.10797,16490.07,39.95943,10740.189,6,0.00365
1685923200000,2023-06-05 00:00:00,SHPING/USDT,0.00316,0.00316,0.00316,0.00316,0,0,0,0,0,0.00316
1685836800000,2023-06-04 00:00:00,SHPING/USDT,0.00316,0.00316,0.00316,0.00316,0,0,0,0,0,0.00316
1685750400000,2023-06-03 00:00:00,SHPING/USDT,0.00316,0.00316,0.00316,0.00316,2.53789,803.132,2.53789,803.132,1,0.00316
1685664000000,2023-06-02 00:00:00,SHPING/USDT,0.00316,0.00316,0.00316,0.00316,0,0,0,0,0,0.00315
1685577600000,2023-06-01 00:00:00,SHPING/USDT,0.00315,0.00316,0.00315,0.00316,1.09899,348.101,1.09899,348.101,2,0.00315
1685491200000,2023-05-31 00:00:00,SHPING/USDT,0.00298,0.00298,0.00298,0.00298,0,0,0,0,0,0.00297
1685404800000,2023-05-30 00:00:00,SHPING/USDT,0.00298,0.00298,0.00298,0.00298,0,0,0,0,0,0.00297
1685318400000,2023-05-29 00:00:00,SHPING/USDT,0.00298,0.00298,0.00298,0.00298,0,0,0,0,0,0.00297
1685232000000,2023-05-28 00:00:00,SHPING/USDT,0.00298,0.00298,0.00298,0.00298,0,0,0,0,0,0.00297
1685145600000,2023-05-27 00:00:00,SHPING/USDT,0.00298,0.00298,0.00298,0.00298,0,0,0,0,0,0.00297
1685059200000,2023-05-26 00:00:00,SHPING/USDT,0.00297,0.00298,0.00297,0.00298,6.60032,2217.46,6.60032,2217.46,4,0.00297
1684972800000,2023-05-25 00:00:00,SHPING/USDT,0.0033,0.0033,0.0033,0.0033,0,0,0,0,0,0.0033
1684886400000,2023-05-24 00:00:00,SHPING/USDT,0.0033,0.0033,0.0033,0.0033,0,0,0,0,0,0.0033
1684800000000,2023-05-23 00:00:00,SHPING/USDT,0.0033,0.0033,0.0033,0.0033,0,0,0,0,0,0.0033
1684713600000,2023-05-22 00:00:00,SHPING/USDT,0.0033,0.0033,0.0033,0.0033,0,0,0,0,0,0.0033
1684627200000,2023-05-21 00:00:00,SHPING/USDT,0.0033,0.0033,0.0033,0.0033,0,0,0,0,0,0.0033
1684540800000,2023-05-20 00:00:00,SHPING/USDT,0.0033,0.0033,0.0033,0.0033,0,0,0,0,0,0.0033
1684454400000,2023-05-19 00:00:00,SHPING/USDT,0.0033,0.0033,0.0033,0.0033,0,0,0,0,0,0.0033
1684368000000,2023-05-18 00:00:00,SHPING/USDT,0.0033,0.0033,0.0033,0.0033,0,0,0,0,0,0.0033
1684281600000,2023-05-17 00:00:00,SHPING/USDT,0.0033,0.0033,0.0033,0.0033,0,0,0,0,0,0.0033
1684195200000,2023-05-16 00:00:00,SHPING/USDT,0.0033,0.0033,0.0033,0.0033,0,0,0,0,0,0.0033
1684108800000,2023-05-15 00:00:00,SHPING/USDT,0.0033,0.0033,0.0033,0.0033,0,0,0,0,0,0.0033
1684022400000,2023-05-14 00:00:00,SHPING/USDT,0.0033,0.0033,0.0033,0.0033,0,0,0,0,0,0.0033
1683936000000,2023-05-13 00:00:00,SHPING/USDT,0.0033,0.0033,0.0033,0.0033,0,0,0,0,0,0.0033
1683849600000,2023-05-12 00:00:00,SHPING/USDT,0.0033,0.0033,0.0033,0.0033,0,0,0,0,0,0.0033
1683763200000,2023-05-11 00:00:00,SHPING/USDT,0.0033,0.0033,0.0033,0.0033,0,0,0,0,0,0.0033
1683676800000,2023-05-10 00:00:00,SHPING/USDT,0.0033,0.0033,0.0033,0.0033,0,0,0,0,0,0.0033
1683590400000,2023-05-09 00:00:00,SHPING/USDT,0.0033,0.0033,0.0033,0.0033,0,0,0,0,0,0.0033
1683504000000,2023-05-08 00:00:00,SHPING/USDT,0.0033,0.0033,0.0033,0.0033,0,0,0,0,0,0.0033
1683417600000,2023-05-07 00:00:00,SHPING/USDT,0.0033,0.0033,0.0033,0.0033,0,0,0,0,0,0.0033
1683331200000,2023-05-06 00:00:00,SHPING/USDT,0.0033,0.0033,0.0033,0.0033,0,0,0,0,0,0.0033
1683244800000,2023-05-05 00:00:00,SHPING/USDT,0.0033,0.0033,0.0033,0.0033,0,0,0,0,0,0.0033
1683158400000,2023-05-04 00:00:00,SHPING/USDT,0.0033,0.0033,0.0033,0.0033,0,0,0,0,0,0.0033
1683072000000,2023-05-03 00:00:00,SHPING/USDT,0.0033,0.0033,0.0033,0.0033,0,0,0,0,0,0.0033
1682985600000,2023-05-02 00:00:00,SHPING/USDT,0.0033,0.0033,0.0033,0.0033,3.47453,1052.89,0,0,1,0.0033
1682899200000,2023-05-01 00:00:00,SHPING/USDT,0.00259,0.00373,0.00258,0.00373,21.7189,7952.92,3.86834,1037.09,4,0.00278
1682812800000,2023-04-30 00:00:00,SHPING/USDT,0.00408,0.00408,0.00408,0.00408,0,0,0,0,0,0.00408
1682726400000,2023-04-29 00:00:00,SHPING/USDT,0.00408,0.00408,0.00408,0.00408,0,0,0,0,0,0.00408
1682640000000,2023-04-28 00:00:00,SHPING/USDT,0.00408,0.00408,0.00408,0.00408,0,0,0,0,0,0.00408
1682553600000,2023-04-27 00:00:00,SHPING/USDT,0.00408,0.00408,0.00408,0.00408,0,0,0,0,0,0.00408
1682467200000,2023-04-26 00:00:00,SHPING/USDT,0.00408,0.00408,0.00408,0.00408,0,0,0,0,0,0.00408
1682380800000,2023-04-25 00:00:00,SHPING/USDT,0.00408,0.00408,0.00408,0.00408,0,0,0,0,0,0.00408
1682294400000,2023-04-24 00:00:00,SHPING/USDT,0.00408,0.00408,0.00408,0.00408,0,0,0,0,0,0.00408
1682208000000,2023-04-23 00:00:00,SHPING/USDT,0.00408,0.00408,0.00408,0.00408,0,0,0,0,0,0.00408
1682121600000,2023-04-22 00:00:00,SHPING/USDT,0.00408,0.00408,0.00408,0.00408,4.2398,1039.168,0,0,1,0.00408
1682035200000,2023-04-21 00:00:00,SHPING/USDT,0.00451,0.00451,0.00451,0.00451,0,0,0,0,0,0.00449
1681948800000,2023-04-20 00:00:00,SHPING/USDT,0.00451,0.00451,0.00451,0.00451,0,0,0,0,0,0.00449
1681862400000,2023-04-19 00:00:00,SHPING/USDT,0.00424,0.00461,0.00424,0.00451,22.4883,5001.958,22.4883,5001.958,3,0.00449
1681776000000,2023-04-18 00:00:00,SHPING/USDT,0.00464,0.00464,0.00393,0.00393,20.84607,4786.605,3.95349,890.427,4,0.00437
1681689600000,2023-04-17 00:00:00,SHPING/USDT,0.00347,0.00347,0.00347,0.00347,0.01348,3.887,0.01348,3.887,1,0.00347
1681603200000,2023-04-16 00:00:00,SHPING/USDT,0.00347,0.00347,0.00347,0.00347,0,0,0,0,0,0.00322
1681516800000,2023-04-15 00:00:00,SHPING/USDT,0.00321,0.00347,0.00321,0.00347,67.86085,21055,14.54847,4446.782,4,0.00322
1681430400000,2023-04-14 00:00:00,SHPING/USDT,0.00415,0.00448,0.003,0.00363,17.76507,4493.543,8.29602,2058.74,5,0.00399
1681344000000,2023-04-13 00:00:00,SHPING/USDT,0.00467,0.00467,0.00467,0.00467,0.44407,95.09,0.44407,95.09,1,0.00467
1681257600000,2023-04-12 00:00:00,SHPING/USDT,0.00469,0.00469,0.00469,0.00469,0,0,0,0,0,0.00469
1681171200000,2023-04-11 00:00:00,SHPING/USDT,0.00469,0.00469,0.00469,0.00469,60.57524,12915.83,0,0,2,0.00469
1681084800000,2023-04-10 00:00:00,SHPING/USDT,0.00459,0.00459,0.00459,0.00459,60.57523,13197.22,60.57523,13197.22,1,0.00459
1680998400000,2023-04-09 00:00:00,SHPING/USDT,0.00455,0.00456,0.00448,0.00448,88.76148,19739.078,1.51359,331.929,4,0.00449
1680912000000,2023-04-08 00:00:00,SHPING/USDT,0.00478,0.00478,0.00373,0.00456,291.42116,67160.328,161.33848,39091.873,12,0.00435
1680825600000,2023-04-07 00:00:00,SHPING/USDT,0.00438,0.00472,0.00438,0.00472,50.67165,11157.706,25.00082,5296.786,2,0.00454
1680739200000,2023-04-06 00:00:00,SHPING/USDT,0.00439,0.00439,0.00437,0.00437,98.78783,22540.92,82.16326,18754,4,0.00438
1680652800000,2023-04-05 00:00:00,SHPING/USDT,0.00445,0.00469,0.00328,0.0045,114.84689,28578.999,74.99937,16744.999,9,0.0041
1680566400000,2023-04-04 00:00:00,SHPING/USDT,0.00432,0.00432,0.00376,0.00376,149.79873,38252.13,104.39079,26267.039,6,0.00393
1680480000000,2023-04-03 00:00:00,SHPING/USDT,0.00432,0.00432,0.00432,0.00432,6.21216,1438,6.21216,1438,1,0.00432
1680393600000,2023-04-02 00:00:00,SHPING/USDT,0.00455,0.00455,0.00442,0.00442,90.63857,20445.379,40.29035,9054.379,5,0.00443
1680307200000,2023-04-01 00:00:00,SHPING/USDT,0.0045,0.00457,0.00449,0.00453,64.51066,14224.158,43.34142,9526.658,21,0.00453
1680220800000,2023-03-31 00:00:00,SHPING/USDT,0.00463,0.00463,0.00463,0.00463,0,0,0,0,0,0.00489
1680134400000,2023-03-30 00:00:00,SHPING/USDT,0.00463,0.00463,0.00463,0.00463,0,0,0,0,0,0.00489
1680048000000,2023-03-29 00:00:00,SHPING/USDT,0.00462,0.00523,0.00462,0.00463,12.34621,2533.458,8.53951,1711.275,3,0.00489
1679961600000,2023-03-28 00:00:00,SHPING/USDT,0.00429,0.00444,0.00429,0.00444,40.95571,9348.309,40.95571,9348.309,4,0.00438
1679875200000,2023-03-27 00:00:00,SHPING/USDT,0.00427,0.00427,0.00427,0.00427,0,0,0,0,0,0.00427
1679788800000,2023-03-26 00:00:00,SHPING/USDT,0.00427,0.00427,0.00427,0.00427,0,0,0,0,0,0.00427
1679702400000,2023-03-25 00:00:00,SHPING/USDT,0.00427,0.00427,0.00427,0.00427,0,0,0,0,0,0.00427
1679616000000,2023-03-24 00:00:00,SHPING/USDT,0.00427,0.00427,0.00427,0.00427,2.87896,674.23,0,0,1,0.00427
1679529600000,2023-03-23 00:00:00,SHPING/USDT,0.00483,0.00483,0.00483,0.00483,0,0,0,0,0,0.00481
1679443200000,2023-03-22 00:00:00,SHPING/USDT,0.00483,0.00483,0.00483,0.00483,0,0,0,0,0,0.00481
1679356800000,2023-03-21 00:00:00,SHPING/USDT,0.00483,0.00483,0.00483,0.00483,0,0,0,0,0,0.00481
1679270400000,2023-03-20 00:00:00,SHPING/USDT,0.00483,0.00483,0.00483,0.00483,0,0,0,0,0,0.00481
1679184000000,2023-03-19 00:00:00,SHPING/USDT,0.00483,0.00483,0.00483,0.00483,0,0,0,0,0,0.00481
1679097600000,2023-03-18 00:00:00,SHPING/USDT,0.00483,0.00483,0.00483,0.00483,0,0,0,0,0,0.00481
1679011200000,2023-03-17 00:00:00,SHPING/USDT,0.00481,0.00483,0.00481,0.00483,7.21853,1500,7.21853,1500,2,0.00481
1678924800000,2023-03-16 00:00:00,SHPING/USDT,0.00377,0.00377,0.00377,0.00377,0,0,0,0,0,0.00377
1678838400000,2023-03-15 00:00:00,SHPING/USDT,0.00377,0.00377,0.00377,0.00377,0,0,0,0,0,0.00377
1678752000000,2023-03-14 00:00:00,SHPING/USDT,0.00377,0.00377,0.00377,0.00377,0,0,0,0,0,0.00377
1678665600000,2023-03-13 00:00:00,SHPING/USDT,0.00377,0.00377,0.00377,0.00377,0,0,0,0,0,0.00377
1678579200000,2023-03-12 00:00:00,SHPING/USDT,0.00377,0.00377,0.00377,0.00377,0,0,0,0,0,0.00377
1678492800000,2023-03-11 00:00:00,SHPING/USDT,0.00378,0.00378,0.00377,0.00377,3.45156,914.272,0,0,2,0.00377
1678406400000,2023-03-10 00:00:00,SHPING/USDT,0.0039,0.0039,0.0039,0.0039,0,0,0,0,0,0.0039
1678320000000,2023-03-09 00:00:00,SHPING/USDT,0.0039,0.0039,0.0039,0.0039,2.20142,564.469,0,0,1,0.0039
1678233600000,2023-03-08 00:00:00,SHPING/USDT,0.00505,0.00505,0.00505,0.00505,2.85499,565.346,2.85499,565.346,1,0.00505
1678147200000,2023-03-07 00:00:00,SHPING/USDT,0.00425,0.00425,0.00425,0.00425,4.27169,1005.105,0,0,1,0.00425
1678060800000,2023-03-06 00:00:00,SHPING/USDT,0.0038,0.0038,0.0038,0.0038,0,0,0,0,0,0.00444
1677974400000,2023-03-05 00:00:00,SHPING/USDT,0.0038,0.0038,0.0038,0.0038,0,0,0,0,0,0.00444
1677888000000,2023-03-04 00:00:00,SHPING/USDT,0.0038,0.0038,0.0038,0.0038,0,0,0,0,0,0.00444
1677801600000,2023-03-03 00:00:00,SHPING/USDT,0.0038,0.0038,0.0038,0.0038,0,0,0,0,0,0.00444
1677715200000,2023-03-02 00:00:00,SHPING/USDT,0.0038,0.0038,0.0038,0.0038,0,0,0,0,0,0.00444
1677628800000,2023-03-01 00:00:00,SHPING/USDT,0.0038,0.0038,0.0038,0.0038,0,0,0,0,0,0.00444
1677542400000,2023-02-28 00:00:00,SHPING/USDT,0.0038,0.0038,0.0038,0.0038,0,0,0,0,0,0.00444
1677456000000,2023-02-27 00:00:00,SHPING/USDT,0.0038,0.0038,0.0038,0.0038,0,0,0,0,0,0.00444
1677369600000,2023-02-26 00:00:00,SHPING/USDT,0.0038,0.0038,0.0038,0.0038,0,0,0,0,0,0.00444
1677283200000,2023-02-25 00:00:00,SHPING/USDT,0.0038,0.0038,0.0038,0.0038,0,0,0,0,0,0.00444
1677196800000,2023-02-24 00:00:00,SHPING/USDT,0.0038,0.0038,0.0038,0.0038,0,0,0,0,0,0.00444
1677110400000,2023-02-23 00:00:00,SHPING/USDT,0.00553,0.00553,0.00379,0.0038,13.80946,3207.818,0,0,6,0.00444
1677024000000,2023-02-22 00:00:00,SHPING/USDT,0.00625,0.00625,0.00625,0.00625,7.75004,1240.007,7.75004,1240.007,1,0.00625
1676937600000,2023-02-21 00:00:00,SHPING/USDT,0.00504,0.00504,0.00504,0.00504,0,0,0,0,0,0.00504
1676851200000,2023-02-20 00:00:00,SHPING/USDT,0.00504,0.00504,0.00504,0.00504,0,0,0,0,0,0.00504
1676764800000,2023-02-19 00:00:00,SHPING/USDT,0.00504,0.00504,0.00504,0.00504,0.03587,7.118,0.03587,7.118,1,0.00504
1676678400000,2023-02-18 00:00:00,SHPING/USDT,0.00504,0.00504,0.00504,0.00504,0,0,0,0,0,0.00504
1676592000000,2023-02-17 00:00:00,SHPING/USDT,0.00504,0.00504,0.00504,0.00504,3.024,600,3.024,600,1,0.00504
1676505600000,2023-02-16 00:00:00,SHPING/USDT,0.00466,0.00466,0.00466,0.00466,0,0,0,0,0,0.00485
1676419200000,2023-02-15 00:00:00,SHPING/USDT,0.00465,0.00527,0.00465,0.00466,12.44996,2572.7,7.86571,1588.146,5,0.00485
1676332800000,2023-02-14 00:00:00,SHPING/USDT,0.00465,0.00465,0.00465,0.00465,1.0695,230,1.0695,230,1,0.00465
1676246400000,2023-02-13 00:00:00,SHPING/USDT,0.00464,0.00464,0.00464,0.00464,5.00128,1077.864,5.00128,1077.864,2,0.00464
1676160000000,2023-02-12 00:00:00,SHPING/USDT,0.00467,0.00467,0.00384,0.00384,18.03167,4041.081,0,0,5,0.00448
1676073600000,2023-02-11 00:00:00,SHPING/USDT,0.00454,0.00454,0.00454,0.00454,0,0,0,0,0,0.00454
1675987200000,2023-02-10 00:00:00,SHPING/USDT,0.00454,0.00454,0.00454,0.00454,0.78463458,172.827,0,0,1,0.00454
1675900800000,2023-02-09 00:00:00,SHPING/USDT,0.00516,0.00516,0.00455,0.00455,25.45040979,5140.261,0,0,7,0.004966899414129235
1675814400000,2023-02-08 00:00:00,SHPING/USDT,0.00513,0.00513,0.00513,0.00513,0,0,0,0,0,0.00513
1675728000000,2023-02-07 00:00:00,SHPING/USDT,0.00513,0.00513,0.00513,0.00513,0,0,0,0,0,0.00513
1675641600000,2023-02-06 00:00:00,SHPING/USDT,0.00513,0.00513,0.00513,0.00513,0,0,0,0,0,0.00513
1675555200000,2023-02-05 00:00:00,SHPING/USDT,0.00513,0.00513,0.00513,0.00513,0,0,0,0,0,0.00513
1675468800000,2023-02-04 00:00:00,SHPING/USDT,0.00513,0.00513,0.00513,0.00513,0,0,0,0,0,0.00513
1675382400000,2023-02-03 00:00:00,SHPING/USDT,0.00513,0.00513,0.00513,0.00513,0,0,0,0,0,0.00513
1675296000000,2023-02-02 00:00:00,SHPING/USDT,0.00513,0.00513,0.00513,0.00513,0,0,0,0,0,0.00513
1675209600000,2023-02-01 00:00:00,SHPING/USDT,0.00513,0.00513,0.00513,0.00513,0,0,0,0,0,0.00513
1675123200000,2023-01-31 00:00:00,SHPING/USDT,0.00513,0.00513,0.00513,0.00513,0,0,0,0,0,0.00513
1675036800000,2023-01-30 00:00:00,SHPING/USDT,0.00513,0.00513,0.00513,0.00513,15.54244821,3029.717,0,0,1,0.00513
1674950400000,2023-01-29 00:00:00,SHPING/USDT,0.00513,0.00513,0.00513,0.00513,0,0,0,0,0,0.00513
1674864000000,2023-01-28 00:00:00,SHPING/USDT,0.00513,0.00513,0.00513,0.00513,5.21892342,1017.334,5.21892342,1017.334,2,0.00513
1674777600000,2023-01-27 00:00:00,SHPING/USDT,0.00425,0.00425,0.00425,0.00425,0,0,0,0,0,0.00425
1674691200000,2023-01-26 00:00:00,SHPING/USDT,0.00425,0.00425,0.00425,0.00425,0,0,0,0,0,0.00425
1674604800000,2023-01-25 00:00:00,SHPING/USDT,0.00425,0.00425,0.00425,0.00425,13.943604,3280.848,0,0,2,0.00425
1674518400000,2023-01-24 00:00:00,SHPING/USDT,0.00428,0.00428,0.00428,0.00428,0,0,0,0,0,0.00428
1674432000000,2023-01-23 00:00:00,SHPING/USDT,0.00428,0.00428,0.00428,0.00428,0,0,0,0,0,0.00428
1674345600000,2023-01-22 00:00:00,SHPING/USDT,0.00428,0.00428,0.00428,0.00428,0,0,0,0,0,0.00428
1674259200000,2023-01-21 00:00:00,SHPING/USDT,0.00428,0.00428,0.00428,0.00428,2.17861416,509.022,0,0,1,0.00428
1674172800000,2023-01-20 00:00:00,SHPING/USDT,0.00479,0.00479,0.00479,0.00479,0,0,0,0,0,0.004786384084225061
1674086400000,2023-01-19 00:00:00,SHPING/USDT,0.00479,0.00479,0.00479,0.00479,0,0,0,0,0,0.004786384084225061
1674000000000,2023-01-18 00:00:00,SHPING/USDT,0.00479,0.00479,0.00479,0.00479,0,0,0,0,0,0.004786384084225061
1673913600000,2023-01-17 00:00:00,SHPING/USDT,0.00478,0.00479,0.00478,0.00479,6.01933141,1257.596,6.01933141,1257.596,2,0.004786384084225061
1673827200000,2023-01-16 00:00:00,SHPING/USDT,0.004,0.004,0.004,0.004,1.62234,405.585,0,0,1,0.004
1673740800000,2023-01-15 00:00:00,SHPING/USDT,0.00418,0.00418,0.00418,0.00418,0,0,0,0,0,0.00418
1673654400000,2023-01-14 00:00:00,SHPING/USDT,0.00418,0.00418,0.00418,0.00418,0,0,0,0,0,0.00418
1673568000000,2023-01-13 00:00:00,SHPING/USDT,0.00418,0.00418,0.00418,0.00418,0.21075142,50.419,0,0,1,0.00418
1673481600000,2023-01-12 00:00:00,SHPING/USDT,0.00536,0.00536,0.00536,0.00536,0,0,0,0,0,0.004866793929870457
1673395200000,2023-01-11 00:00:00,SHPING/USDT,0.00536,0.00536,0.00536,0.00536,0,0,0,0,0,0.004866793929870457
1673308800000,2023-01-10 00:00:00,SHPING/USDT,0.00536,0.00536,0.00536,0.00536,0,0,0,0,0,0.004866793929870457
1673222400000,2023-01-09 00:00:00,SHPING/USDT,0.00536,0.00536,0.00536,0.00536,0,0,0,0,0,0.004866793929870457
1673136000000,2023-01-08 00:00:00,SHPING/USDT,0.00467,0.00536,0.00467,0.00536,3.78244053,778.583,3.78244053,778.583,4,0.004866793929870457
1673049600000,2023-01-07 00:00:00,SHPING/USDT,0.00524,0.00524,0.00524,0.00524,0,0,0,0,0,0.005531834288399326
1672963200000,2023-01-06 00:00:00,SHPING/USDT,0.00592,0.00592,0.00524,0.00524,7.86265388,1426.537,3.3744,570,2,0.005531834288399326
1672876800000,2023-01-05 00:00:00,SHPING/USDT,0.00524,0.00525,0.00524,0.00525,10.66227974,2031.927,10.66227974,2031.927,3,0.005247377115112156
1672790400000,2023-01-04 00:00:00,SHPING/USDT,0.00378,0.00378,0.00377,0.00377,12.08606373,3204.449,0,0,2,0.003771654796834337
1672704000000,2023-01-03 00:00:00,SHPING/USDT,0.00377,0.00377,0.00377,0.00377,0,0,0,0,0,0.003773992169780835
1672617600000,2023-01-02 00:00:00,SHPING/USDT,0.00377,0.00377,0.00377,0.00377,0,0,0,0,0,0.003773992169780835
1672531200000,2023-01-01 00:00:00,SHPING/USDT,0.00377,0.00377,0.00377,0.00377,0,0,0,0,0,0.003773992169780835
1672444800000,2022-12-31 00:00:00,SHPING/USDT,0.00378,0.00378,0.00377,0.00377,6.56284057,1738.968,0,0,3,0.003773992169780835
1672358400000,2022-12-30 00:00:00,SHPING/USDT,0.0042,0.0042,0.0042,0.0042,0,0,0,0,0,0.0042
1672272000000,2022-12-29 00:00:00,SHPING/USDT,0.0042,0.0042,0.0042,0.0042,0,0,0,0,0,0.0042
1672185600000,2022-12-28 00:00:00,SHPING/USDT,0.0042,0.0042,0.0042,0.0042,0,0,0,0,0,0.0042
1672099200000,2022-12-27 00:00:00,SHPING/USDT,0.0042,0.0042,0.0042,0.0042,0,0,0,0,0,0.0042
1672012800000,2022-12-26 00:00:00,SHPING/USDT,0.0042,0.0042,0.0042,0.0042,0,0,0,0,0,0.0042
1671926400000,2022-12-25 00:00:00,SHPING/USDT,0.0042,0.0042,0.0042,0.0042,0,0,0,0,0,0.0042
1671840000000,2022-12-24 00:00:00,SHPING/USDT,0.0042,0.0042,0.0042,0.0042,0,0,0,0,0,0.0042
1671753600000,2022-12-23 00:00:00,SHPING/USDT,0.0042,0.0042,0.0042,0.0042,3.3294702,792.731,3.3294702,792.731,2,0.0042
1671667200000,2022-12-22 00:00:00,SHPING/USDT,0.00377,0.00377,0.00377,0.00377,0,0,0,0,0,0.004127964992815079
1671580800000,2022-12-21 00:00:00,SHPING/USDT,0.00413,0.00598,0.0032,0.00377,39.7534907,9773.326,13.49537199,3498.695,18,0.004127964992815079
1671494400000,2022-12-20 00:00:00,SHPING/USDT,0.00508,0.00508,0.0032,0.00465,7.68132612,1628.814,4.2842961,921.354,6,0.004735184819831603
1671408000000,2022-12-19 00:00:00,SHPING/USDT,0.00531,0.00531,0.00508,0.00508,7.44505644,1444,0,0,4,0.005157414891216055
1671321600000,2022-12-18 00:00:00,SHPING/USDT,0.00531,0.00531,0.00531,0.00531,0,0,0,0,0,0.00531
1671235200000,2022-12-17 00:00:00,SHPING/USDT,0.00531,0.00531,0.00531,0.00531,1.59486912,300.352,0,0,2,0.00531
1671148800000,2022-12-16 00:00:00,SHPING/USDT,0.00531,0.00531,0.00531,0.00531,0,0,0,0,0,0.005605437495216576
1671062400000,2022-12-15 00:00:00,SHPING/USDT,0.00531,0.00531,0.00531,0.00531,0,0,0,0,0,0.005605437495216576
1670976000000,2022-12-14 00:00:00,SHPING/USDT,0.00574,0.00574,0.00531,0.00531,5.0904968,909.32,3.4974968,609.32,3,0.005605437495216576
1670889600000,2022-12-13 00:00:00,SHPING/USDT,0.00531,0.00531,0.00531,0.00531,0,0,0,0,0,0.00531
1670803200000,2022-12-12 00:00:00,SHPING/USDT,0.00531,0.00531,0.00531,0.00531,0,0,0,0,0,0.00531
1670716800000,2022-12-11 00:00:00,SHPING/USDT,0.00531,0.00531,0.00531,0.00531,0,0,0,0,0,0.00531
1670630400000,2022-12-10 00:00:00,SHPING/USDT,0.00531,0.00531,0.00531,0.00531,0,0,0,0,0,0.00531
1670544000000,2022-12-09 00:00:00,SHPING/USDT,0.00531,0.00531,0.00531,0.00531,0,0,0,0,0,0.00531
1670457600000,2022-12-08 00:00:00,SHPING/USDT,0.00531,0.00531,0.00531,0.00531,0,0,0,0,0,0.00531
1670371200000,2022-12-07 00:00:00,SHPING/USDT,0.00531,0.00531,0.00531,0.00531,0.00531,1,0,0,1,0.00531
1670284800000,2022-12-06 00:00:00,SHPING/USDT,0.006,0.006,0.00531,0.00531,2.64956139,477.102,1.009998,168.333,3,0.005573024145290703
1670198400000,2022-12-05 00:00:00,SHPING/USDT,0.0033,0.00518,0.0033,0.00518,4.37814692,1035.702,2.64601652,510.814,2,0.004436213824820661
1670112000000,2022-12-04 00:00:00,SHPING/USDT,0.00327,0.00518,0.00327,0.00518,2.05774784,412.8,1.91983232,370.624,2,0.005051986917891747
1670025600000,2022-12-03 00:00:00,SHPING/USDT,0.006,0.006,0.006,0.006,2.619996,436.666,2.619996,436.666,1,0.006
1669939200000,2022-12-02 00:00:00,SHPING/USDT,0.00566,0.00566,0.00566,0.00566,0,0,0,0,0,0.00566
1669852800000,2022-12-01 00:00:00,SHPING/USDT,0.00566,0.00566,0.00566,0.00566,0,0,0,0,0,0.00566
1669766400000,2022-11-30 00:00:00,SHPING/USDT,0.00566,0.00566,0.00566,0.00566,4.99618388,882.718,0,0,1,0.00566
1669680000000,2022-11-29 00:00:00,SHPING/USDT,0.00522,0.0064,0.00522,0.0064,3.27644508,525.703,3.27644508,525.703,3,0.006238793886207913
1669593600000,2022-11-28 00:00:00,SHPING/USDT,0.00201,0.00201,0.00201,0.00201,0.23176707,115.307,0,0,1,0.00201
1669507200000,2022-11-27 00:00:00,SHPING/USDT,0.00443,0.00443,0.00443,0.00443,0,0,0,0,0,0.004437347787991571
1669420800000,2022-11-26 00:00:00,SHPING/USDT,0.00443,0.00443,0.00443,0.00443,0,0,0,0,0,0.004437347787991571
1669334400000,2022-11-25 00:00:00,SHPING/USDT,0.00499,0.00499,0.00443,0.00443,0.51835562,116.838,0,0,3,0.004437347787991571
1669248000000,2022-11-24 00:00:00,SHPING/USDT,0.00499,0.00499,0.00499,0.00499,0,0,0,0,0,0.004995005005005005
1669161600000,2022-11-23 00:00:00,SHPING/USDT,0.00499,0.00499,0.00499,0.00499,0,0,0,0,0,0.004995005005005005
1669075200000,2022-11-22 00:00:00,SHPING/USDT,0.00499,0.00499,0.00499,0.00499,0,0,0,0,0,0.004995005005005005
1668988800000,2022-11-21 00:00:00,SHPING/USDT,0.005,0.005,0.00499,0.00499,8.53434711,1708.578,0,0,2,0.004995005005005005
1668902400000,2022-11-20 00:00:00,SHPING/USDT,0.00499,0.00499,0.00499,0.00499,10.7302964,2150.36,10.7302964,2150.36,1,0.00499
1668816000000,2022-11-19 00:00:00,SHPING/USDT,0.00462,0.00462,0.00462,0.00462,9.94908684,2153.482,0,0,1,0.00462
1668729600000,2022-11-18 00:00:00,SHPING/USDT,0.00522,0.00522,0.00465,0.00465,4.77225891,963.674,2.66654826,510.833,3,0.004968493304086051
1668643200000,2022-11-17 00:00:00,SHPING/USDT,0.00399,0.00399,0.00399,0.00399,1.06904868,267.932,0,0,1,0.00399
1668556800000,2022-11-16 00:00:00,SHPING/USDT,0.00399,0.00399,0.00399,0.00399,1.80839568,453.232,1.80839568,453.232,1,0.00399
1668470400000,2022-11-15 00:00:00,SHPING/USDT,0.00323,0.00323,0.00323,0.00323,3.35665799,1039.213,3.35665799,1039.213,2,0.00323
1668384000000,2022-11-14 00:00:00,SHPING/USDT,0.00462,0.00462,0.00111,0.00323,10.04400285,4060.164,6.60687456,2045.472,6,0.002775433698577653
1668297600000,2022-11-13 00:00:00,SHPING/USDT,0.00462,0.00462,0.00462,0.00462,14.18804772,3071.006,0,0,1,0.00462
1668211200000,2022-11-12 00:00:00,SHPING/USDT,0.00522,0.00522,0.00522,0.00522,1.7679618,338.69,1.7679618,338.69,2,0.00522
1668124800000,2022-11-11 00:00:00,SHPING/USDT,0.00521,0.00521,0.00521,0.00521,0,0,0,0,0,0.005172746326306844
1668038400000,2022-11-10 00:00:00,SHPING/USDT,0.00521,0.00521,0.00521,0.00521,0,0,0,0,0,0.005172746326306844
1667952000000,2022-11-09 00:00:00,SHPING/USDT,0.00521,0.00521,0.00521,0.00521,0,0,0,0,0,0.005172746326306844
1667865600000,2022-11-08 00:00:00,SHPING/USDT,0.00748,0.00748,0.00094,0.00521,46.22384357,12931.54,15.28837412,2929.175,18,0.005172746326306844
1667779200000,2022-11-07 00:00:00,SHPING/USDT,0.00748,0.00748,0.00748,0.00748,0,0,0,0,0,0.007481902466295056
1667692800000,2022-11-06 00:00:00,SHPING/USDT,0.00748,0.00748,0.00748,0.00748,0,0,0,0,0,0.007481902466295056
1667606400000,2022-11-05 00:00:00,SHPING/USDT,0.00748,0.00748,0.00748,0.00748,0,0,0,0,0,0.007481902466295056
1667520000000,2022-11-04 00:00:00,SHPING/USDT,0.00749,0.00749,0.00748,0.00748,7.88450147,1053.81,0,0,2,0.007481902466295056
1667433600000,2022-11-03 00:00:00,SHPING/USDT,0.00812,0.00845,0.00812,0.00845,8.69696101,1055.446,8.69696101,1055.446,3,0.008243000224799213
1667347200000,2022-11-02 00:00:00,SHPING/USDT,0.00782,0.00782,0.00782,0.00782,0,0,0,0,0,0.007824461577425587
1667260800000,2022-11-01 00:00:00,SHPING/USDT,0.00782,0.00782,0.00782,0.00782,0,0,0,0,0,0.007824461577425587
1667174400000,2022-10-31 00:00:00,SHPING/USDT,0.00782,0.00782,0.00782,0.00782,0,0,0,0,0,0.007824461577425587
1667088000000,2022-10-30 00:00:00,SHPING/USDT,0.00782,0.00782,0.00782,0.00782,0,0,0,0,0,0.007824461577425587
1667001600000,2022-10-29 00:00:00,SHPING/USDT,0.00783,0.00783,0.00782,0.00782,5.26718285,673.169,0,0,2,0.007824461577425587
1666915200000,2022-10-28 00:00:00,SHPING/USDT,0.00884,0.00884,0.00884,0.00884,0,0,0,0,0,0.00884
1666828800000,2022-10-27 00:00:00,SHPING/USDT,0.00884,0.00884,0.00884,0.00884,0,0,0,0,0,0.00884
1666742400000,2022-10-26 00:00:00,SHPING/USDT,0.00884,0.00884,0.00884,0.00884,0,0,0,0,0,0.00884
1666656000000,2022-10-25 00:00:00,SHPING/USDT,0.00884,0.00884,0.00884,0.00884,0.99999848,113.122,0.99999848,113.122,1,0.00884
1666569600000,2022-10-24 00:00:00,SHPING/USDT,0.00651,0.00651,0.00651,0.00651,0,0,0,0,0,0.00651
1666483200000,2022-10-23 00:00:00,SHPING/USDT,0.00651,0.00651,0.00651,0.00651,0,0,0,0,0,0.00651
1666396800000,2022-10-22 00:00:00,SHPING/USDT,0.00651,0.00651,0.00651,0.00651,0,0,0,0,0,0.00651
1666310400000,2022-10-21 00:00:00,SHPING/USDT,0.00651,0.00651,0.00651,0.00651,0,0,0,0,0,0.00651
1666224000000,2022-10-20 00:00:00,SHPING/USDT,0.00651,0.00651,0.00651,0.00651,0,0,0,0,0,0.00651
1666137600000,2022-10-19 00:00:00,SHPING/USDT,0.00651,0.00651,0.00651,0.00651,0,0,0,0,0,0.00651
1666051200000,2022-10-18 00:00:00,SHPING/USDT,0.00651,0.00651,0.00651,0.00651,0,0,0,0,0,0.00651
1665964800000,2022-10-17 00:00:00,SHPING/USDT,0.00651,0.00651,0.00651,0.00651,0,0,0,0,0,0.00651
1665878400000,2022-10-16 00:00:00,SHPING/USDT,0.00651,0.00651,0.00651,0.00651,0.0119784,1.84,0,0,1,0.00651
1665792000000,2022-10-15 00:00:00,SHPING/USDT,0.00701,0.00701,0.00701,0.00701,0,0,0,0,0,0.00701
1665705600000,2022-10-14 00:00:00,SHPING/USDT,0.00701,0.00701,0.00701,0.00701,0,0,0,0,0,0.00701
1665619200000,2022-10-13 00:00:00,SHPING/USDT,0.00701,0.00701,0.00701,0.00701,0,0,0,0,0,0.00701
1665532800000,2022-10-12 00:00:00,SHPING/USDT,0.00701,0.00701,0.00701,0.00701,0,0,0,0,0,0.00701
1665446400000,2022-10-11 00:00:00,SHPING/USDT,0.00701,0.00701,0.00701,0.00701,0,0,0,0,0,0.00701
1665360000000,2022-10-10 00:00:00,SHPING/USDT,0.00701,0.00701,0.00701,0.00701,4.96022693,707.593,0.96069947,137.047,2,0.00701
1665273600000,2022-10-09 00:00:00,SHPING/USDT,0.0065,0.0065,0.0065,0.0065,0,0,0,0,0,0.0065
1665187200000,2022-10-08 00:00:00,SHPING/USDT,0.0065,0.0065,0.0065,0.0065,0,0,0,0,0,0.0065
1665100800000,2022-10-07 00:00:00,SHPING/USDT,0.0065,0.0065,0.0065,0.0065,0,0,0,0,0,0.0065
1665014400000,2022-10-06 00:00:00,SHPING/USDT,0.0065,0.0065,0.0065,0.0065,0,0,0,0,0,0.0065
1664928000000,2022-10-05 00:00:00,SHPING/USDT,0.0065,0.0065,0.0065,0.0065,0,0,0,0,0,0.0065
1664841600000,2022-10-04 00:00:00,SHPING/USDT,0.0065,0.0065,0.0065,0.0065,0,0,0,0,0,0.0065
1664755200000,2022-10-03 00:00:00,SHPING/USDT,0.0065,0.0065,0.0065,0.0065,0,0,0,0,0,0.0065
1664668800000,2022-10-02 00:00:00,SHPING/USDT,0.0065,0.0065,0.0065,0.0065,0,0,0,0,0,0.0065
1664582400000,2022-10-01 00:00:00,SHPING/USDT,0.0065,0.0065,0.0065,0.0065,0,0,0,0,0,0.0065
1664496000000,2022-09-30 00:00:00,SHPING/USDT,0.0065,0.0065,0.0065,0.0065,0,0,0,0,0,0.0065
1664409600000,2022-09-29 00:00:00,SHPING/USDT,0.0065,0.0065,0.0065,0.0065,0,0,0,0,0,0.0065
1664323200000,2022-09-28 00:00:00,SHPING/USDT,0.0065,0.0065,0.0065,0.0065,0,0,0,0,0,0.0065
1664236800000,2022-09-27 00:00:00,SHPING/USDT,0.0065,0.0065,0.0065,0.0065,0.513032,78.928,0,0,1,0.0065
1664150400000,2022-09-26 00:00:00,SHPING/USDT,0.01265,0.01265,0.01265,0.01265,0,0,0,0,0,0.01231249921303903
1664064000000,2022-09-25 00:00:00,SHPING/USDT,0.01265,0.01265,0.01265,0.01265,0,0,0,0,0,0.01231249921303903
1663977600000,2022-09-24 00:00:00,SHPING/USDT,0.01265,0.01265,0.01265,0.01265,0,0,0,0,0,0.01231249921303903
1663891200000,2022-09-23 00:00:00,SHPING/USDT,0.01265,0.01265,0.01265,0.01265,0,0,0,0,0,0.01231249921303903
1663804800000,2022-09-22 00:00:00,SHPING/USDT,0.01265,0.01265,0.01265,0.01265,0,0,0,0,0,0.01231249921303903
1663718400000,2022-09-21 00:00:00,SHPING/USDT,0.012,0.01265,0.012,0.01265,2.07999515,169.051,2.07999515,169.051,2,0.01231249921303903
1663632000000,2022-09-20 00:00:00,SHPING/USDT,0.00652,0.01265,0.00652,0.01265,5.09470132,484.622,3.9947056,315.911,3,0.0113225816076692
1663545600000,2022-09-19 00:00:00,SHPING/USDT,0.00653,0.00653,0.00653,0.00653,0,0,0,0,0,0.012135571063051351
1663459200000,2022-09-18 00:00:00,SHPING/USDT,0.00653,0.00653,0.00653,0.00653,0,0,0,0,0,0.012135571063051351
1663372800000,2022-09-17 00:00:00,SHPING/USDT,0.01277,0.01277,0.00653,0.00653,10.07425999,865.547,9.04999684,708.692,2,0.012135571063051351
1663286400000,2022-09-16 00:00:00,SHPING/USDT,0.00426,0.00426,0.00426,0.00426,0,0,0,0,0,0.004251807352329795
1663200000000,2022-09-15 00:00:00,SHPING/USDT,0.00426,0.00426,0.00426,0.00426,0,0,0,0,0,0.004251807352329795
1663113600000,2022-09-14 00:00:00,SHPING/USDT,0.00426,0.00426,0.00426,0.00426,0,0,0,0,0,0.004251807352329795
1663027200000,2022-09-13 00:00:00,SHPING/USDT,0.00426,0.00426,0.00426,0.00426,0,0,0,0,0,0.004251807352329795
1662940800000,2022-09-12 00:00:00,SHPING/USDT,0.00426,0.00426,0.00426,0.00426,0,0,0,0,0,0.004251807352329795
1662854400000,2022-09-11 00:00:00,SHPING/USDT,0.00426,0.00426,0.00426,0.00426,0,0,0,0,0,0.004251807352329795
1662768000000,2022-09-10 00:00:00,SHPING/USDT,0.00426,0.00426,0.00426,0.00426,0,0,0,0,0,0.004251807352329795
1662681600000,2022-09-09 00:00:00,SHPING/USDT,0.00426,0.00426,0.00426,0.00426,0,0,0,0,0,0.004251807352329795
1662595200000,2022-09-08 00:00:00,SHPING/USDT,0.00426,0.00426,0.00426,0.00426,0,0,0,0,0,0.004251807352329795
1662508800000,2022-09-07 00:00:00,SHPING/USDT,0.00426,0.00426,0.00426,0.00426,0,0,0,0,0,0.004251807352329795
1662422400000,2022-09-06 00:00:00,SHPING/USDT,0.00426,0.00426,0.00426,0.00426,0,0,0,0,0,0.004251807352329795
1662336000000,2022-09-05 00:00:00,SHPING/USDT,0.00426,0.00426,0.00426,0.00426,0,0,0,0,0,0.004251807352329795
1662249600000,2022-09-04 00:00:00,SHPING/USDT,0.00426,0.00426,0.00426,0.00426,0,0,0,0,0,0.004251807352329795
1662163200000,2022-09-03 00:00:00,SHPING/USDT,0.00426,0.00426,0.00426,0.00426,0,0,0,0,0,0.004251807352329795
1662076800000,2022-09-02 00:00:00,SHPING/USDT,0.00426,0.00426,0.00426,0.00426,0,0,0,0,0,0.004251807352329795
1661990400000,2022-09-01 00:00:00,SHPING/USDT,0.00426,0.00426,0.00426,0.00426,0,0,0,0,0,0.004251807352329795
1661904000000,2022-08-31 00:00:00,SHPING/USDT,0.00426,0.00426,0.00426,0.00426,0,0,0,0,0,0.004251807352329795
1661817600000,2022-08-30 00:00:00,SHPING/USDT,0.00425,0.00426,0.00425,0.00426,6.23797453,1467.136,6.23797453,1467.136,2,0.004251807352329795
1661731200000,2022-08-29 00:00:00,SHPING/USDT,0.00901,0.0128,0.0015,0.00213,30.92954962,6335.779,15.1999932,1204.35,7,0.008933962553477361
1661644800000,2022-08-28 00:00:00,SHPING/USDT,0.013,0.013,0.013,0.013,0,0,0,0,0,0.011985983202132747
1661558400000,2022-08-27 00:00:00,SHPING/USDT,0.01169,0.013,0.01169,0.013,139.43304854,11641.239,139.43304854,11641.239,3,0.011985983202132747
1661472000000,2022-08-26 00:00:00,SHPING/USDT,0.0117,0.0117,0.0117,0.0117,0,0,0,0,0,0.0117
1661385600000,2022-08-25 00:00:00,SHPING/USDT,0.0117,0.0117,0.0117,0.0117,0,0,0,0,0,0.0117
1661299200000,2022-08-24 00:00:00,SHPING/USDT,0.0117,0.0117,0.0117,0.0117,0,0,0,0,0,0.0117
1661212800000,2022-08-23 00:00:00,SHPING/USDT,0.0117,0.0117,0.0117,0.0117,0,0,0,0,0,0.0117
1661126400000,2022-08-22 00:00:00,SHPING/USDT,0.0117,0.0117,0.0117,0.0117,0,0,0,0,0,0.0117
1661040000000,2022-08-21 00:00:00,SHPING/USDT,0.0117,0.0117,0.0117,0.0117,0,0,0,0,0,0.0117
1660953600000,2022-08-20 00:00:00,SHPING/USDT,0.0117,0.0117,0.0117,0.0117,0,0,0,0,0,0.0117
1660867200000,2022-08-19 00:00:00,SHPING/USDT,0.0117,0.0117,0.0117,0.0117,0,0,0,0,0,0.0117
1660780800000,2022-08-18 00:00:00,SHPING/USDT,0.0117,0.0117,0.0117,0.0117,0,0,0,0,0,0.0117
1660694400000,2022-08-17 00:00:00,SHPING/USDT,0.0117,0.0117,0.0117,0.0117,0,0,0,0,0,0.0117
1660608000000,2022-08-16 00:00:00,SHPING/USDT,0.0117,0.0117,0.0117,0.0117,0,0,0,0,0,0.0117
1660521600000,2022-08-15 00:00:00,SHPING/USDT,0.0117,0.0117,0.0117,0.0117,11.7,1000,0,0,1,0.0117
1660435200000,2022-08-14 00:00:00,SHPING/USDT,0.0119,0.0119,0.0119,0.0119,0,0,0,0,0,0.0119
1660348800000,2022-08-13 00:00:00,SHPING/USDT,0.0119,0.0119,0.0119,0.0119,0,0,0,0,0,0.0119
1660262400000,2022-08-12 00:00:00,SHPING/USDT,0.0119,0.0119,0.0119,0.0119,3.57,300,3.57,300,1,0.0119
1660176000000,2022-08-11 00:00:00,SHPING/USDT,0.00901,0.00901,0.00901,0.00901,2.48958013,276.313,2.48958013,276.313,1,0.00901
1659225600000,2022-07-31 00:00:00,SHPING/USDT,0.011055,0.011055,0.011055,0.011055,10.42080947,942.63315,0,0,0,0.011055
1659139200000,2022-07-30 00:00:00,SHPING/USDT,0.0085,0.0085,0.0084,0.0084,0,0,0,0,0,0.00841125
1659052800000,2022-07-29 00:00:00,SHPING/USDT,0.0085,0.0085,0.0084,0.0084,0,0,0,0,0,0.00841125
1658966400000,2022-07-28 00:00:00,SHPING/USDT,0.0085,0.0085,0.0084,0.0084,0,0,0,0,0,0.00841125
1658880000000,2022-07-27 00:00:00,SHPING/USDT,0.0085,0.0085,0.0084,0.0084,0,0,0,0,0,0.00841125
1658793600000,2022-07-26 00:00:00,SHPING/USDT,0.0085,0.0085,0.0084,0.0084,0,0,0,0,0,0.00841125
1658707200000,2022-07-25 00:00:00,SHPING/USDT,0.0085,0.0085,0.0084,0.0084,0,0,0,0,0,0.00841125
1658620800000,2022-07-24 00:00:00,SHPING/USDT,0.0085,0.0085,0.0084,0.0084,0,0,0,0,0,0.00841125
1658534400000,2022-07-23 00:00:00,SHPING/USDT,0.0085,0.0085,0.0084,0.0084,0,0,0,0,0,0.00841125
1658448000000,2022-07-22 00:00:00,SHPING/USDT,0.0085,0.0085,0.0084,0.0084,0,0,0,0,0,0.00841125
1658361600000,2022-07-21 00:00:00,SHPING/USDT,0.0085,0.0085,0.0084,0.0084,0,0,0,0,0,0.00841125
1658275200000,2022-07-20 00:00:00,SHPING/USDT,0.0085,0.0085,0.0084,0.0084,0,0,0,0,0,0.00841125
1658188800000,2022-07-19 00:00:00,SHPING/USDT,0.0085,0.0085,0.0084,0.0084,0,0,0,0,0,0.00841125
1658102400000,2022-07-18 00:00:00,SHPING/USDT,0.0085,0.0085,0.0084,0.0084,0,0,0,0,0,0.00841125
1658016000000,2022-07-17 00:00:00,SHPING/USDT,0.0085,0.0085,0.0084,0.0084,0,0,0,0,0,0.00841125
1657929600000,2022-07-16 00:00:00,SHPING/USDT,0.0085,0.0085,0.0084,0.0084,0,0,0,0,0,0.00841125
1657843200000,2022-07-15 00:00:00,SHPING/USDT,0.0085,0.0085,0.0084,0.0084,0,0,0,0,0,0.00841125
1657756800000,2022-07-14 00:00:00,SHPING/USDT,0.0085,0.0085,0.0084,0.0084,0,0,0,0,0,0.00841125
1657670400000,2022-07-13 00:00:00,SHPING/USDT,0.0085,0.0085,0.0084,0.0084,0,0,0,0,0,0.00841125
1657584000000,2022-07-12 00:00:00,SHPING/USDT,0.0085,0.0085,0.0084,0.0084,0,0,0,0,0,0.00841125
1657497600000,2022-07-11 00:00:00,SHPING/USDT,0.0085,0.0085,0.0084,0.0084,0,0,0,0,0,0.00841125
1657411200000,2022-07-10 00:00:00,SHPING/USDT,0.0085,0.0085,0.0084,0.0084,0,0,0,0,0,0.00841125
1657324800000,2022-07-09 00:00:00,SHPING/USDT,0.0085,0.0085,0.0084,0.0084,0,0,0,0,0,0.00841125
1657238400000,2022-07-08 00:00:00,SHPING/USDT,0.0085,0.0085,0.0084,0.0084,0,0,0,0,0,0.00841125
1657152000000,2022-07-07 00:00:00,SHPING/USDT,0.0085,0.0085,0.0084,0.0084,0,0,0,0,0,0.00841125
1657065600000,2022-07-06 00:00:00,SHPING/USDT,0.0085,0.0085,0.0084,0.0084,9.67014874,1149.66756813,0,0,0,0.00841125
1656979200000,2022-07-05 00:00:00,SHPING/USDT,0.02199995,0.02199995,0.02199995,0.02199995,0,0,0,0,0,0.02199995
1656892800000,2022-07-04 00:00:00,SHPING/USDT,0.02199995,0.02199995,0.02199995,0.02199995,0,0,0,0,0,0.02199995
1656806400000,2022-07-03 00:00:00,SHPING/USDT,0.02199995,0.02199995,0.02199995,0.02199995,0,0,0,0,0,0.02199995
1656720000000,2022-07-02 00:00:00,SHPING/USDT,0.02199995,0.02199995,0.02199995,0.02199995,0,0,0,0,0,0.02199995
1656633600000,2022-07-01 00:00:00,SHPING/USDT,0.02199995,0.02199995,0.02199995,0.02199995,0,0,0,0,0,0.02199995
1656547200000,2022-06-30 00:00:00,SHPING/USDT,0.02199995,0.02199995,0.02199995,0.02199995,0,0,0,0,0,0.02199995
1656460800000,2022-06-29 00:00:00,SHPING/USDT,0.02199995,0.02199995,0.02199995,0.02199995,6.903065,313.77639495,0,0,0,0.02199995
1656374400000,2022-06-28 00:00:00,SHPING/USDT,0.02199998,0.02199998,0.02199998,0.02199998,2.66065517,120.93898176,0,0,0,0.02199998
1656288000000,2022-06-27 00:00:00,SHPING/USDT,0.01199993,0.02199999,0.01,0.02199999,1758.14019305,104294.06577056,0,0,0,0.01685752
1656201600000,2022-06-26 00:00:00,SHPING/USDT,0.01199999,0.01199999,0.01199999,0.01199999,0,0,0,0,0,0.01199999
1656115200000,2022-06-25 00:00:00,SHPING/USDT,0.01199999,0.01199999,0.01199999,0.01199999,0,0,0,0,0,0.01199999
1656028800000,2022-06-24 00:00:00,SHPING/USDT,0.01199999,0.01199999,0.01199999,0.01199999,0,0,0,0,0,0.01199999
1655942400000,2022-06-23 00:00:00,SHPING/USDT,0.01199999,0.01199999,0.01199999,0.01199999,0,0,0,0,0,0.01199999
1655856000000,2022-06-22 00:00:00,SHPING/USDT,0.01199999,0.01199999,0.01199999,0.01199999,0,0,0,0,0,0.01199999
1655769600000,2022-06-21 00:00:00,SHPING/USDT,0.01199999,0.01199999,0.01199999,0.01199999,2.49999999,208.33350694,0,0,0,0.01199999
1655683200000,2022-06-20 00:00:00,SHPING/USDT,0.0093,0.0093,0.0084,0.0084,9.05006152,1002.51500431,0,0,0,0.00902735
1655596800000,2022-06-19 00:00:00,SHPING/USDT,0.01399997,0.01399997,0.00930001,0.00930001,10.87693485,1113.9707653,0,0,0,0.00976411
1655510400000,2022-06-18 00:00:00,SHPING/USDT,0.01399997,0.01399997,0.01399997,0.01399997,2.00035802,142.8830226,0,0,0,0.01399997
1655424000000,2022-06-17 00:00:00,SHPING/USDT,0.0091,0.0091,0.00860517,0.00860517,0,0,0,0,0,0.00897477
1655337600000,2022-06-16 00:00:00,SHPING/USDT,0.0091,0.0091,0.00860517,0.00860517,0,0,0,0,0,0.00897477
1655251200000,2022-06-15 00:00:00,SHPING/USDT,0.0091,0.0091,0.00860517,0.00860517,0,0,0,0,0,0.00897477
1655164800000,2022-06-14 00:00:00,SHPING/USDT,0.0091,0.0091,0.00860517,0.00860517,0,0,0,0,0,0.00897477
1655078400000,2022-06-13 00:00:00,SHPING/USDT,0.0091,0.0091,0.00860517,0.00860517,0,0,0,0,0,0.00897477
1654992000000,2022-06-12 00:00:00,SHPING/USDT,0.0091,0.0091,0.00860517,0.00860517,38.40640596,4279.37227871,0,0,0,0.00897477
1654905600000,2022-06-11 00:00:00,SHPING/USDT,0.01399999,0.01399999,0.01399999,0.01399999,1.09999999,78.57148469,0,0,0,0.01399999
1654819200000,2022-06-10 00:00:00,SHPING/USDT,0.0091,0.0091,0.0091,0.0091,0,0,0,0,0,0.0091
1654732800000,2022-06-09 00:00:00,SHPING/USDT,0.0091,0.0091,0.0091,0.0091,1.605,176.37362638,0,0,0,0.0091
1654646400000,2022-06-08 00:00:00,SHPING/USDT,0.0091,0.0091,0.0091,0.0091,0,0,0,0,0,0.0091
1654560000000,2022-06-07 00:00:00,SHPING/USDT,0.0091,0.0091,0.0091,0.0091,0,0,0,0,0,0.0091
1654473600000,2022-06-06 00:00:00,SHPING/USDT,0.0091,0.0091,0.0091,0.0091,0,0,0,0,0,0.0091
1654387200000,2022-06-05 00:00:00,SHPING/USDT,0.0091,0.0091,0.0091,0.0091,0,0,0,0,0,0.0091
1654300800000,2022-06-04 00:00:00,SHPING/USDT,0.0091,0.0091,0.0091,0.0091,0,0,0,0,0,0.0091
1654214400000,2022-06-03 00:00:00,SHPING/USDT,0.0091,0.0091,0.0091,0.0091,0,0,0,0,0,0.0091
1654128000000,2022-06-02 00:00:00,SHPING/USDT,0.0091,0.0091,0.0091,0.0091,0,0,0,0,0,0.0091
1654041600000,2022-06-01 00:00:00,SHPING/USDT,0.0091,0.0091,0.0091,0.0091,0,0,0,0,0,0.0091
1653955200000,2022-05-31 00:00:00,SHPING/USDT,0.0091,0.0091,0.0091,0.0091,1.1,120.87912088,0,0,0,0.0091
1653868800000,2022-05-30 00:00:00,SHPING/USDT,0.0091,0.0091,0.0091,0.0091,2.29999999,252.74725274,0,0,0,0.0091
1653782400000,2022-05-29 00:00:00,SHPING/USDT,0.0091,0.0091,0.0091,0.0091,40.95,4500,0,0,0,0.0091
1653696000000,2022-05-28 00:00:00,SHPING/USDT,0.01040001,0.01040001,0.0104,0.0104,49.40662232,4750.63611469,0,0,0,0.0104
1653609600000,2022-05-27 00:00:00,SHPING/USDT,0.01040001,0.01040001,0.0104,0.0104,0,0,0,0,0,0.0104
1653523200000,2022-05-26 00:00:00,SHPING/USDT,0.01040001,0.01040001,0.0104,0.0104,0,0,0,0,0,0.0104
1653436800000,2022-05-25 00:00:00,SHPING/USDT,0.01040001,0.01040001,0.0104,0.0104,0,0,0,0,0,0.0104
1653350400000,2022-05-24 00:00:00,SHPING/USDT,0.01040001,0.01040001,0.0104,0.0104,0,0,0,0,0,0.0104
1653264000000,2022-05-23 00:00:00,SHPING/USDT,0.01040001,0.01040001,0.0104,0.0104,0,0,0,0,0,0.0104
1653177600000,2022-05-22 00:00:00,SHPING/USDT,0.01040001,0.01040001,0.0104,0.0104,0,0,0,0,0,0.0104
1653091200000,2022-05-21 00:00:00,SHPING/USDT,0.01040001,0.01040001,0.0104,0.0104,0,0,0,0,0,0.0104
1653004800000,2022-05-20 00:00:00,SHPING/USDT,0.01040001,0.01040001,0.0104,0.0104,52.00002877,5000,0,0,0,0.0104
1652918400000,2022-05-19 00:00:00,SHPING/USDT,0.00784092,0.00858,0.00784092,0.00858,37.91212845,4725.49946958,0,0,0,0.00802288
1652832000000,2022-05-18 00:00:00,SHPING/USDT,0.008446,0.008587,0.008446,0.008587,154.609901,18013.65407637,0,0,0,0.00858292
1652745600000,2022-05-17 00:00:00,SHPING/USDT,0.008,0.008,0.008,0.008,0,0,0,0,0,0.008
1652659200000,2022-05-16 00:00:00,SHPING/USDT,0.008,0.008,0.008,0.008,4.4,550,0,0,0,0.008
1652572800000,2022-05-15 00:00:00,SHPING/USDT,0.00714952,0.00714952,0.00714952,0.00714952,0,0,0,0,0,0.00714952
1652486400000,2022-05-14 00:00:00,SHPING/USDT,0.00714952,0.00714952,0.00714952,0.00714952,0,0,0,0,0,0.00714952
1652400000000,2022-05-13 00:00:00,SHPING/USDT,0.00714952,0.00714952,0.00714952,0.00714952,0,0,0,0,0,0.00714952
1652313600000,2022-05-12 00:00:00,SHPING/USDT,0.00714952,0.00714952,0.00714952,0.00714952,28.13353697,3935.02458523,0,0,0,0.00714952
1652227200000,2022-05-11 00:00:00,SHPING/USDT,0.01199985,0.01199985,0.00999992,0.00999992,0,0,0,0,0,0.01120469
1652140800000,2022-05-10 00:00:00,SHPING/USDT,0.01199985,0.01199985,0.00999992,0.00999992,3.09999999,276.66963003,0,0,0,0.01120469
1652054400000,2022-05-09 00:00:00,SHPING/USDT,0.01601155,0.01601155,0.01601155,0.01601155,0,0,0,0,0,0.01601155
1651968000000,2022-05-08 00:00:00,SHPING/USDT,0.01601155,0.01601155,0.01601155,0.01601155,1.44999999,90.55962726,0,0,0,0.01601155
1651881600000,2022-05-07 00:00:00,SHPING/USDT,0.01484641,0.01484641,0.01484641,0.01484641,0,0,0,0,0,0.01484641
1651795200000,2022-05-06 00:00:00,SHPING/USDT,0.01484641,0.01484641,0.01484641,0.01484641,0,0,0,0,0,0.01484641
1651708800000,2022-05-05 00:00:00,SHPING/USDT,0.01484641,0.01484641,0.01484641,0.01484641,1.09999999,74.09198587,0,0,0,0.01484641
1651622400000,2022-05-04 00:00:00,SHPING/USDT,0.01592005,0.01592005,0.01592005,0.01592005,1.99999999,125.62774614,0,0,0,0.01592005
1651536000000,2022-05-03 00:00:00,SHPING/USDT,0.0163099,0.0163099,0.01454255,0.01454255,3.29999999,218.7239086,0,0,0,0.01508751
1651449600000,2022-05-02 00:00:00,SHPING/USDT,0.01614803,0.01614803,0.01450288,0.01450288,2.19999999,143.96676863,0,0,0,0.0152813
1651363200000,2022-05-01 00:00:00,SHPING/USDT,0.01684477,0.01684477,0.01684477,0.01684477,1.09999999,65.30216797,0,0,0,0.01684477
1651276800000,2022-04-30 00:00:00,SHPING/USDT,0.01920217,0.01920217,0.01899999,0.01899999,4.58841869,240.33297689,0,0,0,0.01909192
1651190400000,2022-04-29 00:00:00,SHPING/USDT,0.01920244,0.01920244,0.01920244,0.01920244,1.1,57.28438678,0,0,0,0.01920244
1651104000000,2022-04-28 00:00:00,SHPING/USDT,0.01919,0.01919,0.01919,0.01919,22.34961901,1164.64924494,0,0,0,0.01919
1651017600000,2022-04-27 00:00:00,SHPING/USDT,0.01974999,0.01974999,0.01899999,0.01899999,6.38199721,333.69623073,0,0,0,0.01912517
1650931200000,2022-04-26 00:00:00,SHPING/USDT,0.02,0.02,0.01999998,0.01999998,2.09999999,105.000055,0,0,0,0.01999998
1650844800000,2022-04-25 00:00:00,SHPING/USDT,0.02199999,0.02199999,0.02199999,0.02199999,0,0,0,0,0,0.02199999
1650758400000,2022-04-24 00:00:00,SHPING/USDT,0.02199999,0.02199999,0.02199999,0.02199999,1,45.45456612,0,0,0,0.02199999
1650672000000,2022-04-23 00:00:00,SHPING/USDT,0.01950002,0.01950002,0.01950001,0.01950001,0,0,0,0,0,0.01950001
1650585600000,2022-04-22 00:00:00,SHPING/USDT,0.01950002,0.01950002,0.01950001,0.01950001,0,0,0,0,0,0.01950001
1650499200000,2022-04-21 00:00:00,SHPING/USDT,0.01950002,0.01950002,0.01950001,0.01950001,60.45003356,3100,0,0,0,0.01950001
1650412800000,2022-04-20 00:00:00,SHPING/USDT,0.01878,0.019,0.01878,0.019,7.40161404,391.89928965,0,0,0,0.01888652
1650326400000,2022-04-19 00:00:00,SHPING/USDT,0.0187,0.0187,0.0187,0.0187,12.52816579,669.95539,0,0,0,0.0187
1650240000000,2022-04-18 00:00:00,SHPING/USDT,0.01879999,0.01879999,0.01879999,0.01879999,0,0,0,0,0,0.01879999
1650153600000,2022-04-17 00:00:00,SHPING/USDT,0.01879999,0.01879999,0.01879999,0.01879999,4.46450664,237.47388415,0,0,0,0.01879999
1650067200000,2022-04-16 00:00:00,SHPING/USDT,0.01879999,0.01879999,0.01879999,0.01879999,0,0,0,0,0,0.01879999
1649980800000,2022-04-15 00:00:00,SHPING/USDT,0.01879999,0.01879999,0.01879999,0.01879999,0,0,0,0,0,0.01879999
1649894400000,2022-04-14 00:00:00,SHPING/USDT,0.01879999,0.01879999,0.01879999,0.01879999,0,0,0,0,0,0.01879999
1649808000000,2022-04-13 00:00:00,SHPING/USDT,0.01879999,0.01879999,0.01879999,0.01879999,0,0,0,0,0,0.01879999
1649721600000,2022-04-12 00:00:00,SHPING/USDT,0.01879999,0.01879999,0.01879999,0.01879999,0,0,0,0,0,0.01879999
1649635200000,2022-04-11 00:00:00,SHPING/USDT,0.01879999,0.01879999,0.01879999,0.01879999,2.19999999,117.02133884,0,0,0,0.01879999
1649548800000,2022-04-10 00:00:00,SHPING/USDT,0.01789111,0.01789111,0.01789111,0.01789111,17.96215139,1003.97076529,0,0,0,0.01789111
1649462400000,2022-04-09 00:00:00,SHPING/USDT,0.0178911,0.0178911,0.0178911,0.0178911,0,0,0,0,0,0.0178911
1649376000000,2022-04-08 00:00:00,SHPING/USDT,0.0178911,0.0178911,0.0178911,0.0178911,28.0590049,1568.32195387,0,0,0,0.0178911
1649289600000,2022-04-07 00:00:00,SHPING/USDT,0.01500002,0.0179111,0.014,0.0179111,49.04007023,3266.59104613,0,0,0,0.01501261
1649203200000,2022-04-06 00:00:00,SHPING/USDT,0.01900001,0.01900001,0.019,0.019,13.99999999,736.84199445,0,0,0,0.019
1649116800000,2022-04-05 00:00:00,SHPING/USDT,0.0269,0.0269,0.0269,0.0269,0,0,0,0,0,0.0269
1649030400000,2022-04-04 00:00:00,SHPING/USDT,0.0269,0.0269,0.0269,0.0269,0,0,0,0,0,0.0269
1648944000000,2022-04-03 00:00:00,SHPING/USDT,0.0269,0.0269,0.0269,0.0269,0,0,0,0,0,0.0269
1648857600000,2022-04-02 00:00:00,SHPING/USDT,0.0269,0.0269,0.0269,0.0269,1.1,40.89219331,0,0,0,0.0269
1648771200000,2022-04-01 00:00:00,SHPING/USDT,0.027,0.027,0.027,0.027,4.8,177.77777778,0,0,0,0.027
1648684800000,2022-03-31 00:00:00,SHPING/USDT,0.027,0.027,0.027,0.027,0,0,0,0,0,0.027
1648598400000,2022-03-30 00:00:00,SHPING/USDT,0.027,0.027,0.027,0.027,21.50379178,796.43673296,0,0,0,0.027
1648512000000,2022-03-29 00:00:00,SHPING/USDT,0.032,0.032,0.029,0.029,4.39999999,145.72093993,0,0,0,0.03019469
1648425600000,2022-03-28 00:00:00,SHPING/USDT,0.031,0.031,0.031,0.031,0,0,0,0,0,0.031
1648339200000,2022-03-27 00:00:00,SHPING/USDT,0.031,0.031,0.031,0.031,0,0,0,0,0,0.031
1648252800000,2022-03-26 00:00:00,SHPING/USDT,0.031,0.031,0.031,0.031,0,0,0,0,0,0.031
1648166400000,2022-03-25 00:00:00,SHPING/USDT,0.031,0.031,0.031,0.031,101.72149168,3281.33844155,0,0,0,0.031
1648080000000,2022-03-24 00:00:00,SHPING/USDT,0.02767551,0.0288944,0.02767551,0.0288944,27.47850833,972.13814926,0,0,0,0.02826605
1647993600000,2022-03-23 00:00:00,SHPING/USDT,0.034001,0.034001,0.031,0.031,81.1640733,2416.0329853,0,0,0,0.03359394
1647907200000,2022-03-22 00:00:00,SHPING/USDT,0.03200998,0.035,0.03200998,0.035,512.79551367,14804.97899789,0,0,0,0.03463669
1647820800000,2022-03-21 00:00:00,SHPING/USDT,0.03025,0.03249998,0.02,0.03219998,517.82034008,17158.19507899,0,0,0,0.03017918
1647734400000,2022-03-20 00:00:00,SHPING/USDT,0.0120005,0.033,0.012,0.01751,5146.36961369,193813.95812602,0,0,0,0.02655314
1647648000000,2022-03-19 00:00:00,SHPING/USDT,0.0144,0.0144,0.01200001,0.01200001,17.06198047,1301.94223235,0,0,0,0.01310502
1647561600000,2022-03-18 00:00:00,SHPING/USDT,0.015,0.01799989,0.0144,0.0144,0,0,0,0,0,0.01577718
1647475200000,2022-03-17 00:00:00,SHPING/USDT,0.015,0.01799989,0.0144,0.0144,0,0,0,0,0,0.01577718
1647388800000,2022-03-16 00:00:00,SHPING/USDT,0.015,0.01799989,0.0144,0.0144,5.27115415,334.09981098,0,0,0,0.01577718
1647302400000,2022-03-15 00:00:00,SHPING/USDT,0.015001,0.015001,0.01450001,0.01450001,5.2,355.85654575,0,0,0,0.01461262
1647216000000,2022-03-14 00:00:00,SHPING/USDT,0.01849064,0.01849064,0.01849064,0.01849064,0,0,0,0,0,0.01849064
1647129600000,2022-03-13 00:00:00,SHPING/USDT,0.01849064,0.01849064,0.01849064,0.01849064,0,0,0,0,0,0.01849064
1647043200000,2022-03-12 00:00:00,SHPING/USDT,0.01849064,0.01849064,0.01849064,0.01849064,3.70127726,200.17031697,0,0,0,0.01849064
1646956800000,2022-03-11 00:00:00,SHPING/USDT,0.0153,0.01909999,0.01430001,0.01909999,80.37301438,5374.53930717,0,0,0,0.0149544
1646870400000,2022-03-10 00:00:00,SHPING/USDT,0.021,0.021,0.021,0.021,14.18007214,675.24153095,0,0,0,0.021
1646784000000,2022-03-09 00:00:00,SHPING/USDT,0.021,0.021,0.021,0.021,1,47.61904762,0,0,0,0.021
1646697600000,2022-03-08 00:00:00,SHPING/USDT,0.021,0.021,0.021,0.021,2.8087694,133.75092428,0,0,0,0.021
1646611200000,2022-03-07 00:00:00,SHPING/USDT,0.02,0.02,0.0141,0.0141,10.30351349,592.11679774,0,0,0,0.01740115
1646524800000,2022-03-06 00:00:00,SHPING/USDT,0.022,0.022,0.022,0.022,0.066,3,0,0,0,0.022
1646438400000,2022-03-05 00:00:00,SHPING/USDT,0.0159,0.022,0.0125,0.022,148.62933523,8233.64729237,0,0,0,0.01805145
1646352000000,2022-03-04 00:00:00,SHPING/USDT,0.021,0.021,0.021,0.021,3.26021817,155.24848465,0,0,0,0.021
1646265600000,2022-03-03 00:00:00,SHPING/USDT,0.021,0.02199887,0.021,0.021,334.53122351,15248.05831738,0,0,0,0.02193926
1646179200000,2022-03-02 00:00:00,SHPING/USDT,0.006,0.02199885,0.005,0.021,297.60248421,23738.93215469,0,0,0,0.01253647
1646092800000,2022-03-01 00:00:00,SHPING/USDT,0.01,0.02199885,0.004,0.02199885,20.74652401,1565.7914764,0,0,0,0.01324986
1646006400000,2022-02-28 00:00:00,SHPING/USDT,0.015,0.02199999,0.013,0.02199999,24.22539077,1785.16996146,0,0,0,0.01357035
1645920000000,2022-02-27 00:00:00,SHPING/USDT,0.02000011,0.02000011,0.02,0.02,104.22845766,5211.40066855,0,0,0,0.02000008
1645833600000,2022-02-26 00:00:00,SHPING/USDT,0.02,0.02,0.02,0.02,28.90452502,1445.22625121,0,0,0,0.02
1645747200000,2022-02-25 00:00:00,SHPING/USDT,0.01119999,0.021,0.01119999,0.0166945,369.65650601,31368.90081947,0,0,0,0.01178417
1645660800000,2022-02-24 00:00:00,SHPING/USDT,0.02,0.02379999,0.01099999,0.01099999,100.90045155,5832.69379236,0,0,0,0.01729911
1645574400000,2022-02-23 00:00:00,SHPING/USDT,0.01500001,0.024,0.01400004,0.02,146.34309001,7744.674151,0,0,0,0.01889596
1645488000000,2022-02-22 00:00:00,SHPING/USDT,0.017,0.01710247,0.01399999,0.01492428,464.16303927,30979.6226596,0,0,0,0.01498284
1645401600000,2022-02-21 00:00:00,SHPING/USDT,0.02309681,0.024,0.01612211,0.0213785,17.82389172,880.16403791,0,0,0,0.02025064
1645315200000,2022-02-20 00:00:00,SHPING/USDT,0.028,0.028,0.027,0.027,21.18521004,763.10431148,0,0,0,0.02776187
1645228800000,2022-02-19 00:00:00,SHPING/USDT,0.05999998,0.05999998,0.02681555,0.028,963.83694313,34377.6558597,0,0,0,0.02803672
1645142400000,2022-02-18 00:00:00,SHPING/USDT,0.027,0.05999998,0.01555552,0.05999998,229.02068814,8031.27022293,0,0,0,0.02851612
1645056000000,2022-02-17 00:00:00,SHPING/USDT,1.131,1000,0.0278,0.0278,777.22295321,14877.8396285,0,0,0,0.0522403
