https://www.CryptoDataDownload.com
unix,date,symbol,open,high,low,close,Volume SOL,Volume USDC,buyTakerAmount,buyTakerQuantity,tradeCount,weightedAverage
1694995200000,2023-09-18 00:00:00,SOL/USDC,18.57,34.59,17.89,19.59,360.99,17.588474,61.84,2.14135,25,21.26
1694908800000,2023-09-17 00:00:00,SOL/USDC,19.13,19.13,19.13,19.13,0,0,0,0,0,19.13
1694822400000,2023-09-16 00:00:00,SOL/USDC,19.13,19.13,19.13,19.13,46.07,2.408693,46.07,2.408693,2,19.13
1694736000000,2023-09-15 00:00:00,SOL/USDC,19.11,19.11,19.09,19.09,68.1,3.564353,22.08,1.155661,3,19.1
1694649600000,2023-09-14 00:00:00,SOL/USDC,18.75,19.04,18.75,18.95,197.58,10.435881,68.24,3.617239,7,18.93
1694563200000,2023-09-13 00:00:00,SOL/USDC,18.02,18.33,18,18.33,113.68,6.267043,46.13,2.517028,4,18.14
1694476800000,2023-09-12 00:00:00,SOL/USDC,17.8,17.8,17.8,17.8,21.4,1.202605,21.4,1.202605,2,17.8
1694390400000,2023-09-11 00:00:00,SOL/USDC,18.38,18.38,17.49,17.49,94.59,5.282853,45.35,2.467729,4,17.91
1694304000000,2023-09-10 00:00:00,SOL/USDC,18.96,18.96,18,18,1462.13,81.170462,0,0,5,18.01
1694217600000,2023-09-09 00:00:00,SOL/USDC,21.06,21.06,21.06,21.06,0,0,0,0,0,20.06
1694131200000,2023-09-08 00:00:00,SOL/USDC,19.47,21.06,19.47,21.06,43.84,2.186622,24.51,1.19391,3,20.06
1694044800000,2023-09-07 00:00:00,SOL/USDC,21.35,21.35,21.35,21.35,500.07,23.4229,133.93,6.273495,3,21.35
1693958400000,2023-09-06 00:00:00,SOL/USDC,19.35,19.35,19.35,19.35,0,0,0,0,0,20.03
1693872000000,2023-09-05 00:00:00,SOL/USDC,19.35,19.35,19.35,19.35,0,0,0,0,0,20.03
1693785600000,2023-09-04 00:00:00,SOL/USDC,19.35,19.35,19.35,19.35,0,0,0,0,0,20.03
1693699200000,2023-09-03 00:00:00,SOL/USDC,19.9,21.35,19.35,19.35,306.21,15.308749,80.06,3.750071,5,20.03
1693612800000,2023-09-02 00:00:00,SOL/USDC,19.9,19.9,19.9,19.9,0,0,0,0,0,19.9
1693526400000,2023-09-01 00:00:00,SOL/USDC,19.91,19.91,19.9,19.9,169.54,8.518238,20.41,1.025386,6,19.9
1693440000000,2023-08-31 00:00:00,SOL/USDC,20.7,20.91,20.7,20.91,20.5,0.981352,20.5,0.981352,2,20.89
1693353600000,2023-08-30 00:00:00,SOL/USDC,21.03,21.03,20.1,20.91,152.61,7.333354,27.71,1.32529,7,20.81
1693267200000,2023-08-29 00:00:00,SOL/USDC,20.37,21.89,20.37,21.89,38.7,1.834044,38.7,1.834044,4,21.13
1693180800000,2023-08-28 00:00:00,SOL/USDC,20.74,20.74,20.74,20.74,10.1,0.487274,10.1,0.487274,1,20.74
1693094400000,2023-08-27 00:00:00,SOL/USDC,20.37,20.37,20.37,20.37,0,0,0,0,0,20.37
1693008000000,2023-08-26 00:00:00,SOL/USDC,20.37,20.37,20.37,20.37,2.86,0.140598,2.86,0.140598,1,20.37
1692921600000,2023-08-25 00:00:00,SOL/USDC,20.78,20.96,20.36,20.36,3580.93,172.64915,3221.85,155.089974,25,20.74
1692835200000,2023-08-24 00:00:00,SOL/USDC,21.19,21.2,21.19,21.2,43.08,2.032602,20.9,0.985863,10,21.19
1692748800000,2023-08-23 00:00:00,SOL/USDC,20.83,20.83,20.62,20.62,106.8,5.13154,98.34,4.721555,4,20.81
1692662400000,2023-08-22 00:00:00,SOL/USDC,19.9,19.9,19.9,19.9,76.9,3.864744,76.9,3.864744,1,19.9
1692576000000,2023-08-21 00:00:00,SOL/USDC,21.11,21.3,20.74,20.74,362.49,17.198007,50.29,2.382627,7,21.07
1692489600000,2023-08-20 00:00:00,SOL/USDC,21.23,21.23,21.23,21.23,0,0,0,0,0,21.23
1692403200000,2023-08-19 00:00:00,SOL/USDC,21.23,21.23,21.23,21.23,0,0,0,0,0,21.23
1692316800000,2023-08-18 00:00:00,SOL/USDC,21.23,21.23,21.23,21.23,5.9,0.277969,5.9,0.277969,1,21.23
1692230400000,2023-08-17 00:00:00,SOL/USDC,22.89,22.89,20.58,20.58,4.2,0.188892,0,0,3,22.28
1692144000000,2023-08-16 00:00:00,SOL/USDC,23.5,23.5,23.25,23.25,185.5,7.933571,181.39,7.759071,4,23.38
1692057600000,2023-08-15 00:00:00,SOL/USDC,24.87,25.71,24.69,24.69,108.26,4.357076,88.71,3.565076,15,24.84
1691971200000,2023-08-14 00:00:00,SOL/USDC,24.3,24.3,24.3,24.3,0,0,0,0,0,25.45
1691884800000,2023-08-13 00:00:00,SOL/USDC,24.3,24.3,24.3,24.3,0,0,0,0,0,25.45
1691798400000,2023-08-12 00:00:00,SOL/USDC,24.3,24.3,24.3,24.3,0,0,0,0,0,25.45
1691712000000,2023-08-11 00:00:00,SOL/USDC,24.68,35.9,24.3,24.3,437.87,17.251093,276.52,10.726118,11,25.45
1691625600000,2023-08-10 00:00:00,SOL/USDC,24.22,24.22,24.22,24.22,8.94,0.369188,8.94,0.369188,1,24.22
1691539200000,2023-08-09 00:00:00,SOL/USDC,23.23,24.4,23.23,24.4,653.81,27.419833,653.81,27.419833,8,23.85
1691452800000,2023-08-08 00:00:00,SOL/USDC,23.16,24.82,23.16,24.82,1129.24,48.715995,1.98,0.08588,9,23.18
1691366400000,2023-08-07 00:00:00,SOL/USDC,23.24,23.28,22.94,22.94,6.27,0.26965,0,0,3,23.26
1691280000000,2023-08-06 00:00:00,SOL/USDC,22.95,22.95,22.94,22.94,49.64,2.163849,0,0,3,22.94
1691193600000,2023-08-05 00:00:00,SOL/USDC,22.94,22.94,22.94,22.94,91.76,4,91.76,4,2,22.94
1691107200000,2023-08-04 00:00:00,SOL/USDC,22.7,23.43,22.57,23.43,28.43,1.222696,25.39,1.088006,3,23.26
1691020800000,2023-08-03 00:00:00,SOL/USDC,22.93,22.93,22.93,22.93,171.33,7.472264,0,0,2,22.93
1690934400000,2023-08-02 00:00:00,SOL/USDC,23.83,23.83,23.07,23.1,356.22,15.376715,235.82,10.209798,5,23.16
1690848000000,2023-08-01 00:00:00,SOL/USDC,23.01,23.83,23.01,23.83,255.95,10.966874,57.03,2.407667,6,23.34
1690761600000,2023-07-31 00:00:00,SOL/USDC,23.91,23.91,23.6,23.6,91.81,3.888654,88.71,3.758955,6,23.61
1690675200000,2023-07-30 00:00:00,SOL/USDC,25,25,24.35,24.35,39.69,1.624083,1,0.041068,3,24.44
1690588800000,2023-07-29 00:00:00,SOL/USDC,25.1,25.1,25.1,25.1,2090.83,83.3,2090.83,83.3,3,25.1
1690502400000,2023-07-28 00:00:00,SOL/USDC,25.1,25.1,25.1,25.1,7.87,0.3139,0,0,3,25.1
1690416000000,2023-07-27 00:00:00,SOL/USDC,25.16,27.05,22.33,24.92,78.78,3.147606,36.85,1.440002,15,25.06
1690329600000,2023-07-26 00:00:00,SOL/USDC,25.43,25.43,25.43,25.43,31.87,1.253637,31.87,1.253637,1,25.43
1690243200000,2023-07-25 00:00:00,SOL/USDC,23.36,23.36,23.36,23.36,35.46,1.518407,35.46,1.518407,1,23.36
1690156800000,2023-07-24 00:00:00,SOL/USDC,24.42,24.42,23.32,24.01,189.65,7.794433,7.99,0.333194,6,24.33
1690070400000,2023-07-23 00:00:00,SOL/USDC,25.59,25.59,25.59,25.59,0,0,0,0,0,25.57
1689984000000,2023-07-22 00:00:00,SOL/USDC,25.5,25.59,25.5,25.59,264.19,10.332124,0,0,6,25.57
1689897600000,2023-07-21 00:00:00,SOL/USDC,25.41,25.41,25.41,25.41,59.81,2.354005,59.81,2.354005,2,25.41
1689811200000,2023-07-20 00:00:00,SOL/USDC,26.39,26.39,26.39,26.39,0,0,0,0,0,27.71
1689724800000,2023-07-19 00:00:00,SOL/USDC,29.02,29.02,26.34,26.39,191.38,6.92209,97.69,3.366341,5,27.71
1689638400000,2023-07-18 00:00:00,SOL/USDC,26,26.1,25.06,25.31,6473.52,249.119373,85.54,3.358568,55,25.98
1689552000000,2023-07-17 00:00:00,SOL/USDC,26.88,26.88,26.88,26.88,20.95,0.779646,20.95,0.779646,1,26.88
1689465600000,2023-07-16 00:00:00,SOL/USDC,27.37,27.37,27.37,27.37,0,0,0,0,0,27.37
1689379200000,2023-07-15 00:00:00,SOL/USDC,27.37,27.37,27.37,27.37,111.76,4.083365,111.76,4.083365,10,27.37
1689292800000,2023-07-14 00:00:00,SOL/USDC,30.89,31.37,27.45,27.45,261.75,8.683219,195.4,6.354263,12,30.19
1689206400000,2023-07-13 00:00:00,SOL/USDC,23,25.22,23,25.22,387.73,16.341404,141.12,5.875289,11,23.73
1689120000000,2023-07-12 00:00:00,SOL/USDC,22.01,22.5,22.01,22.5,37.11,1.653111,37.11,1.653111,3,22.45
1689033600000,2023-07-11 00:00:00,SOL/USDC,22.26,22.37,22.26,22.37,59.15,2.651239,59.15,2.651239,2,22.31
1688947200000,2023-07-10 00:00:00,SOL/USDC,20.59,21.56,20.59,21.56,3416.17,161.22826,10.33,0.49,96,21.18
1688860800000,2023-07-09 00:00:00,SOL/USDC,22.09,22.24,22.09,22.24,5.51,0.248506,5.51,0.248506,2,22.21
1688774400000,2023-07-08 00:00:00,SOL/USDC,22,22.3,22,22.14,579.27,26.198285,514.39,23.266828,11,22.11
1688688000000,2023-07-07 00:00:00,SOL/USDC,21.25,21.56,21.25,21.48,167.66,7.797633,68.05,3.160092,5,21.5
1688601600000,2023-07-06 00:00:00,SOL/USDC,20.09,20.73,19.57,20.44,300.73,14.67209,160.53,7.744,5,20.5
1688515200000,2023-07-05 00:00:00,SOL/USDC,19.33,19.33,19.33,19.33,0,0,0,0,0,19.33
1688428800000,2023-07-04 00:00:00,SOL/USDC,19.33,19.33,19.33,19.33,0,0,0,0,0,19.33
1688342400000,2023-07-03 00:00:00,SOL/USDC,19.33,19.33,19.33,19.33,0,0,0,0,0,19.33
1688256000000,2023-07-02 00:00:00,SOL/USDC,19.33,19.33,19.33,19.33,5.82,0.301467,0,0,1,19.33
1688169600000,2023-07-01 00:00:00,SOL/USDC,18.86,18.86,18.54,18.54,104.25,5.536954,9.99,0.539374,4,18.82
1688083200000,2023-06-30 00:00:00,SOL/USDC,18.36,19.38,18.28,19.22,948.18,50.032237,227.17,11.932217,21,18.95
1687996800000,2023-06-29 00:00:00,SOL/USDC,16,16,16,16,0,0,0,0,0,16.3
1687910400000,2023-06-28 00:00:00,SOL/USDC,16.51,16.51,16,16,410.68,25.191361,282.78,17.374754,6,16.3
1687824000000,2023-06-27 00:00:00,SOL/USDC,16.1,16.1,16.1,16.1,0,0,0,0,0,16.43
1687737600000,2023-06-26 00:00:00,SOL/USDC,16.76,16.76,16.1,16.1,228.8,13.924132,165.3,10.098513,9,16.43
1687651200000,2023-06-25 00:00:00,SOL/USDC,17.27,17.27,17.12,17.12,75.42,4.404204,75.42,4.404204,2,17.12
1687564800000,2023-06-24 00:00:00,SOL/USDC,16.72,16.72,16.44,16.44,10.93,0.659038,2.54,0.155108,3,16.58
1687478400000,2023-06-23 00:00:00,SOL/USDC,16.68,16.68,16.46,16.46,58.12,3.486598,55.64,3.336115,4,16.67
1687392000000,2023-06-22 00:00:00,SOL/USDC,18.81,19.38,16.76,16.76,5936.73,328.760301,1988.98,105.196585,85,18.09
1687305600000,2023-06-21 00:00:00,SOL/USDC,16.5,17,16.5,16.93,289.28,17.071538,0,0.000001,5,16.94
1687219200000,2023-06-20 00:00:00,SOL/USDC,16.5,16.5,16.5,16.5,2.47,0.149999,2.47,0.149999,1,16.5
1687132800000,2023-06-19 00:00:00,SOL/USDC,15.06,15.06,15.06,15.06,0,0,0,0,0,14.51
1687046400000,2023-06-18 00:00:00,SOL/USDC,15.06,15.06,15.06,15.06,0,0,0,0,0,14.51
1686960000000,2023-06-17 00:00:00,SOL/USDC,15.06,15.06,15.06,15.06,0,0,0,0,0,14.51
1686873600000,2023-06-16 00:00:00,SOL/USDC,15.06,15.06,15.06,15.06,0,0,0,0,0,14.51
1686787200000,2023-06-15 00:00:00,SOL/USDC,14.87,15.06,14.4,15.06,10.74,0.741,2.1,0.141,3,14.51
1686700800000,2023-06-14 00:00:00,SOL/USDC,15.03,15.03,15.03,15.03,0,0,0,0,0,15.03
1686614400000,2023-06-13 00:00:00,SOL/USDC,15.03,15.03,15.03,15.03,0,0,0,0,0,15.03
1686528000000,2023-06-12 00:00:00,SOL/USDC,15.03,15.03,15.03,15.03,16.79,1.117376,0,0,1,15.03
1686441600000,2023-06-11 00:00:00,SOL/USDC,15.54,15.54,15.33,15.42,542.8,35.178321,254.03,16.550674,6,15.43
1686355200000,2023-06-10 00:00:00,SOL/USDC,16.4,16.4,13.44,15.48,1908.5,121.539822,278.3,18.234814,22,15.72
1686268800000,2023-06-09 00:00:00,SOL/USDC,18.56,19.37,17.7,17.7,907.52,47.970411,626.2,32.342437,14,18.94
1686182400000,2023-06-08 00:00:00,SOL/USDC,20.18,20.18,18.17,18.17,88.23,4.850696,0.99,0.049554,2,18.19
1686096000000,2023-06-07 00:00:00,SOL/USDC,20.22,20.22,18.77,18.88,494.72,24.697865,166.79,8.341488,12,20.03
1686009600000,2023-06-06 00:00:00,SOL/USDC,20.04,20.34,19.98,20.34,224.52,11.175502,115.13,5.760995,8,20.09
1685923200000,2023-06-05 00:00:00,SOL/USDC,21.53,21.53,20.02,20.04,139.39,6.894951,8.63,0.430993,6,20.22
1685836800000,2023-06-04 00:00:00,SOL/USDC,22.03,22.03,22.03,22.03,98.34,4.464346,98.34,4.464346,3,22.03
1685750400000,2023-06-03 00:00:00,SOL/USDC,21.09,21.09,21.09,21.09,0,0,0,0,0,20.9
1685664000000,2023-06-02 00:00:00,SOL/USDC,20.7,21.1,20.7,21.09,223.2,10.67933,110.99,5.359964,5,20.9
1685577600000,2023-06-01 00:00:00,SOL/USDC,18.83,22.45,18.83,20.63,259.05,12.488181,213.05,10.346429,10,20.75
1685491200000,2023-05-31 00:00:00,SOL/USDC,19.33,19.33,19.33,19.33,0,0,0,0,0,19.48
1685404800000,2023-05-30 00:00:00,SOL/USDC,19.33,19.33,19.33,19.33,0,0,0,0,0,19.48
1685318400000,2023-05-29 00:00:00,SOL/USDC,19.33,19.33,19.33,19.33,0,0,0,0,0,19.48
1685232000000,2023-05-28 00:00:00,SOL/USDC,19.33,19.33,19.33,19.33,0,0,0,0,0,19.48
1685145600000,2023-05-27 00:00:00,SOL/USDC,19.33,19.33,19.33,19.33,0,0,0,0,0,19.48
1685059200000,2023-05-26 00:00:00,SOL/USDC,19.33,19.33,19.33,19.33,0,0,0,0,0,19.48
1684972800000,2023-05-25 00:00:00,SOL/USDC,19.64,19.64,19.33,19.33,194.31,9.971788,98.6,5.020875,2,19.48
1684886400000,2023-05-24 00:00:00,SOL/USDC,19.69,19.69,18.84,18.84,59.12,3.060589,19.83,1.007566,3,19.32
1684800000000,2023-05-23 00:00:00,SOL/USDC,19.8,20.19,18.01,20.19,269.42,14.431633,28.7,1.421633,5,18.69
1684713600000,2023-05-22 00:00:00,SOL/USDC,19.51,20.15,19.51,19.74,130.45,6.641442,43.09,2.163891,5,19.64
1684627200000,2023-05-21 00:00:00,SOL/USDC,20.26,20.26,20.26,20.26,0,0,0,0,0,20.9
1684540800000,2023-05-20 00:00:00,SOL/USDC,21.06,21.08,20.22,20.26,711.93,34.071032,560.39,26.588551,8,20.9
1684454400000,2023-05-19 00:00:00,SOL/USDC,20.22,20.22,20.22,20.22,22.96,1.135961,0,0,1,20.22
1684368000000,2023-05-18 00:00:00,SOL/USDC,22.67,22.68,22.67,22.68,230.69,10.173148,230.69,10.173148,2,22.67
1684281600000,2023-05-17 00:00:00,SOL/USDC,20.73,20.73,20.73,20.73,0,0,0,0,0,20.81
1684195200000,2023-05-16 00:00:00,SOL/USDC,21.06,21.06,20.73,20.73,18.93,0.909649,3.32,0.158028,5,20.81
1684108800000,2023-05-15 00:00:00,SOL/USDC,20.9,21.7,18.01,21.43,354.86,17.012671,135.89,6.322884,9,20.91
1684022400000,2023-05-14 00:00:00,SOL/USDC,20.94,20.94,20.94,20.94,46.46,2.218958,0,0,1,20.94
1683936000000,2023-05-13 00:00:00,SOL/USDC,21,21.28,20.8,20.94,140.36,6.712847,62.7,2.984135,7,20.91
1683849600000,2023-05-12 00:00:00,SOL/USDC,21.35,21.51,20.18,20.18,882.79,41.139426,856.74,39.848726,3,21.46
1683763200000,2023-05-11 00:00:00,SOL/USDC,20.04,20.66,20.03,20.66,209.15,10.429201,3.16,0.153436,4,20.05
1683676800000,2023-05-10 00:00:00,SOL/USDC,20.8,75,20.8,21,2007.37,43.921196,1960.25,41.684906,23,55.38
1683590400000,2023-05-09 00:00:00,SOL/USDC,22.85,22.85,20.54,20.54,38.27,1.78974,25.93,1.195088,3,21.43
1683504000000,2023-05-08 00:00:00,SOL/USDC,21.73,25.99,18.53,18.53,536.2,23.883117,397.85,16.826844,12,22.63
1683417600000,2023-05-07 00:00:00,SOL/USDC,21.83,22.28,21.83,22.28,96.46,4.403609,13.86,0.622484,8,21.9
1683331200000,2023-05-06 00:00:00,SOL/USDC,22.67,22.67,21.81,21.82,100.31,4.551576,71.97,3.294762,10,22.04
1683244800000,2023-05-05 00:00:00,SOL/USDC,21.78,22.81,16,22.81,2013.3,99.453997,446.66,20.488887,24,20.51
1683158400000,2023-05-04 00:00:00,SOL/USDC,21.74,21.75,21.74,21.75,97.7,4.493345,48.85,2.247189,4,21.74
1683072000000,2023-05-03 00:00:00,SOL/USDC,21.83,21.83,21.66,21.67,102.59,4.70488,102.59,4.70488,8,21.8
1682985600000,2023-05-02 00:00:00,SOL/USDC,22.25,22.25,22.25,22.25,49.99,2.24719,0,0,2,22.25
1682899200000,2023-05-01 00:00:00,SOL/USDC,22.62,25.97,20.72,21.79,180.55,7.905751,46.54,1.792165,7,22.99
1682812800000,2023-04-30 00:00:00,SOL/USDC,23.55,23.55,23.55,23.55,0,0,0,0,0,22.98
1682726400000,2023-04-29 00:00:00,SOL/USDC,23.55,23.55,23.55,23.55,0,0,0,0,0,22.98
1682640000000,2023-04-28 00:00:00,SOL/USDC,22.44,23.55,22.43,23.55,224.08,9.753194,111.92,4.752866,3,22.98
1682553600000,2023-04-27 00:00:00,SOL/USDC,21.52,21.52,19.5,21.47,43.28,2.19979,0,0,3,19.69
1682467200000,2023-04-26 00:00:00,SOL/USDC,22.5,22.64,22.5,22.64,144.96,6.436537,122.23,5.43284,3,22.52
1682380800000,2023-04-25 00:00:00,SOL/USDC,20.8,22.27,20.8,20.87,405.21,18.89973,119.61,5.734857,8,21.46
1682294400000,2023-04-24 00:00:00,SOL/USDC,21.86,21.86,21.26,21.32,131.01,6.152548,131.01,6.152548,4,21.29
1682208000000,2023-04-23 00:00:00,SOL/USDC,23.09,23.09,23.09,23.09,0,0,0,0,0,23.09
1682121600000,2023-04-22 00:00:00,SOL/USDC,23.09,23.09,23.09,23.09,51.68,2.238631,51.68,2.238631,1,23.09
1682035200000,2023-04-21 00:00:00,SOL/USDC,22.33,22.33,21.25,21.25,198.51,9.090511,0,0,5,21.85
1681948800000,2023-04-20 00:00:00,SOL/USDC,23.27,23.27,21.91,21.91,170.97,7.457711,106.29,4.567853,4,22.94
1681862400000,2023-04-19 00:00:00,SOL/USDC,23.02,24.04,23.02,24.04,160.44,6.822262,80.13,3.33361,2,23.52
1681776000000,2023-04-18 00:00:00,SOL/USDC,24.5,25.2,24.36,25.2,178.36,7.142424,126.74,5.035755,7,24.97
1681689600000,2023-04-17 00:00:00,SOL/USDC,25.29,25.29,24.75,24.75,106.58,4.225184,46.63,1.843887,4,25.22
1681603200000,2023-04-16 00:00:00,SOL/USDC,25.07,25.07,25.07,25.07,0,0,0,0,0,25.07
1681516800000,2023-04-15 00:00:00,SOL/USDC,25.07,25.07,25.07,25.07,0,0,0,0,0,25.07
1681430400000,2023-04-14 00:00:00,SOL/USDC,25.07,25.07,25.07,25.07,108.68,4.335087,108.68,4.335087,1,25.07
1681344000000,2023-04-13 00:00:00,SOL/USDC,24.58,24.6,24.37,24.37,168.03,6.848757,121.56,4.94178,5,24.53
1681257600000,2023-04-12 00:00:00,SOL/USDC,23.4,24.51,23.4,23.97,543.28,22.717024,138.63,5.660551,13,23.92
1681171200000,2023-04-11 00:00:00,SOL/USDC,22.03,23.74,22.03,23.19,134.7,6.00619,117.83,5.278264,9,22.43
1681084800000,2023-04-10 00:00:00,SOL/USDC,22.02,22.02,20,20.7,151.09,7.251642,22.02,1,5,20.84
1680998400000,2023-04-09 00:00:00,SOL/USDC,20.44,20.44,20.44,20.44,0,0,0,0,0,20.49
1680912000000,2023-04-08 00:00:00,SOL/USDC,20.5,20.5,20.44,20.44,39.73,1.938553,0,0,2,20.49
1680825600000,2023-04-07 00:00:00,SOL/USDC,20.49,20.49,20.49,20.49,5.12,0.25,0,0,1,20.49
1680739200000,2023-04-06 00:00:00,SOL/USDC,20.7,20.7,20.7,20.7,0,0,0,0,0,20.75
1680652800000,2023-04-05 00:00:00,SOL/USDC,21.14,21.14,20.7,20.7,23.65,1.139995,0,0,2,20.75
1680566400000,2023-04-04 00:00:00,SOL/USDC,22.02,22.02,22.02,22.02,110.1,5,110.1,5,1,22.02
1680480000000,2023-04-03 00:00:00,SOL/USDC,20.05,20.05,20.05,20.05,2.78,0.139129,2.78,0.139129,1,20.05
1680393600000,2023-04-02 00:00:00,SOL/USDC,21.01,21.01,21.01,21.01,0,0,0,0,0,20.55
1680307200000,2023-04-01 00:00:00,SOL/USDC,20.54,21.01,20.54,21.01,113.68,5.529868,109.03,5.308509,3,20.55
1680220800000,2023-03-31 00:00:00,SOL/USDC,20.94,20.94,20.94,20.94,0,0,0,0,0,20.98
1680134400000,2023-03-30 00:00:00,SOL/USDC,21.16,21.16,20.94,20.94,14.13,0.673532,2.75,0.129994,3,20.98
1680048000000,2023-03-29 00:00:00,SOL/USDC,20.93,20.93,19.53,19.53,111.06,5.489,0,0,4,20.24
1679961600000,2023-03-28 00:00:00,SOL/USDC,22.03,22.03,20.16,20.2,17.29,0.844757,2.99,0.136177,3,20.5
1679875200000,2023-03-27 00:00:00,SOL/USDC,25.99,25.99,19.53,19.53,587.37,23.712208,499.99,19.238168,4,25.02
1679788800000,2023-03-26 00:00:00,SOL/USDC,20.63,20.63,20.63,20.63,0,0,0,0,0,21.56
1679702400000,2023-03-25 00:00:00,SOL/USDC,20.63,20.63,20.63,20.63,0,0,0,0,0,21.56
1679616000000,2023-03-24 00:00:00,SOL/USDC,21.58,21.59,20.63,20.63,174.21,8.079228,0,0,8,21.56
1679529600000,2023-03-23 00:00:00,SOL/USDC,21.43,22.33,21.43,22.33,113,5.252757,0,0,6,21.51
1679443200000,2023-03-22 00:00:00,SOL/USDC,22,22,22,22,220,10,0,0,1,22
1679356800000,2023-03-21 00:00:00,SOL/USDC,22.25,22.25,22.25,22.25,0,0,0,0,0,22.25
1679270400000,2023-03-20 00:00:00,SOL/USDC,22.25,22.25,22.25,22.25,0,0,0,0,0,22.25
1679184000000,2023-03-19 00:00:00,SOL/USDC,22.25,22.25,22.25,22.25,0,0,0,0,0,22.25
1679097600000,2023-03-18 00:00:00,SOL/USDC,22.25,22.25,22.25,22.25,96.74,4.347967,96.74,4.347967,7,22.25
1679011200000,2023-03-17 00:00:00,SOL/USDC,20.57,20.57,20.44,20.44,28.71,1.397077,6.02,0.294384,4,20.55
1678924800000,2023-03-16 00:00:00,SOL/USDC,17.61,22.2,17.61,22.2,39.59,2.121003,10.86,0.489639,2,18.86
1678838400000,2023-03-15 00:00:00,SOL/USDC,19.91,19.91,19.91,19.91,0,0,0,0,0,19.91
1678752000000,2023-03-14 00:00:00,SOL/USDC,19.91,19.91,19.91,19.91,11.46,0.575748,0,0,1,19.91
1678665600000,2023-03-13 00:00:00,SOL/USDC,19.19,19.19,19.19,19.19,0,0,0,0,0,19.69
1678579200000,2023-03-12 00:00:00,SOL/USDC,18.97,22.18,18.94,19.19,141471.63,7190.149496,75232.81,3771.017056,568,19.69
1678492800000,2023-03-11 00:00:00,SOL/USDC,18.44,20.37,18.44,19.08,6318.34,314.770401,5136.55,252.97328,15,20.08
1678406400000,2023-03-10 00:00:00,SOL/USDC,17.24,17.49,17.24,17.49,203.81,11.696587,52.02,3.017692,5,17.42
1678320000000,2023-03-09 00:00:00,SOL/USDC,18.49,19.23,18.1,18.1,188.54,10.309855,19.2,0.998959,9,18.29
1678233600000,2023-03-08 00:00:00,SOL/USDC,18.9,18.91,18.9,18.91,261.53,13.83736,11.53,0.609847,3,18.9
1678147200000,2023-03-07 00:00:00,SOL/USDC,20.7,22.18,19.98,19.98,178.18,8.658582,30.27,1.367656,8,20.6
1678060800000,2023-03-06 00:00:00,SOL/USDC,21.74,21.74,20.67,20.67,130.99,6.322379,130.99,6.322379,4,20.72
1677974400000,2023-03-05 00:00:00,SOL/USDC,21.01,21.01,21.01,21.01,0,0,0,0,0,21.01
1677888000000,2023-03-04 00:00:00,SOL/USDC,21.01,21.01,21.01,21.01,9.43,0.449023,0,0,3,21.01
1677801600000,2023-03-03 00:00:00,SOL/USDC,22.25,22.25,22.25,22.25,0,0,0,0,0,22.25
1677715200000,2023-03-02 00:00:00,SOL/USDC,22.25,22.25,22.25,22.25,0,0,0,0,0,22.25
1677628800000,2023-03-01 00:00:00,SOL/USDC,22.25,22.25,22.25,22.25,0.07,0.003549,0,0,1,22.25
1677542400000,2023-02-28 00:00:00,SOL/USDC,23.43,23.43,23.43,23.43,0,0,0,0,0,23.43
1677456000000,2023-02-27 00:00:00,SOL/USDC,23.43,23.43,23.43,23.43,0,0,0,0,0,23.43
1677369600000,2023-02-26 00:00:00,SOL/USDC,23.43,23.43,23.43,23.43,59.89,2.556437,59.89,2.556437,1,23.43
1677283200000,2023-02-25 00:00:00,SOL/USDC,23.21,23.21,23.21,23.21,0,0,0,0,0,21.43
1677196800000,2023-02-24 00:00:00,SOL/USDC,23.48,23.48,18.93,23.21,893.22,42.081839,118.42,5.102209,8,21.43
1677110400000,2023-02-23 00:00:00,SOL/USDC,23.83,24.09,23.83,24.09,1158.39,48.183348,986.99,40.991087,5,24.04
1677024000000,2023-02-22 00:00:00,SOL/USDC,24.03,24.21,23.62,24.11,454.36,18.904839,295.64,12.296376,7,24.03
1676937600000,2023-02-21 00:00:00,SOL/USDC,26.16,26.16,25,25.24,172.36,6.637385,144.33,5.51739,4,25.97
1676851200000,2023-02-20 00:00:00,SOL/USDC,26.04,26.53,26.04,26.53,343.66,13.066668,106.72,4.084495,5,26.3
1676764800000,2023-02-19 00:00:00,SOL/USDC,23.73,24.56,23.73,24.56,155.99,6.404735,155.99,6.404735,4,24.36
1676678400000,2023-02-18 00:00:00,SOL/USDC,23.07,23.48,23.07,23.42,947.74,40.531776,5.06,0.216582,16,23.38
1676592000000,2023-02-17 00:00:00,SOL/USDC,18.97,23.82,18.97,23.82,653.28,27.563008,640.91,26.911008,4,23.72
1676505600000,2023-02-16 00:00:00,SOL/USDC,24.02,24.02,23.19,23.19,328.2,13.764483,57.88,2.438273,16,23.84
1676419200000,2023-02-15 00:00:00,SOL/USDC,21.9,23.56,21.84,23.46,1361.07,59.168024,537.18,23.666711,29,23.02
1676332800000,2023-02-14 00:00:00,SOL/USDC,20.97,21.91,18.77,21.9,2464.05,115.620068,11.17,0.533142,15,21.35
1676246400000,2023-02-13 00:00:00,SOL/USDC,20.85,20.85,20.53,20.53,130.37,6.261635,0,0,2,20.82
1676160000000,2023-02-12 00:00:00,SOL/USDC,21.04,21.04,21.04,21.04,118.95,5.653565,118.95,5.653565,1,21.04
1676073600000,2023-02-11 00:00:00,SOL/USDC,20.38,20.5,20.38,20.5,79.50706042,3.891109,79.50706042,3.891109,2,20.433181559947805198
1675987200000,2023-02-10 00:00:00,SOL/USDC,20.22,20.22,20.22,20.22,131.32319796,6.494718,0,0,1,20.22
1675900800000,2023-02-09 00:00:00,SOL/USDC,23.17,23.17,23.17,23.17,0,0,0,0,0,24.504916457884802186
1675814400000,2023-02-08 00:00:00,SOL/USDC,24.41,34.38,20.97,23.17,2903.42943108,118.49112,2901.27994777,118.392517,5,24.504916457884802186
1675728000000,2023-02-07 00:00:00,SOL/USDC,23.15,23.64,23.15,23.51,29.86814403,1.287889,1.48998192,0.063028,3,23.192256442152291307
1675641600000,2023-02-06 00:00:00,SOL/USDC,24.66,24.66,24.66,24.66,0,0,0,0,0,24.867069108574922629
1675555200000,2023-02-05 00:00:00,SOL/USDC,24.66,24.66,24.66,24.66,0,0,0,0,0,24.867069108574922629
1675468800000,2023-02-04 00:00:00,SOL/USDC,24.89,24.89,24.66,24.66,66.6443984,2.680047,66.6443984,2.680047,2,24.867069108574922629
1675382400000,2023-02-03 00:00:00,SOL/USDC,24.47,24.62,24.47,24.62,591.86893987,24.101466,371.88896329,15.148272,10,24.55749761173879928
1675296000000,2023-02-02 00:00:00,SOL/USDC,18.17,25.12,18.17,25.12,62.97855853,2.518659,62.2199792,2.47691,2,25.036286963903935512
1675209600000,2023-02-01 00:00:00,SOL/USDC,23.65,24.81,23.65,24.81,292.06180146,12.316594,0,0,4,23.715779594474737168
1675123200000,2023-01-31 00:00:00,SOL/USDC,22.2,24.19,22.2,23.76,295.58345459,12.287593,55.56368711,2.336143,7,24.057278414608098243
1675036800000,2023-01-30 00:00:00,SOL/USDC,23.44,24.61,23.43,24.61,107.29212138,4.469442,53.59998936,2.177976,3,24.020166986652603736
1674950400000,2023-01-29 00:00:00,SOL/USDC,25.16,26.29,25.16,26.29,72.28069072,2.75244,3.11433721,0.119369,3,26.261512755145403513
1674864000000,2023-01-28 00:00:00,SOL/USDC,24.65,26.28,23.85,23.85,450.73844712,18.149432,95.1746302,3.853386,12,24.840453717018609578
1674777600000,2023-01-27 00:00:00,SOL/USDC,24.13,24.41,24.13,24.41,263.60398917,10.825216,263.60398917,10.825216,4,24.351434538693403946
1674691200000,2023-01-26 00:00:00,SOL/USDC,24.27,24.27,24.27,24.27,0,0,0,0,0,24.719770625220469661
1674604800000,2023-01-25 00:00:00,SOL/USDC,24.27,24.27,24.27,24.27,0,0,0,0,0,24.719770625220469661
1674518400000,2023-01-24 00:00:00,SOL/USDC,24.92,24.92,24.27,24.27,142.85613513,5.779884,142.85613513,5.779884,2,24.719770625220469661
1674432000000,2023-01-23 00:00:00,SOL/USDC,24.5,24.77,23.01,24.13,689.45803723,29.003855,6.15266984,0.248392,12,23.783368129479249696
1674345600000,2023-01-22 00:00:00,SOL/USDC,25.5,25.5,24,24,5864.5072264,231.921202,3044.17341315,120.773615,45,25.288100902828857653
1674259200000,2023-01-21 00:00:00,SOL/USDC,25.13,25.81,25.13,25.55,2512.68985004,97.394738,2465.73145088,95.555593,12,25.799237557330376644
1674172800000,2023-01-20 00:00:00,SOL/USDC,23,23,23,23,10.166345,0.442015,10.166345,0.442015,1,23
1674086400000,2023-01-19 00:00:00,SOL/USDC,21.44,21.44,20.87,20.87,11.09035328,0.525037,4.03970155,0.193565,3,21.126790608711790287
1674000000000,2023-01-18 00:00:00,SOL/USDC,23.29,24.62,21.21,24.12,1702.24057856,73.737116,746.29081795,32.184895,14,23.094163599156469161
1673913600000,2023-01-17 00:00:00,SOL/USDC,23.28,25,23,23,657.61566892,26.79884,40.74787923,1.761287,16,24.564889503642272788
1673827200000,2023-01-16 00:00:00,SOL/USDC,22.84,24.5,22.7,23.37,7443.32725649,325.681535,754.9525705,32.455916,37,22.861424039214943549
1673740800000,2023-01-15 00:00:00,SOL/USDC,23.11,23.11,22.95,22.95,66052.71833316,2864.528923,107.47267216,4.670416,318,23.05891925651101978
1673654400000,2023-01-14 00:00:00,SOL/USDC,19.73,23.85,19.72,22.77,3824.74996727,174.739264,1477.3837306,66.428663,50,21.952609442851534615
1673568000000,2023-01-13 00:00:00,SOL/USDC,16.73,18.22,16.73,18.22,9.0335376,0.513309,5.45228034,0.299247,3,17.629304133809107076
1673481600000,2023-01-12 00:00:00,SOL/USDC,16.27,18.21,15.95,16.62,366.76853468,22.380986,199.44336658,12.116436,6,16.391558116552442528
1673395200000,2023-01-11 00:00:00,SOL/USDC,16,16,15.96,15.96,180.07633992,11.272129,0,0,2,15.975385570815304474
1673308800000,2023-01-10 00:00:00,SOL/USDC,16.43,16.43,15.94,16.42,2447.89762159,150.940875,2443.79846263,150.683991,9,16.218096879842763178
1673222400000,2023-01-09 00:00:00,SOL/USDC,14.43,16.82,14.25,16.82,1173.1591412,72.976158,1162.21840784,72.248747,23,16.098126207185538823
1673136000000,2023-01-08 00:00:00,SOL/USDC,13.23,14.57,13.23,14.57,1104.64445215,78.949588,663.15442436,48.209109,24,14.009172041380355558
1673049600000,2023-01-07 00:00:00,SOL/USDC,13.09,13.22,13.04,13.04,404.6234103,30.734132,127.14909484,9.630222,14,13.165442812356228115
1672963200000,2023-01-06 00:00:00,SOL/USDC,13.24,13.27,12.93,13.25,1633.60332664,124.471133,702.7537641,53.328811,18,13.125454051345087307
1672876800000,2023-01-05 00:00:00,SOL/USDC,13.04,14.02,13.04,13.37,4514.98852932,330.437812,790.37441503,59.217411,20,13.67167505180442596
1672790400000,2023-01-04 00:00:00,SOL/USDC,12.98,13.88,12.98,13.41,522.95528684,39.108626,455.71953145,34.036577,15,13.372799111539430437
1672704000000,2023-01-03 00:00:00,SOL/USDC,11.27,13.82,11.27,12.89,5290.74768851,445.373614,815.16713246,69.079041,29,11.888968420562096943
1672617600000,2023-01-02 00:00:00,SOL/USDC,9.89,11.18,9.86,11.13,833.2137402,76.899766,151.24586479,14.483087,16,10.855016352835944264
1672531200000,2023-01-01 00:00:00,SOL/USDC,9.85,9.97,9.85,9.97,37.95089804,3.848912,34.70110675,3.522955,3,9.860275776725730414
1672444800000,2022-12-31 00:00:00,SOL/USDC,9.79,10.14,9.74,10.03,88.2567631,9.00815,47.44572572,4.838233,9,9.797800235152743776
1672358400000,2022-12-30 00:00:00,SOL/USDC,9.61,10.01,9.2,9.86,486.08435758,50.719505,260.38505678,26.959423,25,9.588599450505279921
1672272000000,2022-12-29 00:00:00,SOL/USDC,9.69,10.22,8.15,9.61,5344.75444869,579.197301,2598.416817,278.091791,57,9.236009340799645555
1672185600000,2022-12-28 00:00:00,SOL/USDC,11.09,11.09,9.83,9.83,1033.16472772,98.87349,384.71247632,35.118514,19,10.471070847960364972
1672099200000,2022-12-27 00:00:00,SOL/USDC,11.36,11.36,11,11.14,76.21897003,6.783796,58.28898471,5.155004,12,11.237162208066904255
1672012800000,2022-12-26 00:00:00,SOL/USDC,11.36,11.44,11.29,11.29,141.41320526,12.378977,127.23795544,11.123419,6,11.423842743398686753
1671926400000,2022-12-25 00:00:00,SOL/USDC,11.43,11.43,11.41,11.41,14.51460273,1.270303,2.82999948,0.248028,2,11.426100479589219869
1671840000000,2022-12-24 00:00:00,SOL/USDC,11.45,11.45,11.35,11.35,23.67526735,2.07628,0,0,6,11.402792378811299884
1671753600000,2022-12-23 00:00:00,SOL/USDC,11.99,11.99,11.99,11.99,14.61619368,1.219032,14.61619368,1.219032,1,11.99
1671667200000,2022-12-22 00:00:00,SOL/USDC,12.08,12.08,12.08,12.08,0,0,0,0,0,12.108792585886394876
1671580800000,2022-12-21 00:00:00,SOL/USDC,12.04,12.15,12.04,12.08,85.98229889,7.100865,41.53815833,3.421219,10,12.108792585886394876
1671494400000,2022-12-20 00:00:00,SOL/USDC,12.9,12.9,12.9,12.9,95.8265922,7.428418,0,0,2,12.9
1671408000000,2022-12-19 00:00:00,SOL/USDC,12.45,12.45,11.83,11.83,79.27170104,6.596383,8.4459804,0.678392,5,12.019680264625743168
1671321600000,2022-12-18 00:00:00,SOL/USDC,12.32,12.6,12.32,12.6,5183.70087877,415.472639,512.87143389,41.394342,37,12.476781028539004088
1671235200000,2022-12-17 00:00:00,SOL/USDC,12.09,14.99,12.09,12.21,1167.75955987,94.369032,631.96653578,50.859798,11,12.384255236004279149
1671148800000,2022-12-16 00:00:00,SOL/USDC,14.11,14.11,14.11,14.11,0,0,0,0,0,14.130194746089318069
1671062400000,2022-12-15 00:00:00,SOL/USDC,14.25,14.25,14.11,14.11,13.69879626,0.969479,6.83966729,0.484739,3,14.130194746089318069
1670976000000,2022-12-14 00:00:00,SOL/USDC,13.85,13.95,13.85,13.95,371.03238912,26.600021,368.87807702,26.444475,5,13.9485796941408542
1670889600000,2022-12-13 00:00:00,SOL/USDC,13.09,13.8,12.94,13.8,360.43397144,26.855649,18.15968378,1.328898,14,13.425585775820066243
1670803200000,2022-12-12 00:00:00,SOL/USDC,12.96,13.3,12.95,13.3,526.9098178,40.109683,246.2536864,18.67464,30,13.137819096731964515
1670716800000,2022-12-11 00:00:00,SOL/USDC,13.6,13.6,13.6,13.6,53.8419648,3.958968,53.8419648,3.958968,1,13.6
1670630400000,2022-12-10 00:00:00,SOL/USDC,13.7,13.7,13.7,13.7,0,0,0,0,0,13.7
1670544000000,2022-12-09 00:00:00,SOL/USDC,13.7,13.7,13.7,13.7,3.0254943,0.220839,3.0254943,0.220839,1,13.7
1670457600000,2022-12-08 00:00:00,SOL/USDC,13.35,13.7,13.35,13.68,697.4038773,51.771878,302.90113894,22.678675,21,13.471652321819117588
1670371200000,2022-12-07 00:00:00,SOL/USDC,13.54,13.56,13.5,13.55,441.57432057,32.566654,9.586997,0.70805,10,13.559095812833987688
1670284800000,2022-12-06 00:00:00,SOL/USDC,13.97,13.97,13.97,13.97,2.90418139,0.207887,2.90418139,0.207887,1,13.97
1670198400000,2022-12-05 00:00:00,SOL/USDC,13.93,13.93,13.93,13.93,3.85229971,0.276547,0,0,2,13.93
1670112000000,2022-12-04 00:00:00,SOL/USDC,13.62,13.62,13.62,13.62,0,0,0,0,0,13.62
1670025600000,2022-12-03 00:00:00,SOL/USDC,13.62,13.62,13.62,13.62,492.95956962,36.193801,54.48,4,7,13.62
1669939200000,2022-12-02 00:00:00,SOL/USDC,13.55,13.65,13.55,13.65,28.3016994,2.08745,2.28663435,0.167519,2,13.558079494865951406
1669852800000,2022-12-01 00:00:00,SOL/USDC,14.64,14.64,13.52,13.52,67.00203986,4.850201,67.00203986,4.850201,3,13.831384468057895334
1669766400000,2022-11-30 00:00:00,SOL/USDC,13.6,13.6,13.6,13.6,0,0,0,0,0,13.462620354751008129
1669680000000,2022-11-29 00:00:00,SOL/USDC,13.22,13.68,13.22,13.6,1870.5564094,138.979843,1079.28762166,80.991631,6,13.462620354751008129
1669593600000,2022-11-28 00:00:00,SOL/USDC,13,13.34,13,13.34,711.44765102,54.252493,243.44765102,18.252493,8,13.115591104167533722
1669507200000,2022-11-27 00:00:00,SOL/USDC,14.47,14.47,14.47,14.47,0,0,0,0,0,14.47
1669420800000,2022-11-26 00:00:00,SOL/USDC,14.47,14.47,14.47,14.47,9.99998548,0.691084,0,0,3,14.47
1669334400000,2022-11-25 00:00:00,SOL/USDC,14.26,14.26,14.26,14.26,479.97809578,33.659053,364.21122334,25.540759,46,14.26
1669248000000,2022-11-24 00:00:00,SOL/USDC,14.45,14.57,14.19,14.19,754.33173792,52.126538,365.44720531,25.323371,7,14.471935060176077071
1669161600000,2022-11-23 00:00:00,SOL/USDC,13.05,14.5,13.05,14.5,2754.68492488,192.096884,573.77182979,40.658343,18,14.348169882348552212
1669075200000,2022-11-22 00:00:00,SOL/USDC,11.8,12.06,11.8,12.06,247.41092286,20.541187,14.3321148,1.214586,2,12.044938620312618157
1668988800000,2022-11-21 00:00:00,SOL/USDC,12.03,12.03,11.69,11.74,289.09440538,24.576734,226.582,19.3,14,11.76345110003387503
1668902400000,2022-11-20 00:00:00,SOL/USDC,12.52,80,12.26,12.26,565.18072595,13.904524,540.38251789,11.926693,35,61.509384621743752154
1668816000000,2022-11-19 00:00:00,SOL/USDC,12.86,12.88,12.85,12.88,1308.2457375,101.806836,11.3578892,0.882431,8,12.850274490809109169
1668729600000,2022-11-18 00:00:00,SOL/USDC,13.55,13.67,13.13,13.13,38.17546054,2.802002,23.44999645,1.715435,5,13.624625097921608464
1668643200000,2022-11-17 00:00:00,SOL/USDC,13.74,13.77,12.85,13.46,489.81226166,36.492213,0,0,8,13.428906410470034699
1668556800000,2022-11-16 00:00:00,SOL/USDC,14.29,14.29,14.12,14.21,21.33873144,1.502491,21.14252974,1.488761,3,14.202289488582644629
1668470400000,2022-11-15 00:00:00,SOL/USDC,14.1,14.67,14.04,14.14,3024.08864115,209.216429,2136.348835,147.510404,28,14.455871361589866599
1668384000000,2022-11-14 00:00:00,SOL/USDC,12.8,14.5,12.61,13.88,182.33595868,13.407805,105.82842636,7.830673,28,13.627000120210188695
1668297600000,2022-11-13 00:00:00,SOL/USDC,14.51,14.51,13.46,13.92,281.87799233,20.747708,29.58268817,2.12872,31,13.588193194586103919
1668211200000,2022-11-12 00:00:00,SOL/USDC,15.66,15.66,14.5,14.5,1773.40655219,117.30807,554.06170718,36.440402,35,15.121841931721221037
1668124800000,2022-11-11 00:00:00,SOL/USDC,17.23,18,15.38,16.03,620.97761818,35.723389,305.95474302,17.457704,26,17.40197843287524717
1668038400000,2022-11-10 00:00:00,SOL/USDC,15.04,22.99,10,17.57,4293.49795309,264.180074,2256.22133386,130.065909,63,16.451137894348146559
1667952000000,2022-11-09 00:00:00,SOL/USDC,23.77,34.34,10.2,15.36,9724.68709113,460.860018,615.75498101,27.186797,165,21.50727864684498292
1667865600000,2022-11-08 00:00:00,SOL/USDC,29.36,34.39,22.65,23.4,7617.37740407,291.104372,1664.61789296,59.119866,91,26.289366812645934661
1667779200000,2022-11-07 00:00:00,SOL/USDC,32.6,32.98,29.78,29.78,6504.15067781,200.658102,4560.57249587,140.886917,42,32.416371375866211214
1667692800000,2022-11-06 00:00:00,SOL/USDC,36.1,36.1,32.37,32.78,5703.29671436,169.195002,1740.58746362,48.872122,49,33.786589948891834482
1667606400000,2022-11-05 00:00:00,SOL/USDC,33.83,38.47,33.79,36.89,4828.41502166,135.032173,1164.41704987,33.238977,70,35.785027491224864567
1667520000000,2022-11-04 00:00:00,SOL/USDC,31.1,33.98,31.1,33.97,3211.66633478,95.899389,36.547,1.15,60,33.492970088264431551
1667433600000,2022-11-03 00:00:00,SOL/USDC,30.82,31.95,30.64,30.64,206.47861695,6.714506,10.43612342,0.330753,10,30.753576942366767436
1667347200000,2022-11-02 00:00:00,SOL/USDC,32.21,32.44,30.27,30.71,2819.8050844,92.191065,748.97697389,24.394874,35,30.592668683793369779
1667260800000,2022-11-01 00:00:00,SOL/USDC,32.75,33.06,32.04,32.07,6953.97173265,216.599504,21.3992995,0.654867,22,32.105860486426189382
1667174400000,2022-10-31 00:00:00,SOL/USDC,32.98,34.28,32.31,32.31,1675.607677,50.756614,73.91589765,2.18182,22,33.01665179042074775
1667088000000,2022-10-30 00:00:00,SOL/USDC,32.96,33.41,32.01,32.79,5338.06861233,163.76431,2801.01929589,85.659529,37,32.597523260220417203
1667001600000,2022-10-29 00:00:00,SOL/USDC,32.11,33.61,32.11,32.72,935.76790026,28.664857,20.15342967,0.611017,30,32.647047011153051697
1666915200000,2022-10-28 00:00:00,SOL/USDC,30.68,32.43,30.47,31.99,6626.34978054,207.421333,134.82167314,4.259211,42,31.94876334347832567
1666828800000,2022-10-27 00:00:00,SOL/USDC,31.29,31.86,30.63,30.71,20566.80614441,667.708648,2456.91342397,78.789333,77,30.803280896480216985
1666742400000,2022-10-26 00:00:00,SOL/USDC,31.08,31.94,30.76,31.15,7138.5911822,227.290197,5212.62148771,165.347449,41,31.410848859161890324
1666656000000,2022-10-25 00:00:00,SOL/USDC,28.23,31.43,28.16,31.43,5.94219773,0.203793,1.685376,0.05985,4,29.211147821481194634
1666569600000,2022-10-24 00:00:00,SOL/USDC,29.2,29.2,29.2,29.2,3.2201468,0.110279,3.2201468,0.110279,1,29.2
1666483200000,2022-10-23 00:00:00,SOL/USDC,28.38,29.05,28.38,29.05,5.34257405,0.186372,5.34257405,0.186372,2,28.670015792013215053
1666396800000,2022-10-22 00:00:00,SOL/USDC,27.82,27.82,27.82,27.82,20.8994968,0.75124,0,0,1,27.82
1666310400000,2022-10-21 00:00:00,SOL/USDC,27.89,28.17,27.42,28.17,2548.35205763,92.620405,2296.89187197,83.604711,7,27.514856857159097062
1666224000000,2022-10-20 00:00:00,SOL/USDC,28.84,29.34,28.09,28.09,324.59096732,11.45437,308.63700652,10.893993,26,28.33879561407445267
1666137600000,2022-10-19 00:00:00,SOL/USDC,29.87,30.1,28.97,29.11,3581.67460844,120.001108,1633.54724649,54.721962,18,29.850065979395069309
1666051200000,2022-10-18 00:00:00,SOL/USDC,30.94,31.05,30.09,30.11,619.60097583,20.077498,188.68845894,6.166283,17,30.862374356302343262
1665964800000,2022-10-17 00:00:00,SOL/USDC,30.33,31.47,30.33,31.11,877.59238176,28.394301,843.0733833,27.267475,18,30.907721587354951741
1665878400000,2022-10-16 00:00:00,SOL/USDC,29.93,30.32,29.88,30.32,1536.38639944,50.681883,20.38639944,0.681883,5,30.314390123722299591
1665792000000,2022-10-15 00:00:00,SOL/USDC,30,30,29.47,29.5,386.09815428,13.004778,335.87066508,11.300418,11,29.690074077166344747
1665705600000,2022-10-14 00:00:00,SOL/USDC,31.66,31.7,29.92,29.93,579.61653459,19.11637,60.95377273,1.971451,17,30.335662509137220571
1665619200000,2022-10-13 00:00:00,SOL/USDC,31.1,31.1,28.85,30.63,1081.83145768,37.088188,304.53556618,10.287152,36,29.179331600253009194
1665532800000,2022-10-12 00:00:00,SOL/USDC,31.34,31.35,31.13,31.13,2567.22129912,81.89372,2559.36788852,81.641685,7,31.34821446070731367
1665446400000,2022-10-11 00:00:00,SOL/USDC,31.4,31.76,30.47,30.47,779.36209572,24.879927,324.19494456,10.345092,13,31.326695408528662537
1665360000000,2022-10-10 00:00:00,SOL/USDC,32.48,32.77,32.11,32.11,1876.58347096,57.926897,146.05628588,4.53113,6,32.396026810116159799
1665273600000,2022-10-09 00:00:00,SOL/USDC,33.01,33.01,32.74,32.74,438.73038166,13.317559,106.97988166,3.267559,3,32.944163282836918999
1665187200000,2022-10-08 00:00:00,SOL/USDC,32.68,32.68,32.33,32.33,20.27137594,0.621818,0,0,2,32.600837066820240718
1665100800000,2022-10-07 00:00:00,SOL/USDC,33.46,33.46,32.89,33.08,250.18088049,7.496759,209.28210989,6.255799,6,33.37305085369715336
1665014400000,2022-10-06 00:00:00,SOL/USDC,34.25,34.37,33.41,33.41,309.52707248,9.171999,121.84451887,3.643787,5,33.749182361008449905
1664928000000,2022-10-05 00:00:00,SOL/USDC,33.6,34.16,33.6,33.77,226.03612585,6.685533,215.5731439,6.376882,5,33.810030134652035755
1664841600000,2022-10-04 00:00:00,SOL/USDC,33.04,34.23,33.04,34.07,71.05556793,2.115587,58.10926848,1.737372,3,33.595571797221999911
1664755200000,2022-10-03 00:00:00,SOL/USDC,32.34,32.86,32.34,32.86,17.02024296,0.519862,3.88219062,0.120043,2,32.741391873950076679
1664668800000,2022-10-02 00:00:00,SOL/USDC,32.63,32.85,32.44,32.44,419.30325605,12.806935,147.30328645,4.514253,6,32.740610424441038631
1664582400000,2022-10-01 00:00:00,SOL/USDC,32.8,32.97,32.55,32.55,993.32466124,30.147638,4.5586275,0.14005,7,32.948716380145431693
1664496000000,2022-09-30 00:00:00,SOL/USDC,33.71,34.64,33.71,34.21,88.29175933,2.60397,45.39827885,1.33346,11,33.908312078654554993
1664409600000,2022-09-29 00:00:00,SOL/USDC,33.48,33.96,32.77,33.72,158.23863375,4.704625,136.10063195,4.045264,7,33.636223687427407404
1664323200000,2022-09-28 00:00:00,SOL/USDC,32.31,33.46,31.95,33.24,1383.43231444,42.005727,799.89147371,24.147464,25,32.942910814768433429
1664236800000,2022-09-27 00:00:00,SOL/USDC,34.19,34.94,32.49,32.49,101.28524788,2.98092,37.78657169,1.126351,12,33.993718459577116452
1664150400000,2022-09-26 00:00:00,SOL/USDC,32.51,33.6,32.12,33.6,394.93768789,12.028675,171.02083383,5.222889,11,32.834224594808142758
1664064000000,2022-09-25 00:00:00,SOL/USDC,33.84,33.84,32.31,32.31,252.24541956,7.694541,239.43009627,7.304089,13,32.791307613642203491
1663977600000,2022-09-24 00:00:00,SOL/USDC,33.81,34.43,33.29,33.29,894.71556279,26.7079,835.64291062,24.967394,25,33.501949619283317882
1663891200000,2022-09-23 00:00:00,SOL/USDC,32.58,33.74,31.38,33.69,1587.82211552,48.459255,276.83669692,8.658287,27,32.78225149284019716
1663804800000,2022-09-22 00:00:00,SOL/USDC,30.85,31.97,30.67,31.89,154.94884143,4.989396,75.22105011,2.426359,12,31.060247201936758616
1663718400000,2022-09-21 00:00:00,SOL/USDC,31.55,32.8,30.16,30.85,5121.55127805,162.479995,3283.92017327,104.169732,81,31.523219932753612631
1663632000000,2022-09-20 00:00:00,SOL/USDC,32.79,32.79,31.42,31.42,376.79578569,11.756186,123.7025847,3.843699,37,32.0563202244070725
1663545600000,2022-09-19 00:00:00,SOL/USDC,31.19,32.95,31,32.66,1553.05914557,49.560832,507.2197864,16.061954,44,31.34298022752765237
1663459200000,2022-09-18 00:00:00,SOL/USDC,33.28,33.87,31,31.17,718.01014906,22.076439,375.13464375,11.692609,61,32.569640318787780209
1663372800000,2022-09-17 00:00:00,SOL/USDC,32.72,33.57,32.64,33.49,1647.0652994,49.62942,129.38129348,3.922708,19,33.187570370710342945
1663286400000,2022-09-16 00:00:00,SOL/USDC,33.23,33.23,31.91,32.24,2824.0004735,87.94847,2798.25862484,87.157701,18,32.110848746574404564
1663200000000,2022-09-15 00:00:00,SOL/USDC,34.04,34.54,32.8,33.05,1290.13539303,38.660587,584.2652646,17.377983,36,33.377729666818440735
1663113600000,2022-09-14 00:00:00,SOL/USDC,32.99,33.77,32.75,33.39,2330.16101081,69.333264,1672.7731629,49.74434,21,33.609075642585809434
1663027200000,2022-09-13 00:00:00,SOL/USDC,36.93,38.76,33.02,33.02,2000.74703617,56.715152,1711.43996524,48.462707,33,35.327527736561905003
1662940800000,2022-09-12 00:00:00,SOL/USDC,34.69,39.99,33.72,37.26,3769.89601926,100.18589,3355.39405888,88.898973,39,37.647415759387731773
1662854400000,2022-09-11 00:00:00,SOL/USDC,35.13,35.64,34.51,34.81,415.83352972,11.907774,283.83467518,8.137011,50,34.922648378888882626
1662768000000,2022-09-10 00:00:00,SOL/USDC,34.58,35.04,34.39,35.04,215.85387549,6.209391,157.39935393,4.52096,21,34.763156206291656602
1662681600000,2022-09-09 00:00:00,SOL/USDC,33.83,35.6,33.83,34.84,2492.10252745,71.555942,1990.42316761,57.236965,32,34.828725928655411742
1662595200000,2022-09-08 00:00:00,SOL/USDC,32.69,34.72,31.92,33.54,1023.80226502,31.185992,608.45848613,18.379358,38,32.8569988063906657
1662508800000,2022-09-07 00:00:00,SOL/USDC,31.2,32.84,30.96,32.58,1710.54717147,53.360999,1290.20885378,40.162501,51,32.069146931444196296
1662422400000,2022-09-06 00:00:00,SOL/USDC,33.31,180,26,31.2,10551.09424011,316.541302,7553.67750884,223.166084,48,35.549626832828178862
1662336000000,2022-09-05 00:00:00,SOL/USDC,32.25,32.35,31.31,32.04,544.17638375,17.026416,140.68392658,4.400744,40,31.962218376801986669
1662249600000,2022-09-04 00:00:00,SOL/USDC,31.22,32.15,31.17,32.03,362.59374997,11.474811,259.02094412,8.193924,41,31.601767009884072758
1662163200000,2022-09-03 00:00:00,SOL/USDC,31.17,31.46,30.84,31.12,1303.96740081,41.936485,1077.58503254,34.649626,50,31.094027595102099658
1662076800000,2022-09-02 00:00:00,SOL/USDC,31.59,32.44,31.2,31.2,3321.57344826,105.063829,3256.05511883,103.016137,42,31.615148313713176509
1661990400000,2022-09-01 00:00:00,SOL/USDC,30.47,30.47,30.46,30.46,97.78048207,3.21,0,0,2,30.461209716605971729
1661904000000,2022-08-31 00:00:00,SOL/USDC,31.91,32.92,31.72,32.15,196.66910515,6.156582,8.86672833,0.27303,6,31.946502783734763944
1661817600000,2022-08-30 00:00:00,SOL/USDC,32.42,331.12,26,31.48,2184.38085573,54.454791,1142.84854396,20.973425,35,63.408382208300384032
1661731200000,2022-08-29 00:00:00,SOL/USDC,30.23,32.08,30.23,31.62,608.25008094,19.563668,15.90667146,0.496773,5,31.111933391282057227
1661644800000,2022-08-28 00:00:00,SOL/USDC,31.78,31.78,31.34,31.36,609.72355995,19.339756,133.18280017,4.215911,5,31.528082837129180543
1661558400000,2022-08-27 00:00:00,SOL/USDC,31.63,31.63,31.12,31.12,3723.00283622,118.043774,15.40563528,0.488138,30,31.539447329020493274
1661472000000,2022-08-26 00:00:00,SOL/USDC,34.59,34.59,32.99,32.99,17.70237324,0.534756,0,0,2,33.108748549897821496
1661385600000,2022-08-25 00:00:00,SOL/USDC,35.52,35.52,35.52,35.52,0,0,0,0,0,35.52
1661299200000,2022-08-24 00:00:00,SOL/USDC,35.52,35.52,35.52,35.52,0,0,0,0,0,35.52
1661212800000,2022-08-23 00:00:00,SOL/USDC,35.52,35.52,35.52,35.52,290.16259584,8.168992,290.16259584,8.168992,2,35.52
1661126400000,2022-08-22 00:00:00,SOL/USDC,35.94,36.06,34.28,34.29,5904.58090408,170.845037,3140.20544511,90.958629,10,34.563518235415056398
1661040000000,2022-08-21 00:00:00,SOL/USDC,35.05,36.4,35.05,36.4,241.90977102,6.720116,106.27125653,2.934427,4,36.000237057590349497
1660953600000,2022-08-20 00:00:00,SOL/USDC,36.68,37.1,34.93,34.93,204.77485242,5.594661,204.77485242,5.594661,9,36.603090411190247261
1660867200000,2022-08-19 00:00:00,SOL/USDC,39.3,39.3,35.95,35.95,15539.40316035,427.306596,10731.1775143,295.550074,42,36.370735537345318633
1660780800000,2022-08-18 00:00:00,SOL/USDC,40.56,41,39.47,39.47,469.33527803,11.504074,189.1874899,4.625611,6,40.798702040616130582
1660694400000,2022-08-17 00:00:00,SOL/USDC,43.59,43.94,40.81,40.83,1316.17932529,31.472129,493.92490893,11.8971,16,41.844790182409916554
1660608000000,2022-08-16 00:00:00,SOL/USDC,44.14,44.14,42.96,43.24,3834.79366608,88.581514,366.70485496,8.414704,29,43.294266824595735271
1660521600000,2022-08-15 00:00:00,SOL/USDC,44.84,46.79,43.71,43.8,3341.67107783,75.645159,435.29609372,9.890473,31,44.183610083591271304
1660435200000,2022-08-14 00:00:00,SOL/USDC,47.14,47.61,44.72,44.92,8732.07287581,186.700673,7626.27211213,162.602158,50,46.782007103200232295
1660348800000,2022-08-13 00:00:00,SOL/USDC,45.59,56.53,45.59,46.46,3355.57583361,71.433079,696.11923948,14.817669,45,47.047757882416709985
1660262400000,2022-08-12 00:00:00,SOL/USDC,42.87,45.18,42.26,45.18,853.87322417,19.817472,299.07355015,6.97506,32,43.093594585500187691
1660176000000,2022-08-11 00:00:00,SOL/USDC,42.76,45.27,42.63,42.99,12897.49105782,293.123833,9089.13720172,206.665574,74,44.001288250328836288
1660089600000,2022-08-10 00:00:00,SOL/USDC,40.26,42.35,39.26,42.09,7342.81288645,178.01604,3504.29820849,86.015937,103,41.279434744296867557
1660003200000,2022-08-09 00:00:00,SOL/USDC,41.6,41.6,40,40.54,12248.18777596,305.979696,11436.94218161,285.878702,52,40.029779132875925556
1659916800000,2022-08-08 00:00:00,SOL/USDC,46,48.1,39.34,42.46,668.29306776,15.584759,260.5990837,5.969581,54,42.938806399936671987
1659830400000,2022-08-07 00:00:00,SOL/USDC,38.98,38.98,38.98,38.98,33.1197468,0.84966,0,0,1,38.98
1659744000000,2022-08-06 00:00:00,SOL/USDC,43.83,43.83,43.83,43.83,1.22724,0.028,0,0,1,43.83
1659657600000,2022-08-05 00:00:00,SOL/USDC,43.83601406,43.83601406,43.83601406,43.83601406,0,0,0,0,0,43.648339601235219197
1659571200000,2022-08-04 00:00:00,SOL/USDC,43.83601406,43.83601406,43.83601406,43.83601406,0,0,0,0,0,43.648339601235219197
1659484800000,2022-08-03 00:00:00,SOL/USDC,43.83601406,43.83601406,43.83601406,43.83601406,0,0,0,0,0,43.648339601235219197
1659398400000,2022-08-02 00:00:00,SOL/USDC,43.83601406,43.83601406,43.83601406,43.83601406,0,0,0,0,0,43.648339601235219197
1659312000000,2022-08-01 00:00:00,SOL/USDC,43.83601406,43.83601406,43.83601406,43.83601406,0,0,0,0,0,43.648339601235219197
1659225600000,2022-07-31 00:00:00,SOL/USDC,43.76158848,44.19620091,42.97331079,43.83601406,344.36766674,7.88888818,0,0,0,43.65224336
1659139200000,2022-07-30 00:00:00,SOL/USDC,42.15611252,46.5,41.72338022,45.18699141,462.4414542,10.14544726,0,0,0,45.58117965
1659052800000,2022-07-29 00:00:00,SOL/USDC,43.11407046,43.39613315,41.67983648,41.91406025,4358.09895952,102.81162504,0,0,0,42.38916521
1658966400000,2022-07-28 00:00:00,SOL/USDC,39.418534,43.62587145,39.418534,42.76967753,9510.76373026,224.18296575,0,0,0,42.42411415
1658880000000,2022-07-27 00:00:00,SOL/USDC,36.23830037,39.88046632,35.7952056,39.88046632,15848.49673692,433.54139545,0,0,0,36.55590193
1658793600000,2022-07-26 00:00:00,SOL/USDC,36.5,36.5,35.02509378,35.92564835,12697.53533817,355.47391687,0,0,0,35.72001976
1658707200000,2022-07-25 00:00:00,SOL/USDC,40.01,40.01,37.59163816,37.70741405,13234.83592167,343.23913219,0,0,0,38.55864521
1658620800000,2022-07-24 00:00:00,SOL/USDC,40.98610927,41.81290346,40.88146981,41.40644819,2230.25139703,54.26256652,0,0,0,41.10110413
1658534400000,2022-07-23 00:00:00,SOL/USDC,40.88991697,41.22034722,38.72183112,38.72183112,8479.64815802,206.46332668,0,0,0,41.07096545
1658448000000,2022-07-22 00:00:00,SOL/USDC,42.96561374,43.17124075,40.39020896,40.42652833,1799.79771331,43.62888175,0,0,0,41.2524374
1658361600000,2022-07-21 00:00:00,SOL/USDC,42.20567364,43.42030006,40.23229722,43.0589066,4025.83692719,98.29551834,0,0,0,40.9564647
1658275200000,2022-07-20 00:00:00,SOL/USDC,44.67780925,45.85264028,41.71720493,42.19568711,5408.73770399,121.40494938,0,0,0,44.55121254
1658188800000,2022-07-19 00:00:00,SOL/USDC,44.266,46.98869364,42.62151403,45.65716049,10864.99574878,248.26913881,0,0,0,43.76297352
1658102400000,2022-07-18 00:00:00,SOL/USDC,39.03905418,43.5,39.03905418,43.5,14819.74298972,356.83864202,0,0,0,41.53065628
1658016000000,2022-07-17 00:00:00,SOL/USDC,40.90758435,40.90758435,38.40471056,39.00815076,273.04487223,6.73832971,0,0,0,40.52115049
1657929600000,2022-07-16 00:00:00,SOL/USDC,36.90350755,40.11394281,36.56462875,39.37880732,3782.89042866,97.33197869,0,0,0,38.86585354
1657843200000,2022-07-15 00:00:00,SOL/USDC,36.73112147,38.41732955,36.73112147,38.23603769,5135.60223289,135.02684693,0,0,0,38.03393435
1657756800000,2022-07-14 00:00:00,SOL/USDC,35.03894905,36.9,33.63568092,36.88300131,6367.3096214,180.82042219,0,0,0,35.21344295
1657670400000,2022-07-13 00:00:00,SOL/USDC,33.51236123,34.81570948,32.07377703,34.81570948,7751.78421866,231.68557527,0,0,0,33.45820821
1657584000000,2022-07-12 00:00:00,SOL/USDC,33.85809003,33.85809003,32.61782971,32.61782971,157.3823859,4.71577528,0,0,0,33.37359746
1657497600000,2022-07-11 00:00:00,SOL/USDC,35.7407782,35.7407782,35.06784642,35.23701258,169.66491253,4.82586141,0,0,0,35.15743576
1657411200000,2022-07-10 00:00:00,SOL/USDC,37.57383874,37.57383874,36.45152509,36.61051972,257.3830458,6.98399295,0,0,0,36.85327972
1657324800000,2022-07-09 00:00:00,SOL/USDC,38.38691102,38.61684831,38.08538765,38.38915601,1702.14026932,44.21443502,0,0,0,38.4973882
1657238400000,2022-07-08 00:00:00,SOL/USDC,38.26051137,39.36974383,37.06277379,38.59760379,5227.9969864,135.8329581,0,0,0,38.48842769
1657152000000,2022-07-07 00:00:00,SOL/USDC,37.12486214,38.43788908,37.12486214,38.39373237,236.80161625,6.17909213,0,0,0,38.32304346
1657065600000,2022-07-06 00:00:00,SOL/USDC,35.42103774,36.95029354,35.42103774,36.95029354,2430.0770967,66.81646372,0,0,0,36.36943593
1656979200000,2022-07-05 00:00:00,SOL/USDC,36.68513376,36.68513376,33.33557525,35.66527974,3923.80062806,114.41022307,0,0,0,34.29589177
1656892800000,2022-07-04 00:00:00,SOL/USDC,33.52815993,36.47771717,33.42322718,36.47771717,88781.20547854,2602.11989492,0,0,0,34.11879892
1656806400000,2022-07-03 00:00:00,SOL/USDC,32.70763985,33.54218648,32.27471045,33.50977198,13175.92117365,393.96761109,0,0,0,33.44417358
1656720000000,2022-07-02 00:00:00,SOL/USDC,32.25532725,33.429376,31.84018886,33.19058284,2096.638301,63.1826829,0,0,0,33.18374916
1656633600000,2022-07-01 00:00:00,SOL/USDC,33.73433976,34.32368784,32.37271832,33.55329911,818.1535798,24.78822239,0,0,0,33.00573824
1656547200000,2022-06-30 00:00:00,SOL/USDC,33.61980657,33.61980657,31.13446685,33.13254644,4518.74293908,140.01547742,0,0,0,32.27316738
1656460800000,2022-06-29 00:00:00,SOL/USDC,35.37070279,35.37070279,33.27387798,33.27387798,6780.99517024,196.1419107,0,0,0,34.5718829
1656374400000,2022-06-28 00:00:00,SOL/USDC,38.49000945,39.65390422,35.34681968,35.34681968,2389.80680691,64.23740575,0,0,0,37.20272914
1656288000000,2022-06-27 00:00:00,SOL/USDC,39.39924624,40.87056811,38.35936735,38.90586841,4344.67192996,109.08816439,0,0,0,39.82716139
1656201600000,2022-06-26 00:00:00,SOL/USDC,41.64945932,41.70534985,39.41330882,39.41330882,3133.04217618,77.62043628,0,0,0,40.36362492
1656115200000,2022-06-25 00:00:00,SOL/USDC,39.54554403,42.1376242,39.54554403,42.1376242,5189.58967799,127.98451954,0,0,0,40.54857334
1656028800000,2022-06-24 00:00:00,SOL/USDC,38.75,42.46187468,38.75,42.461,2206.58057972,53.31352813,0,0,0,41.38875548
1655942400000,2022-06-23 00:00:00,SOL/USDC,34.90266155,37.76932362,34.90266155,37.76932362,72014.59286844,2063.12693409,0,0,0,34.90555606
1655856000000,2022-06-22 00:00:00,SOL/USDC,35.98090346,36.13799214,34.06154881,34.65168672,39815.84780818,1139.91560657,0,0,0,34.92876804
1655769600000,2022-06-21 00:00:00,SOL/USDC,34.43946478,38.75893273,34.43946478,35.8575049,2782.64740326,75.80148216,0,0,0,36.7096701
1655683200000,2022-06-20 00:00:00,SOL/USDC,32.67728246,36.03841817,32.67728246,34.91715825,3285.16641817,95.03275169,0,0,0,34.56878139
1655596800000,2022-06-19 00:00:00,SOL/USDC,31.32317902,35.17733465,29.29680616,34.01447087,139926.41041357,4359.85285447,0,0,0,32.09429654
1655510400000,2022-06-18 00:00:00,SOL/USDC,30.25991039,31.73570974,27.50603364,31.5612461,14097.70359548,484.23012132,0,0,0,29.11364447
1655424000000,2022-06-17 00:00:00,SOL/USDC,29.4694234,31.79190421,29.4694234,31.1,5166.68166328,163.53577805,0,0,0,31.59358597
1655337600000,2022-06-16 00:00:00,SOL/USDC,31,32.0840691,30.35392849,31.47678271,349.58734841,11.12044173,0,0,0,31.4364624
1655251200000,2022-06-15 00:00:00,SOL/USDC,28.44,31,28.44,31,294.89554435,10.33709904,0,0,0,28.52788226
1655164800000,2022-06-14 00:00:00,SOL/USDC,27.23494821,31.91469248,26.50918344,29.51513665,3704.6822547,124.80078758,0,0,0,29.68476663
1655078400000,2022-06-13 00:00:00,SOL/USDC,30,30,26.36136332,28.51942723,38305.65924635,1358.77660625,0,0,0,28.1912855
1654992000000,2022-06-12 00:00:00,SOL/USDC,32.03641037,34.40610116,31.61297433,31.61297433,9023.99834236,274.79806438,0,0,0,32.83865322
1654905600000,2022-06-11 00:00:00,SOL/USDC,36.88864823,36.88864823,33.29330709,33.96065927,9221.5248574,271.05238803,0,0,0,34.02119023
1654819200000,2022-06-10 00:00:00,SOL/USDC,39.7016044,40.58988225,36.88864823,36.88864823,2290.0786011,60.13035585,0,0,0,38.0852328
1654732800000,2022-06-09 00:00:00,SOL/USDC,41.27461759,41.27461759,40.39960066,40.69878899,863.61020852,21.02320729,0,0,0,41.07889898
1654646400000,2022-06-08 00:00:00,SOL/USDC,38.93534479,40.01511138,38.55977473,39.79343163,797.17812084,20.24489821,0,0,0,39.37674136
1654560000000,2022-06-07 00:00:00,SOL/USDC,40.30840919,40.67598263,38,39.78759876,1476.90470757,37.83947324,0,0,0,39.03079459
1654473600000,2022-06-06 00:00:00,SOL/USDC,40.69218016,44.26608296,40.69218016,43.72974068,95.55060721,2.18735099,0,0,0,43.68325323
1654387200000,2022-06-05 00:00:00,SOL/USDC,38.88327869,39.18109307,38.88327869,39.18109307,538.42693104,13.74339325,0,0,0,39.17714652
1654300800000,2022-06-04 00:00:00,SOL/USDC,37.48533671,39.16799105,36.76841133,38.67573917,820.85666424,22.11905858,0,0,0,37.11083187
1654214400000,2022-06-03 00:00:00,SOL/USDC,40.6,40.7187181,37.84009179,37.84009179,4924.02941584,129.04264277,0,0,0,38.15815694
1654128000000,2022-06-02 00:00:00,SOL/USDC,39.23316878,40.94921306,39.23316878,40.89634761,10919.16355146,271.59432791,0,0,0,40.20394547
1654041600000,2022-06-01 00:00:00,SOL/USDC,45.74969027,45.74969027,39.88141121,40.58587175,9637.19655724,223.7041599,0,0,0,43.08009543
1653955200000,2022-05-31 00:00:00,SOL/USDC,46.28411644,46.28411644,45.49973002,46.05489665,2592.89164095,56.3757062,0,0,0,45.99306715
1653868800000,2022-05-30 00:00:00,SOL/USDC,44.59274464,47.57773053,44.59274464,47.1582003,5260.59143387,113.4502647,0,0,0,46.369142
1653782400000,2022-05-29 00:00:00,SOL/USDC,44.02546069,45.23710902,42.00177096,44.33096416,18587.75941881,426.2390292,0,0,0,43.60876913
1653696000000,2022-05-28 00:00:00,SOL/USDC,40.79917384,44.29899193,40.71496494,44,2264.95084841,53.88507187,0,0,0,42.03299299
1653609600000,2022-05-27 00:00:00,SOL/USDC,43.53211931,43.53767462,40.08968728,40.84328579,46268.04694996,1108.49038941,0,0,0,41.73969155
1653523200000,2022-05-26 00:00:00,SOL/USDC,47.85631408,47.85962914,42.66153934,44.11497452,26228.73018785,578.85534388,0,0,0,45.31137263
1653436800000,2022-05-25 00:00:00,SOL/USDC,49.98311467,49.98926764,47.73248429,48.38132782,13796.84180102,283.49884949,0,0,0,48.66630614
1653350400000,2022-05-24 00:00:00,SOL/USDC,49.68230987,51.22926108,47.4893,49.67979731,6323.78017262,127.60571484,0,0,0,49.55718621
1653264000000,2022-05-23 00:00:00,SOL/USDC,53.07923862,54.38620871,49.81448788,50.44639908,8033.38109273,152.32737778,0,0,0,52.73760508
1653177600000,2022-05-22 00:00:00,SOL/USDC,50.33902982,52.76939781,49.74377311,52.74360162,7157.94268176,138.98910171,0,0,0,51.50002837
1653091200000,2022-05-21 00:00:00,SOL/USDC,49.02974542,50.39190462,49.02974542,49.87259324,3758.99873039,75.42359367,0,0,0,49.83849943
1653004800000,2022-05-20 00:00:00,SOL/USDC,52.1492306,53.29853132,47.9,50.65158252,9552.0395381,192.04319205,0,0,0,49.7390167
1652918400000,2022-05-19 00:00:00,SOL/USDC,50.81708885,53.68648217,50.81708885,52.32533696,3688.36773087,71.49074571,0,0,0,51.59224028
1652832000000,2022-05-18 00:00:00,SOL/USDC,56.6612645,56.6612645,49.5,49.5,16264.07545848,303.74566743,0,0,0,53.54504509
1652745600000,2022-05-17 00:00:00,SOL/USDC,56.54229822,57.60110386,54.59832147,57.067742,11000.04532587,194.69450915,0,0,0,56.4990013
1652659200000,2022-05-16 00:00:00,SOL/USDC,57.04858538,57.04858538,52.43622088,55.42685237,3365.6907265,61.76672345,0,0,0,54.49035562
1652572800000,2022-05-15 00:00:00,SOL/USDC,50.67301405,58.12160448,50.67301405,58.12160448,10934.76556733,204.30308638,0,0,0,53.52227301
1652486400000,2022-05-14 00:00:00,SOL/USDC,48.43033762,52.40161444,46,50.2,14263.04336849,291.70023179,0,0,0,48.89623597
1652400000000,2022-05-13 00:00:00,SOL/USDC,55,86.00447314,49.29196263,49.29196263,10547.23895245,197.11486403,0,0,0,53.50808526
1652313600000,2022-05-12 00:00:00,SOL/USDC,53.25801062,59.54322996,52.416,54.51645569,21001.70590043,383.97897869,0,0,0,54.69493661
1652227200000,2022-05-11 00:00:00,SOL/USDC,67.0680916,68.71449717,50,53.68407471,50216.09169277,836.37147363,0,0,0,60.04041658
1652140800000,2022-05-10 00:00:00,SOL/USDC,62.31863508,73.86217175,60.22406686,66.84279,157569.77131786,2415.5281337,0,0,0,65.2320166
1652054400000,2022-05-09 00:00:00,SOL/USDC,74.19448864,76.09067,61.9024733,61.9024733,276112.3351051,4067.61629193,0,0,0,67.88062474
1651968000000,2022-05-08 00:00:00,SOL/USDC,77.49975491,78.63669855,74.53710922,75.62449654,70682.63298236,925.18410378,0,0,0,76.3984516
1651881600000,2022-05-07 00:00:00,SOL/USDC,80.61755303,82.18615982,77.27182711,77.65601159,68791.2013083,867.90108064,0,0,0,79.2615689
1651795200000,2022-05-06 00:00:00,SOL/USDC,84.09609121,84.09609121,80.05985904,81.81674055,136382.24573582,1672.50636219,0,0,0,81.54363344
1651708800000,2022-05-05 00:00:00,SOL/USDC,93.34993481,94.5074949,81.51630307,84.53281308,85141.44495157,997.07563432,0,0,0,85.39115992
1651622400000,2022-05-04 00:00:00,SOL/USDC,86.06947394,91.96700782,85.56015337,91.66250482,45295.49629182,515.8016998,0,0,0,87.81571737
1651536000000,2022-05-03 00:00:00,SOL/USDC,87.02351358,88.60983814,85,85.8101303,18157.28499676,209.42962236,0,0,0,86.69874295
1651449600000,2022-05-02 00:00:00,SOL/USDC,89.75,90.21025612,85.50137168,87.68650431,30906.57903542,352.75162158,0,0,0,87.61569655
1651363200000,2022-05-01 00:00:00,SOL/USDC,84.61270001,92.76131418,84.61270001,90.30764672,88343.4944016,989.88814682,0,0,0,89.2459362
1651276800000,2022-04-30 00:00:00,SOL/USDC,94.13879996,94.74731715,81.94995981,84.75492425,87830.36052219,1002.15023229,0,0,0,87.64191005
1651190400000,2022-04-29 00:00:00,SOL/USDC,97.32332519,97.32332519,92.8245428,92.8245428,35826.96679921,378.22411194,0,0,0,94.72417455
1651104000000,2022-04-28 00:00:00,SOL/USDC,98.82041346,99.58165312,96.76593933,98.018,80728.20306427,819.83471755,0,0,0,98.4688759
1651017600000,2022-04-27 00:00:00,SOL/USDC,95.74258712,99.8,95.45097422,98.19473353,58437.14011815,594.69724566,0,0,0,98.26368046
1650931200000,2022-04-26 00:00:00,SOL/USDC,101.82276908,101.82276908,94.83403021,95.17713042,112871.16160126,1151.27487109,0,0,0,98.04015047
1650844800000,2022-04-25 00:00:00,SOL/USDC,98.6,101.46072796,94.58061286,101.46072796,153130.71124403,1574.69748137,0,0,0,97.24452668
1650758400000,2022-04-24 00:00:00,SOL/USDC,101.49395576,102.00620302,98.9569919,101.16736972,22990.66464644,228.16710591,0,0,0,100.7623976
1650672000000,2022-04-23 00:00:00,SOL/USDC,99.77413247,102.27487836,98.5227286,100.58510383,44827.29509305,447.49416727,0,0,0,100.17403213
1650585600000,2022-04-22 00:00:00,SOL/USDC,102.69914764,103.23292934,99.86,100.66760068,73324.93336123,725.15795469,0,0,0,101.11580916
1650499200000,2022-04-21 00:00:00,SOL/USDC,105.64751266,109.49595814,100.39055052,100.39055052,51137.50466941,478.93765079,0,0,0,106.77278051
1650412800000,2022-04-20 00:00:00,SOL/USDC,108.42506643,110.37840381,105.63523868,107.19310912,44359.93621347,412.20257084,0,0,0,107.61683539
1650326400000,2022-04-19 00:00:00,SOL/USDC,102.5189296,108.6068288,101.46531092,108.6068288,22836.08696114,215.65971231,0,0,0,105.88944368
1650240000000,2022-04-18 00:00:00,SOL/USDC,101.67803011,101.87665669,95,101.87665669,15403.26868215,155.81324067,0,0,0,98.85725125
1650153600000,2022-04-17 00:00:00,SOL/USDC,101.19925437,105.14079403,101.19925437,103.13328357,16293.51532585,156.61733879,0,0,0,104.03391764
1650067200000,2022-04-16 00:00:00,SOL/USDC,101.68182404,102.79753171,100.89494031,102.79753171,15868.40055855,155.40136057,0,0,0,102.11236568
1649980800000,2022-04-15 00:00:00,SOL/USDC,101.18502001,102.21,100.41900001,100.99124489,50746.1743637,501.22474455,0,0,0,101.24435179
1649894400000,2022-04-14 00:00:00,SOL/USDC,106.8585132,106.936,99,100.52300003,43815.94665635,420.76693215,0,0,0,104.13353167
1649808000000,2022-04-13 00:00:00,SOL/USDC,103.45503115,105.51679247,101.23732675,103.93965665,25936.83173797,249.51369788,0,0,0,103.94953046
1649721600000,2022-04-12 00:00:00,SOL/USDC,100.24446335,108.42851295,99.12696492,103.126,83090.87655229,791.40104847,0,0,0,104.99212341
1649635200000,2022-04-11 00:00:00,SOL/USDC,110.92982844,111.59478973,98.24720009,100.27780248,45811.90297151,435.89043547,0,0,0,105.09958293
1649548800000,2022-04-10 00:00:00,SOL/USDC,113.14305239,115.98490535,110.24030064,112.32431241,22001.45132414,195.03711763,0,0,0,112.80648315
1649462400000,2022-04-09 00:00:00,SOL/USDC,110.17709848,111.08485423,109.20971089,110.89901757,36400.12771142,331.88704742,0,0,0,109.67625279
1649376000000,2022-04-08 00:00:00,SOL/USDC,120.65488885,121.56485196,108.5,108.99591512,139273.1880294,1215.79398132,0,0,0,114.55327972
1649289600000,2022-04-07 00:00:00,SOL/USDC,112.12813077,119.54356467,111.60011037,119.54356467,97452.19685646,836.50987804,0,0,0,116.49856076
1649203200000,2022-04-06 00:00:00,SOL/USDC,126.60524237,126.60524237,112.7034782,112.71976564,134671.91338915,1131.55027378,0,0,0,119.01540436
1649116800000,2022-04-05 00:00:00,SOL/USDC,130.57906826,136.34920708,128.66730831,128.66730831,32776.47123355,250.05908569,0,0,0,131.07490632
1649030400000,2022-04-04 00:00:00,SOL/USDC,136.08766221,136.76361853,126.29501417,132.53425423,31553.51519009,237.90263606,0,0,0,132.63205365
1648944000000,2022-04-03 00:00:00,SOL/USDC,130.88465761,140.1493335,130.88465761,137.02502238,9186.28722743,66.79715117,0,0,0,137.52513492
1648857600000,2022-04-02 00:00:00,SOL/USDC,135.34957007,142.73314667,132.15761817,132.15761817,79645.93400264,583.44523668,0,0,0,136.50969961
1648771200000,2022-04-01 00:00:00,SOL/USDC,123.72925386,136.64426271,118.35818217,136.45073739,132337.94766604,1064.88748081,0,0,0,124.27411351
1648684800000,2022-03-31 00:00:00,SOL/USDC,123,128.85531491,120.89154795,124.66670226,58902.20480644,471.01158556,0,0,0,125.0546836
1648598400000,2022-03-30 00:00:00,SOL/USDC,109.38039647,123.69032698,108.40081781,121.14422621,49821.18666013,426.66860989,0,0,0,116.76787442
1648512000000,2022-03-29 00:00:00,SOL/USDC,105.99738685,115.25535851,105.99738685,111.02549377,33116.67942311,297.69394179,0,0,0,111.24404891
1648425600000,2022-03-28 00:00:00,SOL/USDC,107.2169328,112.7511031,105.1170729,106.39779981,41993.97922163,382.71920854,0,0,0,109.72529803
1648339200000,2022-03-27 00:00:00,SOL/USDC,101.63304771,107.21795036,99.05117029,107.21795036,30910.26841881,301.67585534,0,0,0,102.46185722
1648252800000,2022-03-26 00:00:00,SOL/USDC,99.57538148,103.17978576,99.57538148,102.98801782,18580.87341846,183.115212,0,0,0,101.47094397
1648166400000,2022-03-25 00:00:00,SOL/USDC,103.55167509,104.08501427,98.25538554,98.25538554,8846.92443343,86.25953009,0,0,0,102.56170447
1648080000000,2022-03-24 00:00:00,SOL/USDC,95.16824724,102.1212957,95.16824724,102.1212957,34121.00439709,340.97166196,0,0,0,100.06991255
1647993600000,2022-03-23 00:00:00,SOL/USDC,90.84873011,95.07665889,90.77043367,93.82586127,25508.11445496,279.04475971,0,0,0,91.41226834
1647907200000,2022-03-22 00:00:00,SOL/USDC,89.20925279,93.62073603,89.20925279,93.1027701,11946.18207946,132.74685608,0,0,0,89.99220344
1647820800000,2022-03-21 00:00:00,SOL/USDC,88.19476996,89.39347143,88,88.85942573,10819.43519577,121.86414979,0,0,0,88.78275698
1647734400000,2022-03-20 00:00:00,SOL/USDC,90.6741506,90.84499499,88.62316091,88.62316091,3496.48954783,39.04707823,0,0,0,89.54548474
1647648000000,2022-03-19 00:00:00,SOL/USDC,90.24879506,93.94236309,90.24879506,92.69684321,3663.05818937,39.4871288,0,0,0,92.76587841
1647561600000,2022-03-18 00:00:00,SOL/USDC,88.02406339,90.7,84.66831646,90.10161895,31907.03128889,367.03125681,0,0,0,86.93273582
1647475200000,2022-03-17 00:00:00,SOL/USDC,87.36081534,90.81012454,86.95074695,88.47140104,34530.56892006,386.72416018,0,0,0,89.28991895
1647388800000,2022-03-16 00:00:00,SOL/USDC,83.27856939,86.84481311,82.50876757,86.84481311,58057.80352014,687.34725452,0,0,0,84.46648057
1647302400000,2022-03-15 00:00:00,SOL/USDC,79.55464029,85.12278188,79.55464029,84.16175485,3567.03079456,43.30581807,0,0,0,82.36839652
1647216000000,2022-03-14 00:00:00,SOL/USDC,78.93512253,81.23384699,78.93512253,80.6136559,2159.26155565,26.91228132,0,0,0,80.23331541
1647129600000,2022-03-13 00:00:00,SOL/USDC,83.16148688,83.16148688,78.21701893,78.21701893,13210.22686344,162.60659154,0,0,0,81.24041429
1647043200000,2022-03-12 00:00:00,SOL/USDC,81.95882362,81.95882362,81.95882362,81.95882362,602.79069695,7.35479928,0,0,0,81.95882362
1646956800000,2022-03-11 00:00:00,SOL/USDC,82.07758954,83.65348319,80.32311154,80.53828765,63179.00985766,773.60180418,0,0,0,81.66864337
1646870400000,2022-03-10 00:00:00,SOL/USDC,83.45287819,83.83212995,81.36217757,82.90477149,85032.32304493,1031.92822984,0,0,0,82.40139244
1646784000000,2022-03-09 00:00:00,SOL/USDC,82.13850612,89.30142396,82.13850612,88.44071274,88355.88055144,1005.78853827,0,0,0,87.84737267
1646697600000,2022-03-08 00:00:00,SOL/USDC,82.11857308,84.34886927,81.57769035,82.17760144,152330.096071,1834.32027622,0,0,0,83.04443779
1646611200000,2022-03-07 00:00:00,SOL/USDC,83.02412632,86.4148426,80.27959704,82.34078624,153068.31094853,1850.98643962,0,0,0,82.6955334
1646524800000,2022-03-06 00:00:00,SOL/USDC,87.45623782,88.50302004,84.31085615,84.31085615,53302.89140362,615.5772698,0,0,0,86.59009034
1646438400000,2022-03-05 00:00:00,SOL/USDC,87.67169119,90.66585066,87.11405458,90.2125668,18139.08763135,205.16932474,0,0,0,88.41032963
1646352000000,2022-03-04 00:00:00,SOL/USDC,93.93752631,93.93752631,87.21650818,87.86326518,102435.7676163,1116.80800852,0,0,0,91.72191355
1646265600000,2022-03-03 00:00:00,SOL/USDC,100.73800275,101.12739177,94.3950691,95.67962332,101913.69380338,1055.97271911,0,0,0,96.51167303
1646179200000,2022-03-02 00:00:00,SOL/USDC,98.85901438,106.02020953,97.27080691,100.66287732,113599.30434686,1106.60113195,0,0,0,102.6560529
1646092800000,2022-03-01 00:00:00,SOL/USDC,100.7901787,101.08320024,94.72468075,99.08155935,96141.96769341,966.44502462,0,0,0,99.48001722
1646006400000,2022-02-28 00:00:00,SOL/USDC,85.56290991,102.09767129,85.56290991,99.12555079,166007.21757771,1773.58546691,0,0,0,93.59978454
1645920000000,2022-02-27 00:00:00,SOL/USDC,88.8460323,91.84655902,84.55926325,85.283554,74550.52643494,850.01307646,0,0,0,87.70515242
1645833600000,2022-02-26 00:00:00,SOL/USDC,94,95.09109075,90.17153693,90.17553554,24182.60100295,257.36280594,0,0,0,93.96307642
1645747200000,2022-02-25 00:00:00,SOL/USDC,89.97478751,94.84540299,87.20935876,92.33524832,51796.49669079,568.05980121,0,0,0,91.18141537
1645660800000,2022-02-24 00:00:00,SOL/USDC,84.93454243,93.22946065,76.10506431,89.68065385,188032.0248375,2246.03786468,0,0,0,83.71721055
1645574400000,2022-02-23 00:00:00,SOL/USDC,87.30810255,93.23552699,84.79797225,85.17381914,157643.45573593,1790.94967315,0,0,0,88.02227002
1645488000000,2022-02-22 00:00:00,SOL/USDC,83.40222892,86.81705076,81.97632164,86.76367457,75965.7326813,894.9723365,0,0,0,84.88053717
1645401600000,2022-02-21 00:00:00,SOL/USDC,91.86098897,94.90802598,82.77926145,82.77926145,198279.67912165,2255.35306594,0,0,0,87.91513937
1645315200000,2022-02-20 00:00:00,SOL/USDC,90.47154573,93.32320959,85.88224358,93.32320959,87173.49137497,980.2031322,0,0,0,88.93410815
1645228800000,2022-02-19 00:00:00,SOL/USDC,90.55045354,92.63867138,88.88101227,90.95428312,17674.41459203,195.60264618,0,0,0,90.35877038
1645142400000,2022-02-18 00:00:00,SOL/USDC,93.5387926,95.90215269,89.58483825,90.07149843,81076.29969575,879.70025564,0,0,0,92.16355136
1645056000000,2022-02-17 00:00:00,SOL/USDC,101.74332733,101.74332733,93,93.98640423,48653.00024909,501.77552279,0,0,0,96.96168513
1644969600000,2022-02-16 00:00:00,SOL/USDC,105.30278464,105.30278464,98.68173393,102.87650709,33217.83354523,324.14192072,0,0,0,102.47928892
1644883200000,2022-02-15 00:00:00,SOL/USDC,97.16132703,105.68077835,97.16132703,105.68077835,61901.26401033,602.95149436,0,0,0,102.66375419
1644796800000,2022-02-14 00:00:00,SOL/USDC,92.99396164,97.7014157,92.13448913,94.9632616,98329.15365423,1028.55834093,0,0,0,95.59900468
1644710400000,2022-02-13 00:00:00,SOL/USDC,95.64064734,96.7351038,91.86504866,93.16148059,82582.9500091,888.01387712,0,0,0,92.99736427
1644624000000,2022-02-12 00:00:00,SOL/USDC,95.69552714,99.66337426,93.4864726,96.27542293,129618.4910468,1339.83209402,0,0,0,96.7423393
1644537600000,2022-02-11 00:00:00,SOL/USDC,105.11719016,107.80442028,95.71970502,95.77208587,187619.24970287,1815.72863291,0,0,0,103.33000554
1644451200000,2022-02-10 00:00:00,SOL/USDC,112.38178939,112.51866068,107.55753937,107.55753937,46770.4417575,425.39477966,0,0,0,109.94597017
1644364800000,2022-02-09 00:00:00,SOL/USDC,116.51,119.97641505,114.28963743,114.40098156,0,0,0,0,0,117.95782072
1644278400000,2022-02-08 00:00:00,SOL/USDC,116.51,119.97641505,114.28963743,114.40098156,66454.52888963,563.37535301,0,0,0,117.95782072
1644192000000,2022-02-07 00:00:00,SOL/USDC,113.62216112,121.88068737,113.29698361,117,117947.36430062,997.88847724,0,0,0,118.19693982
1644105600000,2022-02-06 00:00:00,SOL/USDC,114.67575363,115.38514151,111.66442472,115.12304742,80330.00111288,706.9202937,0,0,0,113.63374602
1644019200000,2022-02-05 00:00:00,SOL/USDC,112.94076731,117.35608993,112.94076731,114.48668861,58122.7018353,504.8231197,0,0,0,115.13478596
1643932800000,2022-02-04 00:00:00,SOL/USDC,101.50495372,112.48339429,101.35311674,112.48339429,215857.80745568,2025.53403755,0,0,0,106.56834368
1643846400000,2022-02-03 00:00:00,SOL/USDC,102.46091284,102.46091284,94.23780096,100.39190545,251592.18692176,2552.56444534,0,0,0,98.56447988
1643760000000,2022-02-02 00:00:00,SOL/USDC,110.23559237,112.99053811,98.19504696,101,241747.49215717,2253.02579135,0,0,0,107.29903451
1643673600000,2022-02-01 00:00:00,SOL/USDC,99.23424494,113.39188903,99.23424494,110.4502664,226054.62207275,2099.50480834,0,0,0,107.67044741
1643587200000,2022-01-31 00:00:00,SOL/USDC,93.22101314,100,89.71284684,100,138157.58209587,1470.66769194,0,0,0,93.94208008
1643500800000,2022-01-30 00:00:00,SOL/USDC,95.95982662,96.96094977,92.23117855,93.43720951,99549.41038895,1047.60750559,0,0,0,95.02548412
1643414400000,2022-01-29 00:00:00,SOL/USDC,93.44206284,98.09475625,91.64172339,96.1958136,78961.00000858,827.93084921,0,0,0,95.37149157
1643328000000,2022-01-28 00:00:00,SOL/USDC,89.94788375,93.36749789,87.74324763,91.23480306,244250.74019158,2702.66956361,0,0,0,90.37388198
1643241600000,2022-01-27 00:00:00,SOL/USDC,93.04490454,93.16222896,85.88668928,88.94890695,151260.65851802,1696.72588447,0,0,0,89.14855363
1643155200000,2022-01-26 00:00:00,SOL/USDC,93.48864815,103.31507474,89.76171261,92.66632065,148743.76455559,1548.99576708,0,0,0,96.02593352
1643068800000,2022-01-25 00:00:00,SOL/USDC,93.97406278,95,93.38766509,95,610.14570978,6.49464895,0,0,0,93.94591062
1642982400000,2022-01-24 00:00:00,SOL/USDC,100,100,84.44733746,92.96739576,113.36641385,1.28392725,0,0,0,88.29660236
1642896000000,2022-01-23 00:00:00,SOL/USDC,111.50521294,114.00982603,110.9950454,112.3932733,0,0,0,0,0,111.83214492
1642809600000,2022-01-22 00:00:00,SOL/USDC,111.50521294,114.00982603,110.9950454,112.3932733,1768.24975137,15.81164121,0,0,0,111.83214492
1642723200000,2022-01-21 00:00:00,SOL/USDC,127.74760626,127.956447,106.35266802,111.52948253,276480.79036386,2350.12350344,0,0,0,117.64521735
1642636800000,2022-01-20 00:00:00,SOL/USDC,136.64517777,143.46771395,126.47350492,127.42564375,24470.92469883,186.14627775,0,0,0,131.46072537
1642550400000,2022-01-19 00:00:00,SOL/USDC,141.09520139,141.69462538,133.52867056,136.91703769,19705.65126822,144.18317673,0,0,0,136.67094674
1642464000000,2022-01-18 00:00:00,SOL/USDC,164.4,164.4,136.80540201,140.79808355,11558.47302314,82.41056988,0,0,0,140.25473965
1642377600000,2022-01-17 00:00:00,SOL/USDC,154,170,154,160,87.48650314,0.5599696,0,0,0,156.23437975
1642291200000,2022-01-16 00:00:00,SOL/USDC,150.07352228,150.07352228,150.07352228,150.07352228,0,0,0,0,0,150.07352228
1642204800000,2022-01-15 00:00:00,SOL/USDC,150.07352228,150.07352228,150.07352228,150.07352228,232.46258637,1.54899134,0,0,0,150.07352228
1642118400000,2022-01-14 00:00:00,SOL/USDC,160.47023987,160.47023987,160.47023987,160.47023987,163.67964466,1.02,0,0,0,160.47023987
1642032000000,2022-01-13 00:00:00,SOL/USDC,152.75032369,156.47023987,150.25904337,156.47023987,605.61783059,3.93313243,0,0,0,153.97849967
1641945600000,2022-01-12 00:00:00,SOL/USDC,151,160,147.87366145,160,1798.67746954,11.97942402,0,0,0,150.14724134
1641859200000,2022-01-11 00:00:00,SOL/USDC,148.2,150,148.2,150,1097.456271,7.40037514,0,0,0,148.29738361
1641772800000,2022-01-10 00:00:00,SOL/USDC,146.99999999,147.00000001,146.99999999,147.00000001,81.27184589,0.5528697,0,0,0,146.99999999
1641686400000,2022-01-09 00:00:00,SOL/USDC,146.06001997,149.80497412,146.06001997,149.80497412,595.24854929,3.99845,0,0,0,148.86982438
1641600000000,2022-01-08 00:00:00,SOL/USDC,144.92771995,148,144.92771995,146.06001997,4581.01035464,31.20386858,0,0,0,146.80905166
1641513600000,2022-01-07 00:00:00,SOL/USDC,150.49620122,150.49620122,133.4231711,137.27407395,166693.50193443,1191.7693313,0,0,0,139.87060881
1641427200000,2022-01-06 00:00:00,SOL/USDC,153.47792366,154.31543262,147.20153042,153.21950743,35711.16130248,237.84376756,0,0,0,150.14545753
1641340800000,2022-01-05 00:00:00,SOL/USDC,167.32609278,170.71193713,145.18095422,155.40693825,113591.98986547,732.32019512,0,0,0,155.11246395
1641254400000,2022-01-04 00:00:00,SOL/USDC,170.03347713,173.58070393,167.36110355,168.39282255,16768.20485144,99.08427805,0,0,0,169.23174071
1641168000000,2022-01-03 00:00:00,SOL/USDC,176.12896993,176.12896993,167.24107234,170.68661834,11098.78751177,64.84954236,0,0,0,171.14673608
1641081600000,2022-01-02 00:00:00,SOL/USDC,178.7549183,179.48145723,174.74210251,176.42330175,22611.78657679,128.37614551,0,0,0,176.13698002
1640995200000,2022-01-01 00:00:00,SOL/USDC,170.48661543,179.51418757,170.48661543,177.88549124,26290.11827745,150.48311876,0,0,0,174.70476751
1640908800000,2021-12-31 00:00:00,SOL/USDC,172.13693689,176.92806135,168.11887811,170.29709555,25237.43065111,146.43588516,0,0,0,172.34457676
1640822400000,2021-12-30 00:00:00,SOL/USDC,171.35750507,174.9379572,168.48904895,171.96123291,24748.88867088,144.82100683,0,0,0,170.89294718
1640736000000,2021-12-29 00:00:00,SOL/USDC,178.55003026,179.84291008,170.51515014,170.6719433,40530.00416409,233.67096318,0,0,0,173.44903967
1640649600000,2021-12-28 00:00:00,SOL/USDC,195.19792033,195.19792033,176.43041512,177.61976508,120382.54370338,646.66736193,0,0,0,186.15837258
1640563200000,2021-12-27 00:00:00,SOL/USDC,197.69624401,204.35571198,195.21313039,196.23310471,72640.7643186,363.4853135,0,0,0,199.84511511
1640476800000,2021-12-26 00:00:00,SOL/USDC,193.06810487,200.48020926,190.23157979,198.72945895,58895.36830541,300.3424602,0,0,0,196.09404633
1640390400000,2021-12-25 00:00:00,SOL/USDC,190.59838475,195.21076321,189.37963382,192.97790633,42794.9263372,222.81379703,0,0,0,192.06587252
1640304000000,2021-12-24 00:00:00,SOL/USDC,190.10477056,197.65256867,184.83190662,190.23414016,57791.26682742,303.15412901,0,0,0,190.63328286
1640217600000,2021-12-23 00:00:00,SOL/USDC,178.38973886,193.77636589,175.84141149,190.13221999,47665.95731042,258.82025293,0,0,0,184.16625735
1640131200000,2021-12-22 00:00:00,SOL/USDC,179.84418302,187.70896812,177.36188467,178.38973886,42674.74620581,233.2047214,0,0,0,182.99263389
1640044800000,2021-12-21 00:00:00,SOL/USDC,173.87260206,182.36509478,170.38193491,179.84418302,60913.38283466,343.98140454,0,0,0,177.08335982
1639958400000,2021-12-20 00:00:00,SOL/USDC,179.75655641,181.26692809,168.41277465,173.84342423,59414.32846385,339.64127562,0,0,0,174.93259132
1639872000000,2021-12-19 00:00:00,SOL/USDC,182.82036143,189.34724503,178.52003974,180.08864855,69665.32675243,377.51662604,0,0,0,184.53578451
1639785600000,2021-12-18 00:00:00,SOL/USDC,173.40471571,184.03403808,171.62855991,182.92977025,20142.27195968,111.69668625,0,0,0,180.33007635
1639699200000,2021-12-17 00:00:00,SOL/USDC,176.83508754,182.47643398,168.22998417,175.25242618,203750.54225109,1150.59111556,0,0,0,177.08336132
1639612800000,2021-12-16 00:00:00,SOL/USDC,178.37623988,189.08753041,174.50555571,176.82179894,314756.35007668,1713.67212878,0,0,0,183.67361223
1639526400000,2021-12-15 00:00:00,SOL/USDC,161.40503983,182.10880381,155.45298356,178.23062197,276337.0699042,1650.18266863,0,0,0,167.45847302
1639440000000,2021-12-14 00:00:00,SOL/USDC,155.21326853,163.2129005,141.48640318,161.38511713,196268.95249732,1247.01794301,0,0,0,157.39064028
1639353600000,2021-12-13 00:00:00,SOL/USDC,172.89012456,172.89012456,148.12151114,155.21210218,291309.18285182,1862.84536318,0,0,0,156.37861768
1639267200000,2021-12-12 00:00:00,SOL/USDC,172.06277762,176.95046945,167.72627401,172.9269543,60298.08812984,350.17697071,0,0,0,172.19318565
1639180800000,2021-12-11 00:00:00,SOL/USDC,167.33367841,173.79644647,161.45786209,171.82342243,112669.64138268,666.89665892,0,0,0,168.9461776
1639094400000,2021-12-10 00:00:00,SOL/USDC,181.12957556,184.53597928,167.27913341,167.42559359,92533.32472995,524.75427606,0,0,0,176.33648538
1639008000000,2021-12-09 00:00:00,SOL/USDC,194.73130701,196.89713948,178.75160166,181.35877651,128180.15690863,683.13337988,0,0,0,187.63562238
1638921600000,2021-12-08 00:00:00,SOL/USDC,187.93784155,196.58745449,183.7573788,194.76593254,60975.77547173,319.96331208,0,0,0,190.57114728
1638835200000,2021-12-07 00:00:00,SOL/USDC,193.64791294,204.79914666,186.55612996,188.75620782,62418.47903563,313.96521945,0,0,0,198.80698615
1638748800000,2021-12-06 00:00:00,SOL/USDC,197.76192904,200.05149087,176.24563579,194.07618765,296668.28219817,1613.20066912,0,0,0,183.90042099
1638662400000,2021-12-05 00:00:00,SOL/USDC,201.10703268,205.74860633,180.00000001,198.3608222,174428.67016711,911.64944516,0,0,0,191.33305141
1638576000000,2021-12-04 00:00:00,SOL/USDC,211.8132739,218.75939373,174.46916356,200.90465728,300145.28415488,1511.07377159,0,0,0,198.63046384
1638489600000,2021-12-03 00:00:00,SOL/USDC,234.41289817,240.33233892,202.00323213,211.920795,94458.98226526,427.51867521,0,0,0,220.94703165
1638403200000,2021-12-02 00:00:00,SOL/USDC,229.41369972,243.38630936,220.28923673,233.8390881,169546.30190856,741.77600372,0,0,0,228.5680597
1638316800000,2021-12-01 00:00:00,SOL/USDC,209.25930025,234.16507805,207.76602587,229.95552386,91847.9294972,412.33443998,0,0,0,222.75105009
1638230400000,2021-11-30 00:00:00,SOL/USDC,204.53255843,219.05565947,199.55786934,208.53117597,117114.31889681,562.73630978,0,0,0,208.11580283
1638144000000,2021-11-29 00:00:00,SOL/USDC,201.53788618,214.47975238,198.89589407,204.24660831,82875.68865842,401.27223459,0,0,0,206.53232771
1638057600000,2021-11-28 00:00:00,SOL/USDC,192.8179727,202.76030273,181.27286374,201.02841549,377480.25007069,2005.20297657,0,0,0,188.25039384
1637971200000,2021-11-27 00:00:00,SOL/USDC,192.3659937,202.48891886,190.55060342,193.10756514,58529.56679984,298.42504295,0,0,0,196.12820097
1637884800000,2021-11-26 00:00:00,SOL/USDC,210.36050798,212.28159557,181.09000001,192.42610859,316286.4784679,1660.67579377,0,0,0,190.45648744
1637798400000,2021-11-25 00:00:00,SOL/USDC,205.83651516,218.53060595,202.1883617,210.10567622,95853.22826659,455.6585253,0,0,0,210.3619771
1637712000000,2021-11-24 00:00:00,SOL/USDC,221.87793536,222.56682867,200.2765477,205.97813586,100095.80897041,481.65679651,0,0,0,207.81562659
1637625600000,2021-11-23 00:00:00,SOL/USDC,216.07075827,226.10287311,211.23161726,221.81384207,55967.49265904,257.40307995,0,0,0,217.43132471
1637539200000,2021-11-22 00:00:00,SOL/USDC,216.23096414,218.47190249,212.25969643,215.94918745,22270.44448264,103.32407865,0,0,0,215.53973452
