https://www.CryptoDataDownload.com
unix,date,symbol,open,high,low,close,Volume USDT,Volume BCH
1669680000000,2022-11-29 00:00:00,BCH/USDT,110.0334,111.5884,109.3174,110.2629,1947.7392274994609,17.66450209
1669593600000,2022-11-28 00:00:00,BCH/USDT,111.3519,111.8907,107.0,110.0517,28340.558102920106,257.52040271
1669507200000,2022-11-27 00:00:00,BCH/USDT,112.4941,113.744,111.5291,111.5291,36461.83834177636,326.9266796
1669420800000,2022-11-26 00:00:00,BCH/USDT,113.9235,115.5215,111.552,112.4418,37561.040459679134,334.04872974
1669334400000,2022-11-25 00:00:00,BCH/USDT,115.9137,116.2455,113.2687,113.91,61114.004384880296,536.51131933
1669248000000,2022-11-24 00:00:00,BCH/USDT,114.9009,118.5298,113.0602,115.8917,48424.76832406386,417.84500809
1669161600000,2022-11-23 00:00:00,BCH/USDT,109.3579,119.4922,108.4666,115.0195,76711.07320160307,666.93972067
1669075200000,2022-11-22 00:00:00,BCH/USDT,103.1155,109.3205,103.0842,109.1986,42270.24547658808,387.0951228
1668988800000,2022-11-21 00:00:00,BCH/USDT,104.7623,107.318,100.8863,103.2231,40885.120297984795,396.08498774
1668902400000,2022-11-20 00:00:00,BCH/USDT,104.7288,107.5072,103.3729,104.849,36345.37917145471,346.64497679
1668816000000,2022-11-19 00:00:00,BCH/USDT,104.682,108.0085,103.9146,105.2893,74408.46743573497,706.70493047
1668729600000,2022-11-18 00:00:00,BCH/USDT,104.0252,105.7834,103.6794,104.6719,37498.961253859976,358.25241783
1668643200000,2022-11-17 00:00:00,BCH/USDT,104.4368,105.4979,101.5514,104.0021,34673.26760819122,333.39007201
1668556800000,2022-11-16 00:00:00,BCH/USDT,103.9356,109.6768,102.7573,104.5617,40130.15683206324,383.79403579
1668470400000,2022-11-15 00:00:00,BCH/USDT,103.8044,106.23,102.7103,103.9052,73450.05296165877,706.89487111
1668384000000,2022-11-14 00:00:00,BCH/USDT,99.5192,104.6413,96.4988,103.8662,57095.20002975181,549.69951755
1668297600000,2022-11-13 00:00:00,BCH/USDT,102.7959,103.561,98.2569,99.4528,81289.75983709193,817.37024837
1668211200000,2022-11-12 00:00:00,BCH/USDT,103.1419,103.1419,97.9526,102.5921,85758.24702071343,835.91472463
1668124800000,2022-11-11 00:00:00,BCH/USDT,102.8127,106.6908,99.5509,103.0374,54330.54115404566,527.28951967
1668038400000,2022-11-10 00:00:00,BCH/USDT,90.3575,106.2968,89.0898,103.5743,62522.469071751155,603.64848299
1667952000000,2022-11-09 00:00:00,BCH/USDT,103.0468,103.9992,87.7715,89.5599,105526.52251457522,1178.27869967
1667865600000,2022-11-08 00:00:00,BCH/USDT,117.6265,118.7779,94.5133,103.1859,90995.32136789423,881.85809658
1667779200000,2022-11-07 00:00:00,BCH/USDT,116.6278,119.395,115.3992,117.834,45839.05032165822,389.01378483
1667692800000,2022-11-06 00:00:00,BCH/USDT,123.8294,124.1877,116.363,116.6085,41713.51709597819,357.72278261
1667606400000,2022-11-05 00:00:00,BCH/USDT,124.458,125.9086,122.3801,123.8754,49155.18829290492,396.81154041
1667520000000,2022-11-04 00:00:00,BCH/USDT,115.3977,124.5481,115.0694,124.4832,50692.491904026625,407.22356032
1667433600000,2022-11-03 00:00:00,BCH/USDT,113.4039,119.9674,113.219,115.6751,41767.76989817149,361.07831243
1667347200000,2022-11-02 00:00:00,BCH/USDT,114.9418,121.6958,112.0515,113.6667,54373.90405495174,478.36265199
1667260800000,2022-11-01 00:00:00,BCH/USDT,116.424,116.4917,113.9592,114.9171,41669.12858274022,362.60163703
1667174400000,2022-10-31 00:00:00,BCH/USDT,116.1362,117.8969,113.6478,114.8385,41866.69785026883,364.57022558
1667088000000,2022-10-30 00:00:00,BCH/USDT,118.4921,120.0902,114.4455,116.1159,44635.556374610795,384.40520527
1667001600000,2022-10-29 00:00:00,BCH/USDT,115.7047,120.5682,115.3181,118.5764,45366.92139608492,382.59654869
1666915200000,2022-10-28 00:00:00,BCH/USDT,112.399,116.0,111.1689,115.5759,47126.7957546734,407.75625156
1666828800000,2022-10-27 00:00:00,BCH/USDT,114.4716,116.7567,111.7077,112.3509,46269.52639667858,411.83049176
1666742400000,2022-10-26 00:00:00,BCH/USDT,112.8607,116.1681,112.1416,114.4743,45268.88065841651,395.45016356
1666656000000,2022-10-25 00:00:00,BCH/USDT,108.0038,114.1867,107.8412,112.7041,50520.25730198207,448.25571831
1666569600000,2022-10-24 00:00:00,BCH/USDT,110.8571,111.0344,107.5,107.9833,41123.24898797761,380.82971152
1666483200000,2022-10-23 00:00:00,BCH/USDT,108.6413,111.0,107.7996,110.9319,39448.33947916976,355.60861645
1666396800000,2022-10-22 00:00:00,BCH/USDT,107.0745,110.3831,106.1954,108.5953,38043.86843445205,350.32702552
1666310400000,2022-10-21 00:00:00,BCH/USDT,106.3241,107.3427,103.1506,107.0294,39182.98563460869,366.09553669
1666224000000,2022-10-20 00:00:00,BCH/USDT,105.8539,108.9554,105.1162,106.446,40097.868086934184,376.69680483
1666137600000,2022-10-19 00:00:00,BCH/USDT,108.6446,108.9029,105.2008,105.9502,35116.080712162366,331.43949433
1666051200000,2022-10-18 00:00:00,BCH/USDT,110.6832,111.419,107.0136,108.6623,42806.50320692262,393.94070627
1665964800000,2022-10-17 00:00:00,BCH/USDT,110.2077,111.4953,109.321,110.556,39813.46688388924,360.12036329
1665878400000,2022-10-16 00:00:00,BCH/USDT,107.8361,110.9541,107.8361,110.2136,36392.196644944226,330.19696884
1665792000000,2022-10-15 00:00:00,BCH/USDT,107.5386,109.4664,106.7328,107.9428,38216.01665365224,354.03951587
1665705600000,2022-10-14 00:00:00,BCH/USDT,108.9096,111.6453,106.7021,107.5351,39116.27963522209,363.75359892
1665619200000,2022-10-13 00:00:00,BCH/USDT,111.8479,112.96,100.6337,108.9079,63091.7825448165,579.31318614
1665532800000,2022-10-12 00:00:00,BCH/USDT,111.1622,112.6901,110.7237,111.7603,38771.78642452402,346.9191334
1665446400000,2022-10-11 00:00:00,BCH/USDT,111.447,112.3457,109.3877,111.1933,41472.42850135452,372.97596619
1665360000000,2022-10-10 00:00:00,BCH/USDT,117.228,117.9855,110.8406,111.5251,50668.5073411356,454.32380102
1665273600000,2022-10-09 00:00:00,BCH/USDT,116.9696,118.5372,116.4094,117.2272,44397.64367609629,378.73158854
1665187200000,2022-10-08 00:00:00,BCH/USDT,116.6608,118.5823,115.6171,116.9652,41320.2380430543,353.26950275
1665100800000,2022-10-07 00:00:00,BCH/USDT,118.2932,120.1993,115.5673,116.7053,42569.68099350022,364.76219155
1665014400000,2022-10-06 00:00:00,BCH/USDT,122.0541,123.7687,117.8786,118.2885,42297.0097487421,357.5749946
1664928000000,2022-10-05 00:00:00,BCH/USDT,121.135,123.6189,118.8838,122.0029,46301.84407636349,379.51429086
1664841600000,2022-10-04 00:00:00,BCH/USDT,116.3168,121.8745,115.5783,121.0379,45782.09507207992,378.2459467
1664755200000,2022-10-03 00:00:00,BCH/USDT,114.33,116.4409,113.7665,116.2293,43400.98876473957,373.40832961
1664668800000,2022-10-02 00:00:00,BCH/USDT,117.138,118.5541,113.7813,114.2717,46905.31536802068,410.47184358
1664582400000,2022-10-01 00:00:00,BCH/USDT,119.9287,121.0011,115.8841,117.1204,42478.818754013424,362.69359355
1664496000000,2022-09-30 00:00:00,BCH/USDT,116.5605,124.5246,115.384,120.031,51024.845610529075,425.09722997
1664409600000,2022-09-29 00:00:00,BCH/USDT,113.9864,117.728,113.6593,116.8608,48942.11205446371,418.80692289
1664323200000,2022-09-28 00:00:00,BCH/USDT,114.3843,115.8049,110.3,114.1438,45788.19228908814,401.14480409
1664236800000,2022-09-27 00:00:00,BCH/USDT,116.3215,120.4066,112.4498,114.2811,45967.99965393378,402.23623726
1664150400000,2022-09-26 00:00:00,BCH/USDT,113.409,117.4801,112.3977,116.3326,44844.34563875851,385.48391112
1664064000000,2022-09-25 00:00:00,BCH/USDT,117.5791,118.5305,112.0429,113.4546,39699.48804925043,349.91519118
1663977600000,2022-09-24 00:00:00,BCH/USDT,120.0978,121.9766,117.3045,117.3822,44681.64645839785,380.65095439
1663891200000,2022-09-23 00:00:00,BCH/USDT,116.4461,120.5199,112.5928,120.1546,42235.93027171924,351.5132194
1663804800000,2022-09-22 00:00:00,BCH/USDT,108.8085,117.1,108.7403,116.4857,48670.52038992923,417.82399376
1663718400000,2022-09-21 00:00:00,BCH/USDT,112.6227,118.8738,108.6447,109.1006,52455.25352729692,480.79711319
1663632000000,2022-09-20 00:00:00,BCH/USDT,112.0866,114.7156,110.9059,112.6617,42707.292380896426,379.07551884
1663545600000,2022-09-19 00:00:00,BCH/USDT,111.6101,113.2594,106.7228,111.9258,42431.66740607319,379.10533055
1663459200000,2022-09-18 00:00:00,BCH/USDT,122.2441,122.2441,111.0,111.8358,71420.72759259964,638.62133228
1663372800000,2022-09-17 00:00:00,BCH/USDT,119.5352,123.3507,119.1921,122.2093,43787.48232872767,358.29910104
1663286400000,2022-09-16 00:00:00,BCH/USDT,117.4342,120.8865,116.153,119.4861,43263.84705265802,362.08267784
1663200000000,2022-09-15 00:00:00,BCH/USDT,119.8874,122.8568,116.1565,117.5714,60543.95425081347,514.95477855
1663113600000,2022-09-14 00:00:00,BCH/USDT,117.546,120.7018,116.2168,120.0496,39324.48250344116,327.56862583
1663027200000,2022-09-13 00:00:00,BCH/USDT,128.8261,133.638,116.3446,117.4476,76811.93281208613,654.01023786
1662940800000,2022-09-12 00:00:00,BCH/USDT,130.3266,132.89,126.4746,128.997,62297.23040067682,482.93549773
1662854400000,2022-09-11 00:00:00,BCH/USDT,132.6943,133.12,127.5869,130.3938,61694.20113736176,473.1375352
1662768000000,2022-09-10 00:00:00,BCH/USDT,132.6899,134.8294,130.5956,132.6762,48773.48082133577,367.61288627
1662681600000,2022-09-09 00:00:00,BCH/USDT,126.5816,138.6546,126.1016,132.7164,80930.80376933221,609.80258483
1662595200000,2022-09-08 00:00:00,BCH/USDT,118.6678,130.0,115.9953,126.5447,87775.41254226516,693.63167752
1662508800000,2022-09-07 00:00:00,BCH/USDT,112.2195,119.2813,110.5426,118.6414,49111.170494234066,413.94631633
1662422400000,2022-09-06 00:00:00,BCH/USDT,125.7788,127.8411,111.9567,112.2015,54501.34241178747,485.74522098
1662336000000,2022-09-05 00:00:00,BCH/USDT,118.3102,126.2322,117.178,125.6259,53585.62364434243,426.54917214
1662249600000,2022-09-04 00:00:00,BCH/USDT,117.6952,118.2614,115.9747,118.2614,46675.24928046464,394.67864646
1662163200000,2022-09-03 00:00:00,BCH/USDT,116.409,119.104,115.9097,117.6451,42210.22882445884,358.79291891
1662076800000,2022-09-02 00:00:00,BCH/USDT,116.6965,120.1136,114.815,116.3951,48486.68362575189,416.56980084
1661990400000,2022-09-01 00:00:00,BCH/USDT,115.0523,117.1112,113.1626,116.7005,89920.12888111845,770.52051089
1661904000000,2022-08-31 00:00:00,BCH/USDT,114.4884,117.8908,114.3505,115.1352,40700.954436421176,353.50574313
1661817600000,2022-08-30 00:00:00,BCH/USDT,119.4392,120.7117,111.8701,114.5415,43389.22924372435,378.80793637
1661731200000,2022-08-29 00:00:00,BCH/USDT,112.5272,119.7738,111.0,119.5416,43976.06783892634,367.87250496
1661644800000,2022-08-28 00:00:00,BCH/USDT,115.2961,120.9,111.9497,112.2841,45581.584069729404,405.94869683
1661558400000,2022-08-27 00:00:00,BCH/USDT,116.0454,118.3512,113.4362,115.284,41018.35190483472,355.80264308
1661472000000,2022-08-26 00:00:00,BCH/USDT,130.5871,130.5871,115.0,116.0296,64601.4579016282,556.76704825
1661385600000,2022-08-25 00:00:00,BCH/USDT,130.5535,132.6292,128.68,130.5967,49220.379439441225,376.88838569
1661299200000,2022-08-24 00:00:00,BCH/USDT,133.4155,138.5602,130.6778,130.6778,55750.77529368113,426.62774621
1661212800000,2022-08-23 00:00:00,BCH/USDT,122.815,135.5411,120.3771,133.4037,61816.304558731375,463.37773659
1661126400000,2022-08-22 00:00:00,BCH/USDT,119.6074,121.4299,118.4306,118.7554,7505.458602022321,63.20098793
1661040000000,2022-08-21 00:00:00,BCH/USDT,114.5642,120.4225,114.4061,119.464,51166.418686146004,428.29989525
1660953600000,2022-08-20 00:00:00,BCH/USDT,114.3851,118.1291,111.5242,114.6164,51613.60336476367,450.31603998
1660867200000,2022-08-19 00:00:00,BCH/USDT,129.0092,129.0291,113.6705,114.3556,90532.38131431366,791.67422771
1660780800000,2022-08-18 00:00:00,BCH/USDT,133.7026,136.2004,127.6814,129.0049,65850.3429885113,510.44838598
1660694400000,2022-08-17 00:00:00,BCH/USDT,136.5128,144.7169,132.5904,133.6519,63283.604068654604,473.49573084
1660608000000,2022-08-16 00:00:00,BCH/USDT,137.1646,138.2686,134.8361,136.5346,51952.459172553616,380.50764548
1660521600000,2022-08-15 00:00:00,BCH/USDT,139.4433,143.2435,134.034,137.2033,54775.79015177869,399.23085051
1660435200000,2022-08-14 00:00:00,BCH/USDT,144.2191,147.4762,138.4247,139.4667,63107.405098326875,452.49084619
1660348800000,2022-08-13 00:00:00,BCH/USDT,142.9538,146.8199,142.6428,144.2311,52651.32959965692,365.04838138
1660262400000,2022-08-12 00:00:00,BCH/USDT,142.6696,143.2285,138.6628,142.9641,49000.4656547484,342.74664517
1660176000000,2022-08-11 00:00:00,BCH/USDT,142.0683,148.2983,141.8069,142.7378,57707.797773903694,404.29233023
1660089600000,2022-08-10 00:00:00,BCH/USDT,134.5739,149.8896,132.3326,142.1026,54318.387915781015,382.24767116
1660003200000,2022-08-09 00:00:00,BCH/USDT,143.4451,144.1499,142.8935,142.9213,2739.518121014837,19.16801849
1659916800000,2022-08-08 00:00:00,BCH/USDT,140.9678,147.964,140.43,143.4635,51486.302430885014,358.88084726
1659830400000,2022-08-07 00:00:00,BCH/USDT,141.3386,143.6929,138.1696,141.0534,50318.874018831644,356.73634254
1659744000000,2022-08-06 00:00:00,BCH/USDT,141.8544,143.5008,139.2872,141.4227,56617.3220435411,400.34111952
1659657600000,2022-08-05 00:00:00,BCH/USDT,134.5109,141.8959,134.0838,141.8875,55072.91963944962,388.14497147
1659571200000,2022-08-04 00:00:00,BCH/USDT,133.7408,138.4443,132.6107,134.5303,51456.5313056116,382.49027398
1659484800000,2022-08-03 00:00:00,BCH/USDT,133.6767,142.7494,130.4598,133.7778,52797.55992638845,394.66608007
1659398400000,2022-08-02 00:00:00,BCH/USDT,137.9464,138.753,128.9049,133.6568,57205.21555315084,428.00078674
1659312000000,2022-08-01 00:00:00,BCH/USDT,139.354,142.2375,133.9663,138.0096,59817.05276528563,433.42675267
1659225600000,2022-07-31 00:00:00,BCH/USDT,145.3624,150.1655,138.7778,139.4609,53586.98361946936,384.24378173
1659139200000,2022-07-30 00:00:00,BCH/USDT,152.005,154.3758,143.5451,145.1883,55677.518448991934,383.48488445
1659052800000,2022-07-29 00:00:00,BCH/USDT,155.7655,164.5505,147.6431,151.9969,71894.33239834558,472.99867562
1658966400000,2022-07-28 00:00:00,BCH/USDT,127.383,159.0,127.3215,155.829,93287.07905570116,598.65030935
1658880000000,2022-07-27 00:00:00,BCH/USDT,118.9752,127.2759,116.334,127.183,50070.53341262547,393.68888462
1658793600000,2022-07-26 00:00:00,BCH/USDT,118.1169,118.993,113.8161,118.9873,41507.7156960613,348.84156289
1658707200000,2022-07-25 00:00:00,BCH/USDT,132.0388,132.8363,117.865,118.0931,59380.86933414041,502.8309811
1658620800000,2022-07-24 00:00:00,BCH/USDT,122.561,134.8116,122.561,131.9552,53733.10661618598,407.20719317
1658534400000,2022-07-23 00:00:00,BCH/USDT,123.2849,126.8147,118.386,122.548,40704.26136591404,332.14953623
1658448000000,2022-07-22 00:00:00,BCH/USDT,123.0697,129.2399,119.9335,123.3565,47952.547889853224,388.73142388
1658361600000,2022-07-21 00:00:00,BCH/USDT,121.6629,124.1693,117.6898,123.0267,46631.90204169959,379.03887564
1658275200000,2022-07-20 00:00:00,BCH/USDT,128.3163,131.113,120.035,121.7369,47314.38748338157,388.66101801
1658188800000,2022-07-19 00:00:00,BCH/USDT,121.3841,129.3394,116.0308,128.3156,57173.061572242,445.565945
1658102400000,2022-07-18 00:00:00,BCH/USDT,110.1932,122.0315,110.1932,121.4355,51384.33559273956,423.14097272
1658016000000,2022-07-17 00:00:00,BCH/USDT,109.5392,116.0352,108.076,110.1781,52343.944552764886,475.08483585
1657929600000,2022-07-16 00:00:00,BCH/USDT,106.1606,110.5176,103.8832,109.546,43408.27623747742,396.25615027
1657843200000,2022-07-15 00:00:00,BCH/USDT,102.9748,106.8211,102.029,106.036,38052.86844467584,358.86744544
1657756800000,2022-07-14 00:00:00,BCH/USDT,102.5279,104.0254,99.1807,102.9795,36494.07187201074,354.38190972
1657670400000,2022-07-13 00:00:00,BCH/USDT,97.4504,102.5539,95.734,102.5539,46117.173251136635,449.68717183
1657584000000,2022-07-12 00:00:00,BCH/USDT,99.0224,100.9593,97.1,97.3478,36818.68048269957,378.21789997
1657497600000,2022-07-11 00:00:00,BCH/USDT,106.7983,107.2149,98.6793,99.1856,41364.68245193462,417.04322454
1657411200000,2022-07-10 00:00:00,BCH/USDT,111.4676,111.4956,105.5254,106.8776,42171.264645510404,394.57533333
1657324800000,2022-07-09 00:00:00,BCH/USDT,108.485,112.9133,108.485,111.5549,42006.37024414345,376.5533405
1657238400000,2022-07-08 00:00:00,BCH/USDT,111.6488,113.2087,107.1225,108.4762,45426.23175220291,418.76680555
1657152000000,2022-07-07 00:00:00,BCH/USDT,106.0297,112.3246,105.0958,111.6334,41862.92132312935,375.00355022
1657065600000,2022-07-06 00:00:00,BCH/USDT,103.9845,107.1402,102.9856,106.139,38545.343512174506,363.15909809
1656979200000,2022-07-05 00:00:00,BCH/USDT,108.0917,108.486,101.9159,104.0274,38966.0026789384,374.57441673
1656892800000,2022-07-04 00:00:00,BCH/USDT,105.6334,112.1606,102.6973,108.0692,38934.49807462462,360.27376972
1656806400000,2022-07-03 00:00:00,BCH/USDT,106.5307,107.8489,101.8709,105.6934,36810.685724219045,348.27799772
1656720000000,2022-07-02 00:00:00,BCH/USDT,101.3461,106.9293,100.6817,106.5348,39954.717694643405,375.0391205
1656633600000,2022-07-01 00:00:00,BCH/USDT,103.0913,106.1703,98.4253,101.3098,37259.69891611636,367.77980922
1656547200000,2022-06-30 00:00:00,BCH/USDT,104.535,104.7861,96.1363,103.0089,53484.67488677693,519.22382325
1656460800000,2022-06-29 00:00:00,BCH/USDT,103.121,107.7466,101.554,104.4495,46664.88035545395,446.7697821
1656374400000,2022-06-28 00:00:00,BCH/USDT,111.5472,112.1091,110.8504,111.8463,2685.239500802277,24.00829979
1656288000000,2022-06-27 00:00:00,BCH/USDT,113.011,116.9615,110.4623,111.4085,45754.84385160703,410.69437118
1656201600000,2022-06-26 00:00:00,BCH/USDT,115.4773,119.3067,112.6577,113.0347,46052.48152639578,407.41897423
1656115200000,2022-06-25 00:00:00,BCH/USDT,114.2435,116.0851,111.2113,115.4429,49484.18639972108,428.6464252
1656028800000,2022-06-24 00:00:00,BCH/USDT,116.341,120.9412,113.8366,114.3007,56805.058786768604,496.979098
1655942400000,2022-06-23 00:00:00,BCH/USDT,112.8412,118.2653,112.0,116.2038,41499.48907231505,357.12678133
1655856000000,2022-06-22 00:00:00,BCH/USDT,119.333,119.333,112.6,112.8902,49782.08934362766,440.9779533
1655769600000,2022-06-21 00:00:00,BCH/USDT,118.9034,122.9572,114.3601,119.3178,55802.478891155224,467.6794149
1655683200000,2022-06-20 00:00:00,BCH/USDT,120.6327,124.4697,116.2771,118.7357,54627.173312655796,460.07370414
1655596800000,2022-06-19 00:00:00,BCH/USDT,116.0185,123.6268,111.2793,120.5,63407.456240175,526.20295635
1655510400000,2022-06-18 00:00:00,BCH/USDT,121.2166,124.7009,109.399,115.6388,83463.68279555341,721.76192416
1655424000000,2022-06-17 00:00:00,BCH/USDT,109.3405,130.1619,106.999,121.3786,77646.48324764783,639.70488412
1655337600000,2022-06-16 00:00:00,BCH/USDT,128.2,130.4464,105.0,109.3152,60419.24524460928,552.7067164
1655251200000,2022-06-15 00:00:00,BCH/USDT,125.9826,130.7798,110.519,128.0681,98255.93634144543,767.21631961
1655164800000,2022-06-14 00:00:00,BCH/USDT,126.8278,134.9986,115.0002,126.1333,64801.724522406665,513.75587987
1655078400000,2022-06-13 00:00:00,BCH/USDT,146.2122,148.7916,120.7544,126.8646,94765.35367397498,746.98027404
1654992000000,2022-06-12 00:00:00,BCH/USDT,156.9473,158.1793,146.2509,146.255,61515.8952511563,420.60712626
1654905600000,2022-06-11 00:00:00,BCH/USDT,167.5904,169.582,155.0761,156.7744,63209.100156676104,403.18508734
1654819200000,2022-06-10 00:00:00,BCH/USDT,175.4609,177.1111,166.1801,167.6662,79052.92204601062,471.48991297
1654732800000,2022-06-09 00:00:00,BCH/USDT,177.0518,180.4439,173.0,175.4562,67445.52106951522,384.40089931
1654646400000,2022-06-08 00:00:00,BCH/USDT,181.8986,182.7545,175.2988,176.968,70313.34960543872,397.32239504
1654560000000,2022-06-07 00:00:00,BCH/USDT,185.7071,187.9065,173.1021,181.912,86884.76206829608,477.61973959
1654473600000,2022-06-06 00:00:00,BCH/USDT,180.0416,188.9305,179.2794,185.6439,77148.75311093107,415.5738654
1654387200000,2022-06-05 00:00:00,BCH/USDT,188.6216,190.33,178.4498,179.729,93094.14819873807,517.96954414
1654300800000,2022-06-04 00:00:00,BCH/USDT,183.294,189.6569,180.2696,188.7573,69086.43234767542,366.00667814
1654214400000,2022-06-03 00:00:00,BCH/USDT,189.1148,191.3888,180.5863,183.2682,73157.61707588553,399.18336665
1654128000000,2022-06-02 00:00:00,BCH/USDT,186.0838,189.6569,182.6671,189.0723,71685.85562568004,379.14520332
1654041600000,2022-06-01 00:00:00,BCH/USDT,205.0666,210.4572,184.9723,185.9074,91668.15237212232,493.08501099
1653955200000,2022-05-31 00:00:00,BCH/USDT,197.0216,211.0123,192.1424,204.6244,110089.70799295086,538.00870274
1653868800000,2022-05-30 00:00:00,BCH/USDT,185.2918,199.8899,184.8073,196.8629,76176.40150885358,386.95153586
1653782400000,2022-05-29 00:00:00,BCH/USDT,178.9655,186.014,175.7005,185.3884,65225.774893920425,351.83309686
1653696000000,2022-05-28 00:00:00,BCH/USDT,174.8457,180.3044,173.207,179.0135,62268.239924952446,347.84102833
1653609600000,2022-05-27 00:00:00,BCH/USDT,179.8045,184.3301,171.9878,174.7434,72151.77871444124,412.90130966
1653523200000,2022-05-26 00:00:00,BCH/USDT,190.268,192.6525,172.8001,179.5593,83817.47181360949,466.79549215
1653436800000,2022-05-25 00:00:00,BCH/USDT,195.6519,201.0184,189.7,190.3349,75203.40714467116,395.11097095
1653350400000,2022-05-24 00:00:00,BCH/USDT,191.958,197.1029,183.7581,195.6316,63695.53314360021,325.58918469
1653264000000,2022-05-23 00:00:00,BCH/USDT,198.1998,207.7135,189.1393,191.7933,84487.4283110529,440.51292882
1653177600000,2022-05-22 00:00:00,BCH/USDT,192.3537,202.1412,190.5023,198.1025,69247.85951926542,349.55570737
1653091200000,2022-05-21 00:00:00,BCH/USDT,190.2111,195.5083,186.881,192.3422,68482.4809686559,356.04501232
1653004800000,2022-05-20 00:00:00,BCH/USDT,196.6037,200.2194,186.4362,190.3272,79848.44664875686,419.53250323
1652918400000,2022-05-19 00:00:00,BCH/USDT,186.8458,198.2772,181.199,196.6438,80791.01461457052,410.84953919
1652832000000,2022-05-18 00:00:00,BCH/USDT,206.9691,209.0004,186.501,186.501,80634.84514784077,432.35610076
1652745600000,2022-05-17 00:00:00,BCH/USDT,197.5049,214.4996,194.3883,206.8406,121892.86998791211,589.3082402
1652659200000,2022-05-16 00:00:00,BCH/USDT,214.5466,214.5466,196.1329,197.4298,86238.62641532034,436.80653283
1652572800000,2022-05-15 00:00:00,BCH/USDT,209.0396,216.106,202.9436,214.7632,94125.45323203113,438.27552035
1652486400000,2022-05-14 00:00:00,BCH/USDT,202.5001,236.643,186.9382,209.1,109733.42251248899,524.78920379
1652400000000,2022-05-13 00:00:00,BCH/USDT,194.1175,221.5893,191.9822,202.1992,118874.20892309154,587.90642556
1652313600000,2022-05-12 00:00:00,BCH/USDT,194.6,226.601,157.9,193.8848,242336.5563752852,1249.89971558
1652227200000,2022-05-11 00:00:00,BCH/USDT,231.2767,249.2917,183.95,194.5,166628.12076664998,856.6998497
1652140800000,2022-05-10 00:00:00,BCH/USDT,218.184,243.8073,210.8951,231.4832,98371.2174992562,424.96050469
1652054400000,2022-05-09 00:00:00,BCH/USDT,261.8272,266.2255,216.5009,217.0143,105648.15782395283,486.82578901
1651968000000,2022-05-08 00:00:00,BCH/USDT,268.6023,269.617,260.2402,261.7346,87005.83653466601,332.42007948
1651881600000,2022-05-07 00:00:00,BCH/USDT,275.0445,277.1591,264.27,268.4455,95402.95965785482,355.39042248
1651795200000,2022-05-06 00:00:00,BCH/USDT,277.2087,277.9936,266.001,275.0032,93746.54303567081,340.89255338
1651708800000,2022-05-05 00:00:00,BCH/USDT,299.6855,302.4974,272.7159,277.2436,99188.66845003226,357.76720707
1651622400000,2022-05-04 00:00:00,BCH/USDT,279.4675,299.9832,278.6688,299.6118,105916.71516802248,353.51316326
1651536000000,2022-05-03 00:00:00,BCH/USDT,284.833,289.5092,276.405,279.5219,95102.39880858189,340.23237109
1651449600000,2022-05-02 00:00:00,BCH/USDT,283.9849,289.2489,280.0097,284.8797,102327.02785153301,359.19382059
1651363200000,2022-05-01 00:00:00,BCH/USDT,278.0252,287.4043,265.1252,283.9704,105446.34452795755,371.32864738
1651276800000,2022-04-30 00:00:00,BCH/USDT,294.8959,297.8379,267.3021,277.9966,101253.21006338227,364.22463463
1651190400000,2022-04-29 00:00:00,BCH/USDT,306.3546,308.5514,291.3426,294.5321,101034.96794790664,343.03550597
1651104000000,2022-04-28 00:00:00,BCH/USDT,307.1802,312.3683,303.3246,306.3725,104425.01856772965,340.84331514
1651017600000,2022-04-27 00:00:00,BCH/USDT,295.9617,309.2701,294.0412,307.0547,102258.30768668118,333.02961227
1650931200000,2022-04-26 00:00:00,BCH/USDT,314.4929,321.3607,292.0184,296.0784,101448.04303396873,342.63912205
1650844800000,2022-04-25 00:00:00,BCH/USDT,307.4459,315.2455,300.001,314.477,110127.55855784846,350.19272811
1650758400000,2022-04-24 00:00:00,BCH/USDT,312.5587,313.6996,312.3282,312.7623,5249.669973816173,16.78485538
1650672000000,2022-04-23 00:00:00,BCH/USDT,320.9501,323.6186,312.3693,312.6128,106939.07670708655,342.0815677
1650585600000,2022-04-22 00:00:00,BCH/USDT,315.3746,334.3393,314.6145,320.9466,112865.62913060689,351.66482253
1650499200000,2022-04-21 00:00:00,BCH/USDT,330.609,335.3169,330.4262,333.4977,5421.67634432079,16.2570127
1650412800000,2022-04-20 00:00:00,BCH/USDT,340.999,344.4942,329.4111,330.2085,126530.80273335574,383.18457197
1650326400000,2022-04-19 00:00:00,BCH/USDT,340.253,342.4573,333.0775,340.4286,113648.1978417478,333.83857244
1650240000000,2022-04-18 00:00:00,BCH/USDT,328.2775,340.599,312.8682,340.2385,122276.35092716641,359.38422879
1650153600000,2022-04-17 00:00:00,BCH/USDT,342.9238,348.25,327.7247,328.1309,114530.07386996335,349.03775862
1650067200000,2022-04-16 00:00:00,BCH/USDT,340.6394,347.1821,339.3274,342.8885,117969.64983973355,344.04667943
1649980800000,2022-04-15 00:00:00,BCH/USDT,337.712,344.4628,333.659,340.6488,120816.66203472234,354.66633681
1649894400000,2022-04-14 00:00:00,BCH/USDT,341.2648,352.3581,332.6001,337.717,121423.92798194542,359.54342832
1649808000000,2022-04-13 00:00:00,BCH/USDT,304.9828,349.499,301.6479,341.2742,152165.86473897967,445.87567633
1649721600000,2022-04-12 00:00:00,BCH/USDT,294.885,307.009,293.6801,304.8583,107846.18123370784,353.7583895
1649635200000,2022-04-11 00:00:00,BCH/USDT,319.8196,320.4497,291.2497,294.5244,108778.62948310122,369.33656255
1649548800000,2022-04-10 00:00:00,BCH/USDT,325.7711,326.1792,325.4649,326.0588,4340.532989036652,13.31211729
1649462400000,2022-04-09 00:00:00,BCH/USDT,323.0441,327.1217,321.8269,326.1354,114104.05492505405,349.86712551
1649376000000,2022-04-08 00:00:00,BCH/USDT,336.2257,338.0835,321.2879,323.0086,138486.7106977141,428.74001094
1649289600000,2022-04-07 00:00:00,BCH/USDT,330.5353,339.74,327.2241,336.2257,121520.67248343796,361.42588887
1649203200000,2022-04-06 00:00:00,BCH/USDT,365.4503,367.7248,329.4955,330.6013,155064.3180062351,469.03723006
1649116800000,2022-04-05 00:00:00,BCH/USDT,375.8276,381.3944,365.3166,365.3975,120565.07021846072,329.95592531
